Koht	Nkoht	Nr	Nimi	Sünd	Klubi	Aeg	Kaotus	Vkl	Koht	Tempo	Start
1	 	1	Loskutov Pavel	1969	TÜ ASK	00:44:27	 	M40	1	3:10.5	12:00:21
2	 	615	Koshelev Vjatseslav	1968	KJK Kalev Sillamäe	00:44:41	13.8	M40	2	3:11.5	12:00:20
3	 	305	Püi Taivo	1981	Sportkeskus.ee	00:45:15	47.7	M21	1	3:13.9	12:00:20
4	 	1035	Tðerepannikov Sergei	1983	Stamina SK	00:45:52	1:25	M21	2	3:16.6	12:00:21
5	 	555	Jürs Sander	1985	Sportkeskus.ee	00:45:55	1:28	M21	3	3:16.8	12:00:19
6	 	2	Markov Aleksei	1986	Sportkeskus.ee	00:46:01	1:34	M21	4	3:17.2	12:00:21
7	 	3	Tambur Taavi	1983	Stamina SK	00:46:09	1:42	M21	5	3:17.8	12:00:21
8	 	4	Sasmin Kaupo	1986	Sportkeskus.ee	00:46:28	2:00	M21	6	3:19.1	12:00:19
9	 	5	Lipp Ralf	1985	SK EMÜ	00:46:53	2:26	M21	7	3:20.9	12:00:19
10	 	7	Lein Andrus	1974	Rakvere KJK "ViKe"	00:47:15	2:48	M35	1	3:22.5	12:00:20
11	 	9	Nõmm Marek	1979	Kaitsejõudude SK	00:47:26	2:58	M21	8	3:23.3	12:00:21
12	 	10	Malahhov Sergei	1985	 	00:48:22	3:55	M21	9	3:27.3	12:00:20
13	 	878	Reinsalu Kristo	1977	Sportkeskus.ee	00:48:29	4:02	M21	10	3:27.8	12:00:20
14	 	1164	Simpson Martin	1987	Sportkeskus.ee	00:49:19	4:52	M21	11	3:31.4	12:00:27
15	 	8	Nikolajev Ilja	1981	Stamina SK	00:49:27	5:00	M21	12	3:31.9	12:00:23
16	 	747	Morozov Nikolai	1992	KJK Kalev Sillamäe	00:49:41	5:14	M18	1	3:32.9	12:00:21
17	 	13	Kallaste Jaanus	1986	adidas	00:49:43	5:16	M21	13	3:33.1	12:00:19
18	 	11	Veilberg Ago	1963	SK West Sport	00:49:49	5:22	M40	3	3:33.5	12:00:22
19	 	15	Kruut Taavi	1993	Audentes	00:50:05	5:38	M18	2	3:34.6	12:00:20
20	 	14	Orm Olari	1987	 	00:50:12	5:45	M21	14	3:35.1	12:00:21
21	 	1061	Vaine Heinar	1993	VAK Staier	00:50:16	5:48	M18	3	3:35.4	12:00:23
22	 	624	Kruuse Kristian	1984	Merevägi	00:50:22	5:54	M21	15	3:35.8	12:00:26
23	 	16	Luik Lauri	1982	Läänemaa KJK	00:50:32	6:05	M21	16	3:36.6	12:00:23
24	 	17	Kaar Alar	1979	VAK Staier	00:50:41	6:14	M21	17	3:37.2	12:00:24
25	 	516	Hodõrev Mart	1994	KJK Kalev Sillamäe	00:50:50	6:23	M16	1	3:37.9	12:00:21
26	 	12	Kilk Ain	1967	Eesti Worldloppeti Klubi	00:50:54	6:26	M40	4	3:38.1	12:00:20
27	 	526	Jaaska Allan Peeter	1970	Stamina SK	00:50:55	6:28	M40	5	3:38.2	12:00:23
28	 	19	Kuusalu Asko	1977	Stamina SK	00:50:57	6:29	M21	18	3:38.3	12:00:23
29	 	910	Salla Raimo	1987	Türi Jõud	00:51:19	6:52	M21	19	3:40.0	12:00:21
30	 	944	Sokk Harri	1986	TTÜ SK	00:51:31	7:03	M21	20	3:40.8	12:00:25
31	 	1134	Tiits Rainis	1978	 	00:51:44	7:17	M21	21	3:41.7	12:00:21
32	 	58	Ots Indrek	1988	IT Kolledþ	00:52:04	7:36	M21	22	3:43.1	12:00:20
33	 	894	Rosen Ulf	1969	21 CC	00:52:11	7:43	M40	6	3:43.6	12:00:23
34	 	23	Laineste Andres	1971	Stamina SK	00:52:23	7:56	M35	2	3:44.5	12:00:25
35	 	20	Bauman Jaanus	1976	 	00:52:36	8:09	M21	23	3:45.4	12:00:23
36	 	18	Teder Martin	1992	EMÜ SK	00:52:39	8:12	M18	4	3:45.6	12:00:22
37	 	40	Järvi Esko	1985	 	00:52:40	8:12	M21	24	3:45.7	12:00:26
38	 	24	Jakson Ahto	1971	Jooksuklubi Sarma	00:52:41	8:13	M35	3	3:45.8	12:00:27
39	 	27	Veelain Karli	1993	 	00:52:49	8:21	M18	5	3:46.3	12:00:19
40	 	661	Laanemets Raivo	1968	 	00:52:56	8:28	M40	7	3:46.8	12:00:25
41	 	21	Pähn Janar	1976	VAK Staier	00:53:03	8:36	M21	25	3:47.4	12:00:23
42	 	1037	Tubilis Taavi	1988	KJK JUUNIOR	00:53:07	8:40	M21	26	3:47.7	12:00:27
43	 	791	Osjamets Madis	1981	ELUJOOKS	00:53:22	8:54	M21	27	3:48.7	12:00:24
44	 	826	Poll Cris	1990	Pioneerikompanii	00:53:36	9:08	M21	28	3:49.7	 
45	 	31	Einsalu Ants	1959	ALBE TEAM	00:53:42	9:15	M50	1	3:50.2	12:00:26
46	 	22	Tilga Kajar	1967	 	00:54:05	9:37	M40	8	3:51.8	12:00:25
47	 	1060	Vaher Vladimir	1992	Tallinna SS Kalev	00:54:10	9:42	M18	6	3:52.1	12:00:20
48	 	476	Eller Villu	1992	Nõmme KJK	00:54:12	9:44	M18	7	3:52.3	12:00:25
49	 	974	Talihärm Johan	1994	Eesti Raudtee Spordiklubi	00:54:16	9:48	M16	2	3:52.5	12:00:22
50	 	65	Lään Christjan	1974	 	00:54:17	9:50	M35	4	3:52.7	12:00:23
51	1	1063	Valdre Sigrid	1972	SS Marathon	00:54:19	9:52	N35	1	3:52.8	12:00:23
52	 	45	Leino Peep	1978	Tabasalu Triatloniklubi	00:54:20	9:52	M21	29	3:52.8	12:00:20
53	 	844	Puusild Kristjan	1980	VAK Staier	00:54:23	9:56	M21	30	3:53.1	 
54	 	38	Einasto Mart	1969	 	00:54:25	9:58	M40	9	3:53.2	12:00:24
55	2	25	Kärner Evelin	1977	Nõmme KJK	00:54:26	9:59	N21	1	3:53.3	12:00:25
56	 	987	Tarm Toomas	1968	Sportkeskus.ee	00:54:30	10:02	M40	10	3:53.6	12:00:22
57	 	30	Treimuth Meelis	1969	Haanja Rattaklubi	00:54:32	10:04	M40	11	3:53.7	12:00:24
58	 	576	Karabelnik Kristjan	1981	 	00:54:39	10:12	M21	31	3:54.2	12:00:22
59	 	46	Krünberg Klen	1990	 	00:54:41	10:14	M21	32	3:54.4	12:00:19
60	 	32	Orgulas Kaido	1966	 	00:54:43	10:16	M40	12	3:54.5	12:00:47
61	3	37	Rihma Annika	1984	Sportkeskus.ee	00:54:52	10:25	N21	2	3:55.2	12:00:22
62	 	28	Undrest Jaanus	1974	 	00:54:54	10:27	M35	5	3:55.3	12:00:22
63	 	63	Ervin Alar	1993	 	00:54:56	10:29	M18	8	3:55.4	12:00:25
64	4	49	Bulina Julia	1988	KJK Kalev Sillamäe	00:55:03	10:35	N21	3	3:55.9	12:00:23
65	5	442	Andrejeva Olga	1985	Stamina SK	00:55:10	10:43	N21	4	3:56.4	12:00:27
66	 	29	Jesse Aivar	1959	 	00:55:11	10:44	M50	2	3:56.5	12:00:22
67	 	1010	Tomp Ahti	1983	 	00:55:16	10:48	M21	33	3:56.8	12:00:28
68	 	823	Piirimäe Pärtel	1972	 	00:55:24	10:57	M35	6	3:57.4	12:00:20
69	 	533	Juhkov Janar	1987	 	00:55:26	10:59	M21	34	3:57.6	12:00:21
70	 	675	Laur Toomas	1964	 	00:55:29	11:02	M40	13	3:57.8	12:00:26
71	 	875	Reimann Jan	1979	 	00:55:30	11:03	M21	35	3:57.9	12:00:19
72	 	62	Koppel Tõnis Kristian	1994	Jõgeva SAI	00:55:34	11:06	M16	3	3:58.1	12:00:27
73	 	640	Kuznetsov Madis	1976	 	00:55:35	11:07	M21	36	3:58.2	12:00:22
74	 	48	Enok Marek	1981	Fauni Kaubanduse AS	00:55:36	11:09	M21	37	3:58.3	12:00:24
75	 	1175	Siimer Martin	1971	 	00:55:38	11:11	M35	7	3:58.4	12:00:49
76	 	26	Laur Mikk	1986	 	00:55:42	11:15	M21	38	3:58.7	12:00:34
77	 	897	Rähn Alar	1978	 	00:55:44	11:17	M21	39	3:58.9	12:00:25
78	 	881	Reitsnik Tarmo	1972	Stamina SK	00:55:47	11:20	M35	8	3:59.1	12:00:22
79	 	565	Kala Taavi	1986	 	00:55:53	11:25	M21	40	3:59.5	12:00:38
80	 	34	Valter Marko	1977	 	00:55:54	11:27	M21	41	3:59.6	12:00:33
81	 	422	Aasamaa Aare	1984	 	00:56:01	11:33	M21	42	4:00.0	12:00:27
82	 	39	Vahkal Kaido	1975	 	00:56:01	11:34	M35	9	4:00.1	12:00:22
83	 	856	Pärnpuu Raivo	1967	Rademar/adidas	00:56:03	11:36	M40	14	4:00.2	12:00:25
84	 	72	Siim Andres	1971	 	00:56:07	11:40	M35	10	4:00.5	12:00:28
85	 	1097	Vollmer Siim	1983	21CC Triatloniklubi	00:56:07	11:40	M21	43	4:00.5	12:00:29
86	 	50	Hillep Einar	1970	 	00:56:08	11:41	M40	15	4:00.6	12:00:41
87	 	87	Kurist Kert	1993	CFC Spordikool	00:56:14	11:47	M18	9	4:01.0	12:00:19
88	 	36	Valdmaa Lauri	1980	 	00:56:16	11:48	M21	44	4:01.1	12:00:25
89	 	52	Salla Marek	1988	Türi Jõud	00:56:18	11:50	M21	45	4:01.3	12:00:22
90	 	47	Narmont Donatas	1966	Jooksja	00:56:18	11:51	M40	16	4:01.3	12:00:25
91	 	719	Lääts Viktor	1952	 	00:56:19	11:52	M50	3	4:01.3	12:00:26
92	6	41	Dolmatova Kristina	1990	Tallinna SS Kalev	00:56:20	11:53	N21	5	4:01.4	12:00:21
93	 	53	Rüütelmaa Andrus	1972	PV SKK	00:56:24	11:57	M35	11	4:01.7	12:00:23
94	 	66	Tiiksaar Aaro	1978	5xa	00:56:25	11:57	M21	46	4:01.8	12:00:25
95	 	720	Lüüs Sigmar	1992	 	00:56:30	12:03	M18	10	4:02.1	12:00:20
96	 	61	Bessonov Sergei	1982	AF-Automaatika	00:56:34	12:07	M21	47	4:02.4	12:00:26
97	 	700	Lokk Sulev	1969	Stamina SK	00:56:37	12:10	M40	17	4:02.6	12:00:27
98	 	739	Meidla Tiit	1975	 	00:56:40	12:13	M35	12	4:02.9	12:00:27
99	 	54	Rähn Ahto	1980	 	00:56:42	12:14	M21	48	4:03.0	12:00:24
100	 	71	Toom Toomas	1960	Stamina SK	00:56:46	12:19	M50	4	4:03.3	12:00:24
101	 	843	Puusepp Linnar	1976	ELUJOOKS	00:56:51	12:24	M21	49	4:03.6	12:00:31
102	 	1092	Villo Raul	1977	Rulluisuklubi ABEC	00:56:53	12:25	M21	50	4:03.8	12:00:26
103	 	43	Maleva Marco	1967	 	00:56:57	12:30	M40	18	4:04.1	12:00:26
104	7	57	Luik Liina	1985	TÜ ASK	00:56:57	12:30	N21	6	4:04.1	12:00:23
105	 	717	Lõzhin Sergei	1955	Eesti Post SK	00:57:02	12:35	M50	5	4:04.5	12:00:29
106	 	92	Tammik Taavi	1993	 	00:57:04	12:37	M18	11	4:04.6	12:00:21
107	 	470	Ehrstein Reimo	1974	VAK Staier	00:57:05	12:38	M35	13	4:04.6	12:00:24
108	 	820	Pihlak Sander	1978	 	00:57:09	12:42	M21	51	4:04.9	12:00:31
109	 	809	Pedak Jaanus	1966	SK West Sport	00:57:11	12:44	M40	19	4:05.1	12:00:31
110	 	896	Ruul Rünno	1971	Elioni Spordiklubi	00:57:12	12:45	M35	14	4:05.2	12:00:24
111	 	913	Saluveer Ago	1979	 	00:57:16	12:49	M21	52	4:05.4	12:00:34
112	 	42	Siimumäe Margo	1965	Stamina SK	00:57:19	12:52	M40	20	4:05.7	12:00:56
113	 	512	Hillermaa Magnus	1984	Hansa SK	00:57:22	12:55	M21	53	4:05.9	12:00:24
114	 	506	Heide Raiko	1990	Nõmme Suusaklubi	00:57:23	12:55	M21	54	4:05.9	12:00:19
115	 	457	Bauvald Andres	1975	Elioni Spordiklubi	00:57:23	12:56	M35	15	4:05.9	12:00:41
116	 	1161	Randaru Veiko	1967	 	00:57:23	12:56	M40	21	4:06.0	12:00:24
117	 	617	Koskaru Meelis	1977	MAKSU-JA TOLLIAMETI SK	00:57:28	13:01	M21	55	4:06.3	12:00:26
118	 	81	Sild Reio	1995	Viljandi Suusaklubi	00:57:53	13:26	M16	4	4:08.1	12:00:21
119	 	758	Mäe Vahur	1980	Pärnu Kahe Silla klubi	00:57:54	13:27	M21	56	4:08.1	12:00:17
120	 	689	Lepp Marko	1973	Tallinna Vesi	00:57:55	13:28	M35	16	4:08.2	12:00:29
121	 	59	Ionov Andrei	1981	KJK Kalev Sillamäe	00:57:57	13:30	M21	57	4:08.3	12:00:26
122	 	423	Aasmann Lauri	1979	 	00:58:00	13:32	M21	58	4:08.5	12:00:28
123	 	508	Heinola Ivar	1977	www.avlexpress.ee	00:58:02	13:35	M21	59	4:08.7	12:00:33
124	 	33	Sagaja Martin	1980	Eesti Raudtee SK	00:58:04	13:37	M21	60	4:08.9	12:00:23
125	 	876	Rein Margus	1952	JK Hermes	00:58:07	13:40	M50	6	4:09.1	12:00:30
126	 	79	Lumberg Alari	1982	 	00:58:08	13:41	M21	61	4:09.2	12:00:24
127	 	67	Klasen Toomas	1964	Sportkeskus.ee	00:58:10	13:43	M40	22	4:09.3	12:00:22
128	 	1119	Einpalu Mart	1973	Levira	00:58:12	13:45	M35	17	4:09.5	12:00:21
129	 	149	Kirsipuu Avo	1967	Tallinna SS Kalev	00:58:20	13:53	M40	23	4:10.0	12:00:32
130	8	44	Sarapuu Alma	1973	VAK Staier	00:58:22	13:55	N35	2	4:10.2	12:00:31
131	9	55	Kukk Kaisa	1984	Stamina SK	00:58:26	13:58	N21	7	4:10.4	12:00:30
132	 	701	Lomaka Andre	1975	 	00:58:30	14:02	M35	18	4:10.7	12:01:07
133	 	1135	Jutkin Mihhail	1954	Tempo	00:58:31	14:03	M50	7	4:10.8	12:00:29
134	10	64	Tamm Maris	1984	Sportkeskus.ee	00:58:31	14:04	N21	8	4:10.8	12:00:26
135	 	784	Ojasaar Peeter	1969	KJK KOSE2000 / BSL	00:58:33	14:06	M40	24	4:11.0	12:00:27
136	 	70	Tikva Indrek	1970	Tervise 21	00:58:35	14:07	M40	25	4:11.1	12:00:23
137	 	86	Säkk Janar	1980	 	00:58:41	14:13	M21	62	4:11.5	12:00:29
138	 	1130	Hruðtðov Pjotr	1948	Kalev	00:58:50	14:23	M60	1	4:12.2	12:00:29
139	 	597	Kimask Eduard	1972	 	00:58:53	14:26	M35	19	4:12.4	12:00:36
140	 	984	Tammoja Andrus	1964	 	00:58:54	14:27	M40	26	4:12.4	12:01:05
141	 	731	Maran Tarvo	1972	 	00:58:57	14:30	M35	20	4:12.7	12:00:23
142	 	962	Sõber Elion	1991	 	00:58:57	14:30	M21	63	4:12.7	12:00:30
143	 	69	Nilk Andrus	1962	Jooksja	00:59:01	14:34	M40	27	4:13.0	12:00:35
144	 	1178	Palu Silver	1978	TAK	00:59:02	14:35	M21	64	4:13.0	12:00:28
145	 	1006	Tinast Tauri	1994	KJK Pärnu Kalev	00:59:03	14:35	M16	5	4:13.0	12:00:27
146	 	669	Laimets Erki	1968	Conviso	00:59:04	14:37	M40	28	4:13.1	12:00:29
147	 	76	Maiste Tarmo	1975	 	00:59:06	14:39	M35	21	4:13.3	12:00:50
148	 	93	Raun Rain	1970	 	00:59:07	14:40	M40	29	4:13.4	12:00:30
149	 	108	Kingo Gunnar	1980	Westline Team	00:59:12	14:45	M21	65	4:13.7	12:00:20
150	 	35	Saar Aivar	1975	Vanalinna Hariduskolleegium	00:59:13	14:46	M35	22	4:13.8	12:00:36
151	11	644	Kuusik Maie	1974	Sportkeskus.ee	00:59:17	14:49	N35	3	4:14.0	12:00:29
152	 	811	Peedu Agris	1981	 	00:59:17	14:50	M21	66	4:14.1	12:00:27
153	 	213	Liivandi Eero	1978	G4S SK	00:59:23	14:55	M21	67	4:14.5	12:00:31
154	 	136	Männik Ahti	1981	 	00:59:23	14:56	M21	68	4:14.5	12:00:24
155	 	51	Pähn Ragnar	1982	VAK Staier	00:59:24	14:57	M21	69	4:14.6	12:00:23
156	 	78	Vetevoog Kaido	1973	Stamina SK	00:59:30	15:03	M35	23	4:15.0	12:00:40
157	 	466	Dubrovski Keit	1977	 	00:59:33	15:05	M21	70	4:15.2	12:00:25
158	 	117	Kuningas Andres	1974	 	00:59:34	15:06	M35	24	4:15.3	12:00:33
159	 	893	Roosnupp Priit	1972	 	00:59:36	15:09	M35	25	4:15.4	12:00:26
160	12	1158	Kadak Kadri	1981	Sportkeskus.ee	00:59:38	15:11	N21	9	4:15.6	12:00:50
161	 	106	Raud Gunnar	1974	 	00:59:39	15:12	M35	26	4:15.7	12:00:27
162	 	941	Sinijärv Taavi	1982	Lemminkainen	00:59:50	15:23	M21	71	4:16.4	12:00:37
163	 	118	Vahtra Janek	1973	 	00:59:53	15:25	M35	27	4:16.6	12:00:30
164	 	657	Käärd Janek	1977	 	00:59:57	15:30	M21	72	4:16.9	12:00:33
165	 	113	Ermel Jürgen	1983	Rõngu Lumemehed	01:00:01	15:33	M21	73	4:17.2	12:00:21
166	 	112	Kuuskmäe Raul	1968	 	01:00:01	15:34	M40	30	4:17.2	12:00:24
167	 	455	Aus Jaanus	1974	 	01:00:03	15:36	M35	28	4:17.4	12:00:29
168	 	746	Moltsaar Aavo	1981	 	01:00:06	15:38	M21	74	4:17.5	12:00:32
169	 	88	Atso Tiit	1982	 	01:00:09	15:41	M21	75	4:17.8	12:00:32
170	 	467	Eerme Martin	1968	TTÜ - KAPA	01:00:11	15:44	M40	31	4:17.9	12:00:24
171	 	99	Mustkivi Mart	1976	Mercury	01:00:11	15:44	M21	76	4:18.0	12:00:25
172	 	98	Heinsalu Raul	1969	 	01:00:12	15:45	M40	32	4:18.0	12:00:24
173	 	754	Muuli Kalle	1958	Tenniseklubi XO	01:00:15	15:48	M50	8	4:18.2	12:00:25
174	 	1152	Kaun Keijo	1982	 	01:00:16	15:49	M21	77	4:18.3	12:00:28
175	 	645	Kuusk Jaanus	1982	SK Väledad Jalad	01:00:19	15:52	M21	78	4:18.5	12:00:39
176	 	1120	Roopõld Riho	1973	 	01:00:20	15:53	M35	29	4:18.6	12:00:26
177	13	460	Bernat Galina	1958	KJK Kalev Sillamäe	01:00:23	15:56	N50	1	4:18.8	12:00:31
178	 	908	Salinin Anton	1995	KJK Kalev Sillamäe	01:00:25	15:58	M16	6	4:18.9	12:00:44
179	 	115	Paju Kaido	1964	 	01:00:25	15:58	M40	33	4:18.9	12:00:32
180	 	90	Tinast Toivo	1992	 	01:00:26	15:59	M18	12	4:19.0	12:00:29
181	 	1169	Randna Taavo	1980	Eesti Energia	01:00:26	15:59	M21	79	4:19.0	12:00:28
182	 	449	Arak Andero	1981	 	01:00:27	16:00	M21	80	4:19.1	12:00:32
183	14	110	Aluvee Helen	1993	 	01:00:29	16:02	N18	1	4:19.2	12:00:25
184	 	986	Tarlap Tanel	1979	 	01:00:29	16:02	M21	81	4:19.2	12:00:25
185	 	1150	Õunap Urmas	1968	 	01:00:34	16:06	M40	34	4:19.5	12:00:24
186	 	798	Pajur Andrus	1960	 	01:00:44	16:16	M50	9	4:20.3	12:00:36
187	 	1026	Trei Reito	1972	 	01:00:49	16:22	M35	30	4:20.6	12:00:35
188	 	1121	Miina Heinu	1967	 	01:00:54	16:27	M40	35	4:21.0	12:00:55
189	 	590	Kenkmann Peeter	1977	 	01:00:56	16:29	M21	82	4:21.1	12:00:32
190	 	156	Koppel Mati	1960	Jõgeva SAI	01:00:57	16:30	M50	10	4:21.2	12:00:31
191	 	693	Liivak Hannes	1975	 	01:00:58	16:31	M35	31	4:21.3	12:00:46
192	 	89	Nuka Innar	1978	 	01:01:03	16:36	M21	83	4:21.6	12:00:29
193	 	1079	Veskimägi Vegerd	1987	Tallinna Vesi	01:01:03	16:36	M21	84	4:21.7	12:00:38
194	 	745	Miku Taavi	1970	SuKl Jõulu	01:01:04	16:36	M40	36	4:21.7	12:00:30
195	 	164	Pärdu Martin	1986	 	01:01:04	16:37	M21	85	4:21.7	12:00:27
196	 	713	Luts Vahur	1962	 	01:01:05	16:38	M40	37	4:21.8	12:00:43
197	 	705	Lubi Vallo-Peedu	1964	 	01:01:06	16:38	M40	38	4:21.8	12:00:26
198	 	1096	Visse Marko	1982	Tallinna Vesi	01:01:07	16:40	M21	86	4:21.9	12:01:04
199	 	451	Arkipus Christian-Peter	1992	KJK TIPP	01:01:07	16:40	M18	13	4:22.0	12:00:44
200	 	83	Kangro Priit	1972	 	01:01:09	16:42	M35	32	4:22.1	12:00:28
201	15	459	Bergmann Gina	1981	Sparta	01:01:14	16:47	N21	10	4:22.4	12:00:27
202	 	101	Laidvee Jaanus	1974	 	01:01:17	16:50	M35	33	4:22.7	12:00:32
203	 	97	Kooskora Kristo	1986	 	01:01:18	16:51	M21	87	4:22.7	12:00:44
204	 	969	Zitsenko Sergei	1968	 	01:01:19	16:52	M40	39	4:22.8	12:00:34
205	 	1041	Tuul Harry	1980	 	01:01:20	16:53	M21	88	4:22.9	12:00:31
206	 	80	Nassar Oskar	1987	 	01:01:22	16:55	M21	89	4:23.0	12:00:33
207	 	794	Paas Toomas	1976	 	01:01:23	16:55	M21	90	4:23.0	12:00:41
208	 	82	Abner Andre	1970	Stamina SK	01:01:24	16:57	M40	40	4:23.1	12:00:29
209	 	1147	Pajoma Hans	1974	DnB Nord Pank	01:01:27	17:00	M35	34	4:23.4	12:00:43
210	 	443	Andres Anton	1975	 	01:01:28	17:00	M35	35	4:23.4	12:01:12
211	 	96	Rebane Taivo	1953	 	01:01:29	17:01	M50	11	4:23.5	12:00:22
212	 	953	Sukk Gaspar	1976	VAK Staier	01:01:31	17:04	M21	91	4:23.6	12:01:12
213	 	1054	Uusküla Rauno	1990	 	01:01:31	17:04	M21	92	4:23.7	12:00:32
214	 	1154	Alango Andres	1984	 	01:01:32	17:05	M21	93	4:23.7	 
215	 	781	Nyiri Alec	1961	Jooksuklubi Sarma	01:01:34	17:06	M40	41	4:23.8	12:00:37
216	 	787	Ollep Janek	1970	VK Tervis	01:01:34	17:07	M40	42	4:23.9	12:00:30
217	 	716	Jürsen Lauri	1981	 	01:01:37	17:09	M21	94	4:24.0	12:00:28
218	 	654	Kärner Markus	1990	Tallinna Vesi	01:01:39	17:11	M21	95	4:24.2	12:00:44
219	 	77	Altmets Heimar	1992	CFC Suusakool	01:01:40	17:13	M18	14	4:24.3	12:00:25
220	 	510	Hendrikson Peeter	1967	Haanja Rattaklubi	01:01:45	17:17	M40	43	4:24.6	12:00:39
221	16	775	Nurmeots Eveli	1976	 	01:01:49	17:22	N21	11	4:24.9	12:00:31
222	 	959	Suðkov Aleksandr	1983	SK G4S	01:01:58	17:31	M21	96	4:25.6	12:00:29
223	17	697	Lilleoru Merle	1977	 	01:02:02	17:35	N21	12	4:25.9	12:00:35
224	 	125	Grahv Margus	1984	 	01:02:03	17:36	M21	97	4:26.0	12:00:44
225	 	860	Pääru Priit	1969	 	01:02:07	17:40	M40	44	4:26.2	12:00:36
226	 	138	Õun Jaan	1984	 	01:02:09	17:42	M21	98	4:26.4	12:00:28
227	 	163	Kangur Raul	1970	Jooksuklubi Sarma	01:02:09	17:42	M40	45	4:26.4	12:00:27
228	 	167	Herman Jörgen	1977	 	01:02:10	17:43	M21	99	4:26.4	12:00:31
229	 	122	Tuur Taavi	1983	 	01:02:10	17:43	M21	100	4:26.5	12:00:29
230	 	127	Jürgenstein Indrek	1967	Stamina SK	01:02:10	17:43	M40	46	4:26.5	12:00:31
231	 	1177	Tatrik Ivo	1973	21CC Triatloniklubi	01:02:12	17:45	M35	36	4:26.6	12:01:05
232	 	544	Järv Jüri	1985	 	01:02:12	17:45	M21	101	4:26.6	12:00:28
233	 	1139	Karama Tarmo	1974	Murexin	01:02:12	17:45	M35	37	4:26.6	12:00:35
234	 	1144	Keskra Raivo	1979	 	01:02:14	17:47	M21	102	4:26.7	12:01:02
235	18	777	Nõmm Marden	1984	Vihased Koprad	01:02:14	17:47	N21	13	4:26.7	12:00:33
236	 	774	Nurm Peep	1977	 	01:02:15	17:48	M21	103	4:26.8	12:00:55
237	 	1181	Saar Laur	1966	Pharmaswiss	01:02:17	17:50	M40	47	4:26.9	12:00:33
238	 	123	Tõruvere Kaarel	1984	Saint-Gobain Glass Estonian AS	01:02:18	17:51	M21	104	4:27.0	12:00:28
239	 	575	Kapp Tarvo	1970	Medicover	01:02:20	17:52	M40	48	4:27.1	12:00:23
240	 	546	Järve Kaupo	1974	SK Fortis	01:02:21	17:54	M35	38	4:27.2	12:00:43
241	 	855	Pärnassalu Toomas	1968	SS Marathon	01:02:24	17:57	M40	49	4:27.4	12:00:25
242	 	1058	Vafin Renat	1973	Skype	01:02:24	17:57	M35	39	4:27.4	12:00:29
243	 	474	Eller Eik	1956	 	01:02:24	17:57	M50	12	4:27.5	12:00:42
244	 	120	Krilovs Ringo	1980	 	01:02:25	17:58	M21	105	4:27.5	12:00:38
245	 	472	Elhi Oliver	1990	Testem	01:02:26	17:58	M21	106	4:27.5	12:00:27
246	 	1084	Viikmäe Kaupo	1968	 	01:02:28	18:01	M40	50	4:27.7	12:01:04
247	 	496	Greenbaum Janno	1974	 	01:02:29	18:02	M35	40	4:27.8	12:00:45
248	 	983	Tammjärv Kalle	1967	 	01:02:34	18:07	M40	51	4:28.1	12:00:52
249	 	1039	Tulf Taago	1982	 	01:02:36	18:09	M21	107	4:28.3	12:00:35
250	 	100	Suursaar Ülo	1962	 	01:02:37	18:10	M40	52	4:28.4	12:00:31
251	19	111	Sauga Mari	1971	Hansa SK	01:02:39	18:12	N35	4	4:28.5	12:00:29
252	 	444	Angelstok Aivar	1967	 	01:02:39	18:12	M40	53	4:28.5	12:01:03
253	 	454	Assmann Ants Erik	1990	TÜ ASK	01:02:40	18:13	M21	108	4:28.6	12:00:25
254	 	492	Ganþa Aleksandr	1984	 	01:02:41	18:14	M21	109	4:28.6	12:00:27
255	 	109	Hollo Janno	1970	 	01:02:41	18:14	M40	54	4:28.6	12:00:39
256	 	142	Ansi Martin	1975	Ansitech	01:02:42	18:15	M35	41	4:28.7	12:00:26
257	 	599	Kindel Hanno	1968	 	01:02:43	18:16	M40	55	4:28.8	12:00:35
258	 	1132	Trei Markus	1979	 	01:02:43	18:16	M21	110	4:28.8	12:00:32
259	 	917	Sauga Kenno	1975	Rademar	01:02:46	18:18	M35	42	4:29.0	12:00:50
260	 	594	Kess Alar	1967	 	01:02:48	18:21	M40	56	4:29.1	12:00:32
261	20	686	Lenk Anneli	1972	VAK Staier	01:02:50	18:23	N35	5	4:29.3	12:00:37
262	 	1028	Tretjakov Roman	1992	Sportkeskus.ee	01:02:52	18:25	M18	15	4:29.4	12:01:11
263	 	104	Sikka Timo Tõnis	1991	TÜASK	01:02:53	18:26	M21	111	4:29.5	12:00:53
264	 	121	Meidla Arvi	1956	 	01:02:54	18:27	M50	13	4:29.6	 
265	 	141	Sindonen Voldemar	1958	 	01:02:59	18:32	M50	14	4:29.9	12:00:46
266	 	970	Zolotov Ilja	1962	 	01:03:05	18:38	M40	57	4:30.4	12:00:30
267	 	148	Tuvikene Leonhard	1949	Eesti Raudtee Spordiklubi	01:03:11	18:43	M60	2	4:30.8	12:00:37
268	 	491	Gamzejev Erik	1967	Põhjarannik SK	01:03:18	18:51	M40	58	4:31.3	12:00:29
269	 	84	Talviste Raimo	1980	 	01:03:22	18:55	M21	112	4:31.6	12:00:36
270	 	1137	Skatðko Igor	1996	Tempo	01:03:23	18:55	M16	7	4:31.6	12:00:33
271	 	421	Aas Marek	1983	 	01:03:25	18:58	M21	113	4:31.8	12:00:37
272	 	869	Randveer Fred	1978	 	01:03:31	19:03	M21	114	4:32.2	 
273	 	471	Elhi Einar	1964	Testem	01:03:36	19:09	M40	59	4:32.6	12:00:29
274	21	1166	Starkopf Elis-Helen	1997	Nõmme KJK	01:03:37	19:10	N16	1	4:32.6	12:00:22
275	 	135	Pihkva Arne	1969	Rademar/adidas	01:03:40	19:13	M40	60	4:32.9	12:00:33
276	 	874	Reimaa Mihkel	1978	seiklusport	01:03:45	19:18	M21	115	4:33.2	12:00:44
277	 	796	Paesüld Harles	1974	Hansa SK	01:03:47	19:20	M35	43	4:33.3	12:00:54
278	 	1067	Varblane Erko	1980	 	01:03:48	19:20	M21	116	4:33.4	12:00:58
279	 	1090	Viljamaa Jaanus	1963	 	01:03:49	19:22	M40	61	4:33.5	12:00:41
280	 	1180	Teeorg Urmas	1962	 	01:03:50	19:22	M40	62	4:33.5	12:00:45
281	 	190	Emerson Andrus	1975	1Partner	01:03:51	19:23	M35	44	4:33.6	12:00:21
282	 	792	Osmin Martin	1979	ATO SK	01:03:53	19:26	M21	117	4:33.8	12:00:23
283	 	683	Leibenau Maido	1978	 	01:03:55	19:28	M21	118	4:33.9	12:00:34
284	 	995	Tepaskent Tanel	1978	 	01:03:56	19:29	M21	119	4:34.0	12:00:52
285	 	161	Jõesalu Henri	1974	EMT	01:03:58	19:31	M35	45	4:34.2	12:00:23
286	 	432	Alamets Ülari	1967	 	01:04:01	19:33	M40	63	4:34.3	12:00:34
287	 	482	Enn Lauri	1980	EMT	01:04:02	19:34	M21	120	4:34.4	12:00:39
288	 	613	Koppel Bill-Gabriel	1996	 	01:04:02	19:34	M16	8	4:34.4	12:00:31
289	22	453	Arujõe Tiina	1983	 	01:04:02	19:35	N21	14	4:34.4	12:00:40
290	 	134	Rennit Leho	1960	ALBE TEAM	01:04:02	19:35	M50	15	4:34.4	12:00:29
291	 	133	Hansen Joonas	1985	 	01:04:03	19:36	M21	121	4:34.5	12:00:33
292	 	503	Haljastamm Erkki	1985	 	01:04:05	19:38	M21	122	4:34.7	12:00:47
293	 	150	Ignatenko Igor	1969	 	01:04:06	19:38	M40	64	4:34.7	12:00:46
294	 	132	Jänes Urmet	1973	 	01:04:07	19:40	M35	46	4:34.8	12:00:27
295	 	225	Mustkivi Mike	1974	 	01:04:08	19:41	M35	47	4:34.9	12:00:50
296	 	85	Mäesepp Aigar	1978	Hansa SK	01:04:10	19:43	M21	123	4:35.0	12:00:29
297	 	601	Kiple Kaivo	1976	 	01:04:12	19:45	M21	124	4:35.1	12:00:43
298	 	1155	Üürike Hans	1985	 	01:04:13	19:46	M21	125	4:35.2	12:00:45
299	 	179	Lopsik Priit	1979	Hansa SK	01:04:15	19:48	M21	126	4:35.4	12:00:30
300	 	782	Oblikas Janek	1972	marathon100.com	01:04:16	19:49	M35	48	4:35.5	12:00:39
301	23	634	Kurg Eveli	1985	 	01:04:17	19:50	N21	15	4:35.5	12:00:47
302	 	175	Karpovitch Sergei	1973	Uspex	01:04:18	19:50	M35	49	4:35.5	12:00:38
303	 	1157	Aps Robert	1993	 	01:04:20	19:53	M18	16	4:35.7	12:00:48
304	 	103	Põldoja Heino	1945	Jõgeva SVS	01:04:22	19:55	M60	3	4:35.9	12:00:28
305	 	603	Kits Ragnar	1974	 	01:04:23	19:55	M35	50	4:35.9	12:00:34
306	 	577	Kardakov Aleksandr	1957	 	01:04:23	19:56	M50	16	4:35.9	12:00:44
307	 	906	Saidla Siim	1984	 	01:04:23	19:56	M21	127	4:35.9	12:00:59
308	 	579	Karu Üllar	1975	 	01:04:24	19:57	M35	51	4:36.0	12:00:39
309	 	146	Soonik Toomas	1968	 	01:04:24	19:57	M40	65	4:36.0	12:00:24
310	 	891	Roop Andrei	1958	 	01:04:29	20:01	M50	17	4:36.3	12:00:51
311	 	169	Koppel Madis-Karli	1992	Jõgeva SAI	01:04:30	20:03	M18	17	4:36.4	12:00:35
312	 	858	Pärtelpoeg Ingmar	1973	 	01:04:31	20:03	M35	52	4:36.5	12:01:03
313	24	1048	Ulp Mare	1969	Hansa SK	01:04:33	20:06	N40	1	4:36.6	12:00:38
314	 	1056	Uussaar Mark	1975	Movek	01:04:35	20:08	M35	53	4:36.8	12:00:32
315	 	870	Rebane Aleksander	1976	VAK Staier	01:04:36	20:09	M21	128	4:36.9	12:00:55
316	 	595	Kiipsaar Raido	1967	 	01:04:37	20:10	M40	66	4:36.9	12:00:38
317	 	116	Ritso Valter	1979	Hansa SK	01:04:37	20:10	M21	129	4:37.0	12:00:34
318	 	145	Zirnask Robert	1985	Rademar/adidas	01:04:39	20:12	M21	130	4:37.1	12:00:30
319	 	1123	Aro Andres	1970	Kuldratas	01:04:41	20:13	M40	67	4:37.2	12:00:27
320	25	237	Saar Liisi	1984	Sampo SK	01:04:41	20:13	N21	16	4:37.2	 
321	 	541	Jõgi Erik	1973	 	01:04:41	20:14	M35	54	4:37.2	12:00:52
322	 	95	Raap Ilmar	1969	meie	01:04:43	20:16	M40	68	4:37.4	12:00:25
323	 	188	Kadanik Alarih	1979	 	01:04:43	20:16	M21	131	4:37.4	 
324	 	929	Seppius Margus	1972	 	01:04:44	20:17	M35	55	4:37.4	12:00:42
325	 	653	Kärema Ago	1969	Pärnu Classic Team	01:04:47	20:20	M40	69	4:37.7	12:00:47
326	 	889	Romandi Arvi	1979	 	01:04:49	20:21	M21	132	4:37.8	12:00:42
327	 	911	Salumaa Marko	1979	Ilmandu klubi	01:04:50	20:23	M21	133	4:37.9	12:00:47
328	 	107	Kookla Eero	1972	 	01:04:53	20:26	M35	56	4:38.1	12:00:32
329	26	520	Ikko Angelina	1990	Tallinna SS Kalev	01:04:55	20:27	N21	17	4:38.2	12:00:45
330	 	227	Kruusamägi Uku	1994	 	01:04:59	20:32	M16	9	4:38.5	12:00:30
331	 	174	Lehesmets Alar	1981	 	01:05:01	20:34	M21	134	4:38.6	12:00:34
332	 	159	Nokkur Lembit	1966	Rõõsa	01:05:10	20:43	M40	70	4:39.3	12:00:47
333	 	847	Põtter Jaanus	1973	 	01:05:14	20:46	M35	57	4:39.5	12:00:34
334	 	431	Alajaan Alar	1979	 	01:05:16	20:48	M21	135	4:39.7	12:00:27
335	 	130	Kane Rein	1945	Loksa RSK	01:05:16	20:48	M60	4	4:39.7	12:00:28
336	27	182	Kalda Ruth	1965	 	01:05:19	20:52	N40	2	4:39.9	12:00:42
337	 	151	Tooming Marko	1984	 	01:05:24	20:57	M21	136	4:40.3	12:00:32
338	 	153	Sikk Argo	1973	 	01:05:28	21:00	M35	58	4:40.6	12:00:57
339	 	966	Säär Tõnu	1969	JK Hermes	01:05:29	21:02	M40	71	4:40.7	12:01:18
340	 	170	Põldsaar Paul	1976	Tulepuu	01:05:31	21:04	M21	137	4:40.8	12:00:44
341	 	201	Vunder Vallo	1969	 	01:05:32	21:04	M40	72	4:40.8	12:00:30
342	 	162	Vinogradov Vladimir	1966	Uspex	01:05:32	21:05	M40	73	4:40.8	12:00:39
343	 	74	Salmijanov Deniss	1998	 	01:05:37	21:10	M16	10	4:41.2	12:00:25
344	28	178	Vulla Ela	1979	 	01:05:39	21:12	N21	18	4:41.3	12:00:42
345	 	543	Jõgiaas Aivar	1969	seiklusporr	01:05:40	21:13	M40	74	4:41.5	12:00:52
346	 	521	Inno Ermo	1977	Elioni Spordiklubi	01:05:41	21:13	M21	138	4:41.5	12:00:32
347	 	783	Oja Tarmo	1980	 	01:05:41	21:14	M21	139	4:41.5	12:01:07
348	 	729	Maksimovski Rene	1966	 	01:05:44	21:17	M40	75	4:41.7	12:00:34
349	 	186	Lehtmets Sven	1976	 	01:05:50	21:23	M21	140	4:42.1	12:01:10
350	 	488	Evisalu Mait	1969	 	01:05:54	21:27	M40	76	4:42.4	12:01:00
351	 	196	Proode Arno	1961	Eesti Põlevkivi Spordiklubi	01:05:55	21:28	M40	77	4:42.5	12:00:29
352	 	1148	Mättas Jaan	1935	VAK Staier Viljandi	01:05:56	21:29	M70	1	4:42.6	12:00:41
353	 	168	Kivisaar Tõnis	1979	 	01:05:58	21:30	M21	141	4:42.7	12:01:13
354	 	1149	Lepiste Sander	1974	 	01:05:58	21:31	M35	59	4:42.7	12:00:30
355	 	670	Laineveer Indrek	1978	 	01:06:03	21:36	M21	142	4:43.1	12:00:34
356	 	330	Tillemann Rein	1974	 	01:06:05	21:38	M35	60	4:43.2	12:00:59
357	 	1163	Laanmets Jüri	1956	 	01:06:08	21:41	M50	18	4:43.4	12:01:00
358	 	633	Kure Tauno	1957	 	01:06:09	21:42	M50	19	4:43.5	12:00:48
359	 	1043	Tõll Marko	1980	prügikala	01:06:13	21:46	M21	143	4:43.8	12:00:38
360	 	131	Peetsalu Veigo	1979	 	01:06:15	21:47	M21	144	4:43.9	12:00:48
361	 	916	Sazenkov Aleksandr	1978	 	01:06:16	21:48	M21	145	4:44.0	12:01:21
362	 	1027	Treimut Raigo	1971	 	01:06:16	21:49	M35	61	4:44.0	12:00:50
363	 	183	Kolk Marko	1968	Jooksuklubi Sarma	01:06:16	21:49	M40	78	4:44.0	12:00:32
364	 	154	Laul Vallo	1975	Koondise Kormoran	01:06:18	21:51	M35	62	4:44.1	12:00:36
365	 	428	Agu Risto	1971	Hansa SK	01:06:20	21:53	M35	63	4:44.3	12:01:19
366	 	996	Tereðtðenkov Aleksei	1963	U-klubi	01:06:22	21:55	M40	79	4:44.4	12:00:45
367	 	793	Ots Magnus-Mait	1971	Leola	01:06:24	21:56	M35	64	4:44.5	12:00:33
368	 	185	Palmar Kalle	1943	Piirivalve SKK	01:06:25	21:57	M60	5	4:44.6	12:00:39
369	 	671	Lapõnin Serafin	1949	 	01:06:26	21:59	M60	6	4:44.7	12:00:36
370	 	445	Anniste Allan	1964	JOKA	01:06:27	21:59	M40	80	4:44.8	12:00:59
371	 	119	Ponder Neeme	1958	 	01:06:27	22:00	M50	20	4:44.8	12:00:39
372	 	991	Telling Juhan	1967	JK Hermes	01:06:30	22:03	M40	81	4:45.0	12:00:36
373	29	1146	Kummer-Leman Ülle	1957	sportkeskus.ee	01:06:30	22:03	N50	2	4:45.0	12:00:58
374	 	157	Gröön Janar	1981	 	01:06:31	22:04	M21	146	4:45.1	12:00:49
375	 	591	Kerno Kaimar	1982	 	01:06:32	22:05	M21	147	4:45.2	12:00:52
376	 	887	Roasto Reigo	1983	 	01:06:34	22:06	M21	148	4:45.3	12:00:50
377	 	1141	Raudsepp Ole	1978	 	01:06:35	22:08	M21	149	4:45.4	12:01:09
378	 	484	Erik Imre	1976	 	01:06:35	22:08	M21	150	4:45.4	 
379	 	177	Marrandi Rain	1982	Rulluisuklubi ABEC	01:06:35	22:08	M21	151	4:45.4	12:00:26
380	 	128	Hajanen Andres	1983	 	01:06:36	22:09	M21	152	4:45.4	12:00:30
381	 	1128	Rõþko Aivar	1961	 	01:06:36	22:09	M40	82	4:45.5	12:01:04
382	 	960	Suurman Herkki	1965	 	01:06:37	22:10	M40	83	4:45.5	12:00:47
383	 	500	Gurkin Viktor	1977	 	01:06:38	22:10	M21	153	4:45.5	12:00:45
384	 	483	Ennuste Madis	1972	 	01:06:39	22:11	M35	65	4:45.6	12:00:44
385	30	487	Ervin Egle Helene	1994	 	01:06:42	22:14	N16	2	4:45.8	 
386	 	994	Tempel Marko	1981	 	01:06:48	22:20	M21	154	4:46.3	12:00:43
387	31	265	Matson Kaire	1980	 	01:06:49	22:21	N21	19	4:46.3	12:00:57
388	 	770	Noðka Margus	1981	surm24	01:06:50	22:23	M21	155	4:46.4	12:00:39
389	 	933	Pärna Ott	1976	 	01:06:52	22:25	M21	156	4:46.6	12:00:30
390	 	704	Lorvi Urmas	1965	 	01:06:54	22:27	M40	84	4:46.7	12:00:41
391	 	171	Saar Janno	1983	 	01:06:55	22:28	M21	157	4:46.8	12:00:28
392	 	209	Hummal Erkki	1973	 	01:06:56	22:29	M35	66	4:46.9	12:00:34
393	 	1008	Toim Allan	1955	 	01:06:58	22:31	M50	21	4:47.0	12:00:44
394	32	763	Müürsepp Tiiu	1955	 	01:07:00	22:33	N50	3	4:47.1	12:00:36
395	33	1122	Uhl Gabriella	1970	 	01:07:05	22:38	N40	3	4:47.5	12:01:15
396	 	1087	Viirmann Ott	1987	 	01:07:06	22:39	M21	158	4:47.6	12:00:36
397	 	831	Priivits Argo	1977	Black Pole	01:07:07	22:40	M21	159	4:47.7	12:00:54
398	 	542	Jõgi Tarmo	1982	 	01:07:08	22:41	M21	160	4:47.7	12:00:44
399	 	681	Lehismets Jaan	1987	 	01:07:08	22:41	M21	161	4:47.7	12:01:12
400	 	990	Teesalu Lembit	1975	 	01:07:08	22:41	M35	67	4:47.7	12:01:19
401	 	260	Laimets Toomas	1963	 	01:07:09	22:42	M40	85	4:47.8	12:00:41
402	 	210	Trees Margus	1974	 	01:07:12	22:45	M35	68	4:48.0	12:00:28
403	 	211	Trees Mihkel	2000	 	01:07:12	22:45	M16	11	4:48.0	12:00:29
404	34	755	Mõistus Merlin	1984	 	01:07:13	22:46	N21	20	4:48.1	12:00:40
405	 	232	Läte Anatoli	1965	Suusahullud	01:07:14	22:46	M40	86	4:48.1	12:00:27
406	 	1071	Veidebaum Sten	1974	 	01:07:17	22:50	M35	69	4:48.3	12:01:19
407	 	140	Lüütsepp Taavi	1987	 	01:07:18	22:51	M21	162	4:48.4	12:00:33
408	35	493	Getman Ljudmilla	1956	 	01:07:19	22:52	N50	4	4:48.5	12:00:38
409	 	726	Mahhov Mart	1986	 	01:07:19	22:52	M21	163	4:48.5	12:01:21
410	 	139	Kurvits Ain	1967	Merko Ehitus	01:07:19	22:52	M40	87	4:48.5	12:00:38
411	 	612	Konsa Mihkel	1953	 	01:07:20	22:53	M50	22	4:48.6	12:00:26
412	 	180	Malmre Mallor	1976	www.keskkond.eu	01:07:22	22:54	M21	164	4:48.7	12:00:30
413	 	1015	Toomik Paul	1988	Saue Suusaklubi	01:07:22	22:55	M21	165	4:48.7	12:00:30
414	36	1108	Õun Eneke	1986	 	01:07:26	22:59	N21	21	4:49.0	12:00:47
415	 	879	Reinson Teet	1987	 	01:07:26	22:59	M21	166	4:49.0	12:00:48
416	 	204	Kukk Aalo	1957	Eesti Panga SK	01:07:27	22:59	M50	23	4:49.1	12:00:42
417	 	216	Innos John	1971	 	01:07:28	23:01	M35	70	4:49.1	12:00:55
418	37	504	Halla Diana	1995	Leksi44	01:07:28	23:01	N16	3	4:49.2	12:00:35
419	38	749	Mulla Mariliis	1985	 	01:07:29	23:02	N21	22	4:49.2	12:01:00
420	 	743	Metus Artur	1977	 	01:07:31	23:03	M21	167	4:49.3	12:01:05
421	 	207	Kin Nikolai	1973	Eesti Raudtee Spordiklubi	01:07:31	23:04	M35	71	4:49.4	12:00:37
422	 	1031	Tropp Raimo	1982	SK Merimetsa	01:07:34	23:07	M21	168	4:49.6	12:00:44
423	39	1040	Tulp Tiia	1966	 	01:07:35	23:08	N40	4	4:49.7	12:00:49
424	 	165	Kesküla Sulev	1971	 	01:07:36	23:09	M35	72	4:49.7	12:00:50
425	 	489	Fazilov Timur	1987	 	01:07:44	23:17	M21	169	4:50.3	12:00:29
426	 	1014	Toomela Tarmo	1974	 	01:07:44	23:17	M35	73	4:50.3	12:00:31
427	40	623	Kruusa Kristiina	1980	 	01:07:44	23:17	N21	23	4:50.3	12:00:31
428	 	608	Kivipõld Kaido	1978	 	01:07:46	23:19	M21	170	4:50.5	12:01:06
429	 	469	Eglitis Uldis	1976	 	01:07:47	23:19	M21	171	4:50.5	12:01:18
430	 	509	Helgis Priit	1979	 	01:07:47	23:20	M21	172	4:50.5	12:01:10
431	 	228	Urva Urmas	1971	 	01:07:52	23:25	M35	74	4:50.9	12:00:52
432	41	217	Tammjärv Kati	1992	Tartu Suusaklubi	01:07:55	23:27	N18	2	4:51.0	12:00:26
433	 	963	Sõrmus Silver	1996	Tallinna FC Flora	01:07:57	23:30	M16	12	4:51.2	12:00:25
434	 	939	Simmer Karl	1993	Saue Gümnaasium	01:07:58	23:30	M18	18	4:51.3	12:00:35
435	42	545	Järvalt Renna	1977	 	01:07:58	23:31	N21	24	4:51.3	12:00:47
436	 	281	Aaslaid Kaido	1967	 	01:08:01	23:34	M40	88	4:51.5	12:00:42
437	 	485	Ermann Rait	1980	Rademar	01:08:07	23:40	M21	173	4:51.9	12:00:39
438	 	184	Kaur Jaanus	1963	Skanska	01:08:09	23:42	M40	89	4:52.1	12:00:40
439	 	205	Talu Kristjan	1973	 	01:08:09	23:42	M35	75	4:52.1	12:00:42
440	 	208	Lapõnin Arne	1993	 	01:08:10	23:43	M18	19	4:52.2	12:00:35
441	 	558	Kaarma Risto	1991	adidas	01:08:12	23:45	M21	174	4:52.3	12:00:45
442	 	187	Mets Olav	1979	G4S SK	01:08:13	23:45	M21	175	4:52.3	12:00:54
443	 	753	Muzakko Margo	1974	 	01:08:14	23:47	M35	76	4:52.4	12:00:44
444	 	767	Nilson Koit	1961	 	01:08:14	23:47	M40	90	4:52.4	12:00:45
445	43	230	Kindlam Jaanika	1976	Elioni Spordiklubi	01:08:15	23:48	N21	25	4:52.5	12:00:33
446	44	677	Lees Loviisa	1996	Nõmme Spordiklubi	01:08:17	23:49	N16	4	4:52.6	12:00:45
447	 	1068	Vares Veljo	1981	 	01:08:18	23:51	M21	176	4:52.7	12:00:36
448	 	144	Teder Gunnar	1962	 	01:08:18	23:51	M40	91	4:52.7	12:00:36
449	45	195	Pihu Elinora	1987	Rademar	01:08:20	23:52	N21	26	4:52.8	12:00:52
450	 	523	Ivanov Marek	1973	 	01:08:20	23:52	M35	77	4:52.8	12:00:53
451	 	898	Rändla Kaupo	1980	 	01:08:23	23:55	M21	177	4:53.0	12:00:47
452	 	1117	Karu Kaarel	1975	P.D. Team	01:08:28	24:01	M35	78	4:53.4	12:00:34
453	 	1159	Lükk Villu	1980	 	01:08:30	24:03	M21	178	4:53.6	12:01:11
454	46	202	Treffner Kadri	1985	Kõlleste Spordiklubi	01:08:34	24:07	N21	27	4:53.9	12:00:37
455	 	214	Rebane Janno	1980	 	01:08:35	24:08	M21	179	4:53.9	12:00:58
456	47	91	Miller Margit	1984	Sportkeskus.ee	01:08:35	24:08	N21	28	4:53.9	12:00:48
457	 	730	Mandli Kuldar	1986	MGM Team	01:08:35	24:08	M21	180	4:54.0	12:00:41
458	 	155	Reimets Ramon	1985	 	01:08:36	24:09	M21	181	4:54.0	12:00:27
459	 	785	Ojasalu Marek	1984	 	01:08:36	24:09	M21	182	4:54.0	12:01:07
460	 	982	Tammist Koit	1969	 	01:08:37	24:09	M40	92	4:54.1	12:01:13
461	 	937	Sillaots Martin	1971	 	01:08:39	24:11	M35	79	4:54.2	12:01:05
462	48	563	Kajari Maris	1978	Sparta	01:08:39	24:11	N21	29	4:54.2	12:01:10
463	 	181	Zirnask Mario	1988	Rademar/adidas	01:08:39	24:12	M21	183	4:54.2	12:00:50
464	 	239	Kallavus Ain	1963	 	01:08:44	24:16	M40	93	4:54.5	12:00:31
465	 	1138	Suslov Aleksander	1963	Tempo	01:08:44	24:17	M40	94	4:54.6	12:00:32
466	 	586	Kaur Ilmar	1974	 	01:08:47	24:20	M35	80	4:54.8	12:00:52
467	 	914	Samarüütel Jaak	1976	 	01:08:50	24:23	M21	184	4:55.0	12:01:07
468	 	194	Bachaus Arno	1978	 	01:08:52	24:24	M21	185	4:55.1	12:00:49
469	 	215	Lopsik Andrei	1955	 	01:09:01	24:33	M50	24	4:55.8	12:00:45
470	 	229	Zirnask Gunnar	1956	Rademar/adidas	01:09:03	24:36	M50	25	4:55.9	12:00:48
471	49	1136	Kasenurm Laura	1997	Tempo	01:09:04	24:37	N16	5	4:56.0	12:00:37
472	 	481	Englas Valdur	1980	 	01:09:05	24:38	M21	186	4:56.1	12:00:34
473	 	567	Kaljumäe Aivo	1972	Hansa SK	01:09:05	24:38	M35	81	4:56.1	12:00:58
474	50	585	Kaubi Kristel	1973	 	01:09:15	24:48	N35	6	4:56.8	12:00:36
475	 	1170	Ervin Ahti	1964	Vike	01:09:18	24:51	M40	95	4:57.0	12:01:05
476	 	799	Pajuste Heiki	1970	HP-Sport team	01:09:20	24:52	M40	96	4:57.1	12:00:41
477	 	1102	Võsu Margo	1977	Stamina SK	01:09:22	24:55	M21	187	4:57.3	12:00:46
478	51	236	Larin Ragne	1987	 	01:09:33	25:06	N21	30	4:58.1	12:00:50
479	 	252	Jürgens Janar	1975	 	01:09:37	25:10	M35	82	4:58.4	12:00:32
480	 	838	Pulver Margus	1968	Chill Out Sport	01:09:38	25:10	M40	97	4:58.4	12:00:51
481	52	679	Leetmaa Õnne-Liina	1984	 	01:09:38	25:11	N21	31	4:58.4	12:00:35
482	 	166	Siiak Indrek	1973	 	01:09:44	25:17	M35	83	4:58.9	12:01:02
483	 	947	Soome Heiki	1972	 	01:09:47	25:20	M35	84	4:59.1	12:00:46
484	 	473	Eljandi Rein	1944	 	01:09:47	25:20	M60	7	4:59.1	12:01:10
485	 	1171	Eks Elev	1976	SKF	01:09:47	25:20	M21	188	4:59.1	12:00:23
486	 	685	Lembinen Ragnar	1993	Tallinna Vesi	01:09:48	25:21	M18	20	4:59.2	12:00:48
487	 	233	Varblas Evert	1958	 	01:09:50	25:23	M50	26	4:59.3	12:00:31
488	 	1064	Valge Ivar	1951	Stamina SK	01:09:50	25:23	M50	27	4:59.3	12:00:45
489	 	1151	Purru Frederik	1996	FC Flora 96	01:09:54	25:27	M16	13	4:59.6	12:00:40
490	53	212	Aun Eret	1984	MTA SK	01:09:57	25:29	N21	32	4:59.8	12:00:42
491	54	735	Matina Olga	1987	Juunior	01:10:00	25:33	N21	33	5:00.0	12:00:46
492	55	284	Krüspan Kristiina	1974	 	01:10:00	25:33	N35	7	5:00.0	12:00:36
493	56	584	Kattai Anu	1979	 	01:10:02	25:35	N21	34	5:00.1	12:00:42
494	 	1183	Järva Juho	1972	 	01:10:05	25:38	M35	85	5:00.4	12:01:05
495	 	680	Lehis Sven	1968	 	01:10:06	25:39	M40	98	5:00.5	12:00:46
496	 	1133	Kaarma Henri	1974	Sampo SK	01:10:12	25:45	M35	86	5:00.8	12:00:38
497	57	197	Kase Gerli	1978	 	01:10:14	25:47	N21	35	5:01.0	12:00:50
498	 	1173	Klaaser Gert	1968	 	01:10:16	25:49	M40	99	5:01.2	12:00:46
499	 	589	Keinast Kaarel	1984	 	01:10:17	25:50	M21	189	5:01.2	12:00:43
500	 	1036	Tsherkassov Mairo	1972	 	01:10:17	25:50	M35	87	5:01.2	12:01:05
501	58	668	Laikre Katrin	1970	 	01:10:19	25:51	N40	5	5:01.3	12:00:43
502	59	351	Treu Merilin	1994	 	01:10:25	25:57	N16	6	5:01.8	12:00:35
503	60	622	Kruus Marje	1981	 	01:10:26	25:59	N21	36	5:01.9	12:00:48
504	 	224	Salmar Avo	1942	 	01:10:27	26:00	M60	8	5:01.9	12:00:33
505	 	618	Kostjukov Jaan	1987	 	01:10:28	26:01	M21	190	5:02.0	12:00:32
506	61	682	Leht Anneliis	1984	 	01:10:29	26:02	N21	37	5:02.1	12:01:05
507	 	1045	Tähve Milt	1963	 	01:10:34	26:07	M40	100	5:02.4	12:01:04
508	 	999	Tiisvend Jaanus	1975	3J	01:10:37	26:09	M35	88	5:02.6	12:01:05
509	 	517	Häkkinen Andres	1948	 	01:10:40	26:13	M60	9	5:02.9	12:00:52
510	 	289	Saks Raimond	1960	Elioni SK	01:10:45	26:18	M50	28	5:03.2	12:00:35
511	62	649	Kõiv Laura	1978	 	01:10:45	26:18	N21	38	5:03.2	12:00:53
512	 	596	Kikas Kalmer	1973	 	01:10:51	26:23	M35	89	5:03.6	12:00:43
513	 	306	Kristin Toomas	1970	 	01:10:52	26:24	M40	101	5:03.7	12:00:59
514	 	176	Kull Tarvo	1971	 	01:10:56	26:29	M35	90	5:04.0	12:00:32
515	 	760	Männi Mattias	1983	EMT	01:10:58	26:31	M21	191	5:04.2	12:00:38
516	 	636	Kurikjan Rainer	1977	 	01:11:00	26:32	M21	192	5:04.3	12:00:26
517	 	964	Särak Ivo	1977	saue SK	01:11:02	26:35	M21	193	5:04.5	12:01:08
518	 	948	Soon Silver	1988	 	01:11:03	26:36	M21	194	5:04.5	12:01:03
519	 	522	Innos Steven	1992	 	01:11:03	26:36	M18	21	5:04.5	 
520	 	868	Randmäe Margus	1981	Pärnu Kahe Silla klubi	01:11:07	26:40	M21	195	5:04.8	12:00:58
521	 	725	Maasing Kaupo	1981	Hansa SK	01:11:14	26:46	M21	196	5:05.3	12:01:17
522	 	519	Härmaste Rannar	1983	Smarten	01:11:20	26:53	M21	197	5:05.7	12:00:35
523	 	254	Mändla Raul	1972	 	01:11:20	26:53	M35	91	5:05.7	12:00:37
524	 	238	Puks Maido	1983	 	01:11:25	26:58	M21	198	5:06.1	12:01:11
525	 	873	Rehtla Renno	1985	 	01:11:26	26:58	M21	199	5:06.1	12:00:40
526	 	715	Lõhmus Mikk	1976	 	01:11:26	26:59	M21	200	5:06.2	12:00:51
527	 	538	Jõesoo Urmas	1975	 	01:11:28	27:01	M35	92	5:06.3	12:00:54
528	 	1047	Uiboleht Toomas	1967	 	01:11:29	27:02	M40	102	5:06.4	12:01:24
529	 	206	Jesse Riho	1967	 	01:11:30	27:03	M40	103	5:06.4	12:00:43
530	63	507	Heinaru Maris	1979	SS Maraton	01:11:31	27:04	N21	39	5:06.5	12:00:50
531	 	189	Rebane Urmas	1973	 	01:11:31	27:04	M35	93	5:06.5	12:00:39
532	 	824	Piskunov Vladimir	1955	 	01:11:33	27:06	M50	29	5:06.7	12:01:00
533	 	829	Pool Tarmo	1983	 	01:11:36	27:09	M21	201	5:06.9	 
534	 	160	Naaris Neeme	1973	LIVIKO	01:11:37	27:09	M35	94	5:06.9	12:00:37
535	 	192	Peterson Kristjan	1986	 	01:11:39	27:12	M21	202	5:07.1	12:00:21
536	 	997	Tern Heigo	1972	 	01:11:39	27:12	M35	95	5:07.1	12:01:06
537	 	866	Rakaselg Eero	1968	 	01:11:41	27:14	M40	104	5:07.2	12:00:34
538	 	267	Press Jüri	1974	 	01:11:41	27:14	M35	96	5:07.2	12:00:58
539	 	580	Karu Siim	1982	 	01:11:42	27:14	M21	203	5:07.3	12:00:37
540	 	272	Meentalo Tarmo	1973	 	01:11:42	27:15	M35	97	5:07.3	12:00:45
541	 	709	Lukats Taivo	1968	 	01:11:47	27:19	M40	105	5:07.6	12:00:35
542	64	1017	Toomingas Terje	1982	Stamina SK	01:11:47	27:20	N21	40	5:07.7	12:01:05
543	 	1101	Vorontsov Aleksei	1973	Uspex	01:11:48	27:21	M35	98	5:07.7	12:01:12
544	65	450	Arike Liisa	1983	 	01:11:48	27:21	N21	41	5:07.7	12:00:37
545	 	1156	Veelma Gerd	1975	Andrese klaasi AS	01:11:49	27:21	M35	99	5:07.8	12:01:04
546	 	270	Vaher Indrek	1973	 	01:11:49	27:22	M35	100	5:07.8	12:00:43
547	 	1116	Maripuu Madis	1970	 	01:11:50	27:22	M40	106	5:07.8	12:01:08
548	 	1165	Doronin Jevgeni	1980	T28A Spordiklubi	01:11:51	27:24	M21	204	5:07.9	12:01:13
549	 	882	Remmel Ernesto	1971	 	01:11:52	27:25	M35	101	5:08.0	12:00:46
550	66	251	Ernits Ingrit	1965	 	01:11:55	27:28	N40	6	5:08.2	12:00:35
551	 	198	Läns Indrek	1975	 	01:12:00	27:32	M35	102	5:08.5	12:01:00
552	 	244	Puidak Priit	1940	Eesti Worldloppeti Klubi	01:12:01	27:34	M70	2	5:08.7	12:00:57
553	67	684	Lemberg Anneken	1977	 	01:12:03	27:36	N21	42	5:08.8	12:00:37
554	68	666	Lahe Riina	1971	Marilate	01:12:04	27:36	N35	8	5:08.8	12:00:42
555	 	294	Lõhmus Raul	1970	EMT Topeltpluss klient	01:12:04	27:37	M40	107	5:08.9	12:00:37
556	 	336	Viherpuu Hannes	1972	 	01:12:05	27:37	M35	103	5:08.9	12:00:40
557	 	243	Altmets Valev	1967	 	01:12:06	27:39	M40	108	5:09.0	12:00:31
558	 	949	Soosaar Andres	1978	 	01:12:06	27:39	M21	205	5:09.0	12:01:00
559	 	235	Kukke Heikki	1973	Sampo SK	01:12:07	27:39	M35	104	5:09.0	12:00:55
560	 	728	Maisvee Rando	1979	 	01:12:07	27:40	M21	206	5:09.1	12:00:59
561	 	980	Tammaru Madis	1985	 	01:12:11	27:43	M21	207	5:09.3	12:00:41
562	 	1127	Leppik Janec	1970	Harrastajate Spordiklubi	01:12:11	27:44	M40	109	5:09.4	12:00:48
563	 	218	Mansberg Heigo	1974	 	01:12:12	27:45	M35	105	5:09.5	12:01:12
564	 	559	Kaasik Kaido	1978	Rademar/adidas	01:12:13	27:45	M21	208	5:09.5	12:00:48
565	 	291	Pähklamäe Viktor	1969	 	01:12:16	27:48	M40	110	5:09.7	12:00:39
566	 	1053	Uukkivi Raigo	1979	 	01:12:17	27:49	M21	209	5:09.8	12:00:31
567	 	865	Rahula Margus	1971	 	01:12:19	27:52	M35	106	5:09.9	12:00:49
568	 	261	Tambaum Vahur	1992	 	01:12:20	27:52	M18	22	5:10.0	12:01:04
569	 	231	Tinast Tauno	1971	 	01:12:20	27:53	M35	107	5:10.0	12:00:46
570	 	302	Soodla Raul	1968	 	01:12:21	27:54	M40	111	5:10.1	12:00:44
571	 	338	Plovits Kaido	1977	 	01:12:22	27:55	M21	210	5:10.2	12:00:44
572	69	637	Kurist Helina	1995	 	01:12:24	27:57	N16	7	5:10.3	12:00:49
573	 	280	Niit Jaak	1968	 	01:12:24	27:57	M40	112	5:10.3	12:01:01
574	70	246	Belokurova Eve	1960	SK Känguru	01:12:27	27:59	N50	5	5:10.5	12:00:42
575	 	924	Seebold Sten	1983	 	01:12:29	28:02	M21	211	5:10.7	12:00:54
576	 	863	Rahula Andres	1975	CluBB	01:12:32	28:05	M35	108	5:10.9	12:00:28
577	 	904	Saaremäel Indrek	1974	 	01:12:36	28:08	M35	109	5:11.1	12:01:01
578	 	1118	Lepp Madis	1968	 	01:12:37	28:10	M40	113	5:11.2	12:00:51
579	 	337	Tähepõld Margus	1978	 	01:12:38	28:10	M21	212	5:11.3	12:00:40
580	 	255	Alajaan Andres	1948	 	01:12:43	28:15	M60	10	5:11.6	12:00:46
581	71	723	Maasik Laura	1993	Nõmme KJK	01:12:44	28:17	N18	3	5:11.7	12:00:58
582	72	722	Maasik Kadri	1981	Nõmme KJK	01:12:44	28:17	N21	43	5:11.7	12:00:58
583	 	616	Koshik Oleg	1985	SRD SK	01:12:45	28:18	M21	213	5:11.8	12:00:52
584	 	193	Treiberg Andrus	1980	Hansa SK	01:12:53	28:26	M21	214	5:12.3	12:00:34
585	 	841	Puusep Rynaldo	1999	 	01:12:54	28:27	M16	14	5:12.4	12:00:45
586	 	221	Püvi Kaupo	1968	 	01:12:55	28:27	M40	114	5:12.5	12:00:30
587	 	854	Pärna Ranel	1996	Tallinna Sõudeklubi	01:12:58	28:30	M16	15	5:12.7	12:00:30
588	 	571	Kalmu Kalvo	1973	 	01:12:58	28:31	M35	110	5:12.7	12:00:57
589	 	814	Peetrimägi Siim	1981	 	01:13:00	28:32	M21	215	5:12.8	12:01:03
590	 	744	Mikk Harri	1973	 	01:13:00	28:33	M35	111	5:12.9	12:01:16
591	 	919	Saukas Andres	1956	 	01:13:03	28:36	M50	30	5:13.1	12:00:53
592	 	271	Luus Arvo	1938	 	01:13:04	28:36	M70	3	5:13.1	12:00:51
593	 	1160	Liivrand Eero	1965	Sparta	01:13:07	28:40	M40	115	5:13.3	12:01:11
594	 	1012	Tooding Meelis	1973	Wellsport	01:13:07	28:40	M35	112	5:13.4	12:00:47
595	 	578	Karp Veiko	1964	meie	01:13:08	28:41	M40	116	5:13.4	12:00:41
596	73	276	Ott Marje	1959	 	01:13:09	28:42	N50	6	5:13.5	12:00:40
597	74	748	Mulla Kaja	1966	Stamina SK	01:13:13	28:46	N40	7	5:13.8	12:00:47
598	75	245	Possul Kadri	1971	 	01:13:16	28:49	N35	9	5:14.0	12:00:52
599	 	557	Kaarma Rain	1968	adidas	01:13:17	28:50	M40	117	5:14.1	12:00:53
600	76	1082	Viik Anni	1991	 	01:13:19	28:52	N21	44	5:14.2	12:00:42
601	 	465	Drobet Asko	1977	 	01:13:22	28:55	M21	216	5:14.5	12:01:21
602	 	806	Parts Veiko	1971	 	01:13:26	28:59	M35	113	5:14.7	12:01:02
603	77	936	Sillaots Kristel	1975	Pakendikeskus AS	01:13:29	29:02	N35	10	5:14.9	12:00:29
604	78	279	Takjas Kaire	1971	Elioni Spordiklubi	01:13:32	29:05	N35	11	5:15.1	12:00:59
605	 	614	Korjus Andres	1946	 	01:13:38	29:11	M60	11	5:15.6	12:00:48
606	79	778	Nõmmik Marianna	1969	 	01:13:40	29:13	N40	8	5:15.7	12:01:16
607	 	264	Kasesalu Hardo	1982	 	01:13:42	29:15	M21	217	5:15.9	12:00:39
608	 	886	Rikkinen Tarmo	1972	SWECO	01:13:43	29:16	M35	114	5:15.9	12:01:03
609	 	173	Maasikrand Mart	1971	Pilsner Sport Power	01:13:43	29:16	M35	115	5:16.0	 
610	80	282	Sangla Karin	1971	 	01:13:44	29:17	N35	12	5:16.0	12:00:39
611	 	263	Peilman Andres	1978	AUX12V+	01:13:45	29:18	M21	218	5:16.1	12:00:38
612	81	825	Ploompuu Riika	1970	Hansa SK	01:13:46	29:18	N40	9	5:16.1	12:00:43
613	 	495	Greebe Alpo	1964	 	01:13:46	29:18	M40	118	5:16.1	12:00:57
614	 	536	Jõeleht Urmas	1964	 	01:13:49	29:22	M40	119	5:16.4	12:00:43
615	 	957	Sunts Herko	1977	 	01:13:53	29:26	M21	219	5:16.6	12:01:11
616	82	566	Kaljulaid Kersti	1969	 	01:13:57	29:30	N40	10	5:16.9	12:00:53
617	 	1172	Üprus Fred	1968	Seicom	01:14:00	29:33	M40	120	5:17.2	 
618	 	262	Arutyunyan David	1985	 	01:14:01	29:34	M21	220	5:17.2	12:01:04
619	83	1112	Ütsmüts Kairi	1972	JCI Spordiklubi	01:14:03	29:35	N35	13	5:17.3	12:00:43
620	84	297	Lehtoja Eha	1960	 	01:14:11	29:44	N50	7	5:17.9	12:00:38
621	85	269	Valter Järvi	1956	 	01:14:14	29:47	N50	8	5:18.2	12:00:39
622	 	819	Pihlak Martin	1977	 	01:14:15	29:48	M21	221	5:18.2	12:00:47
623	 	872	Reedik Lauri	1989	 	01:14:18	29:51	M21	222	5:18.4	12:00:31
624	86	290	Kuusik Katre	1978	 	01:14:19	29:52	N21	45	5:18.5	 
625	 	1107	Vürmer Silver	1980	 	01:14:19	29:52	M21	223	5:18.5	12:01:16
626	 	816	Pello Ivar	1977	EMT	01:14:19	29:52	M21	224	5:18.5	12:01:08
627	 	892	Roosild Kristjan	1985	 	01:14:24	29:57	M21	225	5:18.8	12:01:24
628	 	880	Reintam Alo	1972	 	01:14:32	30:05	M35	116	5:19.4	12:00:53
629	 	464	Danilas Tõnu	1968	 	01:14:34	30:07	M40	121	5:19.6	12:01:00
630	 	736	Matsar Raul	1970	 	01:14:35	30:08	M40	122	5:19.6	12:00:46
631	 	257	Tormet Margo	1980	 	01:14:36	30:09	M21	226	5:19.7	12:01:08
632	87	562	Kahur Kristiina	1971	FB Jooksmine	01:14:37	30:10	N35	14	5:19.8	12:00:51
633	 	247	Kello Gert	1977	 	01:14:40	30:12	M21	227	5:20.0	12:01:13
634	88	328	Jesse Kristin	1992	 	01:14:40	30:13	N18	4	5:20.0	12:00:55
635	 	954	Sulemenkov Igor	1959	 	01:14:40	30:13	M50	31	5:20.0	12:00:56
636	 	248	Soomre Teet	1973	 	01:14:45	30:18	M35	117	5:20.3	12:00:36
637	 	1174	Metsaorg Jüri	1966	Maria Jooksuklubi	01:14:47	30:19	M40	123	5:20.5	12:00:32
638	89	598	Kimber-Kaarma Lea	1970	CMYK TEAM	01:14:48	30:21	N40	11	5:20.6	12:00:53
639	90	817	Peterson Triin	1971	 	01:14:56	30:29	N35	15	5:21.2	12:00:53
640	 	678	Leesi Raivo	1977	 	01:14:57	30:29	M21	228	5:21.2	12:00:33
641	 	943	Sinisalu Andres	1968	KimaRillen	01:14:57	30:30	M40	124	5:21.2	12:01:02
642	91	479	Elmik Liis	1980	 	01:14:59	30:32	N21	46	5:21.3	12:00:54
643	 	277	Ruusmaa Hando	1977	 	01:15:01	30:34	M21	229	5:21.5	12:00:59
644	 	1162	Shuvalov Anatol	1948	Start	01:15:06	30:39	M60	12	5:21.8	12:01:03
645	92	950	Soovik Mari-Liis	1987	 	01:15:07	30:40	N21	47	5:21.9	12:00:47
646	 	659	Kütt Rainer	1972	 	01:15:07	30:40	M35	118	5:21.9	12:00:51
647	93	1046	Udusaar Aet	1984	Elioni Spordiklubi	01:15:08	30:41	N21	48	5:22.0	12:00:34
648	94	311	Salmistu Merle	1978	 	01:15:09	30:42	N21	49	5:22.1	12:00:59
649	 	766	Nemvalts Margus	1982	 	01:15:10	30:43	M21	230	5:22.1	12:01:09
650	95	932	Sibrits Ketrin	1989	 	01:15:14	30:47	N21	50	5:22.4	12:00:51
651	96	805	Parts Valli	1983	 	01:15:17	30:50	N21	51	5:22.6	12:00:54
652	 	979	Tamm Olev	1963	Elion SK	01:15:20	30:53	M40	125	5:22.9	12:00:50
653	 	353	Gold Kristjan	1982	 	01:15:21	30:54	M21	231	5:23.0	12:00:59
654	 	1055	Uusmaa Teet	1988	5xa	01:15:24	30:57	M21	232	5:23.2	12:00:37
655	 	320	Vuks Ahti	1972	 	01:15:28	31:01	M35	119	5:23.4	12:00:41
656	 	989	Tee Dmitri	1972	Uspex	01:15:29	31:02	M35	120	5:23.5	12:00:41
657	 	1065	Valgma Hillar	1979	 	01:15:32	31:05	M21	233	5:23.7	12:01:08
658	 	797	Pajumägi Eduard	1968	Elioni Spordiklubi	01:15:34	31:07	M40	126	5:23.9	12:00:56
659	 	688	Lepiku Priit	1967	 	01:15:35	31:08	M40	127	5:23.9	12:01:18
660	97	427	Aero Anu	1971	Vanalinna Hariduskolleegium	01:15:37	31:10	N35	16	5:24.1	12:00:53
661	 	740	Meltsas Veiko	1974	 	01:15:39	31:11	M35	121	5:24.2	12:00:51
662	 	426	Ader Jaak	1950	 	01:15:40	31:12	M60	13	5:24.3	12:01:13
663	 	1111	Üprus Ronald	1992	 	01:15:44	31:17	M18	23	5:24.6	12:00:48
664	98	554	Jürjo Helen	1978	Saaremaajooks.ee	01:15:45	31:18	N21	52	5:24.7	12:01:02
665	 	1129	Kangur Ove	1986	 	01:15:46	31:19	M21	234	5:24.7	12:00:50
666	 	828	Ponomarenko Juri	1965	 	01:15:49	31:22	M40	128	5:24.9	12:01:07
667	 	968	Zarikov Valeri	1958	 	01:15:50	31:22	M50	32	5:25.0	12:01:05
668	 	827	Ponomarenko Jura	1997	 	01:15:50	31:22	M16	16	5:25.0	12:01:06
669	 	273	Lell Alari	1976	 	01:15:50	31:23	M21	235	5:25.0	12:00:49
670	99	287	Apart Tiina	1977	Best Diskokoondis	01:15:50	31:23	N21	53	5:25.0	12:00:50
671	100	1044	Tõnne Virve	1970	 	01:15:51	31:23	N40	12	5:25.0	12:01:10
672	101	283	Jesse Karin	1965	 	01:15:51	31:24	N40	13	5:25.1	12:00:55
673	 	223	Veelain Ermo	1962	 	01:15:54	31:27	M40	129	5:25.3	12:01:02
674	102	1018	Toomla Ragnar	1976	SEB	01:15:55	31:28	N21	54	5:25.4	12:00:39
675	 	326	Uusväli Joonatan	1990	 	01:15:57	31:29	M21	236	5:25.5	12:01:20
676	 	304	Leek Tarmo	1955	 	01:15:57	31:30	M50	33	5:25.5	12:01:09
677	 	319	Viin Imre	1976	Kolm Paksu	01:16:04	31:37	M21	237	5:26.0	12:00:43
678	 	303	Ruul Mati	1962	 	01:16:07	31:40	M40	130	5:26.2	12:00:34
679	 	1025	Trees Priit	1978	 	01:16:08	31:41	M21	238	5:26.3	12:01:02
680	 	313	Üprus Erik-Voldemar	1942	 	01:16:10	31:43	M60	14	5:26.4	12:00:45
681	 	295	Pelisaar Ago	1979	 	01:16:11	31:44	M21	239	5:26.5	12:01:21
682	 	1098	Volt Raul	1984	AS Smarten Logistics	01:16:14	31:47	M21	240	5:26.7	12:01:09
683	 	810	Pedak Karl	1974	 	01:16:16	31:49	M35	122	5:26.9	12:01:21
684	103	993	Tempel Marju	1974	Matate sk	01:16:17	31:49	N35	17	5:26.9	12:00:51
685	104	890	Room Ene	1974	 	01:16:17	31:50	N35	18	5:26.9	12:00:54
686	 	660	Laanearu Janek	1972	 	01:16:19	31:52	M35	123	5:27.1	12:01:01
687	 	436	Allikivi Raul	1979	 	01:16:21	31:54	M21	241	5:27.2	12:00:52
688	 	592	Kesa Raimond	1975	 	01:16:25	31:58	M35	124	5:27.5	12:01:19
689	105	1077	Veski Piret	1984	 	01:16:27	31:59	N21	55	5:27.6	12:01:11
690	106	458	Bent Maarika	1975	 	01:16:28	32:01	N35	19	5:27.7	12:00:43
691	 	992	Telvar Tarmo	1977	 	01:16:29	32:02	M21	242	5:27.8	12:01:05
692	 	851	Pärna Arno	1969	 	01:16:30	32:03	M40	131	5:27.9	12:00:51
693	107	532	Juhanson Jaana	1985	 	01:16:30	32:03	N21	56	5:27.9	12:01:16
694	 	658	Küng Valdur	1961	Tallinna Vesi	01:16:31	32:04	M40	132	5:27.9	12:01:20
695	 	973	Taimla Kaido	1970	 	01:16:31	32:04	M40	133	5:28.0	12:00:42
696	108	308	Lugenberg Külliki	1976	 	01:16:34	32:07	N21	57	5:28.1	12:00:53
697	109	314	Piskunov Marlen	1977	 	01:16:36	32:09	N21	58	5:28.3	12:00:38
698	 	259	Käärt Viljar	1980	 	01:16:38	32:11	M21	243	5:28.5	12:01:08
699	 	440	Andla Olavi	1970	Blue Drum	01:16:42	32:15	M40	134	5:28.7	12:01:21
700	 	278	Einmaa Tiit	1977	 	01:16:42	32:15	M21	244	5:28.7	12:00:37
701	110	315	Talu Juta	1945	 	01:16:43	32:16	N60	1	5:28.8	12:00:46
702	111	518	Härm Aili	1975	 	01:16:44	32:17	N35	20	5:28.9	12:00:40
703	 	921	Saveljev Andrus	1975	 	01:16:46	32:18	M35	125	5:29.0	12:00:59
704	112	462	Bärengrub Brit	1985	LIVIKO	01:16:49	32:21	N21	59	5:29.2	 
705	113	711	Luks Liselle	1994	 	01:16:54	32:27	N16	8	5:29.6	12:00:57
706	 	318	Luks Lauri	1970	 	01:16:55	32:28	M40	135	5:29.6	12:00:57
707	 	923	Schweigert Erwin	1980	ESC	01:16:56	32:29	M21	245	5:29.7	12:01:18
708	114	975	Talihärm Maire	1970	Eesti Raudtee Spordiklubi	01:17:10	32:42	N40	14	5:30.7	12:00:51
709	 	1125	Kakko Ard-Kristian	1972	 	01:17:10	32:43	M35	126	5:30.7	12:01:10
710	 	268	Ojakäär Toomas	1974	 	01:17:18	32:50	M35	127	5:31.3	12:01:08
711	115	862	Rahe Laura	1984	Jooksja	01:17:19	32:52	N21	60	5:31.4	12:01:07
712	 	147	Sikka Toivo	1962	 	01:17:20	32:53	M40	136	5:31.4	12:01:19
713	116	776	Nõmm Anneli	1980	 	01:17:23	32:55	N21	61	5:31.6	12:00:49
714	117	710	Luks Külliki	1970	 	01:17:24	32:57	N40	15	5:31.7	12:00:57
715	118	574	Kangur Lilyda	1973	 	01:17:24	32:57	N35	21	5:31.7	12:00:49
716	 	804	Parmas Aalo	1957	 	01:17:28	33:01	M50	34	5:32.0	12:01:09
717	119	352	Seljak Katrin	1971	 	01:17:28	33:01	N35	22	5:32.0	12:00:55
718	120	803	Pani Piret	1981	 	01:17:28	33:01	N21	62	5:32.0	12:00:52
719	 	627	Kuhlbach Hannes	1969	 	01:17:34	33:06	M40	137	5:32.4	12:01:10
720	121	497	Gricevicius Kelli	1985	Sparta	01:17:34	33:07	N21	63	5:32.4	12:00:50
721	122	340	Pukk Eva	1973	 	01:17:35	33:08	N35	23	5:32.5	12:00:47
722	123	325	Pruuli Miina	1994	 	01:17:36	33:09	N16	9	5:32.6	12:00:59
723	124	1066	Valk Kairit	1980	Elioni Spordiklubi	01:17:38	33:10	N21	64	5:32.7	12:01:10
724	 	639	Kuslapuu Jüri	1956	 	01:17:39	33:12	M50	35	5:32.8	12:01:12
725	125	310	Aruvald Kairi	1979	 	01:17:41	33:13	N21	65	5:32.9	12:00:41
726	126	867	Rakaselg Leili	1973	 	01:17:41	33:14	N35	24	5:32.9	12:00:48
727	 	942	Sinirand Melvin	1972	 	01:17:41	33:14	M35	128	5:32.9	12:01:06
728	127	288	Kuus Maila	1972	 	01:17:44	33:16	N35	25	5:33.1	12:00:36
729	128	1000	Tiits Jana	1983	 	01:17:45	33:17	N21	66	5:33.2	12:01:15
730	 	1179	Aller Kristjan	1976	 	01:17:48	33:20	M21	246	5:33.4	12:01:17
731	129	339	Valge Kerli	1987	 	01:17:48	33:21	N21	67	5:33.4	12:00:43
732	130	1081	Viielo Eli	1992	 	01:17:52	33:25	N18	5	5:33.7	12:00:42
733	131	327	Metsaorg Maria	1993	Maria jooksuklubi	01:17:53	33:26	N18	6	5:33.8	12:00:40
734	 	845	Põld Tõnu	1975	 	01:17:54	33:26	M35	129	5:33.8	12:01:15
735	 	696	Lillenthal Karel	1982	 	01:17:57	33:29	M21	247	5:34.0	12:01:23
736	 	461	Bolinches Luis	1977	 	01:18:00	33:32	M21	248	5:34.3	12:01:00
737	132	309	Sarri Kristel	1963	Hooler	01:18:09	33:42	N40	16	5:34.9	12:01:00
738	 	771	Nukki Rene	1974	 	01:18:13	33:46	M35	130	5:35.2	12:00:58
739	133	676	Lavrentjeva Aleksandra	1980	 	01:18:14	33:47	N21	68	5:35.3	12:00:40
740	 	307	Lehesmets Taivo	1957	 	01:18:19	33:52	M50	36	5:35.7	12:01:07
741	 	1100	Voolaine Andrus	1954	 	01:18:19	33:52	M50	37	5:35.7	12:01:10
742	134	1051	Utt Merike	1963	 	01:18:23	33:56	N40	17	5:35.9	12:01:14
743	135	573	Kangur Kaja	1972	 	01:18:23	33:56	N35	26	5:35.9	12:00:58
744	136	600	Kindel Ulla	1971	 	01:18:23	33:56	N35	27	5:35.9	12:00:57
745	 	370	Rosenberg Tiit	1946	 	01:18:24	33:56	M60	15	5:36.0	12:00:35
746	137	356	Laretei Riina	1961	Elioni Spordiklubi	01:18:24	33:57	N40	18	5:36.0	12:00:37
747	138	1078	Veskimägi Lembe	1972	 	01:18:27	33:59	N35	28	5:36.2	12:01:19
748	139	750	Muni Pille	1982	JCI Spordiklubi	01:18:28	34:01	N21	69	5:36.3	12:00:42
749	 	203	Hendla Ivar	1983	 	01:18:30	34:03	M21	249	5:36.4	12:01:04
750	140	299	Keldu Maiken	1975	 	01:18:32	34:05	N35	29	5:36.6	12:01:09
751	 	1113	Pärtma Enn	1955	 	01:18:35	34:08	M50	38	5:36.8	12:00:49
752	141	365	Gildemann Ele-Kaja	1979	 	01:18:40	34:13	N21	70	5:37.2	12:01:01
753	 	848	Pälling Vladislav	1983	 	01:18:51	34:24	M21	250	5:37.9	12:01:21
754	 	547	Järvekülg Tiit	1951	 	01:18:54	34:27	M50	39	5:38.2	12:01:23
755	142	800	Pajuste Helis	1997	HP-Sport team	01:18:57	34:30	N16	10	5:38.4	12:00:40
756	 	296	Kimmel Veljo	1965	 	01:18:58	34:30	M40	138	5:38.4	12:00:46
757	 	818	Peterson Urmas	1984	 	01:18:59	34:32	M21	251	5:38.5	12:01:13
758	143	790	Orula Silja	1985	Tantsuklubi Shat?	01:19:02	34:35	N21	71	5:38.7	12:00:37
759	144	1016	Toomingas Ave	1974	 	01:19:09	34:42	N35	30	5:39.2	12:01:06
760	145	752	Mustkivi Siiri	1973	Mercury	01:19:17	34:50	N35	31	5:39.8	12:01:02
761	 	438	Altmets Mikk	1969	 	01:19:29	35:02	M40	139	5:40.7	12:00:41
762	 	323	Kangro Kalev	1965	 	01:19:33	35:06	M40	140	5:40.9	12:01:13
763	146	293	Kuningas Ingrid	1964	 	01:19:34	35:07	N40	19	5:41.0	12:00:55
764	 	324	Kukk Andrus	1970	 	01:19:45	35:18	M40	141	5:41.8	12:00:44
765	 	222	Eero Janar	1988	 	01:19:49	35:21	M21	252	5:42.0	12:00:32
766	147	588	Keel Kertu	1980	 	01:19:54	35:27	N21	72	5:42.4	12:01:07
767	 	835	Pruuli Riho	1952	EWK	01:19:56	35:29	M50	40	5:42.6	12:01:07
768	148	1126	Ojamets Salme	1959	 	01:19:57	35:30	N50	9	5:42.6	12:00:59
769	 	515	Hobesalu Endo	1968	Tallinna Vesi	01:20:00	35:33	M40	142	5:42.9	12:01:18
770	 	1176	Aamisepp Tõnu	1953	 	01:20:03	35:35	M50	41	5:43.0	12:01:10
771	149	349	Patune Eva	1986	 	01:20:07	35:40	N21	73	5:43.4	12:00:56
772	 	275	Nokkur Ants	1993	Rõõsa	01:20:10	35:43	M18	24	5:43.6	12:01:03
773	150	341	Unt Janne	1974	 	01:20:10	35:43	N35	32	5:43.6	12:00:51
774	 	738	Mauer Tiit	1968	 	01:20:16	35:49	M40	143	5:44.0	12:01:01
775	151	958	Surva Laidi	1983	 	01:20:18	35:51	N21	74	5:44.2	12:01:10
776	 	909	Salla Jako	1982	 	01:20:18	35:51	M21	253	5:44.2	12:01:10
777	 	292	Ojasaar Tauno	1972	 	01:20:19	35:52	M35	132	5:44.2	12:01:03
778	 	200	Nõmmiste Kalev	1972	 	01:20:19	35:52	M35	131	5:44.2	12:01:03
779	152	1083	Viik Hille	1959	 	01:20:21	35:53	N50	10	5:44.3	12:00:38
780	153	1004	Tilga Kaari	1994	 	01:20:21	35:53	N16	11	5:44.3	12:01:03
781	 	1186	Bergmann Indrek	1975	 	01:20:23	35:56	M35	133	5:44.5	12:01:11
782	 	367	Juhtund Margus	1949	 	01:20:24	35:57	M60	16	5:44.6	12:00:43
783	154	301	Bauman Katrin	1955	 	01:20:27	36:00	N50	11	5:44.8	12:01:04
784	155	692	Liitmäe Tiina	1976	 	01:20:29	36:01	N21	75	5:44.9	12:00:58
785	156	333	Uibopuu Laura	1980	Suusahullud	01:20:30	36:03	N21	76	5:45.0	12:01:14
786	 	673	Lattikas Lemmo	1978	 	01:20:30	36:03	M21	254	5:45.0	12:01:14
787	157	607	Kivioja Katrin	1984	 	01:20:31	36:03	N21	77	5:45.0	12:01:15
788	158	643	Kuusik Kaja	1982	Elioni Spordiklubi	01:20:34	36:07	N21	78	5:45.3	12:00:38
789	159	761	Männik Aurika	1984	 	01:20:42	36:15	N21	79	5:45.9	12:01:05
790	 	1021	Tormet Veiko	1980	 	01:20:54	36:27	M21	255	5:46.7	12:01:16
791	 	702	Loog Tarmo	1970	Arco Vara SK	01:20:57	36:29	M40	144	5:46.9	12:01:15
792	 	334	Kippel Ivar	1967	 	01:20:59	36:31	M40	145	5:47.0	12:01:01
793	160	927	Sepp Piret	1984	 	01:21:00	36:32	N21	80	5:47.1	12:01:11
794	161	1005	Tilsen Katrin	1981	 	01:21:09	36:42	N21	81	5:47.8	12:01:15
795	162	551	Jüriado Tiiu	1978	Suusahullud	01:21:11	36:43	N21	82	5:47.9	12:01:01
796	163	486	Ernits Laura	1996	 	01:21:16	36:49	N16	12	5:48.3	12:00:53
797	 	568	Ilves Oskar	1996	Jakobsoni Gümnaasium	01:21:20	36:53	M16	17	5:48.6	12:00:37
798	 	322	Peever Anti	1981	 	01:21:23	36:55	M21	256	5:48.8	12:00:53
799	164	355	Nurmis Pille	1961	Elioni Spordiklubi	01:21:24	36:57	N40	20	5:48.8	12:00:41
800	 	435	Aljand Marek	1978	 	01:21:24	36:57	M21	257	5:48.8	12:00:47
801	 	926	Sepp Kaja	1969	EMT	01:21:24	36:57	M40	146	5:48.9	12:00:42
802	 	751	Mustkivi Mart Albert	1997	Mercury	01:21:26	36:59	M16	18	5:49.0	12:01:01
803	165	764	Naaber Monika	1973	adidas	01:21:27	37:00	N35	33	5:49.1	12:01:09
804	166	317	Suursaar Ülle	1961	 	01:21:27	37:00	N40	21	5:49.1	12:01:04
805	167	952	Suik Inga	1976	 	01:21:29	37:02	N21	83	5:49.2	12:00:42
806	168	348	Sabolotni Pille	1968	 	01:21:31	37:04	N40	22	5:49.4	12:01:13
807	169	256	Puks Krista	1989	VAK Staier	01:21:35	37:08	N21	84	5:49.6	12:01:04
808	170	605	Kivilo-Paas Evelin	1979	 	01:21:36	37:09	N21	85	5:49.7	12:00:54
809	171	300	Almre Marge	1970	Tarvastu VSK	01:21:40	37:13	N40	23	5:50.0	12:00:56
810	 	646	Kuusk Reio	1981	 	01:21:41	37:14	M21	258	5:50.1	12:00:57
811	172	626	Kubo Kitty	1972	Maria jooksuklubi	01:21:42	37:14	N35	34	5:50.1	12:01:09
812	 	529	Jassik Kristjan	1981	 	01:21:42	37:15	M21	259	5:50.1	12:01:21
813	173	629	Kukemelk Epp-Mare	1976	 	01:21:43	37:16	N21	86	5:50.2	12:01:17
814	174	808	Paulus Silja	1988	 	01:21:47	37:20	N21	87	5:50.5	12:00:56
815	 	621	Kroon Kaido	1963	 	01:21:49	37:22	M40	147	5:50.7	12:00:28
816	175	425	Ader Erika	1961	 	01:21:50	37:23	N40	24	5:50.7	12:00:39
817	176	707	Luhaäär Reet	1953	 	01:21:51	37:24	N50	12	5:50.8	12:00:48
818	 	883	Remmelgas Joosep	1978	 	01:21:53	37:26	M21	260	5:50.9	12:00:49
819	177	343	Teeväli Leili	1946	kevek	01:21:56	37:29	N60	2	5:51.1	12:00:45
820	178	525	Jaanuste Anzelika	1972	 	01:21:57	37:30	N35	35	5:51.2	12:00:47
821	 	335	Kuldkepp Andrus	1975	 	01:22:02	37:34	M35	134	5:51.5	12:01:00
822	 	1131	Vaino Indrek	1975	Dataexpress	01:22:03	37:36	M35	135	5:51.7	12:01:22
823	179	606	Kivimaa Katrin	1969	 	01:22:04	37:37	N40	25	5:51.7	12:01:12
824	 	250	Olgo Raivo	1970	 	01:22:10	37:43	M40	148	5:52.1	12:00:50
825	 	316	Sindonen Lauri	1990	 	01:22:13	37:45	M21	261	5:52.3	12:01:07
826	180	1038	Tuisk Maris	1971	 	01:22:14	37:47	N35	36	5:52.4	12:01:07
827	181	1052	Uukkivi Kristi	1985	 	01:22:18	37:51	N21	88	5:52.7	12:01:14
828	 	249	Tagel Ilmar	1942	MTA SK	01:22:27	37:59	M60	17	5:53.3	12:01:01
829	182	801	Palo Lagle	1984	 	01:22:32	38:05	N21	89	5:53.7	12:01:14
830	183	903	Saar Signe	1976	 	01:22:33	38:05	N21	90	5:53.8	12:01:14
831	 	998	Tiiksaar Jan	1997	 	01:22:33	38:06	M16	19	5:53.8	12:00:46
832	 	1001	Tiits Marek	1971	 	01:22:36	38:09	M35	136	5:54.0	12:00:58
833	184	511	Hiller Tiina	1981	 	01:22:40	38:13	N21	91	5:54.3	12:01:00
834	185	1182	Ilves Evelyn	1976	 	01:22:45	38:17	N21	92	5:54.6	12:01:21
835	186	354	Selter Pille	1972	 	01:22:52	38:24	N35	37	5:55.1	12:00:42
836	 	253	Sindonen Siim	1983	 	01:22:53	38:26	M21	262	5:55.2	12:01:10
837	187	812	Peebo Margit	1971	 	01:23:01	38:34	N35	38	5:55.8	12:01:10
838	 	437	Alliksaar Valdeko	1944	VAK Staier	01:23:07	38:40	M60	18	5:56.2	12:01:15
839	 	513	Hindreus Ivo	1983	 	01:23:09	38:42	M21	263	5:56.4	12:01:12
840	188	448	Anvelt Aili	1983	 	01:23:15	38:48	N21	93	5:56.8	12:00:56
841	189	556	Kaarma Marge	1969	adidas	01:23:18	38:51	N40	26	5:57.0	12:01:09
842	 	357	Kulev Raimo	1952	Tamsalu	01:23:24	38:56	M50	42	5:57.4	12:01:07
843	 	756	Mõistus Robert Klen	1998	sk biathlon	01:23:29	39:02	M16	20	5:57.8	12:00:41
844	 	490	Fingling Airon	1994	 	01:23:30	39:03	M16	21	5:57.9	12:01:00
845	190	350	Roopärg Marika	1967	My Fitness	01:23:32	39:05	N40	27	5:58.0	12:01:00
846	 	1023	Trallmann Tauno	1975	 	01:23:40	39:13	M35	137	5:58.6	12:01:08
847	191	938	Simmer Eike	1968	 	01:23:41	39:14	N40	28	5:58.7	 
848	 	361	Nakkurt Tarmo	1968	CLIK	01:23:49	39:22	M40	149	5:59.2	12:01:18
849	192	912	Salumäe Eva	1977	 	01:23:50	39:23	N21	94	5:59.3	12:00:58
850	193	561	Kaasik Kairit	1964	 	01:23:52	39:25	N40	29	5:59.4	12:00:49
851	 	1070	Vehlmann Jaan	1945	JK Hermes	01:23:53	39:25	M60	19	5:59.5	12:01:22
852	194	836	Pullerits Kristiina	1988	 	01:24:05	39:37	N21	95	6:00.3	12:00:56
853	195	364	Avango Lea	1963	 	01:24:07	39:39	N40	30	6:00.5	12:01:02
854	 	372	Suislepp Peeter	1971	 	01:24:12	39:44	M35	138	6:00.8	12:01:16
855	196	915	Sass Kristel	1975	 	01:24:19	39:52	N35	39	6:01.4	12:00:48
856	 	347	Rivis Peep	1942	 	01:24:34	40:06	M60	20	6:02.4	12:01:14
857	197	527	Jalast Eneken	1980	Elioni Spordiklubi	01:24:38	40:11	N21	96	6:02.7	12:01:14
858	198	528	Jalast Jaanika	1989	 	01:24:39	40:11	N21	97	6:02.8	12:01:15
859	199	331	Siimenson Carolin	1988	VAK Staier	01:24:45	40:17	N21	98	6:03.2	12:01:16
860	200	1168	Laul Helen	1978	 	01:24:47	40:20	N21	99	6:03.4	 
861	201	494	Gladõsheva Galina	1960	Eesti Põlevkivi Spordiklubi	01:24:48	40:21	N50	13	6:03.4	12:00:38
862	 	102	Hendrikson Tõnu	1973	Elioni Spordiklubi	01:24:50	40:22	M35	139	6:03.5	12:01:30
863	202	667	Laikre Karmen	1989	 	01:24:52	40:25	N21	100	6:03.7	12:00:52
864	203	392	Jaago Külli	1974	FB Jooksmine	01:24:57	40:30	N35	40	6:04.1	12:01:04
865	 	346	Vilberg Voova	1945	 	01:24:58	40:31	M60	21	6:04.1	12:01:06
866	 	1042	Tuvikene Tauri	1985	 	01:25:02	40:34	M21	264	6:04.4	12:01:14
867	204	1057	Vaahtola Sirpa	1960	 	01:25:15	40:47	N50	14	6:05.3	12:00:55
868	 	376	Kaljumaa Toomas	1974	 	01:25:17	40:50	M35	140	6:05.5	12:00:56
869	205	724	Maasik Mall	1969	 	01:25:24	40:57	N40	31	6:06.0	12:01:22
870	206	475	Eller Eike	1970	 	01:25:29	41:02	N40	32	6:06.4	12:01:22
871	207	560	Kaasik Kairi	1975	 	01:25:32	41:04	N35	41	6:06.5	12:00:50
872	208	1033	Trääder Ruth	1979	 	01:25:34	41:07	N21	101	6:06.7	12:00:48
873	209	647	Kuuskmäe Maibritt	1980	 	01:25:38	41:11	N21	102	6:07.0	12:00:57
874	 	1145	Lake Shawn	1971	 	01:25:46	41:19	M35	141	6:07.6	12:01:17
875	210	329	Kivistik Stina	1985	 	01:26:04	41:37	N21	103	6:08.8	12:01:07
876	211	861	Raava Katrin	1977	 	01:26:06	41:39	N21	104	6:09.0	12:01:02
877	212	1094	Virunurm Marve	1978	 	01:26:09	41:42	N21	105	6:09.2	12:01:14
878	213	368	Heinmets Inga	1973	 	01:26:10	41:42	N35	42	6:09.3	12:01:08
879	214	258	Okas Erje	1975	LIVIKO	01:26:10	41:42	N35	43	6:09.3	12:01:09
880	 	477	Elmet Heiki	1966	Hansa SK	01:26:21	41:54	M40	150	6:10.1	12:00:48
881	215	409	Laimets Juta	1969	 	01:26:23	41:56	N40	33	6:10.2	12:01:01
882	 	1184	Roop Aivar	1974	 	01:26:26	41:59	M35	142	6:10.4	12:00:45
883	 	219	Laanoja Risto	1975	 	01:26:28	42:00	M35	143	6:10.5	 
884	216	285	Vessmann Ailen	1978	MTA SK	01:26:28	42:01	N21	106	6:10.6	12:00:44
885	217	1020	Toover Egle	1975	 	01:26:29	42:02	N35	44	6:10.7	12:01:03
886	218	971	Taalberg Kadi	1977	 	01:26:37	42:10	N21	107	6:11.2	12:01:11
887	219	452	Arkonsuo Iivi	1959	 	01:26:45	42:18	N50	15	6:11.8	12:01:10
888	 	403	Johanson Raul	1972	 	01:26:48	42:21	M35	144	6:12.0	12:01:20
889	 	344	Vahtrik Valdo	1980	 	01:26:58	42:31	M21	265	6:12.7	12:01:13
890	 	345	Viimne Kullar	1980	 	01:27:02	42:35	M21	266	6:13.0	12:01:18
891	220	385	Läte Ene	1972	Suusahullud	01:27:05	42:38	N35	45	6:13.2	12:00:40
892	 	837	Pullerits Tõnu	1947	 	01:27:09	42:41	M60	22	6:13.5	12:00:40
893	221	1099	Vool Stina	1978	 	01:27:10	42:43	N21	108	6:13.6	12:01:28
894	 	940	Sindonen Riina	1984	 	01:27:29	43:02	M21	267	6:15.0	12:01:09
895	222	1095	Virunurm Virge	1974	 	01:27:40	43:12	N35	46	6:15.7	12:01:15
896	223	391	Liivandi Jana	1979	 	01:27:46	43:19	N21	109	6:16.2	12:00:55
897	224	965	Säre Kristiina	1976	 	01:27:51	43:23	N21	110	6:16.5	12:01:08
898	225	220	Kruusmann Geidi	1981	 	01:27:56	43:28	N21	111	6:16.8	12:01:06
899	226	402	Luks Danielle	1995	 	01:28:19	43:52	N16	13	6:18.5	12:00:57
900	227	383	Liiv Annika	1990	Liivide SK	01:28:26	43:59	N21	112	6:19.0	12:00:59
901	228	388	Puusepp Marjo	1988	 	01:28:28	44:00	N21	113	6:19.1	12:00:56
902	 	1140	Rõuk Olle	1974	 	01:28:31	44:04	M35	145	6:19.4	12:01:18
903	 	530	Joa Olev	1940	 	01:28:34	44:06	M70	4	6:19.5	12:01:05
904	229	708	Luikmel Raili	1979	 	01:28:43	44:15	N21	114	6:20.2	12:01:22
905	230	1011	Tomson Katrin	1956	 	01:28:46	44:19	N50	16	6:20.4	12:01:19
906	231	779	Nõmmiste Leie	1976	 	01:28:50	44:22	N21	115	6:20.7	12:01:03
907	 	1185	Järva Matti	1945	 	01:28:52	44:24	M60	23	6:20.8	12:01:23
908	 	694	Lilienberg Ergo	1974	Tallinna Vesi	01:28:54	44:27	M35	146	6:21.0	12:00:58
909	232	371	Kangro Mairis	1970	 	01:29:02	44:34	N40	34	6:21.5	12:00:45
910	233	312	Meerits Merje	1975	 	01:29:12	44:45	N35	47	6:22.3	12:00:50
911	234	394	Nokkur Kadri	1992	Rõõsa SK	01:29:17	44:50	N18	7	6:22.7	12:01:06
912	235	396	Haasma Tiina	1985	 	01:29:17	44:50	N21	116	6:22.7	12:00:41
913	236	632	Kure Maire	1959	 	01:29:18	44:51	N50	17	6:22.7	12:00:55
914	237	1124	Saar Maarja	1987	 	01:29:19	44:51	N21	117	6:22.8	12:01:16
915	238	569	Kallas Kristina	1990	 	01:29:26	44:59	N21	118	6:23.3	12:01:16
916	239	765	Neider Pille	1972	 	01:29:29	45:02	N35	48	6:23.5	12:01:08
917	 	384	Unger Martin	1943	 	01:29:33	45:06	M60	24	6:23.8	12:01:12
918	240	788	Orav Juula	1976	HP-Sport team	01:29:45	45:18	N21	119	6:24.7	12:01:06
919	 	813	Peek Kuno	1981	 	01:29:49	45:22	M21	268	6:24.9	12:01:10
920	 	382	Rajamägi Priit	1975	 	01:29:54	45:27	M35	147	6:25.3	12:00:59
921	 	378	Soosaar Andres	1949	 	01:29:59	45:32	M60	25	6:25.6	12:01:02
922	241	379	Lahe Imbi	1986	 	01:30:00	45:32	N21	120	6:25.7	12:00:53
923	 	369	Pissarenko Gennadi	1964	Eesti Raudtee Spordiklubi	01:30:06	45:39	M40	151	6:26.2	12:01:11
924	 	1002	Tiitus Kristel	1985	Rademar	01:30:11	45:44	M21	269	6:26.5	12:01:22
925	242	380	Alajaan Aire	1981	 	01:30:15	45:48	N21	121	6:26.8	12:00:51
926	 	375	Remmel Rein	1983	 	01:30:53	46:26	M21	270	6:29.5	12:01:17
927	243	655	Käär Kaja	1984	 	01:30:57	46:29	N21	122	6:29.8	12:01:16
928	244	972	Tael Jaana	1980	 	01:31:03	46:36	N21	123	6:30.2	12:01:17
929	245	1187	Kokk Liis	1980	 	01:31:04	46:37	N21	124	6:30.3	12:01:17
930	 	691	Liitmäe Sander	1996	 	01:31:09	46:41	M16	22	6:30.6	12:01:03
931	246	399	Heido-Rosenberg Terje	1962	 	01:31:21	46:54	N40	35	6:31.5	12:01:09
932	247	430	Aigro Jaana	1976	 	01:31:53	47:25	N21	125	6:33.8	12:01:18
933	248	628	Kuik Margot	1978	 	01:31:55	47:28	N21	126	6:33.9	12:01:19
934	249	395	Nurk Karin	1977	SK Lindon	01:31:56	47:29	N21	127	6:34.0	12:00:54
935	 	802	Palumäe Andrus	1973	Tallinna Vesi	01:32:03	47:36	M35	148	6:34.5	12:01:22
936	 	531	Johanson Peter	1977	 	01:32:26	47:59	M21	271	6:36.1	12:01:14
937	250	548	Järvemets Triinu	1984	 	01:32:26	47:59	N21	128	6:36.1	12:01:14
938	251	362	Almre Grete	1995	Viljandi Suusaklubi	01:32:46	48:19	N16	14	6:37.6	12:00:57
939	252	419	Aab Anneli	1983	EMT	01:33:02	48:35	N21	129	6:38.7	12:00:56
940	253	1029	Treude Kati	1972	EMT	01:33:13	48:46	N35	49	6:39.5	12:00:56
941	254	1062	Vainumaa Kaili	1970	LIVIKO	01:33:14	48:47	N40	36	6:39.6	12:00:41
942	 	1076	Vesiloik Indrek	1977	 	01:33:25	48:57	M21	272	6:40.3	12:01:13
943	255	377	Vigand Elina	1982	Rademar	01:33:52	49:24	N21	130	6:42.3	12:00:52
944	256	1024	Tramm Maire	1967	 	01:33:59	49:32	N40	37	6:42.8	12:01:21
945	257	386	Einmaa Lairi	1979	 	01:34:10	49:43	N21	131	6:43.6	12:00:41
946	 	611	Kolsar Aivar	1959	 	01:34:16	49:49	M50	43	6:44.0	12:00:57
947	 	397	Tolga Eino	1935	 	01:34:24	49:57	M70	5	6:44.6	12:01:25
948	258	360	Talviste Britt	1982	 	01:34:44	50:17	N21	132	6:46.0	12:00:49
949	 	928	Sepp Silver	1973	 	01:34:59	50:31	M35	149	6:47.0	12:01:14
950	259	901	Rüütel Raili	1976	Rademar	01:35:08	50:40	N21	133	6:47.7	12:01:03
951	260	381	Laaneots Aiki	1997	Tartu Suusaklubi	01:35:13	50:46	N16	15	6:48.1	12:00:48
952	261	468	Eespõld Jane	1976	 	01:35:14	50:47	N21	134	6:48.1	12:01:17
953	262	625	Kruusmann Ingrid	1974	 	01:35:23	50:56	N35	50	6:48.8	12:01:19
954	263	706	Luhaväli Katrin	1984	 	01:35:30	51:03	N21	135	6:49.3	12:01:17
955	264	406	Lahtvee Leila	1984	 	01:35:34	51:07	N21	136	6:49.6	12:01:11
956	 	631	Kull Priidu	1984	VAK Staier	01:35:51	51:24	M21	273	6:50.8	12:01:24
957	265	393	Subi Kadi	1983	 	01:35:59	51:32	N21	137	6:51.4	12:01:14
958	266	1093	Virtaal Pille-Riin	1978	 	01:36:00	51:33	N21	138	6:51.4	12:00:50
959	267	871	Rebane Egle	1976	 	01:36:11	51:44	N21	139	6:52.2	12:01:03
960	268	1143	Joasoon Liivi	1976	 	01:36:15	51:48	N21	140	6:52.5	12:01:11
961	269	400	Kristin Helina	1994	 	01:37:23	52:56	N16	16	6:57.4	12:01:20
962	270	1142	Põder Kerttu	1979	 	01:37:44	53:16	N21	141	6:58.8	12:00:55
963	 	888	Rohtla Meelis	1975	 	01:38:02	53:34	M35	150	7:00.1	12:01:16
964	271	648	Kõiv Kristel	1982	 	01:39:14	54:46	N21	142	7:05.3	12:01:14
965	 	918	Saukas Agu	1985	 	01:39:17	54:50	M21	274	7:05.5	12:00:56
966	 	822	Pihlakas Marko	1982	 	01:39:42	55:14	M21	275	7:07.3	12:01:13
967	272	570	Kallas Piia	1967	Hansa SK	01:39:51	55:24	N40	38	7:08.0	12:01:05
968	273	602	Kippel Kirke-Stina	1996	 	01:39:59	55:32	N16	17	7:08.5	12:00:54
969	 	656	Kääramees Jonne	1995	 	01:40:00	55:32	M16	23	7:08.5	12:00:54
970	274	401	Küüsvek Katrin	1978	 	01:40:41	56:13	N21	143	7:11.5	12:01:00
971	275	407	Vellerind Aveli	1992	 	01:40:55	56:28	N18	8	7:12.5	12:01:07
972	 	410	Käpa Tõnis	1939	 	01:41:36	57:09	M70	6	7:15.4	12:00:53
973	 	405	Asu Arvo	1936	 	01:41:58	57:31	M70	7	7:17.0	12:01:08
974	276	807	Parv Maret	1977	 	01:43:10	58:43	N21	144	7:22.2	12:01:18
975	277	429	Aigro Aivi	1969	 	01:43:23	58:56	N40	39	7:23.1	12:01:19
976	 	463	Concini David	1968	 	01:43:25	58:58	M40	152	7:23.2	12:01:24
977	 	1114	Karu Heldur	1940	 	01:43:31	59:03	M70	8	7:23.6	12:01:22
978	 	902	Saar Andrus	1977	 	01:43:58	59:31	M21	276	7:25.6	12:01:18
979	 	550	Jääts Andres	1972	 	01:44:30	1:00:03	M35	151	7:27.8	12:01:26
980	278	884	Rennit Triin	1998	ALBE TEAM	01:44:41	1:00:14	N16	18	7:28.7	12:01:29
981	279	63	Tõnnis Ülle-Ella	1965	 	01:44:42	1:00:14	N40	40	7:28.7	12:01:29
982	280	630	Kuldma Kristi	1984	 	01:44:59	1:00:32	N21	145	7:29.9	12:01:07
983	 	900	Rääbis Ain	1969	 	01:45:57	1:01:30	M40	153	7:34.1	12:01:12
984	 	390	Allik Margo	1976	 	01:46:08	1:01:40	M21	277	7:34.8	12:00:53
985	281	404	Osula Pille	1973	 	01:46:24	1:01:57	N35	51	7:36.0	12:00:55
986	282	1153	Hallingu Simone	2001	 	01:46:37	1:02:09	N16	19	7:36.9	12:00:57
987	 	199	Hallingu Erki	1971	 	01:46:37	1:02:10	M35	152	7:36.9	12:00:57
988	 	662	Laaneots Kadi	1995	Tartu Suusaklubi	01:47:29	1:03:02	M16	24	7:40.6	12:01:00
989	283	1086	Viirlaid Kersti	1974	 	01:47:34	1:03:07	N35	52	7:41.0	12:00:47
990	 	411	Suursaar Alo	1984	 	01:47:55	1:03:28	M21	278	7:42.5	12:01:16
991	284	564	Kala Marianne	1959	 	01:48:22	1:03:55	N50	18	7:44.4	12:01:06
992	285	663	Laanepere Piret	1983	 	01:48:52	1:04:25	N21	146	7:46.6	12:01:22
993	286	413	Valdmaa Hille	1950	 	01:49:08	1:04:40	N60	3	7:47.7	12:01:26
994	 	387	Valdmaa Ants	1940	 	01:49:08	1:04:41	M70	9	7:47.7	12:01:27
995	 	742	Metsa Erkki	1975	 	01:49:14	1:04:46	M35	153	7:48.1	12:01:27
996	287	415	Kalamees Kadri	1978	 	01:49:40	1:05:13	N21	147	7:50.0	12:01:26
997	 	412	Ilves Viktor	1943	 	01:49:41	1:05:14	M60	26	7:50.1	12:01:20
998	288	408	Säde Naima	1968	 	01:51:48	1:07:21	N40	41	7:59.2	12:01:01
999	 	398	Busch Veiko	1975	Baltic Bowling	01:52:07	1:07:40	M35	154	8:00.5	12:01:25
1000	 	241	Sinkkonen Markko	1971	 	01:52:09	1:07:42	M35	155	8:00.6	12:01:25
1001	 	414	Erilaid Väino	1935	 	01:53:00	1:08:33	M70	10	8:04.3	12:01:21
1002	289	830	Poolakese Krista	1984	Hansa SK	01:53:51	1:09:24	N21	148	8:07.9	12:01:22
1003	 	417	Hindrea Ahto	1961	 	01:54:25	1:09:58	M40	154	8:10.3	12:01:24
1004	290	416	Hindrea Lily	1962	 	01:54:25	1:09:58	N40	42	8:10.3	12:01:25
1005	291	1167	Liivak Epp	1955	 	01:55:52	1:11:24	N50	19	8:16.6	12:01:26
1006	292	859	Pärtelpoeg Katrin	1971	 	01:55:52	1:11:25	N35	53	8:16.6	12:01:25
1007	293	1115	Ignatenko Silja	1965	 	01:58:28	1:14:01	N40	43	8:27.7	12:01:27
1008	 	620	Kristin Meelis	1999	 	01:59:46	1:15:19	M16	25	8:33.3	12:01:19
1009	294	842	Puusepp Kairi	1971	 	02:00:22	1:15:55	N35	54	8:35.9	12:01:28
1010	295	821	Pihlakas Mariliis	1985	 	02:00:23	1:15:56	N21	149	8:35.9	12:01:29
1011	296	1074	Vellerind Anneli	1966	 	02:01:04	1:16:36	N40	44	8:38.8	12:01:23
1012	297	967	Zahharova Oksana	1980	 	02:01:13	1:16:46	N21	150	8:39.5	12:01:25
1013	298	877	Reinla Asta	1967	 	02:02:55	1:18:28	N40	45	8:46.8	12:01:28
1014	299	418	Põdra Katrin	1973	 	02:03:11	1:18:44	N35	55	8:47.9	12:01:20
1015	300	922	Schasmin Piret	1987	 	02:05:18	1:20:51	N21	151	8:57.0	12:01:24
1016	301	852	Pärna Diana	1969	 	02:18:42	1:34:15	N40	46	9:54.4	12:01:27
1017	302	850	Pärna Aliise-Maria	1997	 	02:18:42	1:34:15	N16	20	9:54.4	12:01:27
1018	 	920	Savastver Alar	1970	Stamina SK	 	 	M40	 	 	12:00:26
1019	 	6	Paap Hasso	1982	Rademar	 	 	M21	 	 	 
1020	 	56	Luud Aivar	1971	Stamina SK	 	 	M35	 	 	 
1021	 	60	Reemi Raigo	1976	 	 	 	M21	 	 	 
1022	 	68	Parve Heikki	1962	 	 	 	M40	 	 	 
1023	 	73	Luik Leila	1985	TÜ ASK	 	 	N21	 	 	 
1024	 	75	Vellerind Rain	1965	Stamina SK	 	 	M40	 	 	 
1025	 	94	Suimets Tarmo	1966	 	 	 	M40	 	 	 
1026	 	105	Kennik Oliver	1982	 	 	 	M21	 	 	 
1027	 	114	Unap Urmas	1968	 	 	 	M40	 	 	 
1028	 	124	Zirnask Villu	1966	Stamina SK	 	 	M40	 	 	 
1029	 	126	Jõemets Aivo	1970	 	 	 	M40	 	 	 
1030	 	129	Täheste Tanel	1979	RMK Spordiklubi	 	 	M21	 	 	 
1031	 	137	Koks Marko	1983	 	 	 	M21	 	 	 
1032	 	143	Aaviste Veiko	1975	 	 	 	M35	 	 	 
1033	 	152	Lapõnin Aare	1971	 	 	 	M35	 	 	 
1034	 	158	Laanmets Jüri	1956	 	 	 	N50	 	 	 
1035	 	172	Elmet Märt	1968	 	 	 	M40	 	 	 
1036	 	191	Nõmmiste Sulev	1970	 	 	 	M40	 	 	 
1037	 	226	Speek Jüri	1974	EMT	 	 	M35	 	 	 
1038	 	234	Laanbek Marek	1982	 	 	 	M21	 	 	 
1039	 	240	Pelapson Rain	1985	 	 	 	M21	 	 	 
1040	 	242	Viira Andres	1967	 	 	 	M40	 	 	 
1041	 	266	Kala Tiina	1987	Raha 24 Spordiklubi	 	 	N21	 	 	 
1042	 	274	Münter Bruno	1956	 	 	 	M50	 	 	 
1043	 	286	Jõemets Kristi	1979	 	 	 	N21	 	 	 
1044	 	298	Vahtakand Grete	1976	 	 	 	N21	 	 	 
1045	 	321	Ehala Eduard	1973	 	 	 	M35	 	 	 
1046	 	332	Oll Anu	1973	 	 	 	N35	 	 	 
1047	 	342	Tamm Triinu	1987	 	 	 	N21	 	 	 
1048	 	358	Kukk Veiko	1977	 	 	 	M21	 	 	 
1049	 	359	Veeroja Karin	1987	 	 	 	N21	 	 	 
1050	 	363	Bergmann Indrek	1975	 	 	 	M35	 	 	 
1051	 	366	Urva Helen	1998	 	 	 	N16	 	 	 
1052	 	373	Põlder Ahti	1984	 	 	 	M21	 	 	 
1053	 	374	Kaugerand Juhan	1981	 	 	 	M21	 	 	 
1054	 	389	Telgmaa Piret	1973	 	 	 	N35	 	 	 
1055	 	420	Aab Eik	1977	 	 	 	M21	 	 	 
1056	 	424	Aasmäe Meelis	1972	 	 	 	M35	 	 	 
1057	 	433	Alas Annar	1975	 	 	 	M35	 	 	 
1058	 	434	Alavere Karin	1975	 	 	 	N35	 	 	 
1059	 	439	Amon Annika	1982	 	 	 	N21	 	 	 
1060	 	441	Andre Silver	1977	1. Jalaväebrigaad	 	 	M21	 	 	 
1061	 	446	Annus Kristel	1978	 	 	 	N21	 	 	 
1062	 	447	Anton Meelis	1980	 	 	 	M21	 	 	 
1063	 	456	Avanesov Andrey	1959	Eesti Põlevkivi Spordiklubi	 	 	M50	 	 	 
1064	 	478	Elmik Art	1979	 	 	 	M21	 	 	 
1065	 	480	Elstrok Tuuli	1981	 	 	 	N21	 	 	 
1066	 	498	Grigoriev Sergey	1961	Eesti Põlevkivi Spordiklubi	 	 	M40	 	 	 
1067	 	499	Gross Toomas	1971	 	 	 	M35	 	 	 
1068	 	501	Haavapuu Hanna	1986	 	 	 	N21	 	 	 
1069	 	502	Habicht Triin	1977	 	 	 	N21	 	 	 
1070	 	505	Hanni Eerik	1978	Välkr-TAKH	 	 	M21	 	 	 
1071	 	514	Hint Johani	1970	 	 	 	M40	 	 	 
1072	 	524	Ivanova Erika	1979	 	 	 	N21	 	 	 
1073	 	534	Juksar Martin	1972	Rademar	 	 	M35	 	 	 
1074	 	535	Jõeleht Andres	1993	Rademar/adidas	 	 	M18	 	 	 
1075	 	537	Jõema Andri	1980	 	 	 	M21	 	 	 
1076	 	539	Jõgi Agur	1971	 	 	 	M35	 	 	 
1077	 	540	Jõgi Andre	1974	 	 	 	M35	 	 	 
1078	 	549	Jääger Kadi	1983	 	 	 	N21	 	 	 
1079	 	552	Jüriöö Riina	1957	 	 	 	N50	 	 	 
1080	 	553	Jüriöö Tiit	1955	 	 	 	M50	 	 	 
1081	 	572	Kangro Joan	1994	 	 	 	M16	 	 	 
1082	 	581	Kaseväli Mart	1979	Reklaam.ee	 	 	M21	 	 	 
1083	 	582	Kask Karin	1979	 	 	 	N21	 	 	 
1084	 	583	Kaskpeit Kadri	1979	 	 	 	N21	 	 	 
1085	 	587	Kaurson Signe	1970	 	 	 	N40	 	 	 
1086	 	604	Kivilo Janek	1976	 	 	 	M21	 	 	 
1087	 	609	Kljujev Jevgeni	1974	Sisekaitseakadeemia	 	 	M35	 	 	 
1088	 	610	Kohver Eston	1971	 	 	 	M35	 	 	 
1089	 	619	Krigul Ene	1952	 	 	 	N50	 	 	 
1090	 	638	Kurmet Ave	1980	 	 	 	N21	 	 	 
1091	 	641	Kuuder Arge	1978	 	 	 	N21	 	 	 
1092	 	642	Kuuder Kunnar	1978	 	 	 	M21	 	 	 
1093	 	650	Kõo Katrin	1980	 	 	 	N21	 	 	 
1094	 	651	Kõre Aivar	1964	 	 	 	M40	 	 	 
1095	 	652	Käpp Kati	1980	SK Toonus	 	 	N21	 	 	 
1096	 	664	Lagle Lauri	1975	 	 	 	M35	 	 	 
1097	 	665	Lahe Marek	1980	Marilate	 	 	M21	 	 	 
1098	 	672	Lass Jaanika	1980	 	 	 	N21	 	 	 
1099	 	674	Lauk Tõnu	1975	Stamina SK	 	 	M35	 	 	 
1100	 	687	Leoste Diana	1988	 	 	 	N21	 	 	 
1101	 	690	Lett Kalle	1954	 	 	 	M50	 	 	 
1102	 	695	Lilje Paul Kristjan	1976	Elioni Spordiklubi	 	 	M21	 	 	 
1103	 	698	Lindorg Tea	1983	 	 	 	N21	 	 	 
1104	 	699	Lis Nikolai	1977	Eesti Põlevkivi Spordiklubi	 	 	M21	 	 	 
1105	 	703	Loot Avo	1980	 	 	 	M21	 	 	 
1106	 	712	Lung Marti	1982	Hansa SK	 	 	M21	 	 	 
1107	 	714	Luukas Ülle	1956	 	 	 	N50	 	 	 
1108	 	718	Lääne Maidu	1950	 	 	 	M60	 	 	 
1109	 	721	Maas Elmer	1972	Via 3L	 	 	M35	 	 	 
1110	 	727	Mahkvei Maire	1984	Hansa SK	 	 	N21	 	 	 
1111	 	732	Margus Helen	1975	 	 	 	N35	 	 	 
1112	 	733	Marran Mait	1971	Stora Enso Eesti	 	 	M35	 	 	 
1113	 	734	Marran Päärn	1972	 	 	 	M35	 	 	 
1114	 	737	Matto Vallo	1969	 	 	 	M40	 	 	 
1115	 	741	Merilo Maris	1984	 	 	 	N21	 	 	 
1116	 	757	Mäe Jaanus	1987	Pärnu Kahe Silla klubi	 	 	M21	 	 	 
1117	 	759	Mändla Toomas	1975	 	 	 	M35	 	 	 
1118	 	762	Mätlik Kaido	1954	 	 	 	M50	 	 	 
1119	 	768	Nirgi Ailar	1966	Stamina SK	 	 	M40	 	 	 
1120	 	769	Nokkur Arno	1999	 	 	 	M16	 	 	 
1121	 	772	Nurk Kaili	2000	Lindon	 	 	N16	 	 	 
1122	 	773	Nurk Kuldar	1982	 	 	 	M21	 	 	 
1123	 	780	Nääb Erik	1974	 	 	 	M35	 	 	 
1124	 	786	Olle Kert	1984	Rademar	 	 	M21	 	 	 
1125	 	789	Orav Rainer	1978	 	 	 	M21	 	 	 
1126	 	795	Paats Krista	1989	 	 	 	N21	 	 	 
1127	 	815	Peljo Tõnis	1973	 	 	 	M35	 	 	 
1128	 	832	Priks Peeter	1972	 	 	 	M35	 	 	 
1129	 	833	Prits Rait	1974	 	 	 	M35	 	 	 
1130	 	834	Provalski Arnold	1968	Eesti Raudtee Spordiklubi	 	 	M40	 	 	 
1131	 	839	Punn Christel	1981	 	 	 	N21	 	 	 
1132	 	846	Põldniit Kairi	1977	 	 	 	N21	 	 	 
1133	 	849	Pärn Matti	1949	NEW BALANCE	 	 	M60	 	 	 
1134	 	853	Pärna Kristjan	1993	 	 	 	M18	 	 	 
1135	 	857	Pärtelpoeg Age	1976	 	 	 	N21	 	 	 
1136	 	864	Rahula Indrek	1978	 	 	 	M21	 	 	 
1137	 	885	Rentel Aivi	1975	 	 	 	N35	 	 	 
1138	 	895	Rosenblatt Reet	1987	Shaté Tantsuklubi	 	 	N21	 	 	 
1139	 	899	Räppo Kaimo	1976	maqs	 	 	M21	 	 	 
1140	 	905	Sadrak Eha	1969	 	 	 	N40	 	 	 
1141	 	907	Sakkeus Jüri	1953	 	 	 	M50	 	 	 
1142	 	925	Selgmäe Maire	1968	 	 	 	N40	 	 	 
1143	 	930	Seppo Liis	1985	 	 	 	N21	 	 	 
1144	 	931	Shkubel Igor	1959	Eesti Põlevkivi Spordiklubi	 	 	M50	 	 	 
1145	 	934	Siilivask Kaie	1979	 	 	 	N21	 	 	 
1146	 	935	Sild Tarmo	1975	 	 	 	M35	 	 	 
1147	 	945	Sokolov Agne	1976	 	 	 	N21	 	 	 
1148	 	946	Soom Eleri-Riin	1980	 	 	 	N21	 	 	 
1149	 	951	Starast Marge	1967	 	 	 	N40	 	 	 
1150	 	955	Sulev Veiko	1980	ksiküritaja	 	 	M21	 	 	 
1151	 	956	Sulsenberg Sulev	1977	 	 	 	M21	 	 	 
1152	 	961	Suvalov Anatoli	1948	 	 	 	M60	 	 	 
1153	 	976	Tallmeister Uno	1951	Piirivalve Spordi Keskklubi	 	 	M50	 	 	 
1154	 	977	Talts Tiina	1981	 	 	 	N21	 	 	 
1155	 	978	Tamm Herki	1974	Surgitech	 	 	M35	 	 	 
1156	 	981	Tamme Tarvo	1980	 	 	 	M21	 	 	 
1157	 	985	Taniel Kristi	1978	 	 	 	N21	 	 	 
1158	 	988	Teder Kadri	1982	 	 	 	N21	 	 	 
1159	 	1003	Tiitus Raul	1975	 	 	 	M35	 	 	 
1160	 	1007	Tohver Tarmo	1972	Eesti Põlevkivi Spordiklubi	 	 	M35	 	 	 
1161	 	1009	Tombak Kerttu-Kaarina	1978	 	 	 	N21	 	 	 
1162	 	1013	Toom Jaanika	1973	 	 	 	N35	 	 	 
1163	 	1019	Toots Aleksander	1969	 	 	 	M40	 	 	 
1164	 	1022	Touart Margo	1978	Itera	 	 	M21	 	 	 
1165	 	1030	Trofimov Ove	1979	 	 	 	M21	 	 	 
1166	 	1032	Truuts Danel	1979	 	 	 	M21	 	 	 
1167	 	1034	Tsaika Stanislav	1983	Rademar/adidas	 	 	M21	 	 	 
1168	 	1050	Urva Merili	2000	 	 	 	N16	 	 	 
1169	 	1059	Vaher Kevin	1985	 	 	 	M21	 	 	 
1170	 	1069	Varõgina Stanislava	1985	 	 	 	N21	 	 	 
1171	 	1072	Vellamäe Aivo	1973	Tallinna Vesi	 	 	M35	 	 	 
1172	 	1073	Vellamäe Anni	2004	Tallinna Vesi	 	 	N16	 	 	 
1173	 	1075	Venta Rainis	1984	TÜ ASK	 	 	M21	 	 	 
1174	 	1080	Viherpuu Kairi	1972	sk paksud poisid	 	 	N35	 	 	 
1175	 	1085	Viilup Siim	1986	 	 	 	M21	 	 	 
1176	 	1088	Viitamees Reelika	1984	 	 	 	N21	 	 	 
1177	 	1089	Viljalo Liisi	1981	Stamina SK	 	 	N21	 	 	 
1178	 	1091	Villak Marju	1982	 	 	 	N21	 	 	 
1179	 	1103	Vähesoo Lauri	1976	 	 	 	M21	 	 	 
1180	 	1104	Vähi Tõnu	1956	 	 	 	M50	 	 	 
1181	 	1105	Väli Etko	1964	 	 	 	M40	 	 	 
1182	 	1106	Värk Rene	1977	 	 	 	M21	 	 	 
1183	 	1109	Õunpuu Margus	1975	NODSU JA PUHH	 	 	M35	 	 	 
1184	 	1110	Ärmpalu Aare	1965	 	 	 	M40	 	 	 