Koht	Nkoht	Nr	Nimi	Klubi_Kool	Linn_Maak	Aeg	Vkl	Koht_Vkl	 
1		13	KITS KEIO	EMÜ SK	HOLSTRE	0:42:48.8	M21	1	 
2		16	KIVISTIK KAUR	TARTU SS KALEV	KORUSTE KÜLA	0:42:54.8	M18	1	 
3		566	AUS PRIIT	STAMINA ARCOTRANSPORT TIIM		0:43:00.7	M21	2	 
4		25	TŠEREPANNIKOV SERGEI	STAMINA ARCOTRANSPORT TIIM		0:43:05.0	M21	3	 
5		19	VULLA ELAR	TARTU ÜLIKOOL	RAPLA	0:44:10.6	M21	4	 
6		297	LIPP RALF		MAIDLA KÜLA	0:44:27.1	M21	5	 
7		5	MARKOV ALEKSEI			0:45:14.8	M21	6	 
8		18	PAAP HASSO		TARTU	0:45:29.6	M21	7	 
9		6	PIRKSAAR MARGUS	TÜ ASK		0:45:34.7	M35	1	 
10		28	LEIN ANDRUS	RAKVERE KJK "VIKE"	VINNI	0:45:42.1	M35	2	 
11		29	UTAR URMAS	TABASALU TK	KÜLITSE PIHLAKA TEE 1	0:45:58.0	M35	3	 
12		364	VIIGIPUU KAREL		ELVA	0:46:04.5	M21	8	 
13		26	REINSALU KRISTO	STAMINA ARCOTRANSPORT TIIM		0:46:14.4	M21	9	 
14		212	VAINE HEINAR	VILJANDI MAAGÜMNAASIUM	VANAVESKI KÜLA	0:47:34.9	M18	2	 
15		8	MATT ÜLLAR			0:47:38.7	M45	1	 
16		17	KALLASTE JAANUS		KASISPEA KÜLA	0:47:43.4	M21	10	 
17		178	LILLELAID TARMO		TARTU	0:47:46.1	M21	11	 
18		4	LOSKUTOV PAVEL			0:47:46.6	M35	4	 
19	1	31	PATJUK JEKATERINA	TÜ ASK		0:47:47.1	N21	1	 
20		220	MÄE TAMBET		TALLINN	0:48:03.1	M21	12	 
21		610	SOO ALLAR		PÕLTSAMAA	0:48:07.0	M18	3	 
22		20	PÕLDRE URMAS		RAE V. JÄRVEKÜLA	0:48:16.8	M45	2	 
23		27	REINART RAUNO	JÄRVAMAA KUTSEHARIDUSKESKUS	KOERU	0:48:40.4	M18	4	 
24		30	SALLA RAIMO			0:48:50.7	M21	13	 
25		7	TARM TOOMAS			0:49:01.0	M35	5	 
26		23	LUIK LAURI		HAAPSALU	0:49:20.8	M21	14	 
27		398	JAASKA ALLAN		TALLINN	0:49:47.1	M35	6	 
28		374	JUHKOV JANAR		TALLINN	0:49:49.3	M21	15	 
29		53	LÄÄN CHRISTJAN		JÄNEDA	0:50:05.0	M35	7	 
30		585	VARES KRISTJAN			0:50:20.3	M21	16	 
31		387	JUURSALU ANDRES		TARTU	0:50:41.2	M21	17	 
32		612	PIIRIMÄE PÄRTEL	SUUSAHULLUD	TARTU	0:50:51.3	M35	8	 
33	2	38	LUIK LEILA			0:50:53.2	N21	2	 
34		292	TALU PRIIT		PÄRNU	0:50:53.5	M35	9	 
35		266	TULP INDREK			0:50:56.5	M21	18	 
36		22	VAHER PAAVO	SK SAARDE	SAUGA	0:51:21.0	M35	10	 
37		642	ÕUNAPUU ERKO		VASALEMMA VALD	0:51:27.8	M35	11	 
38		21	LELOV ANDRES		SAUGA	0:51:32.5	M35	12	 
39		75	TIPP ARGO	TTK	PAIDE	0:51:40.1	M21	19	 
40		354	ILVES TENO		UUEMÕISA	0:51:42.0	M35	13	 
41		463	VALDMAA LAURI		TALLINN	0:51:50.5	M21	20	 
42		394	EIGER REIN		VILJANDI	0:51:53.1	M35	14	 
43		259	TILGA KAJAR		KOLLI KÜLA	0:52:11.6	M35	15	 
44		117	MÄE JAANUS	TARTU ÜLIKOOL	TARTU	0:52:29.3	M21	21	 
45		317	SIHT JÜRI		VILJANDI	0:52:35.9	M45	3	 
46		281	EINASTO MART		TARTU	0:52:43.2	M35	16	 
47		333	MAI JANAR		PÄHKLA KÜLA	0:52:44.4	M21	22	 
48		613	KIBUSPUU TIIT		TERIKESTE KÜLA	0:52:49.8	M45	4	 
49		258	MIIL SIIM		TÜRI	0:52:56.2	M21	23	 
50		327	TREIMUTH MEELIS		PUIGA KÜLA	0:52:59.2	M35	17	 
51		174	IVANOV ARVO		RAKVERE	0:53:02.5	M35	18	 
52		453	VELLESTE NEEME-RAIN		PAIDE	0:53:09.5	M21	24	 
53		487	ALTMETS HEIMAR	CFC JAAK MAE SUUSAKOOL	OETI KÜLA	0:53:12.4	M18	5	 
54		272	ORGULAS KAIDO		TALLINN	0:53:13.7	M45	5	 
55		412	VEEREMAA MATHJAS	TAMSALU GÜMNAASIUM	TAMSALU	0:53:19.2	M17	1	 
56	3	568	ARRO LIIS-GRETE	STAMINA ARCOTRANSPORT TIIM		0:53:52.8	N18	1	 
57		596	ROOSNUPP PRIIT		TALLINN	0:53:56.6	M35	19	 
58		329	LUMBERG ALARI		SAUGA VALD, PULLI KÜLA	0:53:57.2	M21	25	 
59		381	ENN LAURI		TALLINN	0:53:59.3	M21	26	 
60		307	LAIMETS JAANUS		PÄRNU-JAAGUPI	0:54:01.0	M21	27	 
61		603	VOOLAID RAIMOND		RAASIKU	0:54:08.6	M17	2	 
62		129	RANDMÄE KERMO	SUURE-JAANI GÜMNAASIUM	VÕIVAKU	0:54:12.6	M17	3	 
63		589	LASS RISTO	SK SAARDE	KILINGI-NÕMME	0:54:12.9	M35	20	 
64		444	KALJURAND URMAS		TALLINN	0:54:25.6	M45	6	 
65		650	ORAV MARK		VILJANDI	0:54:29.3	M35	21	 
66		104	SUKK GASPAR		TALLINN	0:54:36.6	M35	22	 
67		389	PARIS OLAV		VARDJA KÜLA MUSTRIKU ELAMU	0:54:44.4	M21	28	 
68		471	METSAPOOL JANNO		KOIGI	0:54:48.1	M21	29	 
69		405	LEHISMETS PRIIT		TALLINN	0:54:50.8	M21	30	 
70		353	LEHTLA REIGO		KIISA	0:54:51.9	M35	23	 
71		617	TASIMOV SERGEI	S/K MITŠ	KOHTLA-JÄRVE	0:54:53.3	M35	24	 
72		47	IGNATENKO IGOR		PAPSAARE KÜLA	0:54:53.8	M35	25	 
73	4	457	PAPUNEN KAJA		VESILAHTI	0:54:54.8	N45	1	 
74		587	JUUS AIVAR		TALLINN	0:55:02.3	M21	31	 
75		384	KENDLA TAIVO		TALLINN	0:55:17.2	M35	26	 
76		386	MOOR TOOMAS		KOHILA	0:55:20.5	M45	7	 
77		275	ENNO KRISTJAN		MAARDU	0:55:21.6	M35	27	 
78		67	PÕDRA MIKK		TARTU	0:55:28.7	M21	32	 
79		256	SCHONE KRISTIAN		TARTU	0:55:29.8	M21	33	 
80		166	BOMBUL ANDRUS		SILLAOTSA	0:55:36.8	M21	34	 
81		590	ORANEN PEETER		KUNDRUSSAARE	0:55:37.3	M21	35	 
82		356	LINKE MARTIN		PAPSAARE, AUDRU VALD	0:55:38.3	M35	28	 
83		85	MALEVA MARCO		TARTU	0:55:39.2	M35	29	 
84		63	PIIR JÜRGEN	TTÜ	PAIDE	0:55:47.7	M21	36	 
85		164	VARIK MÄRT		SILLA KÜLA	0:55:47.8	M21	37	 
86		141	NURK MIRKO		UULU KÜLA	0:55:53.0	M21	38	 
87		573	SALLA MAREK			0:55:57.8	M21	39	 
88		82	KIRSIPUU AVO		VITI KÜLA HARKU VALD	0:56:04.5	M35	30	 
89		651	SAMMEL ARNE		VILJANDI	0:56:08.0	M55	1	 
90	5	39	LUIK LILY			0:56:08.4	N21	3	 
91		602	VAHKAL KAIDO	FB JOOKSMINE	TARTU	0:56:08.8	M35	31	 
92		128	RANDMÄE HEIKI		VÕIVAKU	0:56:25.2	M35	32	 
93		580	MÄNNIK AHTI	VIKING WINDOW AS	PAIDE VALD	0:56:29.5	M21	40	 
94		595	RANDARU VEIKO	EMAJÕE KAUBOID	NÕO	0:56:30.9	M35	33	 
95		372	BÕTSKOV MIHHAIL		TALLINN	0:56:34.0	M21	41	 
96		575	NIKKOLO RAGNAR	VIKING WINDOW AS	PAIDE LINN	0:56:37.1	M35	34	 
97		567	VAHER VLADIMIR	STAMINA ARCOTRANSPORT TIIM		0:56:44.6	M18	6	 
98		249	FILATOV KALMER		KOSE-UUEMÕISA	0:56:49.1	M35	35	 
99		195	SIIM ANDRES		PÄRNU	0:56:57.6	M35	36	 
100		390	RAAP ILMAR		KADRINA	0:57:05.2	M35	37	 
101		308	NURK AARE		MÄRJA	0:57:11.9	M35	38	 
102		55	NOKA MARGUS		SÄREVERE	0:57:18.7	M21	42	 
103		199	KESKRA RAIVO		TALLINN	0:57:19.8	M21	43	 
104		631	PERE RENE		TALLINN	0:57:22.2	M45	8	 
105		626	ROOS RAIDO		TALLINN	0:57:22.8	M21	44	 
106		370	GRÖÖN JANAR		VILJANDI	0:57:26.6	M21	45	 
107		312	ALAMETS ÜLARI		TALLINN	0:57:27.5	M35	39	 
108		251	VAHTRA MÄRT		PATIKA KÜLA	0:57:27.7	M21	46	 
109		434	LILLIPUU KAUR	TALLINNA ÜLIKOOL	TALLINN	0:57:35.8	M18	7	 
110		535	SARNIK TAVO	EDELARAUDTEE AS		0:57:40.8	M21	47	 
111		165	KALVIK KALLE		VIISU KÜLA	0:57:49.2	M21	48	 
112		565	RATNIK EINAR		TÜRI	0:57:51.7	M21	49	 
113		366	UIBUKANT ANDREI		TALLINN	0:57:54.8	M21	50	 
114		622	KIVISAAR TÕNIS		PAIDE	0:57:57.3	M21	51	 
115		528	PÕLD ELIOT	JÄRVAMAA KHK	SAUGA	0:57:58.9	M21	52	 
116		431	DOVNAR TAAVI			0:58:04.2	M21	53	 
117	6	32	IDAVAIN TIINA			0:58:04.7	N45	2	 
118		476	ALBERT AUGUST		TÜRI	0:58:07.1	M45	9	 
119		357	JAKOBSON EERO		TALLINN	0:58:10.1	M35	40	 
120		225	LEPIKSAAR INDREK		KADRINA	0:58:12.9	M35	41	 
121		571	KARMANN RAINER	TÜRI VALLAVALITSUS	TÜRI VALD	0:58:18.4	M21	54	 
122		371	LAVRENTJEV IVAN		TALLINN	0:58:21.1	M18	8	 
123		94	MIKU TAAVI		PÄRNU-JAAGUPI	0:58:23.0	M35	42	 
124	7	646	LÜKK MERLYN		TALLINN	0:58:24.9	N21	4	 
125		414	SARAPUU TOOMAS		MURASTE HARKU VALD	0:58:25.5	M35	43	 
126		411	LUKKATS ANDRES		KOIGI	0:58:32.2	M35	44	 
127		533	LÄLL PEETER		PAIDE	0:58:34.0	M45	10	 
128		532	LÄLL MARKUS		PAIDE	0:58:34.3	M21	55	 
129		393	EINBERG GERY		TALLINN	0:58:40.8	M35	45	 
130		516	VANTSI MARKO	TÜRI PÕHIKOOL	TALLINN	0:58:46.8	M21	56	 
131		340	VÕRK JAANUS		TÕRVA	0:58:47.6	M45	11	 
132		592	PAJUR ANDRUS		RAPLAMAA	0:58:50.9	M45	12	 
133		450	GRAUEN PETERI		ARAVETE	0:58:51.8	M21	57	 
134		417	TELLING JUHAN		LINNAMÄE	0:58:52.9	M35	46	 
135		79	LEESMÄE JÜRI		PÄRNU	0:58:53.1	M65	1	 
136		221	TEDER RINALDO		VALGA	0:58:58.7	M21	58	 
137		200	AIT JANEK		JÜRI	0:59:04.6	M35	47	 
138	8	296	TULP TIIA		HÄRGLA	0:59:05.5	N45	3	 
139		108	LAURING KARRE		TALLINN	0:59:11.5	M45	13	 
140		632	JÕGISTE IVO		RÄGAVERE	0:59:14.8	M35	48	 
141		280	KOKK MEELIS		PÄRNU	0:59:19.5	M45	14	 
142		236	TERETENKOV ALEKSEI	U-CLUB	TALLINN	0:59:21.5	M45	15	 
143		37	VAHT VELVO		PAIDE	0:59:26.3	M21	59	 
144	9	224	IRVES MONIKA		VÕRU	0:59:26.8	N35	1	 
145		513	LÕIV ANDRES	TÜRI ÜHISGÜMNAASIUM	TÜRI	0:59:30.6	M17	4	 
146		52	LUBI VALLO-PEEDU		PÄRNU	0:59:33.9	M45	16	 
147		647	IRVES HILLAR		VÕRU	0:59:35.2	M35	49	 
148		51	SOPP ANDERO		PÄRNU	0:59:44.9	M21	60	 
149		360	TÕKKE MARGUS		VÄNDRA	0:59:45.2	M35	50	 
150		100	ALLEMANN ALO		SÄREVERE ALEVIK	0:59:48.4	M35	51	 
151		210	NÕMM MARDEN		PAIDE VALD PUIATU KÜLA	0:59:51.5	M21	61	 
152		43	LOMP MARGUS		TALLINN	0:59:51.6	M35	52	 
153		619	TAIDUR KRISTJAN	VILJANDI	PEETRIMÕISA KÜLA, SAAREPEEDI VALD	0:59:53.9	M35	53	 
154		574	TAMM REIGO			1:00:08.6	M21	62	 
155		399	TALLO TAAVO		TALLINN	1:00:09.7	M35	54	 
156		119	MEIDLA ARVI		ABJA-PALUOJA	1:00:11.2	M55	2	 
157		247	PIIRSALU AIVO		KOERU	1:00:15.9	M21	63	 
158		432	PORKVELI MARGUS		AMBLA VALD	1:00:19.3	M18	9	 
159		482	KALS JAAK		TARTU	1:00:19.6	M21	64	 
160		454	VIITMANN JAAK		PAIDE	1:00:23.2	M21	65	 
161		420	PIIRSALU REIN		TALLINN	1:00:26.2	M65	2	 
162		477	HUMMAL ERKKI		LUIGE ALEVIK	1:00:27.8	M35	55	 
163		319	MALMRE MALLOR		TALLINN	1:00:30.4	M35	56	 
164		92	KUUSIK ANDRUS		TARTU	1:00:36.6	M21	66	 
165	10	71	LÕHMUS MARGIT		VALGA	1:00:42.9	N21	5	 
166		529	OLLEP JANEK	SK SAARDE	PAIKUSE	1:00:44.0	M35	57	 
167		616	VIIK TARVI	SK.SULA	TAEBLA	1:00:53.9	M35	58	 
168		557	TUVIKENE LEONHARD	EESTI RAUDTEE SK		1:01:00.3	M55	3	 
169		408	LINT ANDRUS		TALLINN	1:01:01.8	M45	17	 
170	11	35	BERNAT GALINA		TALLINN	1:01:12.3	N45	4	 
171		627	VEST MARKO	PAIDE GÜMNAASIUM	ROOSNA-ALLIKU	1:01:14.9	M17	5	 
172		400	VAHTRA JANEK		TALLINN	1:01:15.5	M35	59	 
173		600	ÕUNAP URMAS		VILJANDI	1:01:17.2	M35	60	 
174	12	352	PILLI MOONIKA		RAKVERE	1:01:17.3	N21	6	 
175		167	ROOS VALERI		TARTU	1:01:20.2	M45	18	 
176		252	KAPP INDREK		OTEPÄÄ	1:01:23.4	M45	19	 
177		191	HANSEN RAIN		TÜRI	1:01:24.5	M21	67	 
178		96	TEMPEL MARKO		HAABNEEME	1:01:26.9	M21	68	 
179		509	RUDISSAAR HANNO	PAIDE GÜMNAASIUM	ROOSNA-ALLIKU VALD	1:01:29.5	M17	6	 
180	13	494	TREFFNER KADRI	HAAPSALU KUTSEHARIDUSKESKUS	KROOTUSE	1:01:31.0	N21	7	 
181		515	VALGE JORMA	TÜRI ÜHISGÜMNAASIUM	TÜRI	1:01:32.2	M18	10	 
182		306	KOKK KRISTO		KÜLITSE	1:01:34.3	M35	61	 
183		436	RAUDSEPP RAIVO		TÜRI	1:01:38.8	M45	20	 
184		421	DANIEL PATRICE		TALLINN	1:01:41.8	M35	62	 
185		181	HÄMÄLÄINEN KEIO		TALLINN	1:01:43.7	M21	69	 
186		468	IGNATENKO INGMAR		PAPSAARE KÜLA	1:01:45.1	M17	7	 
187		268	KRIMM RAIDO		TALLINN	1:01:45.6	M21	70	 
188	14	147	RANDMAA KATRI		TALLINN	1:01:51.2	N35	2	 
189		138	LAANMETS JÜRI		TALLINN	1:01:51.3	M55	4	 
190	15	86	EHRLICH IMBI		PAIDE	1:01:57.7	N45	5	 
191		222	LIIN URMAS	TARTU ÜLIKOOL	KOERU	1:01:59.8	M35	63	 
192		594	KANGUR RAUL	JOOKSUKLUBI SARMA	TARTU	1:02:00.6	M35	64	 
193		99	TIISVELT REIN		LUBJA KÜLA VIIMSI	1:02:09.4	M45	21	 
194		242	EIER TEET		VÄNDRA	1:02:09.8	M21	71	 
195		72	JÕGI TARMO		TALLINN	1:02:13.3	M21	72	 
196		435	GUSSEV RAIN		LOKSA LINN	1:02:26.1	M21	73	 
197	16	527	MUUGA MARIAN	JÄRVAMAA KHK	SAUGA	1:02:32.2	N21	8	 
198		456	RAUDSEPP JAN		TALLINN	1:02:33.8	M35	65	 
199		218	LOPSIK PRIIT		VIIMSI	1:02:40.8	M21	74	 
200		443	NÕMMISTE SULEV		ÜLENURME	1:02:41.7	M35	66	 
201		473	NUGA AHTI		MÕRASTE KÜLA	1:02:43.6	M21	75	 
202	17	244	TARASSOV RAILI		TAPA	1:02:46.1	N21	9	 
203		44	NÕMMISTE KALEV		SIMUNA	1:02:46.9	M35	67	 
204	18	427	VULLA ELA		TAPA	1:02:47.5	N21	10	 
205		170	TROPP RAIMO		TALLINN	1:02:53.3	M21	76	 
206	19	282	KALDA RUTH		TARTU	1:02:54.8	N45	6	 
207		605	ARO ANDRES	KULDTARAS SK	TALLINN	1:02:59.4	M35	68	 
208		9	VALDMAA REIN			1:03:01.8	M45	22	 
209		24	LEIBAK ERGO		TARTU	1:03:02.1	M21	77	 
210	20	97	KURS MARILIIS		KOHTLA-NÕMME	1:03:06.2	N35	3	 
211		583	NOKKUR LEMBIT	KOSE GÜMNAASIUM/RÕÕSA SK	KÕUE VALD, HARJU MK	1:03:08.7	M45	23	 
212		257	SAUL UDO		METSAKASTI KÜLA, VIIMSI VALD	1:03:10.1	M35	69	 
213		469	ANNISTE ALLAN		KABALA	1:03:12.4	M45	24	 
214		311	HÄRMASTE RANNAR		PEETRI	1:03:24.0	M21	78	 
215	21	144	TIBAR MARION		TALLINN	1:03:25.7	N21	11	 
216	22	396	HALJASTE ANNELI		PÜÜNSI, VIIMSI	1:03:32.6	N21	12	 
217		49	RUUL SANDER	TALLINNA TEHNIKAÜLIKOOL	LOKUTA KÜLA	1:03:32.9	M21	79	 
218	23	36	MELL RELIKA		KIILI VALD	1:03:37.3	N35	4	 
219		304	KÜNNAPAS TÕNU		MAARDU	1:03:42.6	M45	25	 
220		383	SULEND HERKI		TALLINN	1:03:44.3	M21	80	 
221		459	SAKKEUS JÜRI		HARKU VALD/SUURUPI	1:03:47.7	M55	5	 
222		73	KÄRNER VALDUR		TÜRI	1:03:48.7	M45	26	 
223		514	PÜSS TARVO	TÜRI ÜHISGÜMNAASIUM	TÜRI	1:03:53.9	M18	11	 
224		136	LUTS HARRY		JÄRVA-JAANI	1:03:54.0	M45	27	 
225		168	VÕSA KARL-VILLEM	PÄRNU SÜTEVAKA HUMANITAARGÜMNAASIUM	PÄRNU	1:03:55.4	M18	12	 
226		230	SAAMANN JOOSEP		TÜRI	1:04:03.8	M21	81	 
227		618	FILIPPOV MAKSIM	S/K MITŠ	KOHTLA-JÄRVE	1:04:05.4	M21	82	 
228		62	VIRMA RAGNAR	JÄRVAMAA KUTSEHARIDUSKESKUS	LÜKATI KÜLA	1:04:06.5	M18	13	 
229	24	41	SALLA LIIS	TÜRI ÜHISGÜMNAASIUM	TÜRI	1:04:08.3	N18	2	 
230		180	MUUK-ADRAT ANDRES		NÕO	1:04:15.6	M21	83	 
231		135	TREIER TAAVI		PAIDE	1:04:19.4	M21	84	 
232		409	LAHT RAIN		TALLINN	1:04:20.6	M35	70	 
233		299	OLT ANDRUS		TALLINN	1:04:21.3	M21	85	 
234	25	367	PERNER MARGIT		VÄNDRA ALEV	1:04:22.0	N35	5	 
235		656	PUULMANN ERIC		SAUE	1:04:23.9	M21	86	 
236		190	TOOTS ALVER		ARAVETE	1:04:24.8	M45	28	 
237	26	189	TOOTS MAIRE		ARAVETE	1:04:24.9	N35	6	 
238		320	ERRAPART ROMAN		TALLINN	1:04:31.1	M21	87	 
239	27	214	ARON KRISTI		KUNDA	1:04:32.5	N21	13	 
240	28	290	KUMMER-LEMAN ÜLLE		TALLINN	1:04:34.8	N45	7	 
241		264	TREIER AARE		HARJUMAA,LAAGRI	1:04:39.1	M21	88	 
242	29	492	RUUL SIGRID		LOKUTA KÜLA	1:04:41.6	N18	3	 
243	30	33	MÜÜRSEPP TIIU			1:04:42.8	N55	1	 
244		500	SOO HANNES	AHULA LASTEAED-ALGKOOL	TALLINN	1:04:46.3	M35	71	 
245		438	PELAPSON RAIN		PÜRKSI	1:04:47.3	M21	89	 
246		437	MÄGI INDREK		TALLINN	1:04:51.5	M35	72	 
247		289	TOMMINEN PAAVO		HAMINA	1:04:51.5	M55	6	 
248		238	LUKS LAURI		VIIMSI VALD	1:04:59.2	M35	73	 
249		171	KANE REIN		LOKSA	1:04:59.3	M65	3	 
250		231	SAAMANN GERT		TÜRI	1:05:05.9	M35	74	 
251	31	177	LEIF MAIVE		PAIDE	1:05:06.1	N35	7	 
252		153	SAAR MARKO		ALBU	1:05:08.8	M21	90	 
253		550	RUUL MATI	STAMINA ARCOTRANSPORT TIIM		1:05:10.7	M45	29	 
254		495	VÜRMER SILVER		TALLINN	1:05:15.9	M21	91	 
255	32	182	VALLASTE KRISTEL		TALLINN	1:05:17.4	N21	14	 
256		334	ORAS RAIN		TARTU	1:05:19.6	M21	92	 
257		546	KOSE INDREK	VALIO EESTI AS		1:05:27.5	M21	93	 
258		162	SARETOK MIKK	TARTU ÜLIKOOL	TALLINN	1:05:30.7	M21	94	 
259	33	179	LUIK TERJE		NÕO	1:05:31.5	N21	15	 
260		283	KUUSIK ANDO		TALLINN	1:05:33.6	M35	75	 
261	34	265	SILD KERSTI		VAHI ALEVIK, TARTU VALD	1:05:35.8	N21	16	 
262		46	LEIER TÕNIS		PURILA	1:05:38.4	M55	7	 
263		404	LELLSAAR MIKK		TÜRI	1:05:40.0	M21	95	 
264		379	TREPP JANEK		KADRINA	1:05:41.4	M35	76	 
265		449	METS OLAV		TALLINN	1:05:41.7	M21	96	 
266		410	RÕKOVANOV ROMEK		PAIDE	1:05:42.4	M18	14	 
267	35	83	TEDER EGLE		VALGA	1:05:48.3	N21	17	 
268		640	PÄLLO ALVAR		RAKKE VALD	1:05:55.9	M21	97	 
269	36	285	JÄRVALT RENNA		TALLINN	1:05:57.3	N21	18	 
270	37	70	PELLENEN EVELIN		TARTU	1:05:58.7	N21	19	 
271		270	REIGO ERKO		TALLINN	1:05:59.4	M21	98	 
272		56	ENDRIKS HENDRIK		PAIDE	1:06:05.0	M21	99	 
273		131	JAMMER ÜLO		KOERU ALEVIK	1:06:09.1	M55	8	 
274		215	MÜÜR JANAR		PAIDE	1:06:11.2	M21	100	 
275		362	MUROMÄGI AVO		TARTU	1:06:13.6	M21	101	 
276		445	VARBLAS EVERT		KOSE	1:06:15.9	M45	30	 
277	38	368	TOOM MARJU		TÕRVA	1:06:19.7	N35	8	 
278		146	KALDA KRISTER		TALLINN	1:06:20.7	M35	77	 
279		635	TAAL KRISTO		TÜRI	1:06:33.7	M35	78	 
280	39	488	KUSNETS KERLI		TALLINN	1:06:34.5	N21	20	 
281		401	LAMBUR MAIT		KOSE	1:06:35.0	M35	79	 
282		460	REBANE RUVE		PAIDE	1:06:41.6	M21	102	 
283		316	ORUPÕLD KRISTOFER		TÕRREMÄE,RAKVERE VALD	1:06:45.5	M17	8	 
284		107	SÖÖRD PRIIT		PAIDE	1:06:47.3	M35	80	 
285		643	TOODU REIN		PÄRNU	1:06:50.1	M45	31	 
286		395	KRILOVS RINGO		TALLINN	1:06:52.6	M21	103	 
287		486	ALTMETS VALEV		OETI KÜLA	1:06:59.7	M35	81	 
288		551	LIPP LAURI	KAITSELIIT	PAIDE	1:06:59.8	M45	32	 
289		599	TILK TANEL	TTÜ	PÄRNU	1:07:00.3	M21	104	 
290		114	SELGE AARE		KARINU	1:07:06.3	M45	33	 
291		10	SIMSON MARGUS		TALLINN	1:07:10.4	M21	105	 
292	40	127	KRUUSMANN GEIDI		TAMSALU	1:07:11.6	N21	21	 
293	41	470	HENDRIKSON LIISA	TALLINNA ÜLIKOOL	PAIDE	1:07:12.8	N21	22	 
294		541	KAPP RIHO			1:07:12.8	M55	9	 
295		475	NIGU VILLEM		TARTU	1:07:19.0	M21	106	 
296		217	LUUS ARVO		TALLINN	1:07:25.7	M65	4	 
297		373	KANNIMÄE DANIEL	PÄRNU HANSAGÜMNAASIUM	PÄRNU	1:07:30.3	M18	15	 
298		403	ELLRAM LAURI		IMAVERE	1:07:33.4	M21	107	 
299		419	PALLO MARGUS		IMAVERE KÜLA	1:07:33.6	M21	108	 
300		148	TAGEL RAINER		TALLINN	1:07:43.2	M21	109	 
301	42	526	KUUSIK EVELI	PAIDE ÜHISGÜMNAASIUM	PAIDE LINN	1:07:45.4	N21	23	 
302		447	KANNE SIIM	TARTU ÜLIKOOL	PAIDE	1:07:45.6	M21	110	 
303		88	PIIR ENN		PAIDE	1:07:46.4	M45	34	 
304		657	SULG MATI		TÜRI	1:07:46.4	M17	9	 
305	43	89	ANDERSON GARDI		MURASTE KÜLA	1:07:47.2	N21	24	 
306		87	LILL MARGO		RAPLA	1:07:51.6	M35	82	 
307		645	PÄRK SIIM		KOHTLA-JÄRVE	1:07:53.5	M18	16	 
308	44	124	KÜTIMAA KADRI		TALLINN	1:07:54.8	N21	25	 
309	45	365	PRUUS BIRGIT		LINNA KÜLA	1:07:55.7	N18	4	 
310	46	271	AZOVSKAJA KATRIN		TALLINN	1:07:56.2	N21	26	 
311		61	LILLEMETS KALLE		VILJANDI	1:07:59.9	M45	35	 
312		344	LOPSIK ANDREI		KOHTLA-JÄRVE	1:08:01.3	M55	10	 
313	47	623	KALA TIINA			1:08:12.4	N21	27	 
314		14	MISLER VELLO			1:08:13.8	M45	36	 
315		549	LAIMETS TOOMAS	VÄÄTSA PRÜGILA AS	TÜRI VALD	1:08:16.6	M45	37	 
316	48	60	LILLEMETS KELINA		VILJANDI	1:08:17.2	N17	1	 
317		485	ELLRAM JÜRI		IMAVERE	1:08:18.6	M55	11	 
318		466	MEHINE MARTIN	TTÜ/TPT	TALLINN	1:08:22.0	M21	111	 
319		187	PÄRNA RANEL	TALLINNA SAKSA GÜMNAASIUM	TALLINN	1:08:22.1	M17	10	 
320		206	HÄMÄLÄINEN MATTI		HAMINA	1:08:24.2	M55	12	 
321		608	HANNI KAIDO		LAIAKÜLA	1:08:26.2	M21	112	 
322		493	KEERMA JAAN		ROOSNA-ALLIKU	1:08:29.1	M35	83	 
323		163	KALAUS TIMO		PAIDE	1:08:30.1	M21	113	 
324		348	KIRSPUU KALVI		KURISOO KÜLA	1:08:32.5	M21	114	 
325	49	309	VALTER JÄRVI		TALLINN	1:08:32.7	N55	2	 
326		547	JOONAS KALEV	VALIO EESTI AS		1:08:38.8	M45	38	 
327	50	223	IVANOV KATRIIN		KEILA	1:08:44.3	N21	28	 
328	51	328	TREU MERILIN		TÕRVA	1:08:49.9	N17	2	 
329		614	TREU URMAS		TÕRVA	1:08:49.9	M35	84	 
330		126	SALMAR AVO		PÄRNU	1:08:51.1	M65	5	 
331		183	KULDKEPP VIKTOR		UULU K.	1:08:55.5	M55	13	 
332	52	80	KIVISAAR AGNE		TALLINN	1:08:58.5	N21	29	 
333		382	VESTUNG KRISTJAN		PAIDE	1:08:58.8	M21	115	 
334		507	KILK MARKO	PAIDE GÜMNAASIUM	PAIDE LINN	1:09:01.7	M17	11	 
335	53	134	KALLASTE KARIN	TARTU ÜLIKOOL	KASISPEA KÜLA	1:09:02.7	N21	30	 
336		159	KIRSPUU KARMO		SAKU	1:09:08.1	M21	116	 
337		145	MARTINSON RAIDO		JÕHVI	1:09:13.1	M21	117	 
338		175	NÕMMIK ARGO		TALLINN	1:09:13.6	M21	118	 
339	54	235	ANTONS MAILI	AMBLA SK	ARAVETE	1:09:14.1	N35	9	 
340		338	PAJULA AIN		KAIU	1:09:16.6	M35	85	 
341	55	548	TAMM TERJE	VALIO EESTI AS		1:09:23.9	N21	31	 
342		654	KAASIK AVO		VIIMSI	1:09:27.4	M35	86	 
343		418	KIKKAS HEIKI		PÕLTSAMAA VALD	1:09:33.3	M35	87	 
344	56	93	ROOSIPUU NELE		TARTU	1:09:34.8	N21	32	 
345	57	562	KIVISTIK STINA	MARK IT	TALLINN	1:09:35.9	N21	33	 
346		331	KÄRPUK ANDRUS		PÄRNU	1:09:41.5	M45	39	 
347		342	URB ÜLO		TALLINN	1:09:42.3	M55	14	 
348	58	472	VALGE KERLI		TALLINN	1:09:42.9	N21	34	 
349	59	234	LOHK LEA		TALLINN	1:09:44.0	N45	8	 
350		604	TAGEL ILMAR	MTA SK	PÕLVA	1:09:44.9	M65	6	 
351		582	TRAKS KRIS	VIKING WINDOW AS	PAIDE LINN	1:09:48.9	M18	17	 
352		84	KIRSIPUU RIHO	TALLINNA NÕMME GÜMNAASIUM	VITI KÜLA HARKU VALD	1:09:54.5	M17	12	 
353	60	208	MÄNNIK AURIKA		PAIDE VALD PUIATU KÜLA	1:09:55.5	N21	35	 
354	61	350	VAHTAKAND GRETE		TALLINN	1:09:56.2	N35	10	 
355		103	SAAREND MATI		VIRU-NIGULA	1:09:58.8	M55	15	 
356	62	98	UDUSAAR AET		TALLINN	1:10:05.1	N21	36	 
357		560	PAABEL VILJAR	ÕLIPLUS OÜ		1:10:06.5	M21	119	 
358		286	IISMAA TAIVO		ROOSNA-ALLIKU	1:10:07.0	M35	88	 
359		213	MÜÜRSEPP TOOMAS		PALA	1:10:08.9	M35	89	 
360		355	MERIVOO MADIS		TALLINN	1:10:08.9	M45	40	 
361	63	615	JUURAK KATRIN		ILBAKÜ KÜLA, SUURE-JAANI VALD	1:10:09.7	N21	37	 
362		620	OTS KAUPO	HAANJA RK	TAPA	1:10:10.5	M21	120	 
363		429	SEPP HENN	TSK JOOSU	VILJANDI	1:10:13.5	M55	16	 
364		305	HEINMAA TARMO		PÄRNU	1:10:19.8	M21	121	 
365	64	497	VEERE KAIRI		TALLINN	1:10:22.7	N21	38	 
366		621	PUIDAK PRIIT	EESTI WORLDLOPPETI KLUBI	TALLINN	1:10:23.3	M65	7	 
367		584	NOKKUR ANTS	RÕÕSA SK	KÕUE VALD, HARJU MK	1:10:23.7	M18	18	 
368		531	AASMA ALO	PAIDE LINNAVALITSUS	PAIDE	1:10:24.6	M21	122	 
369	65	68	MATTIISEN TIINA		PAPSAARE	1:10:25.3	N45	9	 
370	66	375	UZLOVA ANASTASIA	VALGA VENE GÜMNAASIUM	VALGA	1:10:29.3	N17	3	 
371		293	MITT MARKO	JÄRVA-JAANI GÜMNAASIUM	JÄRVA-JAANI	1:10:37.0	M17	13	 
372		274	KUNGUS AHTO		PÕLTSAMAA	1:10:55.7	M35	90	 
373		197	MÜNZER OLEG		RÖA KÜLA	1:11:06.4	M21	123	 
374	67	451	TALU JUTA		PÄRNU	1:11:11.3	N65	1	 
375	68	430	RAJASTE GEIDI		TARTU	1:11:13.5	N21	39	 
376		586	MÜÜRSEPP ARTUR			1:11:22.0	M17	14	 
377		641	BREMET MARIO		VILJANDI	1:11:26.3	M18	19	 
378		543	PIIBELEHT ANDRES	AS JÄRVA TEED	PAIDE	1:11:27.5	M21	124	 
379		649	JÄRVA JUHO		TALLINN	1:11:32.5	M35	91	 
380	69	196	KOPLIMÄGI MARIKA		TARTU	1:11:32.9	N35	11	 
381		298	RIKBERG ANTS		VÄIKE-MAARJA	1:11:35.6	M55	17	 
382		361	KIMMEL LAURI		TARTU	1:11:48.5	M21	125	 
383	70	276	LILLE LIIS		KEILA	1:11:49.6	N55	3	 
384	71	227	PÕDER MAARJA		KADJASTE KÜLA	1:11:50.7	N21	40	 
385	72	506	KLEEMEIER MARIELLE	PAIDE GÜMNAASIUM	PAIDE LINN	1:11:52.3	N17	4	 
386		446	RANDMERE AHTI		ALBU KÜLA	1:11:53.8	M35	92	 
387		428	MUST GUNNAR		TARTU	1:11:58.6	M45	41	 
388		474	SAAR PEEDU		TARTU	1:12:03.1	M21	126	 
389		64	ALTMETS MIKK		TADE KÜLA	1:12:08.0	M35	93	 
390		542	KIVIMÄE TARMO			1:12:19.9	M21	127	 
391		335	SAAR ARTO		JÄRVA-JAANI	1:12:22.7	M21	128	 
392		639	VESKIOJA RAIVO		ALBU VALD	1:12:25.1	M35	94	 
393		581	PAUMVERK TARVO	VIKING WINDOW AS	TÜRI LINN	1:12:31.2	M35	95	 
394		158	MAUER TIIT		TARTU	1:12:38.1	M35	96	 
395	73	378	NAARITS ANU-MALL		RAE V. JÄRVEKÜLA	1:12:50.2	N35	12	 
396		480	STEIN RAUNO		TARBJA KÜLA	1:12:53.7	M18	20	 
397		402	LILLENTHAL KAREL		TALLINN	1:12:57.2	M21	129	 
398		628	LOKOTAR RAIGO	PAIDE ÜHISGÜMNAASIUM	PAIDE	1:12:57.5	M17	15	 
399		578	TEDER JAREK	VIKING WINDOW AS	PAIDE LINN	1:12:58.3	M21	130	 
400	74	467	ROOPÄRG MARIKA		TALLINN	1:13:01.3	N35	13	 
401	75	358	TOHV MERIKE		VÄNDRA ALEV	1:13:08.2	N45	10	 
402		65	KASEMAA ANTEK		TARTU	1:13:08.9	M35	97	 
403		76	PAJO RAINE		LAAGRI	1:13:19.6	M35	98	 
404		219	TRAKSMANN MARTIN	TALLINNA TEHNIKA KÕRGKOOL	TALLINN	1:13:19.9	M21	131	 
405	76	240	PILV VILVE		ARAVETE	1:13:26.5	N45	11	 
406	77	155	KALA KATRIN		PAIDE	1:13:27.9	N21	41	 
407	78	433	IVANOVA ALLA		TALLINN	1:13:28.7	N21	42	 
408	79	638	RIIK HILLE		PAIDE	1:13:32.4	N35	14	 
409		442	PÕDER TARMO		PÄRNU	1:13:39.6	M35	99	 
410	80	260	KIVILO-PAAS EVELIN		TALLINN	1:13:45.1	N21	43	 
411		261	PAAS TOOMAS		TALLINN	1:13:45.4	M35	100	 
412	81	226	SELJAK KATRIN		TALLINN	1:13:48.8	N35	15	 
413	82	301	LAHE RIINA		TALLINN	1:14:00.6	N35	16	 
414		202	VEHLMANN JAAN		TALLINN	1:14:01.4	M65	8	 
415		294	VAKS TOOMAS	PAIDE ÜHISGÜMNAASIUM	PAIDE	1:14:09.4	M21	132	 
416		193	KARNER KASPAR		KOSE	1:14:20.5	M21	133	 
417		110	OLLINO ANDRES		VÄÄNA-JÕESUU	1:14:24.7	M21	134	 
418		323	VOLT RONALD	TARVASTU GÜMNAASIUM	MUSTLA	1:14:35.7	M17	16	 
419		564	TAMM TÕNU	MARK IT	TALLINN	1:14:40.2	M21	135	 
420		325	MEIER RAIVO		ASSAKU	1:14:52.9	M65	9	 
421	83	339	PAJULA HEIVI		KAIU	1:14:55.2	N35	17	 
422		102	PULLISAAR ANDRUS		LEPPNEEME KÜLA, VIIMSI VALD	1:15:02.0	M35	101	 
423	84	644	OJAMETS SALME		VILJANDI	1:15:07.3	N45	12	 
424		653	TATTER AHTO		TALLINN	1:15:15.6	M35	102	 
425	85	351	VÕSU-TATTER HEIDI		TALLINN	1:15:15.7	N21	44	 
426	86	499	VÄLI ENELI	PAIDE GÜMNAASIUM	ROOSNA-ALLIKU	1:15:22.4	N18	5	 
427		324	LÜMAT ALO		ELVA	1:15:23.0	M35	103	 
428		120	NESTOR MART		VINNI	1:15:24.8	M45	42	 
429		204	VAINOLA KAIDO	EMÜ	TARTU	1:15:27.7	M21	136	 
430	87	284	VILLEMSON KRISTA		TALLINN	1:15:32.8	N35	18	 
431		295	METSA ERKKI		ÜLENURME	1:15:35.0	M35	104	 
432	88	121	PÄLL KÄRT	TARTU ÜLIKOOL	PAIDE	1:15:37.7	N18	6	 
433		143	KASK RAIN		SELJA	1:15:37.9	M18	21	 
434		116	REINULA HENDRIK	JÄNEDA KOOL	JÄNEDA	1:15:38.1	M17	17	 
435		518	RÕMMELGAS SIIM	JÄRVA-JAANI GÜMNAASIUM	JÄRVA-JAANI VALD	1:15:44.0	M18	22	 
436		519	TRAHV RISTO	JÄRVA-JAANI GÜMNAASIUM	JÄRVA-JAANI VALD	1:15:44.2	M17	18	 
437	89	130	KOTKAS SIGNE		PAIDE	1:15:46.2	N21	45	 
438		172	MÜNTER BRUNO		KILTSI	1:15:57.3	M55	18	 
439		484	ARUTYUNYAN DAVID	TARTU ÜLIKOOL	TARTU	1:15:59.3	M21	137	 
440		540	GLASE MARGUS		TÜRI VALD	1:16:08.4	M35	105	 
441		349	RAAL ENDRIK		PÄRNU	1:16:16.6	M21	138	 
442		501	LEOTOOTS MARTIN	PAIDE GÜMNAASIUM	PAIDE LINN	1:16:24.1	M17	19	 
443		229	METSAVAS TARVO		MELLISTE	1:16:26.9	M21	139	 
444		118	KONSA MIHKEL		TALLINN	1:16:29.2	M55	19	 
445		278	HORDO KASPAR	ARDU KOOL	MUSTLA-NÕMME	1:16:35.7	M17	20	 
446	90	570	LUKJANOV SILVI	TÜRI VALLAVALITSUS	TÜRI VALD	1:16:43.6	N35	19	 
447		572	LUKJANOV ANDRUS	TÜRI VALLAVALITSUS	TÜRI VALD	1:16:45.8	M21	140	 
448	91	248	RAUDKEPP LIISA	TARTU ÜLIKOOL	TARTU	1:16:48.0	N21	46	 
449		609	MURRO RAUL		TAMSALU	1:16:49.2	M21	141	 
450	92	91	KANNEL KÜLVI		TALLINN	1:16:52.1	N21	47	 
451		81	LIIGAND ANTS		RAMSI	1:16:54.9	M45	43	 
452		552	MERILO RAIMO	KAITSELIIT	PAIDE	1:16:59.8	M35	106	 
453	93	465	VALDMAA HILLE		TALLINN	1:17:05.3	N55	4	 
454		478	VIIL INDREK	TARTU ÜLIKOOL	TARTU	1:17:13.6	M21	142	 
455		461	KAIO MARTIN	NÕO REAALGÜMNAASIUM	JÄNEDA	1:17:14.1	M17	21	 
456		502	HANKO OSKAR	PAIDE GÜMNAASIUM	PAIDE LINN	1:17:23.0	M17	22	 
457	94	363	RÄST KRISTIINA		TARTU	1:17:28.0	N21	48	 
458		377	TREPP KAAREL	RAKVERE GÜMNAASIUM	KADRINA	1:17:28.7	M17	23	 
459		253	LINK INDREK		KEILA	1:17:33.8	M21	143	 
460		343	RIKKER KARL- STEVEN	VÄNDRA GÜMNAASIUM	VÄNDRA VALD	1:17:36.2	M17	24	 
461	95	198	MÜNZER MONIKA		RÖA KÜLA	1:17:42.7	N21	49	 
462	96	125	PETERSON TRIIN		TALLINN	1:17:48.6	N35	20	 
463	97	250	MEHINE NELE	EESTI MAAÜLIKOOL	TARTU	1:17:50.5	N21	50	 
464	98	142	SIMSON MARET		PAIDE	1:17:50.5	N35	21	 
465	99	184	LAVRINENKO KAIRE		TÜRI	1:17:51.8	N21	51	 
466		287	ROOSAARE ANDRUS		PAIDE	1:17:53.8	M21	144	 
467		232	MARTINSON RONALDO	ROOSNA-ALLIKU PÕHIKOOL	VIISU KÜLA	1:17:54.7	M17	25	 
468	100	539	KULPÄRG ENE	JÄRVA TÜ	PAIDE LINN	1:17:55.5	N35	22	 
469	101	216	KÕLL KRISTI		TALLINN	1:17:57.1	N21	52	 
470		11	AOLAID MARTEN		TABASALU, HARKU VALD	1:18:26.2	M17	26	 
471	102	346	MÄGI TRIIN		TALLINN	1:18:46.0	N21	53	 
472	103	115	REINULA SIRJE		JÄNEDA	1:18:49.0	N35	23	 
473		192	KRAAV HENDRIK	PAIDE ÜHISGÜMNAASIUM	PAIDE	1:18:52.3	M17	27	 
474	104	66	MULDMAA MARI		TARTU	1:19:05.6	N21	54	 
475	105	101	KULDKEPP TIINA		LEPPNEEME KÜLA, VIIMSI VALD	1:19:07.7	N35	24	 
476	106	157	TINNURI LIINA		RAKVERE	1:19:12.5	N35	25	 
477	107	255	OKAS KADRI		TARTU	1:19:21.3	N21	55	 
478		322	ARU MARTTI		TALLINN	1:19:27.6	M45	44	 
479	108	185	KAASIK KAIRIT		TALLINN	1:19:29.4	N35	26	 
480	109	288	SUVI ANNEGRET	TALLINNA SAKSA GÜMNAASIUM	TALLINN	1:19:42.9	N17	5	 
481		558	NÕMMIK RAIN	JÄRVA TÜ		1:19:45.7	M21	145	 
482	110	186	SÜDA SHEILA		TALLINN	1:19:46.2	N21	56	 
483		137	VAAB ENNO		PAIDE	1:19:50.3	M35	107	 
484	111	345	PIIRMAA ELO		PAIDE	1:19:55.0	N35	27	 
485	112	161	KULL KRISTEL		TALLINN	1:19:57.2	N21	57	 
486		207	KOKK VIKTOR		HAABNEEME	1:19:57.7	M35	108	 
487	113	254	NURK ANDRA		PÜÜNSI	1:19:57.7	N35	28	 
488	114	291	TALU ANU		PÄRNU	1:20:02.1	N45	13	 
489	115	483	LUTS KERSTI		TARTU	1:20:02.1	N21	58	 
490		601	VOOLAID VELLO		RAASIKU	1:20:12.1	M45	45	 
491	116	392	RANDLANE KERLY		TALLINN	1:20:12.3	N35	29	 
492	117	34	TEEVÄLI LEILI		TARTU	1:20:16.3	N65	2	 
493	118	156	ALAOTS MAIE		RAKVERE	1:20:19.9	N45	14	 
494	119	45	NÕMMISTE LEIE		SIMUNA	1:20:26.5	N35	30	 
495		545	ERM LAURI	AS JÄRVA TEED	KAIU VALD	1:20:37.6	M21	146	 
496	120	544	PIIBELEHT MARI-ANN	AS JÄRVA TEED	PAIDE	1:20:37.6	N21	59	 
497	121	634	KIKAS LIINA		TALLINN	1:20:44.0	N35	31	 
498		1	KOLLA PAUL		SAAREPEEDI	1:20:54.1	M45	46	 
499		423	MÄNNIK REIN		SAAREPEEDI	1:20:54.4	M65	10	 
500		597	TALANTSEV LEONID		NARVA	1:21:08.6	M35	109	 
501	122	341	KANDLE ELLI	ARDU KOOL	ARDU KÜLA	1:21:11.2	N17	6	 
502	123	243	HALLIKAS KÄRT		TALLINN	1:21:16.7	N21	60	 
503		245	KIVISILD TIIT		RAPLA	1:21:17.2	M55	20	 
504	124	109	OLLINO EVA		VÄÄNA-JÕESUU	1:21:20.2	N21	61	 
505	125	241	LUKS KÜLLIKI		PRINGI	1:21:36.6	N35	32	 
506		407	NEI KULDAR		TALLINN	1:21:36.7	M21	147	 
507		132	TORP PEEP		KOSE ALEVIK	1:21:42.0	M21	148	 
508		455	LUIK RENE		TÜRI	1:21:42.4	M21	149	 
509	126	555	JOANDI RETI	ÜHINENUD AJALEHED AS	PAIDE	1:21:45.0	N35	33	 
510	127	77	HAARDE MAIKEN		JÜRI, RAE VALD	1:21:51.3	N21	62	 
511	128	633	VAADERPASS REELIKA		JÄRVAMAA	1:21:53.9	N21	63	 
512	129	303	RÄST KRISTIINA		TARTU	1:21:54.7	N21	64	 
513		462	KADAI TANEL		KAASIKSAARE	1:21:56.8	M35	110	 
514		629	KIVIMURD JANNO	PAIDE ÜHISGÜMNAASIUM	PAIDE VALD	1:22:02.0	M17	28	 
515	130	326	LAISAAR SIIRI		SINIALLIKU KÜLA	1:22:10.6	N35	34	 
516	131	624	KAUNISSAAR TERJE	KJK VIKE	RAKVERE	1:22:27.8	N18	7	 
517		625	VÄINMA ANDRE	KJK VIKE	SÕMERU	1:22:27.8	M17	29	 
518	132	318	KÄNGSEP MARGIT		PÄRNU	1:22:35.8	N35	35	 
519		413	ALLIKSAAR VALDEKO		KOBRUVERE	1:22:52.2	M65	11	 
520		154	KIIMAN KAURI	EESTI MAAÜLIKOOL	KÕO VALD	1:22:54.0	M21	150	 
521	133	313	KURVET ELERI		TALLINN	1:23:07.1	N21	65	 
522		577	HEINSALU JAANUS	VIKING WINDOW AS	PAIDE LINN	1:23:11.6	M21	151	 
523	134	112	ODRAS EHTEL		PAIDE	1:23:13.5	N21	66	 
524	135	391	TOLK TRIINU		JÕGEVA	1:23:16.9	N21	67	 
525		160	BORODENKO INNO		LAAGRI	1:23:19.6	M35	111	 
526		489	PAOSALU RANNO		TABASALU, HARKU VALD	1:23:27.7	M21	152	 
527	136	425	SUUR MAICHL		PÕLVA	1:23:28.1	N35	36	 
528	137	380	VENNIK KERSTI		TARTU	1:23:39.3	N35	37	 
529	138	50	RUUL RITI	EESTI INFOTEHNOLOOGIA KOLLEDZ	TALLINN	1:23:55.7	N21	68	 
530	139	122	SANG KAIRI		TARTU	1:24:11.2	N21	69	 
531		464	VALDMAA ANTS		TALLINN	1:24:14.5	M65	12	 
532		388	PUSKARJOV PEETER		AAVIKU KÜLA	1:24:25.5	M45	47	 
533	140	173	KRIIT KADI	TALLINNA ÜLIKOOL	PAIDE	1:24:26.6	N21	70	 
534		406	PUHVEL LAURI		TARTU LINN	1:24:40.5	M35	112	 
535	141	203	PINK ANNE		TALLINN	1:24:44.7	N21	71	 
536	142	106	LAIDRO LUULE		RAKVERE	1:24:45.3	N65	3	 
537	143	517	MIDT SILLE	ROOSNA-ALLIKU PÕHIKOOL	ROOSNA-ALLIKU	1:24:50.4	N17	7	 
538	144	637	KRISPIN MARIKA		TALLINN	1:24:53.5	N35	38	 
539		105	KOTTA PALLE		TALLINN	1:24:56.1	M21	153	 
540	145	188	DOBOLINA TATJANA		TALLINN	1:25:03.0	N21	72	 
541		498	SENGBUSCH ILMAR		LOKUTA LÜLA	1:25:05.4	M65	13	 
542	146	42	MUTTEL MAARJA	JÄRVAMAA KUTSEHARIDUSKESKUS	HALLISTE VALD	1:25:35.6	N17	8	 
543	147	347	KALLASSE MAARJA-HELENA	TALLINNA TEHNIKAÜLIKOOL	HAABNEEME	1:25:45.6	N21	73	 
544	148	267	VICHMANN MIRJAM		TALLINN	1:25:47.7	N21	74	 
545		579	JÜRIS VILLU	VIKING WINDOW AS	TÜRI LINN	1:26:33.1	M35	113	 
546		505	ALLIK SIGMAR	PAIDE GÜMNAASIUM		1:26:33.7	M17	30	 
547	149	553	LEPA TRIIN	ÜHINENUD AJALEHED AS	PAIDE	1:26:36.4	N21	75	 
548	150	556	MUTS MERLIN	ÜHINENUD AJALEHED AS	PAIDE	1:26:36.7	N35	39	 
549		554	KIVILAAN AIN	ÜHINENUD AJALEHED AS	PAIDE	1:26:36.9	M35	114	 
550	151	376	DENISENKO EKATERINA	VALGA VENE GÜMNAASIUM	VALGA	1:26:41.8	N17	9	 
551		458	JOA OLEV		TALLINN	1:27:34.7	M65	14	 
552	152	534	OJALA RITA	EDELARAUDTEE AS		1:27:37.5	N35	40	 
553		302	PUHK RAINER		TARTU	1:27:38.8	M21	154	 
554	153	648	LUKS DANIELLE	TALLINNA PRANTSUSE LÜTSEUM	VIIMSI	1:27:46.0	N17	10	 
555	154	273	JALAKAS KAIRI		KAALEPI	1:27:59.6	N21	76	 
556	155	385	MAIDLE ESTE		SINDI	1:28:16.8	N45	15	 
557		598	TINN AARE		TARTU	1:28:24.8	M45	48	 
558		330	SALU VILJAR		TALLINN	1:28:38.0	M21	155	 
559	156	314	HÕBE SEILA		ASSAKU	1:28:48.0	N35	41	 
560		15	TAIMSOO KASPAR		VILJANDI	1:29:02.6	M21	156	 
561	157	228	ROHTJÄRV BIRGIT		PAIDE	1:29:02.6	N18	8	 
562		269	LODE VELLO		MOOSTE VALD	1:29:16.8	M65	15	 
563	158	359	LÄTTE LIINA		PÄRSTI VALD	1:29:27.8	N21	77	 
564	159	439	ALAJAAN AIRE		TÕRVANDI	1:29:34.7	N21	78	 
565		559	PIISNER ERGO	JÄRVA TÜ		1:30:02.0	M21	157	 
566	160	369	SÕRMUS KAIRI	TÜ	PAIDE	1:30:02.3	N21	79	 
567		54	MIKSON MART		PAIDE LINN	1:30:04.5	M55	21	 
568		262	ÕUNLO LEMBIT		TALLINN	1:30:21.5	M65	16	 
569		111	TURRO ANDRES		JÄRVEKÜLA	1:30:34.2	M35	115	 
570		655	KULL GERT		PAIDE	1:31:35.3	M21	158	 
571	161	69	KIRSIMÄGI SILVA		TÜRI-ALLIKU KÜLA	1:31:49.6	N35	42	 
572	162	57	JUKNAITE IVI		JÕHVI	1:31:58.3	N35	43	 
573	163	95	MAUER ÜLLE		TARTU	1:32:07.4	N35	44	 
574		209	ROHTJÄRV JANIS		PAIDE	1:33:08.9	M35	116	 
575	164	211	ROHTJÄRV BERIT		PAIDE	1:33:09.0	N18	9	 
576	165	332	SALU MERLE		KIIA KÜLA	1:33:50.5	N35	45	 
577	166	133	EHRLICH MARITE	TARTU ÜLIKOOL	TARTU	1:33:57.4	N18	10	 
578		152	VIHERPUU RIHARD		HAABNEEME	1:33:59.0	M17	31	 
579		151	VIHERPUU HANNES		HAABNEEME	1:33:59.1	M35	117	 
580	167	479	JÄRVE KADRI		TALLINN	1:34:08.4	N18	11	 
581		48	NURMIK ANDRE		VALGMA KÜLA	1:34:08.6	M21	159	 
582		521	AUNPUU KRISTO	PAIDE ÜHISGÜMNAASIUM	PAIDE LINN	1:34:23.1	M17	32	 
583		113	HALLIKA EGO		PAIDE	1:35:05.3	M35	118	 
584		561	AGASILD ANDRES	MARK IT	TALLINN	1:36:15.4	M35	119	 
585		563	LIIM ERIK	MARK IT	TALLINN	1:36:19.1	M35	120	 
586		504	SAVISAAR SANDER	PAIDE GÜMNAASIUM	PAIDE LINN	1:38:15.1	M17	33	 
587		511	VALGO SANDER	PAIDE GÜMNAASIUM	PAIDE LINN	1:40:56.8	M17	34	 
588	168	630	KIVIMURD JANE	JÄRVA-JAANI GÜMNAASIUM	PAIDE	1:41:03.2	N17	11	 
589	169	336	TRUSS KADI	ORU PÕHIKOOL	UUEVESKI KÜLA	1:41:10.4	N17	12	 