Koht_Pos	Nkoht	Nr_Bib	Nimi	Riik_Nat	Klubi_Club	Aeg	10km	10km_Pos	Vkl_AgeG	Koht_Pos
1		2	ZOLNEROVICS VALERIJS	LAT		1:07:07	0:32:41	3	M	1
2		5	KITS KEIO	EST	EMÜ SK	1:08:19	0:32:41	1	MN	1
3		1	PÜI TAIVO	EST		1:08:43	0:32:41	2	M	2
4		4	VEGH TIBOR	USA		1:09:10	0:33:19	5	M	3
5		1070	KIVISTIK KAUR	EST	Tartu Spordiselts Kalev	1:09:15	0:33:19	4	MN	2
6		48	NIKOLAJEV ILJA	EST	Stamina SK	1:11:11	0:33:22	6	M	4
7		444	MATISONS AIGARS	LAT	Maratona klubs	1:12:29	0:35:07	8	M 40	1
8		1551	PAAP HASSO	EST	TÜASK	1:13:20	0:34:07	7	M	5
9		83	MOISEEV ALEXANDER	RUS	SYLVIA.GATCHINA.RU	1:15:34	0:35:50	9	M	6
10		997	ÕITSPUU ANDO	EST		1:15:47	0:35:57	10	M	7
11		1536	HELLSTRÖM MAGNUS	FIN	Sjundeå IF	1:17:24	0:37:50	16	M	8
12	1	3	POLUSKINA INNA	LAT		1:17:27	0:36:59	14	N	1
13		99	LILLELAID TARMO	EST		1:17:37	0:36:27	11	M	9
14		1272	ROOMET REGET	EST	pärnumaa sl	1:18:04	0:36:59	13	M	10
15	2	1396	MARHELE ILONA	LAT	cityfitness	1:18:36	0:37:50	17	N	2
16		1416	SHARP MATTHEW	GBR	Hercules Wimbledon AC	1:19:20	0:37:36	15	M	11
17		43	TÄRNO INDREK	EST		1:19:45	0:36:59	12	M	12
18		1171	REINART HARDO	EST	TÜASK	1:20:10	0:38:24	19	MN	3
19		435	SIRMAIS JURIS	LAT	SK "METROONS"/ NIKE	1:20:41	0:38:57	24	M	13
20		84	BELOUSOV ALEXEY	RUS	SYLVIA.GATCHINA.RU	1:20:54	0:38:46	22	M	14
21	3	81	RIHMA ANNIKA	EST		1:20:55	0:37:55	18	N	3
22		1063	LOOG KASPAR	EST	JCI Spordiklubi	1:20:59	0:39:43	28	M	15
23		44	MOOSES MARTIN	EST	Viljandi KJS Sakala	1:21:04	0:39:43	29	M	16
24		95	KIVASTE PÄRT	EST	21CC Triatloniklubi	1:22:01	0:38:56	23	M	17
25		93	KUUSALU ASKO	EST		1:22:06	0:38:31	20	M	18
26		90	LÄÄN CHRISTJAN	EST	FB Jooksmine	1:22:06	0:38:37	21	M	19
27		46	ROHTLA URMAS	EST		1:22:11	0:39:43	30	M 40	2
28		445	ŠULGA RUSLANS	LAT	Maratona klubs	1:22:27	0:39:09	26	M	20
29		45	JAKSON AHTO	EST	JOOKSUPORTAAL	1:22:28	0:38:58	25	M 40	3
30		115	MARTTINEN PASI	FIN	Mikkelin Kilpaveikot	1:22:35	0:39:37	27	M 40	4
31	4	158	ANDREJEVA OLGA	EST		1:23:24	0:39:51	31	N	4
32		1585	VAN DIJKEN HARM	NED		1:24:07	0:40:19	35	M	21
33		1226	DE VRIES JOOST	GER	HVB Lauftreff	1:24:08	0:40:34	38	M 40	5
34		153	SIIMANN SIIM	EST	Tartu Spordiselts Kalev	1:24:33	0:40:22	37	MN	4
35		448	MATISONS AINARS	LAT	Maratona klubs	1:25:30	0:41:02	42	M	22
36		726	DAHL ALF B.	NOR	Tromsø Løpeklubb	1:25:59	0:40:21	36	M 55	1
37		92	REHELEM STEVEN	EST	21CC Triatloniklubi	1:26:09	0:40:38	39	M	23
38		49	LAMP VELJO	EST	Tartu KJK Staier	1:26:11	0:41:37	50	M 40	6
39		403	VETEVOOG KAIDO	EST		1:26:14	0:41:12	47	M	24
40		136	ERVIN ALAR	EST	Nõmme SUKL	1:26:19	0:41:28	48	MJ	1
41	5	88	ZAHAROVA ANASTASIA	RUS	SYLVIA.GATCHINA.RU	1:26:53	0:41:08	43	N	5
42		453	BALINSKIS SANDRIS	LAT	Maratona klubs	1:27:01	0:41:11	46	M 40	7
43		10	AALDE ERLEND	EST	Põlva Kergejõustikuklubi	1:27:07	0:41:10	45	M 45	1
44		1559	LEVANOV ANDREY	EST		1:27:09	0:42:03	58	M 50	1
45		312	LEPIK TIIT	EST		1:27:16	0:42:00	56	M	25
46		109	KROON KENET	EST	SK Biathlon	1:27:20	0:39:51	32	MN	5
47		7	HAAVA HENNO	EST	TÜ ASK	1:27:46	0:41:37	49	M	26
48		85	MALSROOS LAURI	EST		1:27:50	0:40:04	34	M	27
49		1371	GRØN CHRISTOFFER	DEN	1900tri	1:27:58	0:43:28	86	M	28
50		156	MÄE JAANUS	EST	Pärnu Kahe Silla klubi	1:28:03	0:42:03	59	M	29
51		144	ALUNURM ALO	EST		1:28:05	0:42:15	64	M 40	8
52		716	SIRANTS MARTEKS	LAT	VSK Noskrien	1:28:14	0:42:23	69	M	30
53		130	PAESÜLD HARLES	EST	VAK Staier	1:28:19	0:42:03	57	M	31
54		785	TORBERGSEN EIRIK	NOR	TROMSØ LØPEKLUBB	1:28:24	0:42:23	68	M	32
55		1303	RATTAS RAIDO	EST		1:28:26	0:39:58	33	M	33
56		1591	CHIRKOV VALERY	RUS	Champion	1:28:27	0:41:10	44	M 50	2
57		838	RÄISÄNEN MIKA	FIN	KONTVU	1:28:29	0:42:45	75	M 40	9
58		994	PIKŠENS AGRIS	LAT	Nike Riga Run	1:28:33	0:42:21	67	M	34
59		865	NOVIKOV MIKHAIL	RUS	WorldClass Sennaya	1:28:38	0:42:34	73	M	35
60		106	LASS RISTO	EST	SK Saarde	1:28:42	0:42:00	55	M	36
61		412	KÕIV MAREK	EST		1:28:48	0:41:37	52	M	37
62		103	ROOSNUPP PRIIT	EST		1:29:01	0:42:19	65	M	38
63		134	SEPPIUS MARGUS	EST		1:29:40	0:42:33	71	M	39
64	6	703	BØIFOT ELSE	NOR	Tromsø løpeklubb	1:29:40	0:42:46	76	N 45	1
65		135	KALETIN ANTON	EST		1:29:46	0:42:13	62	M	40
66		330	KUHI RAINER	EST		1:29:47	0:44:02	95	M	41
67		89	NADORICHEV OLEG	RUS	SYLVIA.GATCHINA.RU	1:29:51	0:41:41	53	M	42
68		1140	IGNATENKO IGOR	EST		1:30:13	0:43:45	92	M 40	10
69		484	HIIESALU TAAGO	EST		1:30:19	0:43:09	83	M	43
70		138	VAHTER KAIT	EST		1:30:32	0:42:29	70	M	44
71		1256	KULDKEPP PAAVO	EST		1:30:34	0:42:57	80	M 40	11
72		96	SAAR AIVAR	EST		1:31:09	0:42:34	72	M	45
73		152	KUUSIK ANTS	EST	VAK STAIER	1:31:21	0:42:15	63	M 60	1
74		739	BÖRJESSON MIKAEL	SWE	Ringhals IF	1:31:42	0:43:39	89	M 40	12
75		372	UUSTARE AIN	EST		1:31:43	0:43:32	87	M	46
76		476	KENDLA TAIVO	EST		1:31:47	0:43:08	82	M	47
77		160	KURE KAAREL	EST		1:31:53	0:41:37	51	M	48
78		1203	RÕÕMUSSAR RAIGO	EST		1:31:56	0:45:24	127	M	49
79		1182	VIIKMÄE ALVAR	EST		1:32:03	0:41:48	54	M	50
80		129	LAUB GERD	EST		1:32:05	0:44:02	96	M	51
81		140	HELLERMA ANDRES	EST		1:32:16	0:42:38	74	M	52
82		151	MAI JANAR	EST		1:32:20	0:40:38	40	MN	6
83		470	NURK MIRKO	EST		1:32:25	0:42:20	66	MN	7
84	7	9	KERGYTE REMALDA	LTU		1:32:26	0:40:52	41	N	6
85		41	KOOP KALLE	EST	SK Saarde	1:32:27	0:43:59	94	M 40	13
86		101	MUULI EERIK	EST	TÜASK	1:32:32	0:44:27	105	MJ	2
87		1448	VIIRMANN OTT	EST	G4S Spordiklubi	1:32:35	0:43:40	90	M	53
88	8	122	SAUGA MARI	EST	Hansa SK	1:32:35	0:43:40	91	N 40	1
89	9	86	VAHER ANNELI	EST	Vak Staier	1:32:40	0:42:48	77	N	7
90		359	METSAOTS TÕNIS	EST		1:32:45	0:45:06	120	MN	8
91		1392	LOUTZENHEISER DAVID	USA	Cambridge Running Club	1:32:46	0:44:43	110	M 45	2
92		137	KALJUMÄE HENRI	EST		1:32:57	0:43:35	88	M	54
93		450	KÄLLU HEIKKI	EST		1:32:58	0:44:57	117	M	55
94		755	RICOTTA DOMENICO	ITA	Libertas Mantova	1:33:09	0:44:32	106	M	56
95		121	LIIVAK HANNES	EST		1:33:11	0:43:20	85	M	57
96		1413	SALONEN TIMO	FIN		1:33:20	0:44:45	111	M 40	14
97		100	AHROON PER	SWE	Ärla IF	1:33:28	0:42:13	61	M 45	3
98		1305	JÕEMETS AIVO	EST		1:33:43	0:42:13	60	M 40	15
99		116	KALA MARTIN	EST		1:33:44	0:42:57	79	MN	9
100		1421	VAN DE RIJT LEON	NED		1:33:51	0:46:14	153	M	58
101		1310	NILK ANDRUS	EST		1:33:52	0:44:19	103	M 45	4
102		1029	VAFIN RENAT	EST		1:33:53	0:44:55	115	M	59
103		110	JÜRIADO JUHAN	EST		1:33:54	0:44:08	97	M	60
104		436	JUMBURGS EDIJS	LAT	Maratona klubs	1:33:55	0:46:02	146	M	61
105		414	ROOTS JAANUS	EST		1:34:09	0:44:18	102	M 40	16
106		1338	LOMAKA ANDRE	EST		1:34:15	0:44:47	112	M	62
107		1365	DAVID BEAULE	CAN	Les loups du Québec	1:34:15	0:45:24	126	M	63
108	10	439	FELDMANE SANTA	LAT	Maratona klubs	1:34:15	0:46:01	145	N	8
109		781	MAZZONI ANTONIO	ITA	ASD PERCORRERE IL SILE	1:34:15	0:46:11	151	M 40	17
110		82	MALEVA MARCO	EST	Estonian Air	1:34:17	0:44:21	104	M 40	18
111		1490	KRUUS OLIVER	EST		1:34:24	0:46:09	150	M	64
112		478	SILLAMAA KASPAR	EST		1:34:31	0:45:05	119	MN	10
113		854	REKIRANTA PENA	FIN	Juoksija	1:34:35	0:44:33	107	M	65
114		111	LEHTMETS SVEN	EST		1:34:39	0:46:07	149	M	66
115		371	VOOLAID VEIKO	EST	Otepää Kehakultuurikollektiiv	1:34:49	0:45:43	134	M	67
116		141	RANDMETS REIGO	EST		1:34:53	0:45:43	133	M	68
117		1561	CARCIA FRANCISCO L MORCILLO	EST		1:35:00	0:44:12	98	M	69
118		132	LUTS MAREK	EST	SK Maret-Sport	1:35:03	0:42:53	78	M 40	19
119		387	KURAVKIN DMITRY	EST	Swedbank	1:35:05	0:44:13	99	M	70
120		460	ABAKUKS NORMUNDS	LAT	Maratona klubs	1:35:05	0:46:53	170	M	71
121		94	MÄGI ENN	EST		1:35:05	0:44:56	116	M 50	3
122		353	GRINBERGS MIKS	LAT		1:35:13	0:43:02	81	M	72
123	11	442	MUZIKANTE BAIBA	LAT	Maratona klubs	1:35:14	0:46:14	154	N	9
124		839	WYCHE GILBERT	USA		1:35:26	0:45:27	130	M	73
125		744	BELTRAMI DIEGO	FIN	AlbinoLeffe	1:35:30	0:46:51	168	M	74
126		1248	KIITAM URMO	EST	KJK	1:35:41	0:45:23	125	MN	11
127		766	NENONEN RISTO	FIN	Sippurasti	1:35:44	0:45:52	139	M 55	2
128		417	SALUVEER JOONA	EST		1:35:48	0:46:13	152	M	75
129	12	1181	KUKK KAIDI KEIR	EST	Jõulu	1:36:09	0:44:58	118	T	1
130		303	MÕTTUS EERO	EST		1:36:17	0:47:24	189	M	76
131		1499	RUNIKS MARTINS	LAT	SK "METROONS"/ NIKE	1:36:19	0:45:27	129	M	77
132		104	RAUN RAIN	EST		1:36:20	0:44:18	101	M 40	20
133		601	NIKANNE URPO	FIN	Helsingin Jyry	1:36:22	0:44:51	113	M 50	4
134	13	424	MOOSES KERLI	EST		1:36:23	0:45:46	135	N	10
135		311	ÕUN JAAN	EST		1:36:30	0:43:51	93	M	78
136		1530	ALEXANDER ZATSORENKO	USA	Elmhurst Running Club	1:36:39	0:45:43	132	M 40	21
137		98	LUIK MART	EST		1:36:40	0:45:26	128	M 40	22
138		1000	KALJUMÄE AIVO	EST	swedbank	1:36:46	0:45:14	122	M	79
139		721	BOGATYREV ANDREY	RUS	Fakel	1:36:49	0:45:29	131	M 55	3
140		1134	AALTONEN KLAUS	FIN		1:36:53	0:46:27	162	M 55	4
141		1381	JUNTTILA JARI	FIN	Nocando Marathon Club	1:36:54	0:46:59	174	M 45	5
142		415	PIKAND SEBASTIAN	EST	Tabasalu Triatloniklubi	1:36:55	0:46:18	157	P	1
143		1166	RANG HENDRICK	EST		1:36:56	0:45:10	121	M	80
144		1370	FOLKERSMA MIKKO	FIN	Finn Force	1:37:01	0:45:52	138	M	81
145		532	REMMEL ERNESTO	EST		1:37:02	0:46:01	144	M 40	23
146		475	MELECIS OSKARS	LAT		1:37:14	0:45:22	124	M	82
147		157	ALLIKAS JANEK	EST		1:37:15	0:44:16	100	M 40	24
148		931	BORN ILLIMAR	EST		1:37:25	0:46:18	158	MJ	3
149		1079	PENU ERKKI	EST	OK West	1:37:27	0:47:44	199	M 40	25
150		1435	SARV IVARI	EST		1:37:32	0:44:53	114	M	83
151	14	1339	KURG EVELI	EST	Sportkeskus.ee	1:37:37	0:46:39	164	N	11
152	15	1354	STEWART ELIZABETH	GBR		1:37:43	0:47:04	176	N	12
153		87	LUHA KRISTJAN	EST		1:37:44	0:49:02	252	M	84
154		1173	EHRENPREIS LAURI	EST		1:37:48	0:46:14	155	M	85
155		855	DAMGAARD HENRIK	DEN	Østbirk Løber	1:37:51	0:46:18	159	M	86
156		913	KUHI PEETER	EST		1:37:55	0:46:15	156	M 40	26
157		314	ROOP ANDREY	EST	NEJ SK	1:37:59	0:45:59	143	M 50	5
158		1266	KONGO RONNIE	EST		1:38:00	0:48:35	234	M	87
159		42	BÕSTROV JEVGENI	EST		1:38:03	0:43:10	84	M 40	27
160		1258	KLEMET MARTINUS	EST		1:38:03	0:49:20	265	M	88
161		443	VALERTS ANDRIS	LAT	Maratona klubs	1:38:05	0:46:53	171	M 40	28
162		1205	RÖÖPSON ROGER	EST		1:38:12	0:49:52	279	MJ	4
163		493	AIGRO MAREK	EST		1:38:17	0:48:17	220	M	89
164		597	SWEETLOVE MALCOLM	GBR	Scarborough AC	1:38:20	0:46:54	172	M 60	2
165		1291	VEISMAN MARTIN	EST		1:38:23	0:46:26	161	M	90
166		47	TUBALKAIN MARGUS	EST	Stamina SK	1:38:28	0:46:04	148	M 45	6
167	16	421	KAIV JAANIKA	EST		1:38:29	0:47:02	175	N	13
168		366	KÕLLAMAA KALLE	EST	Metsasõbrad	1:38:36	0:46:55	173	M 40	29
169		1244	VIHALEM MARGUS	EST		1:38:43	0:49:32	267	M	91
170		1486	TÄNAV(TÄNAK) MAIRO	EST	KJK Saare	1:38:46	0:47:35	195	MJ	5
171		1191	ZVOROVSKI HENN	EST		1:38:47	0:49:33	268	M 40	30
172	17	707	OLSEN CECILIE	NOR	Tromsø løpeklubb	1:38:49	0:45:58	141	N	14
173		463	MEIJEL TONI	EST		1:38:50	0:46:24	160	M	92
174		377	AAVA RAUL	EST		1:38:51	0:47:04	178	M 40	31
175	18	1337	VAHER RUTH	EST		1:38:55	0:47:30	191	N 40	2
176		126	ZAKHAROV DMITRY	RUS	TriSport-Dinamo/Toksovo	1:39:08	0:47:17	184	M 40	32
177		842	OSSIPOV VLADIMIR	EST		1:39:08	0:47:32	192	M	93
178		730	SEDLENIEKS JURGIS	LAT		1:39:10	0:47:05	180	M	94
179		119	RIKAND HARDI	EST	TK Stiil	1:39:12	0:45:53	140	M	95
180		128	MÄNNA URMAS	EST		1:39:14	0:46:47	165	M	96
181		1329	HEIN AVO	EST	Hawaii Express	1:39:20	0:48:21	224	M 40	33
182		97	MEDIJAINEN MIKK	EST		1:39:29	0:47:19	188	M	97
183		1438	PRUUS MARKO	EST	saue spordiklubi	1:39:33	0:48:07	209	M	98
184		966	RÖÖPSON EVERT	EST	Tartu oravad	1:39:42	0:48:29	232	MN	12
185		1549	VAINIKKA HANNU	FIN		1:39:47	0:47:54	203	M	99
186	19	1317	ULP MARE	EST	swedbank	1:39:47	0:47:05	179	N 40	3
187		1386	KOLPAKOVS ALEKSEJS	LAT		1:39:48	0:47:41	197	M	100
188		510	KODRES MARKO	EST		1:39:56	0:48:35	235	M	101
189		149	SAREMAT TARMO	EST		1:39:57	0:48:19	221	M	102
190		496	KASK ATS	EST	Mul ei ole neid	1:40:05	0:45:47	136	M	103
191		1565	VÕRK JAANUS	EST		1:40:09	0:47:09	183	M 50	6
192		923	DUBOV ALEKSANDR	EST	Regionaalhaigla Spordiklubi	1:40:14	0:45:59	142	M 45	7
193		1135	KIIRANEN KALLE	EST		1:40:15	0:46:51	169	M 55	5
194	20	866	OTS MAIVI	EST	21 CC Triatloniklubi	1:40:23	0:48:01	205	N	15
195	21	1587	LÜKK MERLYN	EST		1:40:24	0:48:13	216	NN	1
196		91	LEHTER AIVAR	EST		1:40:27	0:44:33	108	M 40	34
197		1176	ŠILLERS EINARS	LAT		1:40:31	0:48:01	206	M	104
198		1042	TALVISTE RAIMO	EST		1:40:31	0:48:47	242	M	105
199		319	TIISVELT REIN	EST		1:40:33	0:47:18	186	M 50	7
200		1156	JÕELEHT URMAS	EST		1:40:35	0:48:19	223	M 45	8
201		133	LÕUGAS AHTO	EST		1:40:40	0:48:08	211	MN	13
202		480	AID MARKO	EST		1:40:49	0:46:29	163	M 40	35
203		466	APFELBAUMS ILGONIS	LAT	Maratona klubs	1:40:50	0:48:38	239	M 50	8
204		396	PÄÄBUS VEIKO	EST		1:40:50	0:47:44	200	M	106
205	22	856	DIETZE JULIA	GER	Fishtown Runners	1:40:52	0:48:21	225	N	16
206		324	MÄNNI RIHO	EST	OK Lehola	1:40:53	0:48:52	244	M 60	3
207		1115	LAUREN MARTIN	EST		1:40:57	0:50:43	323	M	107
208		953	DANIEL PATRICE	EST	21CC Triatloniklubi	1:41:02	0:48:28	230	M	108
209		507	RANDVER KRISTER	EST		1:41:03	0:47:19	187	M	109
210		145	HALLIMÄE RAIN	EST		1:41:05	0:47:06	182	M 50	9
211		1004	VUTT INGMAR	EST		1:41:11	0:48:19	222	M 40	36
212		367	NIKERS OLEVS	LAT	VSK Noskrien	1:41:12	0:48:33	233	M	110
213		139	ESKEN AGO	EST	Elioni Spordiklubi	1:41:13	0:48:06	208	M	111
214		859	KERTTUNEN MIKA	EST		1:41:13	0:47:33	193	M 50	10
215		921	KUHI TÕNU	EST		1:41:15	0:46:48	166	M 40	37
216		847	JAAKKOLA HEIKKI	FIN		1:41:15	0:49:41	275	M 45	9
217	23	1149	TAMM MERJE	EST		1:41:16	0:48:27	228	N 40	4
218		1566	SAASTAMOINEN TOIVO	FIN	LTH / FINLAND	1:41:23	0:48:27	229	M 55	6
219		1426	WERNERSSON RICHARD	SWE		1:41:29	0:49:10	256	M	112
220	24	765	VAN ELK DENISE	GER		1:41:31	0:47:06	181	NN	2
221		1407	PSKHATSIEV JURY	RUS		1:41:32	0:50:13	303	M	113
222		369	SOOM MIHKEL	EST	SK Dunker	1:41:34	0:48:14	217	M	114
223	25	889	TÄHT STELLA	EST	Eesti Firmaspordi Liit	1:41:37	0:48:27	227	N	17
224		477	LEIBAK ERGO	EST		1:41:38	0:48:26	226	M	115
225		120	PÄRN UKU	EST	Rae Koss	1:41:40	0:49:19	264	P	2
226		465	OTS MAGNUS-MAIT	EST	Leola	1:41:40	0:48:36	236	M 40	38
227		1515	KITS RAGNAR	EST	Liviko spordiklubi	1:41:41	0:49:02	250	M	116
228		1233	TAMMISTE MARTIN	EST	Nõmme SK	1:41:45	0:51:31	359	MJ	6
229		1363	BOGUSTOVS EVALDS	LAT		1:41:45	0:46:50	167	M	117
230		1521	TOMSON RAUNO	EST		1:41:56	0:51:31	360	MN	14
231		1537	KALLIO TIMO	FIN	Nihattulan Tempo	1:41:58	0:47:50	202	M 45	10
232		1545	VEIKKOLA VALTTERI	FIN	Lammin Säkiä	1:42:02	0:50:19	308	P	3
233		350	SANKOVSKI RAUL	EST		1:42:03	0:48:14	218	M 40	39
234		1287	SIROKI GLEB	EST		1:42:20	0:45:22	123	MN	15
235		1403	ÖSTERBERG PER-OLOF	FIN		1:42:21	0:48:11	213	M	118
236		1093	AGU MIKK	EST		1:42:23	0:52:14	403	M	119
237		1552	KELDER ALO	EST		1:42:25	0:48:38	238	M	120
238		462	MILTINŠ VAIRIS	LAT	Maratona klubs	1:42:28	0:49:14	262	M 40	40
239		1312	LAUR MARKO	EST	Sportkeskus.ee	1:42:34	0:49:54	282	M	121
240		1397	MARJA SULEV	EST		1:42:38	0:47:59	204	M 50	11
241		1368	EGLITIS ULDIS	LAT	veseli viri	1:42:43	0:48:13	215	M	122
242		1518	VILKOIT JANEK	EST		1:42:47	0:51:01	335	MN	16
243		804	DOUJAK VALENTIN	AUT	BSK Kelag	1:42:48	0:51:07	339	M 40	41
244		1170	SOOMRE RANDO	EST		1:42:49	0:50:00	287	M	123
245	26	883	KRAMER JUDITH	GER		1:42:52	0:50:12	301	N	18
246	27	968	VARVAS KAMILA	EST		1:42:53	0:49:14	261	N	19
247		1229	NIEMINEN TOMI	FIN	Rakennuslogistiikka	1:42:55	0:50:25	313	M 40	42
248		313	SOOSAAR STEN	EST		1:42:58	0:48:15	219	M 40	43
249	28	1332	KAVALD SVEN	EST		1:43:00	0:52:59	447	N	20
250		1215	SIMMER KARL	EST	Saue Gümnaasium	1:43:06	0:49:06	253	MJ	7
251		1161	LANG HEIKI	EST		1:43:15	0:47:36	196	M 40	44
252		1257	PÄRNAMAA TANEL	EST		1:43:21	0:52:37	431	MN	17
253		957	KAASIK MARGUS	EST	Eesti Energia Spordiklubi	1:43:22	0:50:34	316	M	124
254		728	KINNUNEN RAINO	FIN		1:43:26	0:50:34	317	M 55	7
255		1262	LÄTE ANATOLI	EST	suusahullud	1:43:27	0:50:09	298	M 45	11
256		771	OHTONEN JAAKKO	FIN	Helsinki	1:43:29	0:53:56	497	M	125
257		310	MALMRE MALLOR	EST	www.keskkond.eu	1:43:38	0:48:44	241	M	126
258		474	RIITMURU TARMO	EST		1:43:38	0:49:36	270	M	127
259	29	1190	KIKAS MARGE	EST		1:43:40	0:50:09	297	N	21
260		390	LUME REIKO	EST		1:43:40	0:50:57	326	M	128
261		1520	PARV OLIVER	EST		1:43:43	0:50:06	292	MJ	8
262		1374	HEINO SAMI	FIN	Wanha Kaupungin Rykima	1:43:44	0:52:23	411	M	129
263		114	TASUR MEELIS	EST		1:43:45	0:48:08	212	M	130
264		1532	CAROLAN MARTIN	GBR	Serpentine	1:43:47	0:50:08	295	M	131
265		1189	KAEVAL HINDREK	EST		1:43:48	0:47:48	201	M	132
266		1586	LIEBENAU RAUL	EST	VIRAAž	1:43:52	0:49:07	255	MN	18
267		1163	PUKK AHTO	EST		1:43:56	0:50:36	319	M	133
268		958	TABA RIHO	EST	Eesti Energia Spordiklubi	1:44:05	0:44:34	109	M	134
269	30	118	VULLA ELA	EST	Tamsalu	1:44:07	0:47:29	190	N	22
270		328	LIBLIKMAN ANDI	EST		1:44:07	0:50:25	312	M	135
271		1540	PISAROVIC MICHAL	SVK	Miso&Jano Sport	1:44:10	0:50:55	325	M	136
272		1380	JÖNSSON OLA	SWE	Ringhals Marathonklubb	1:44:11	0:51:01	333	M 45	12
273		1253	AAVIK MORTEN	EST		1:44:13	0:51:39	365	M	137
274		452	VEVERS GIRTS	LAT	Maratona klubs	1:44:19	0:49:13	260	M	138
275		376	NUGA AHTI	EST		1:44:20	0:48:51	243	M	139
276		851	JAGOMÄGI JAAN	EST		1:44:22	0:51:17	343	M	140
277	31	1207	PIHELGAS SUSAN	EST	Sportkeskus	1:44:23	0:48:55	248	N	23
278		332	ÜBNER TOOMAS	EST		1:44:23	0:51:18	345	M	141
279		419	KOKK KRISTO	EST	Metsasõbrad	1:44:25	0:50:17	307	M 40	45
280		472	GILDEN KRISTEN	EST		1:44:26	0:49:12	258	MN	19
281		1503	METSKÜLA ÜLLAR	EST		1:44:29	0:51:40	366	M 40	46
282		534	STARTSEV ROMAN	EST		1:44:31	0:51:16	342	M	142
283		1273	PIRKSAAR PRIIT	EST		1:44:35	0:49:46	277	M	143
284		985	PUZYRKO TIMUR	RUS		1:44:43	0:48:11	214	M	144
285		117	MUUK-ADRAT ANDRES	EST		1:44:44	0:48:08	210	M	145
286		928	KALDMA RAIDO	EST		1:44:48	0:50:09	296	M	146
287	32	725	BOGATYREVA TATIANA	RUS	Fakel	1:44:49	0:49:56	285	N 40	5
288		1138	RAUDSEPP ANDRUS	EST		1:44:51	0:52:19	409	M	147
289		1158	RIISALU REIN	EST		1:44:55	0:45:51	137	M	148
290		1399	MINAJEVS DMITRIJS	LAT		1:44:55	0:50:33	315	M	149
291		1282	BUŠIN PEEP	EST		1:44:57	0:50:19	309	M	150
292		1447	VEHLMANN ARNDT	EST	G4S Spordiklubi	1:44:58	0:51:23	348	M	151
293		1088	AAS INDREK	EST		1:45:03	0:52:00	384	M	152
294	33	554	HAUGAS MERIKE	EST	OK WEST	1:45:09	0:49:54	281	N	24
295		1425	WERNERSSON LARS	SWE		1:45:15	0:51:18	346	M 55	8
296		375	RAUDSEPP AIVAR	EST		1:45:23	0:49:06	254	M 50	12
297		1355	TOOME RASMUS	EST		1:45:24	0:49:41	274	M	153
298		1185	MILDER MARKUS MIIKAEL	EST		1:45:25	0:53:56	496	P	4
299		600	SUTHERLAND DAVID	JEY		1:45:32	0:48:43	240	M	154
300		1510	PÄRNA OTT	EST	JCI Spordiklubi	1:45:36	0:49:11	257	M	155
301		327	LÜKK VILLU	EST		1:45:47	0:49:36	269	M	156
302		1336	PARVE MARKO	EST		1:45:51	0:51:01	334	M	157
303		301	KRUUSAMÄGI UKU	EST		1:45:52	0:49:46	278	P	5
304		1084	PÕLKIN DENISS	EST		1:45:53	0:49:13	259	M	158
305	34	461	KRUVESE SINDIJA	LAT	Maratona klubs	1:45:53	0:49:19	263	N	25
306		832	WEBER CHRISTIAN	GER		1:45:56	0:49:55	283	M	159
307		1439	PÄÄRMAN JOEL	EST		1:45:57	0:51:43	368	M	160
308		1328	VILL URMAS	EST	FILTER	1:46:00	0:50:31	314	M 40	47
309		998	NIGU VILLEM	EST		1:46:01	0:52:40	434	M	161
310	35	1409	PURA JOHANNA	FIN	Forssan Salama	1:46:02	0:52:52	442	N	26
311		405	LUIK MATHIAS	EST		1:46:04	0:52:03	389	MJ	9
312		1127	EESMÄE AHTO	EST	Metsasõbrad	1:46:07	0:51:14	340	M	162
313		148	TERENTJEV SERGEI	EST		1:46:11	0:50:16	306	M 40	48
314		1424	WAGINDER RASMUS	SWE	Ringhals Marathonklubb	1:46:12	0:51:26	355	M 40	49
315		863	LILJA MIKKO	FIN	NoCanDo	1:46:15	0:52:28	418	M 45	13
316		124	LOOST JOOSEP	EST		1:46:18	0:47:04	177	M	163
317		1335	KALS MART	EST	Lõvikutsikad	1:46:20	0:50:07	294	M	164
318		648	PALM RAIKO	EST		1:46:22	0:48:53	247	M	165
319		604	LINSI KRISTJAN	EST	Puna-Puna Maffia	1:46:24	0:51:25	354	M	166
320		1152	AMMON ANTS	EST	Eesti Raudtee Spordiklubi	1:46:27	0:50:58	327	M 40	50
321		920	HOOP OLAV	EST	JV nim Tartu Akadeemiline SK	1:46:28	0:49:02	249	M	167
322		1311	PÖLLÄNEN PEKKA	FIN		1:46:28	0:52:37	432	M 55	9
323		1463	OJA KRISTJAN	EST		1:46:30	0:51:25	353	MN	20
324		404	SORMUNEN RIHO	EST	Eesti Energia Spordiklubi	1:46:34	0:52:26	415	M	168
325		1321	SAUL UDO	EST		1:46:36	0:48:53	246	M 40	51
326		1415	SEDOV VLADIMIR	RUS	Champion	1:46:38	0:51:52	378	M 55	10
327	36	1527	VALK MARET	EST	Säde	1:46:42	0:51:45	371	N	27
328		1433	MÄGI MIKK	EST		1:46:44	0:50:47	324	M	169
329		1239	REIGO ERKO	EST		1:46:46	0:51:55	380	M	170
330		498	JOONAS KALEV	EST		1:46:50	0:49:37	272	M 45	14
331		518	MESSNEV THOMAS			1:46:51	0:51:27	356	M	171
332		322	REINUMÄGI MADIS	EST	JK Alpinismiklubi	1:46:57	0:49:26	266	M	172
333		718	ELISEEV PAVEL	RUS		1:46:58	0:50:36	320	M	173
334		1596	TOMINGAS KALLE	EST		1:47:03	0:52:22	410	M	174
335		890	KALIND JARNO	EST		1:47:05	0:48:36	237	M	175
336		1524	EVERT JAAK	EST	Hooler	1:47:08	0:51:19	347	M 40	52
337		901	TALPSEP INDREK	EST	SPROTTT	1:47:09	0:52:34	426	M	176
338		1283	TOOMAS INDREK	EST		1:47:15	0:54:01	506	MN	21
339		1423	VIITAHARJU ALPO	FIN	VRU	1:47:20	0:53:13	468	M 50	13
340		432	PALLOTEDDER TAIVO	EST		1:47:25	0:52:23	413	M	177
341		1588	DMITRIJEV ROMAN	EST		1:47:28	0:54:16	528	M	178
342	37	1525	MÄRSS LY	EST	Säde	1:47:30	0:51:45	372	N	28
343		385	VOSMAN RAIN	EST		1:47:34	0:49:43	276	M	179
344		464	PAJU AIVAR	EST		1:47:37	0:49:54	280	M 40	53
345		505	KULLAMAA AHTI	EST		1:47:39	0:54:49	556	M	180
346	38	902	SEDMAN ANNETTE	EST	Sprottt	1:47:40	0:52:36	429	N	29
347		1578	NIGLAS MARTIN	EST		1:47:42	0:52:01	387	M	181
348		1144	TOMUSK ILMAR	EST	Vilgas Uno	1:47:42	0:50:24	311	M 45	15
349	39	411	SIIBAK KRISTI	EST		1:47:43	0:51:45	373	N	30
350	40	143	AUN ERET	EST	EMTA SK	1:47:44	0:51:24	351	N	31
351		1175	SIRP VAHUR	EST		1:47:47	0:55:58	636	M	182
352		956	RINK MARGUS	EST	Eesti Energia Spordiklubi	1:47:47	0:52:05	391	M	183
353		955	KEIV INVER	EST	Eesti Energia Spordiklubi	1:47:49	0:51:44	369	M	184
354		1555	KOPPEL TÕNU	EST		1:47:51	0:51:46	376	M 45	16
355	41	877	LÕHMUS SILJA	EST		1:47:57	0:51:23	350	N 50	1
356		304	LAHT RAIN	EST		1:47:59	0:52:10	398	M	185
357		529	KLAMAS ANDRES	EST		1:48:00	0:52:17	405	M	186
358		1441	ARVI MAIT	EST	G4S Spordiklubi	1:48:08	0:52:14	404	MN	22
359		482	MADISSON VAHUR	EST		1:48:10	0:53:10	463	M	187
360		1062	TEESAAR TOOMAS	EST	Elioni Spordiklubi	1:48:21	0:49:02	251	M	188
361		1451	METSAMAA RASMUS			1:48:22	0:55:24	589	P	6
362		1206	MUUK MARDEN	EST		1:48:26	0:50:37	321	M	189
363		1059	SÄDE EERO	EST		1:48:27	0:51:23	349	M	190
364		1068	AVILA TAURI	EST		1:48:30	0:51:17	344	M	191
365		872	PAJO OLAVI	EST		1:48:32	0:53:10	464	M	192
366		1350	LÄTT JAN	EST		1:48:33	0:50:04	289	M	193
367		977	TIKKA KARLA	EST		1:48:35	0:50:59	330	MN	23
368		912	ARUS LAURI	EST		1:48:40	0:49:37	273	M	194
369		426	TAMM MIHKEL	EST		1:48:43	0:50:43	322	MN	24
370	42	308	MÄE HELEN	EST		1:48:45	0:51:46	375	NN	3
371		446	BREDIKIS JURIS	LAT	Maratona klubs	1:48:45	0:50:01	288	M	195
372		334	LÕUGAS MARTIN	EST		1:48:58	0:50:07	293	M	196
373		761	COLELLA FABRIZIO	ITA	Junior Atletica Casale Monferr	1:49:02	0:51:38	364	M 45	17
374		1444	RANNE MARTI	EST	G4S Spordiklubi	1:49:04	0:52:36	428	M 40	54
375	43	713	KATRINE ELTARVÅG	NOR		1:49:04	0:50:59	328	N	32
376		1194	ALLEMANN ALO	EST		1:49:06	0:54:23	538	M 40	55
377		305	NILSON KOIT	EST		1:49:06	0:52:17	406	M 50	14
378		1200	ALLEKÕRS ERKKI	EST		1:49:07	0:52:41	435	M	197
379		853	PANSEGRAU INGO	GER	Norma OK	1:49:08	0:52:01	385	M 45	18
380		127	ÖVERUS PRIIT	EST	Norma OK	1:49:08	0:52:01	386	M 45	19
381	44	638	VIRONMÄKI JOHANNA	EST	Suomettaret	1:49:08	0:52:23	414	N 40	6
382		316	MITT ARLYN	EST		1:49:10	0:46:02	147	M	198
383		113	TIMMERMANN ALVAR	EST		1:49:12	0:48:05	207	MN	25
384		331	SUURKUUSK ANDRES	EST	Sparta	1:49:13	0:50:15	305	M 50	15
385		1446	VARES VELJO	EST	G4S Spordiklubi	1:49:13	0:49:59	286	M	199
386		384	MARUSTE RAIN	EST		1:49:16	0:50:35	318	M 45	20
387		430	KALJURAND LAURI	EST		1:49:17	0:53:19	473	MN	26
388		873	PRESS JÜRI	EST		1:49:17	0:51:33	361	M	200
389		1558	TIBBLING THOMAS	SWE		1:49:22	0:53:59	499	M 45	21
390		494	RAAG TOOMAS	EST		1:49:23	0:51:50	377	M	201
391		1522	TEDER BRANDON	EST	Audentese SpordiGümnaasium	1:49:26	0:56:45	677	P	7
392		971	HAAS ANDERO	EST	MARS	1:49:29	0:54:25	540	M	202
393		1562	KORPE MEELIS	EST		1:49:29	0:51:03	336	M	203
394	45	340	JUHANSON JAANA	EST		1:49:29	0:53:11	465	N	33
395		777	KASK ERNI	EST		1:49:31	0:53:45	489	M	204
396	46	611	MERENÄKK MARGARETE			1:49:32	0:52:33	424	N	34
397		373	VÜRMER SILVER	EST		1:49:37	0:50:05	290	M	205
398		441	KALNINŠ DIDZIS	LAT	Maratona klubs	1:49:38	0:50:59	329	M 40	56
399	47	622	TIMMUSK KERDA	EST	SRD	1:49:40	0:54:40	549	T	2
400		1020	SOPP ANDERO	EST	pärnu surfiklubi	1:49:43	0:56:26	658	M	206
401		345	LUKS LAURI	EST		1:49:43	0:52:11	399	M 40	57
402	48	347	LUKS LISELLE	EST	Viimsi SPA	1:49:44	0:52:11	400	T	3
403		1398	METSAPOOL JANNO	EST		1:49:50	0:57:59	757	M	207
404		1103	VILJAMAA JAANUS	EST		1:49:50	0:54:56	565	M 45	22
405	49	530	UNDRITS AIRI	EST		1:49:54	0:51:00	332	N	35
406		306	RAUDSEPP RAIVO	EST		1:49:54	0:52:40	433	M 45	23
407	50	711	HASCHKA NICOLE	LAT		1:49:55	0:51:06	337	N	36
408		1513	HERMAKÜLA HANNES	EST	Esimees	1:49:56	0:52:58	446	M 40	58
409		1268	ALTMETS VALEV	EST		1:49:57	0:52:04	390	M 40	59
410		418	TAGEL ILMAR	EST	VILJANDI VAK	1:50:01	0:52:32	422	M 65	1
411	51	1025	VARJEND TIINA	EST		1:50:01	0:52:50	439	N	37
412	52	975	TAMM AIVI	EST		1:50:04	0:51:27	358	N	38
413		351	GILL MIHKEL	EST		1:50:10	0:47:41	198	MJ	10
414	53	449	MATISONE AGNESE	LAT	Maratona klubs	1:50:10	0:53:01	452	N	39
415		337	HUNT RISTO	EST		1:50:10	0:53:36	480	M	208
416		50	KIMASK EDUARD			1:50:11	0:53:01	450	M	209
417		309	TEE DMITRI	EST	USPEX	1:50:11	0:53:01	451	M	210
418		967	ZHUMADILOV VALERY	EST	AUDENTES FITNESS	1:50:11	0:53:00	449	M 50	16
419		1097	LUKKE ANDRUS	EST		1:50:11	0:56:45	678	M	211
420		457	MARIPUU MADIS	EST		1:50:13	0:51:45	374	M 40	60
421		1110	KIHO MARTIN	EST		1:50:13	0:55:47	614	M	212
422		798	HANSEN IVAN	DEN	Fjordloberne	1:50:13	0:54:00	501	M 50	17
423	54	365	LUIK TERJE	EST		1:50:15	0:52:32	423	N	40
424		1376	HOLOPAINEN JAAKKO	FIN		1:50:16	0:55:28	594	M 40	61
425		1267	ZIRNASK VILLU	EST	Stamina	1:50:24	0:50:20	310	M 45	24
426		349	TENSBEK TAIMAR	EST		1:50:24	0:52:19	408	M	213
427		1573	VAHTONEN TIMO	FIN		1:50:26	0:53:02	454	M 40	62
428		362	PRAAKEL ÜLAR	EST	Elioni Spordiklubi	1:50:30	0:50:10	299	M	214
429		1204	MEDIJAINEN SIIM	EST		1:50:31	0:53:12	467	M	215
430		1538	KINNUNEN MATTI	FIN		1:50:34	0:54:12	522	M	216
431	55	320	JÕGI AULIKI	EST		1:50:35	0:50:14	304	N	41
432		1315	PEDRAS SIIM	EST	Swedbank	1:50:44	0:52:51	441	M	217
433		1169	NIKOLAJEV MARK	EST		1:50:48	0:50:12	302	MN	27
434		1123	LEPP KRISTJAN	EST	SK Autsaider	1:50:49	0:54:40	550	M	218
435	56	1225	KIISEL MONIKA	EST		1:50:51	0:52:31	421	N	42
436		1442	HIRV TARVI	EST	G4S Spordiklubi	1:50:52	0:53:45	490	M	219
437		1528	HELMINEN JAAKKO	FIN		1:50:52	0:53:01	453	M 60	4
438		1468	MÄNNIK EERO	EST		1:50:53	0:55:56	632	M 40	63
439		146	KULBAS OLIVER	EST		1:50:54	0:54:51	560	M	220
440		335	LÕUKE ARBO	EST		1:50:58	0:52:18	407	M 45	25
441		875	UUEMÕIS TEET	EST		1:51:01	0:51:54	379	M 40	64
442	57	379	VASSILJEV RIINU	EST		1:51:01	0:54:54	563	N	43
443		1186	JÕUMEES KARL	EST	SUKL Jõulu	1:51:03	0:56:56	684	P	8
444		1245	MASSO MÄRT	EST		1:51:05	0:52:05	392	M	221
445	58	662	SÕRMUS KARIN	EST		1:51:09	0:51:07	338	N 40	7
446	59	400	JÜRISAAR MARIT	EST		1:51:10	0:51:00	331	N	44
447		454	BRAUNERS EDIJS	LAT	Maratona klubs	1:51:10	0:53:41	485	M 40	65
448		1389	LESZCZYNSKI MARIUSZ	POL	Charty z Arupa	1:51:12	0:55:53	622	M	222
449		786	LOCK MØLLER STIG	DEN	Fjordloberne	1:51:14	0:52:09	396	M 45	26
450	60	841	KAISEL PILLE	EST		1:51:14	0:54:04	513	N 40	8
451		564	KADAJA MEELIS			1:51:15	0:53:23	476	M	223
452		1491	PUKK ANDRE	EST	Trismile	1:51:16	0:55:27	593	M	224
453		1493	TILLO AUGUST	EST	21CC Triatloniklubi	1:51:16	0:55:27	592	M 40	66
454		983	KASK KAREL	EST	Elioni Spordiklubi	1:51:17	0:54:01	507	M	225
455		1543	VÄÄRÄ VESA-MATTI	FIN		1:51:19	0:55:14	579	M 40	67
456	61	468	DINSBERGA ANCE	LAT	Maratona klubs	1:51:24	0:52:06	395	N	45
457		788	NIELSEN CARSTEN	DEN	Fjordloberne	1:51:28	0:53:16	471	M 45	27
458		150	EHATAMM ANTI	EST		1:51:30	0:49:56	284	M 55	11
459	62	1050	KUJANPÄÄ NINA	FIN	Team Inka	1:51:32	0:56:00	640	N 40	9
460	63	1177	TOOTS MAIRE	EST		1:51:33	0:53:03	456	N 40	10
461		1174	TOOTS ALVER	EST		1:51:33	0:53:03	457	M 45	28
462		1112	VANKER VAHUR	EST		1:51:36	0:53:59	500	M	226
463		1240	LOITE MÄRT	EST	SK Drusba	1:51:40	0:53:48	494	M	227
464		914	TOOMSE RENE	EST		1:51:41	0:52:46	437	M	228
465		1500	PARRAS RAUNO	EST		1:51:42	0:54:09	518	M 40	68
466	64	1133	AALTONEN ERJA	FIN		1:51:44	0:53:08	462	N 50	2
467	65	1351	MUNI PILLE	EST	JCI Spordiklubi	1:51:48	0:52:05	394	N	46
468		709	KJELDBY BJØRN	NOR	team kjeldby	1:51:48	0:52:13	402	M 55	12
469		1347	VARBLAS EVERT	EST		1:51:50	0:52:56	443	M 50	18
470		984	KÜÜN HANNES	EST		1:51:51	0:51:59	383	M	229
471		741	JOHANSSON LARS	SWE	Ringhals Maraton Klubb	1:51:51	0:52:13	401	M 55	13
472		1299	ANDRESSON ANDRES	EST		1:51:53	0:54:04	512	M	230
473		1349	MEIER HEIKI	EST	RK Pyhayritus	1:51:55	0:51:55	381	M	231
474	66	429	MEIER HELI	EST		1:51:56	0:51:56	382	N	47
475		1202	HAAS MART	EST		1:51:58	0:51:24	352	M	232
476	67	819	RETS PILLE	EST		1:51:58	0:52:28	416	N	48
477		1219	TAMME TAMBET	EST		1:52:04	0:55:29	595	M	233
478	68	1290	JAAKSON HANNA	EST		1:52:06	0:55:55	628	N	49
479		1323	TALVISTE RASMUS	EST	Sparta	1:52:10	0:59:04	802	MN	28
480		1420	VALENTE TOMMASO	ITA	TERRAMIA	1:52:12	0:57:58	756	M 65	2
481		1142	MÄNDLA RAUL	EST		1:52:14	0:52:49	438	M	234
482		1298	KARJAMETS KARMO	EST		1:52:14	0:53:16	472	M	235
483		1511	KONDOR RAIT	EST		1:52:16	0:55:47	616	M	236
484		830	RAFALAK ARTUR	POL		1:52:20	0:55:55	630	M	237
485		105	PAE KUNO	EST	SK Aeg	1:52:22	0:54:26	541	M 45	29
486		1466	SIDOROV ALO	EST		1:52:23	0:56:50	683	M	238
487		1406	PEDERSEN HENRIK	DEN	SMK	1:52:25	0:54:10	521	M 45	30
488		654	KOPLUS KAUPO	EST	A2K Sport	1:52:29	0:51:15	341	M 45	31
489		987	LEINEMANN GEORGI	EST	Politsei- ja Piirivalveamet	1:52:32	0:56:00	639	M	239
490		378	VAHEMAA OLEV	EST	Salong O @ K	1:52:36	0:50:05	291	M	240
491		948	VENDIK PRIIT	EST		1:52:42	0:53:08	461	M	241
492	69	1480	LEPPIK LEA	EST	TA OK	1:52:44	0:54:51	559	N 45	2
493		1479	SAETALU ANDRES	EST		1:52:45	0:51:27	357	M 45	32
494		1494	BROSIUS GENE	EST		1:52:45	0:54:12	523	M 40	69
495		1277	REIM MARTIN	EST		1:52:48	0:55:46	612	M 40	70
496		348	KÄBIN RAIT	EST	korvpalliklubi Pärnu	1:52:48	0:53:28	477	M	242
497		683	KALLIO JOUNI	FIN		1:52:56	0:54:02	511	M 55	14
498		1327	PALU INDREK	EST		1:52:57	0:55:44	610	M	243
499		447	CIRSIS ASKOLDS	LAT	Maratona klubs	1:52:57	0:56:26	659	M	244
500		1231	MIETTINEN JARI	FIN	Rakennustuote Sport club	1:52:59	0:52:34	425	M 40	71
501		758	ŠEVTŠENKO PJOTR	EST		1:53:00	0:53:48	492	M	245
502		1077	SMIRNOV DMITRY	EST		1:53:04	0:52:56	444	M	246
503	70	1069	PESTI LIIS	EST	FB jooksmine	1:53:08	0:55:57	635	N	50
504		142	SIMM KAAREL	EST		1:53:09	0:52:09	397	M	247
505		876	ANTON KAURO	EST		1:53:09	0:56:30	664	M	248
506		1073	KALJURAND AIN	EST		1:53:10	0:54:34	547	M 45	33
507		734	KARLSSON JAN	SWE	SLK Oxelösund	1:53:11	0:53:15	470	M 50	19
508		1469	OPP ANDRES	EST		1:53:14	0:55:15	580	P	9
509		1361	BELOKUROVS DMITRIJS	LAT		1:53:14	0:48:28	231	M	249
510		1372	HANNOLA MATTI	FIN		1:53:17	0:57:33	727	M 60	5
511		1550	MARTEN HEIKO	EST		1:53:18	0:55:31	598	M	250
512	71	1071	KASK SANDRA	EST	Tartu Spordiselts Kalev	1:53:24	0:55:24	588	NN	4
513	72	1067	TIBAR MARION	EST		1:53:25	0:57:22	712	N	51
514		147	KULBAS RISTO	EST		1:53:27	0:54:53	562	M 55	15
515	73	527	BAUMAN EVELIN	EST		1:53:30	0:52:28	417	N	52
516		1111	MÜÜR RIIVO	EST		1:53:30	0:53:38	481	M	251
517		1209	KLAUTSENS ANDRIS	EST		1:53:36	0:54:17	530	M	252
518		1211	ALTOSAAR PRIIT	EST		1:53:38	0:58:25	774	M	253
519		159	MARTINSON RAIDO	EST		1:53:39	0:52:35	427	M	254
520	74	649	ROHTLA MARIKA	EST	TriSmile	1:53:39	0:52:43	436	N 45	3
521		1504	PÄLLO ALVAR	EST		1:53:42	0:52:23	412	P	10
522		659	VARIK KASPAR	EST		1:53:48	0:55:01	571	M	255
523	75	736	TAUBERMAN HELENA	SWE	SLK Oxelösund	1:53:48	0:54:32	545	N	53
524	76	408	UDUSAAR AET	EST	Elioni Spordiklubi	1:53:50	0:53:07	459	N	54
525	77	689	CRISP LESLEY	GBR	Reading Roadrunners	1:53:53	0:53:40	483	N 50	3
526		1151	TAMMEMÄE TARMO	EST	Walmark terviseklubi	1:53:56	0:56:12	647	M	256
527		1483	PIHT ARVO	EST		1:53:58	0:53:11	466	M 40	72
528		1357	VAHTRIK RAIMO	EST		1:53:58	0:54:32	544	M 40	73
529		1236	HALLIK ARVO	EST		1:53:58	0:56:38	672	M	257
530		1113	TOOMING EINAR	EST		1:53:59	0:54:59	568	M 40	74
531		361	ULLA TARMO	EST	Hansa Spordiklubi	1:54:04	0:51:42	367	M	258
532	78	374	GERASSIMOVA ANASTASIA	EST		1:54:07	0:54:22	537	N	55
533		1382	KARHU PEKKA	FIN		1:54:07	0:56:47	680	M	259
534		540	RUUL SANDER	EST		1:54:08	0:49:37	271	MN	29
535		402	RAHE MARKO	EST		1:54:09	0:54:22	535	M	260
536		1548	SUITS KRISTJAN	EST		1:54:11	0:57:50	746	MJ	11
537		123	TILK TANEL	EST	TTÜ	1:54:11	0:54:35	548	MN	30
538	79	406	MIKKOR KARIN	EST		1:54:12	0:54:02	509	N	56
539	80	1180	LEHTOJA EHA	EST	Püha Loomaaed	1:54:12	0:54:33	546	N 50	4
540	81	1044	VILKASTE DAIGA	LAT		1:54:15	0:54:21	533	N 40	11
541	82	1263	LAAR ANU-LIIS	EST		1:54:16	0:58:23	771	NJ	1
542		1333	VÕSU VEIKKO	EST		1:54:30	0:52:58	445	M 40	75
543		1576	OJAPALO ILKKA	FIN	RR	1:54:31	0:54:58	567	M	261
544		1193	MAIVÄLI EIVOR	EST		1:54:33	0:57:51	748	M	262
545		434	KUNART HANNES	EST		1:54:35	0:54:08	517	M	263
546		1330	VIIKANT VELJO	EST		1:54:36	0:54:06	515	M	264
547		814	BUNTE ANDIS	LAT		1:54:36	0:54:17	529	M 75	1
548		1295	ADAMSON MARTIN	EST		1:54:36	0:54:06	516	M	265
549		1052	KÜTTIM RENÉ	EST		1:54:40	0:56:31	665	M	266
550	83	1234	TOOMINGAS TERJE	EST	Stamina SK	1:54:42	0:54:02	510	N	57
551		1461	VALL ERKI	EST	polaria	1:54:44	0:55:41	606	M	267
552		960	LINDEPUU ERKKI	EST	Eesti Energia Spordiklubi	1:54:45	0:51:44	370	M	268
553		1404	PÄÄKKÖNEN JUKKA	FIN		1:54:46	0:55:20	586	M 45	34
554	84	1213	TEDER VILJAR	EST	EWK	1:54:46	0:55:47	615	N 40	12
555		504	PONOMARENKO YURI	EST	tallinn	1:54:47	0:54:01	504	P	11
556		503	PONOMARENKO JURI	EST	tallinn	1:54:47	0:54:01	503	M 45	35
557		1440	AHO HENRIK	SWE	Team Stockholm Marathon	1:54:49	0:55:38	603	M	269
558	85	1060	ANDRESSON TRIIN	EST	Team innopolis	1:54:52	0:55:13	578	N	58
559	86	413	JÜRJO HELEN	EST	MTÜ Saaremaa Kolme Päeva Jooks	1:54:53	0:54:15	526	N	59
560	87	456	FREIJA DŽANITA	LAT	Maratona klubs	1:54:55	0:53:41	486	N 40	13
561		1592	YSTMARK LEN	EST	SEA BIRD DESIGNS KAYAKS	1:54:57	0:52:51	440	M 45	36
562		1582	ELSTER IVO	EST		1:54:57	0:54:50	557	M	270
563		394	TEHVER AGUR	EST		1:54:58	0:53:14	469	M 40	76
564		547	ROSENBERG TARMO	EST		1:54:58	0:58:23	772	M	271
565		398	JÕELA MAREK	EST	Hansa SK	1:54:58	0:55:10	577	M	272
566		722	EARL TIM	GBR		1:55:00	0:53:51	495	M	273
567	88	1378	JÄNTTI MINNA	FIN		1:55:01	0:56:37	671	N 40	14
568		991	RANTALA RIKU	FIN	Espoon palokunnan urheilijat	1:55:02	0:56:37	668	M 45	37
569		458	ŠTERNBERGS ALDIS	LAT	Maratona klubs	1:55:05	0:54:09	519	M 40	77
570	89	1598	PALOOTS KARIN	EST		1:55:07	0:55:54	627	N	60
571		1198	VEERMÄE ART	EST		1:55:14	0:55:43	609	M 40	78
572		552	AGU RISTO	EST	Swedbank / Hansa Spordiklubi	1:55:19	0:52:37	430	M 40	79
573	90	358	VEESAAR KÄTLIN	EST		1:55:19	0:51:33	362	N	61
574		646	AILIS ANSIS	LAT		1:55:20	0:55:21	587	M	274
575		702	TURCONI MASSIMILIANO	ITA	atletica calvesi	1:55:23	0:55:18	585	M 40	80
576		1031	MÄNNASTE INDREK	EST		1:55:23	0:53:33	479	M 40	81
577	91	1165	PIHU MARET	EST		1:55:24	0:57:25	717	N	62
578		988	VASK RAAVO	EST		1:55:25	0:53:22	475	M	276
579		1092	KALJUVEE OLLE-MAREK	EST		1:55:25	0:59:05	806	M	275
580	92	437	DABOLINA GUNA	LAT	Maratona klubs	1:55:30	0:52:30	419	N	63
581		746	GARCIA GERARDO	FIN		1:55:30	0:54:47	555	M 45	38
582		483	KASEMAA JANNO	EST		1:55:32	0:54:22	534	M	277
583		1252	TEDER GUNNAR	EST		1:55:34	0:55:48	617	M 45	39
584		806	PIETSCH WERMER	AUT	BSK Kelag	1:55:41	0:54:47	554	M 45	40
585	93	546	MUST MARI-LIIS	EST		1:55:41	0:56:37	669	NN	5
586	94	1597	RAMMUL BRIT	EST		1:55:44	0:55:54	625	N	64
587	95	608	ILZE REPSA	LAT		1:55:49	0:55:16	581	N	65
588	96	740	FROESCHL NINA	AUT		1:55:50	0:53:41	487	N 40	15
589		645	OTS KAAREL	EST		1:55:51	0:56:27	660	M	278
590		1343	MERIMAA REMO	EST		1:55:56	0:59:04	801	MN	31
591		131	KIVILA MARGO	EST	SK Los Toros	1:55:58	0:54:22	536	M	279
592	97	1428	MÄNNIK MERLE	EST	FB Jooksmine	1:56:03	0:55:43	608	N	66
593		514	SAAR RIIDO	EST		1:56:06	0:54:15	527	M	280
594		610	SUVALOV ANATOLI	EST	Start jooksuklubi	1:56:10	0:53:21	474	M 60	6
595		805	BÜRGER JOSEF	AUT	BSK Kelag	1:56:12	0:57:04	688	M 60	7
596		391	TARVIS VEIKO	EST		1:56:13	0:54:02	508	M	281
597		389	ARULAANE HARGO	EST		1:56:13	0:54:01	505	M	282
598		1012	TÕNSO AIVAR	EST		1:56:15	0:54:18	531	M 40	82
599	98	768	EVGRAFOV MARI	DEN	Team Squirrel	1:56:17	0:55:25	590	N	67
600	99	356	PÄRTEL MARGIT	EST		1:56:21	0:54:31	543	N 45	4
601		1418	TOKMACHEV MIKHAIL	RUS	Toksovo Sport Club	1:56:25	0:56:25	657	M	283
602		821	ZIEHM CARL-PETER	GER		1:56:26	0:53:44	488	M	284
603		1147	LEVANDI MAURI	EST		1:56:26	0:52:30	420	P	12
604		844	RINNE TEEMU HEIKKI	FIN		1:56:29	0:56:45	679	M	285
605		481	MÕTSNIK VEIKO	EST		1:56:31	1:00:44	903	M	286
606		1247	NOORMETS ALO	EST		1:56:31	0:58:19	767	M	287
607		1457	ANDRESSON INDREK	EST		1:56:32	0:58:11	761	M	288
608	100	701	PIROVANO MONICA	ITA	atletica calvesi	1:56:34	0:55:17	582	N 45	5
609		700	CECCARELLI MARCO	ITA	atletica calvesi	1:56:34	0:55:18	583	M 60	8
610	101	789	NIELSEN LISELOTTE	DEN	Fjordloberne	1:56:37	0:55:53	623	N 45	6
611	102	979	RAJASTE GEIDI	EST		1:56:41	0:55:47	613	N	68
612		947	KLAOS SANDER	EST	Nordea Spordiklubi	1:56:42	0:54:00	502	M	289
613	103	749	JOHANSSON EVA-LOTTA	SWE	slk Oxelösund	1:56:47	0:55:00	570	N 50	5
614		1015	LEITSALU LAURI	EST		1:56:49	0:59:07	810	M	290
615		658	MÄND LAURI	EST		1:56:51	0:54:46	553	M	291
616		333	KIVIMÄE VILLU	EST		1:56:51	0:54:45	552	M	292
617		1560	SIMSON MARGUS	EST		1:56:52	0:58:18	765	M	293
618		1422	VESANEN MANU	FIN		1:56:54	0:57:30	724	M	294
619		1467	PÄRK SIIM	EST	sk järve	1:56:59	0:54:06	514	MJ	12
620		1038	KOHO TANEL	EST		1:57:05	0:56:37	670	MN	32
621		1066	MEEMA TOOMAS	EST		1:57:07	0:57:44	741	M	295
622	104	950	KALLISMA KARIN	EST		1:57:08	0:55:18	584	NJ	2
623		778	OLL ALLAR	EST	Operi Jalgpallikool	1:57:10	0:57:08	696	P	13
624		809	STOCKER JOSEF	AUT	BSK Kelag	1:57:11	0:57:18	703	M 45	41
625		317	LAIMETS TOOMAS	EST		1:57:15	0:56:19	652	M 45	42
626	105	1080	KÕDAR KATRIN	EST		1:57:15	0:57:05	690	N	69
627	106	857	GRAY ANNE	GBR		1:57:17	0:54:57	566	N	70
628		410	SALMAR AVO	EST		1:57:18	0:55:39	604	M 65	3
629	107	433	ARIKE LIISA	EST		1:57:19	0:55:29	596	N	71
630	108	1353	SALMINEN HANNE	FIN	JäPa	1:57:21	0:54:55	564	N 55	1
631	109	1129	ALABERT MERLIN	EST		1:57:22	0:55:32	599	NN	6
632	110	1362	BERGER SABINE	BEL		1:57:22	0:56:45	676	N	72
633		1507	VÕSA KARL-VILLEM	EST		1:57:25	0:53:48	493	MJ	13
634		636	KIISKÜLA ANDRUS	EST		1:57:28	0:57:40	734	M	296
635		1078	KASAK KUNO	EST		1:57:31	0:54:20	532	M	297
636		1216	TOOMIK PAUL	EST	TTÜ	1:57:31	1:00:35	892	M	298
637	111	459	MILLERE SANTA	LAT	Maratona klubs	1:57:31	0:55:48	619	N	73
638		343	PÄRLIST KARL	EST		1:57:32	0:50:10	300	M	299
639		1316	KIKKAMÄGI MIRKO	EST	Swedbank	1:57:32	0:59:01	800	M	300
640	112	455	HEIDEMANE INGA	LAT	Maratona klubs	1:57:33	0:55:48	618	N	74
641		775	SALMAR OTT	EST	Elioni spordiklubi	1:57:39	0:57:20	706	M	301
642	113	531	LILLE LIIS	EST	Harju KEK RSK	1:57:42	0:53:38	482	N 60	1
643		933	PÄÄSUKENE PRIIT	EST		1:57:50	0:56:11	646	M	302
644		1477	KAURIT KALMER	EST		1:57:54	0:57:45	742	M	303
645	114	360	SEPMAN KAIA	EST		1:57:55	0:56:36	667	N	75
646	115	884	VEERING KAIRIT	EST		1:57:58	0:55:26	591	N	76
647		1344	JÕGISUU KAUPO	EST		1:58:01	0:58:24	773	M	304
648		397	LENSMENT KRISTO	EST		1:58:03	0:59:04	804	M	305
649		401	AIDAS ANDRUS	EST		1:58:04	0:59:04	803	M	306
650		558	RAAT RAIMO	EST	sk toonus	1:58:04	0:53:47	491	M	307
651		745	GAILIS GATIS	LAT	Balvi - Latgale - Latvija	1:58:06	0:54:13	524	M	308
652		815	IELEJS JANIS	LAT		1:58:08	0:53:02	455	M 75	2
653	116	656	KÖÖP KADRI	EST		1:58:09	0:58:26	778	N	77
654		1218	ALTROFF JANEL	EST		1:58:12	0:57:53	749	M 40	83
655		1081	KÕDAR MARTIN	EST		1:58:13	0:57:05	691	M	309
656	117	773	OHTONEN TUIJA	FIN	AMC Rovaniemi	1:58:15	0:56:20	654	N 55	2
657		1037	KÜNG VALDUR	EST		1:58:18	0:55:51	620	M 50	20
658		1269	HALILOV INDREK	EST		1:58:18	0:57:55	752	MN	33
659	118	1164	JÜRIADO TIIU	EST	Suusahullud	1:58:18	0:57:26	719	N	78
660		520	BOIKOV SIIM	EST		1:58:19	0:58:14	764	M	310
661		803	KARLSSON HÅKAN	SWE	Ringhals Maratonklubb	1:58:21	0:54:43	551	M 45	43
662	119	1417	TANSKANEN ANNIINA	FIN		1:58:24	1:01:06	916	N	79
663		538	SULEMENKOV IGOR	EST	Fortuuna TK	1:58:26	0:57:05	692	M 45	44
664		381	KAIK JAANUS	EST		1:58:28	0:57:30	722	M	311
665	120	428	UTT MERIKE	EST	ELUJOOKS	1:58:33	0:53:57	498	N 45	7
666		1089	ALTER TÕNIS	EST	Elujooks	1:58:38	0:57:56	753	M	312
667		1096	RÜÜTEL ALAN	EST		1:58:41	0:59:01	799	MN	34
668		370	BUME BIERRE			1:58:46	0:53:40	484	M 40	84
669		521	LAMBUR MAIT	EST		1:58:47	0:55:54	626	M	313
670		1011	TIKAND TARVO	EST	AS G4S Eesti	1:58:49	0:58:51	791	M 40	85
671		1098	KRUUT KAIUS	EST		1:58:49	0:58:51	792	M	314
672		1131	RIMM RAIVO	EST		1:58:52	0:57:44	740	M 40	86
673	121	364	SELJAK KATRIN	EST		1:58:53	0:56:00	638	N 40	16
674		112	TAMM OLEV	EST	Elioni SK	1:58:54	0:54:29	542	M 45	45
675	122	559	PIHLAK JEKATERINA	EST		1:58:54	0:51:34	363	N 40	17
676	123	487	KÜTT KERRY	EST		1:58:55	0:57:30	723	N	80
677		782	DRESMANIS ANDRIS	LAT	VSK Noskrien	1:58:56	0:57:13	701	M	315
678	124	783	LICE LIGA	LAT		1:58:56	0:57:13	702	N	81
679	125	846	JAAKKOLA MARJA-LIISA	FIN	TuUL maratonkoulu	1:58:59	0:56:01	641	N 45	8
680	126	1379	JENSEN KARIN	DEN	SMK	1:59:01	0:56:22	655	N 40	18
681		508	KUHLBACH HANNES	EST		1:59:04	0:58:48	789	M 40	87
682	127	565	ILVES EVELIN	EST		1:59:09	0:57:21	709	N	82
683		729	KWIATEK PIOTR	POL	Raiffeisen Leasing Runners	1:59:10	0:56:23	656	M	316
684		485	HALDRE HENRI	EST		1:59:22	0:57:29	721	M	317
685	128	438	GREIVULE INGRIDA	LAT	Maratona klubs	1:59:24	0:56:13	648	N 40	19
686	129	495	RAND LUULE	EST		1:59:25	0:56:29	663	N	83
687		1195	HÄNNI UKU	EST		1:59:26	0:57:11	700	M 65	4
688		1595	ULEKSIN EGERT	EST		1:59:26	0:52:02	388	MJ	14
689		1146	SALUM HENRIK	EST		1:59:29	1:00:33	887	M	318
690		1575	PAJULA MADIS	EST		1:59:32	0:58:12	762	M	319
691		772	OHTONEN OSMO	FIN	AMC Rovaniemi	1:59:32	0:56:19	653	M 55	16
692	130	486	KROON KÜLLI	EST		1:59:33	0:55:34	600	N 40	20
693		1383	KÄRKI PASI	FIN	KuKaPa	1:59:36	0:57:54	750	M	320
694		420	SELBERG RAGNAR	EST		1:59:38	0:57:24	714	M	321
695		930	ALTMETS MIKK	EST		1:59:38	0:57:58	755	M 40	88
696	131	699	EESPAKK MONIKA	EST		1:59:42	0:59:15	811	N	84
697		974	NOOLE ANDRES	EST		1:59:43	0:53:08	460	M 45	46
698	132	570	HANSON RUTH	EST		1:59:43	0:59:15	812	N	85
699		1436	PARTS RAUNO	EST		1:59:46	0:59:00	798	M	322
700		834	MARKO VLADIMIR	SVK	SKK Ogopogo	1:59:48	0:56:28	662	M 55	17
701	133	670	MAHLAKÕIV TRIIN	EST		1:59:48	0:59:59	857	N	86
702		922	HANNI KAIDO	EST	Regionaalhaigla Spordiklubi	1:59:50	0:56:00	637	M	323
703		1192	VIRRO TOOMAS	EST		1:59:53	0:58:29	781	M	324
704	134	1544	VEIKKOLA LEENA	FIN	Lammin Säkiä	1:59:57	0:59:07	809	N 50	6
705	135	1281	RUSIN KRISTI	EST		1:59:58	0:59:17	817	N	87
706	136	1035	APRI KAIRI	EST		2:00:05	0:56:09	645	N	88
707		1058	TOMP URMET	EST		2:00:05	0:55:30	597	M	325
708	137	382	MATHIESEN ÜLLE	EST		2:00:08	0:56:35	666	N	89
709		1498	SOLTYSIAK PAWEL	POL		2:00:09	0:57:42	737	M	326
710		1048	SZYMANSKI JACEK	POL		2:00:10	0:57:42	736	M 45	47
711		690	BLOMQVIST LEIF	SWE	SLK Oxelösund	2:00:10	0:54:13	525	M 65	5
712		407	KALJUMÄE ÜLLAR	EST		2:00:12	0:53:29	478	M 45	48
713	138	1506	MATINA OLGA	EST	KJK Juunior	2:00:13	0:55:07	575	N	90
714	139	916	LOIT RAILI	EST		2:00:14	0:55:37	602	N	91
715		1275	KAARMA RAIN	EST		2:00:18	1:01:48	941	M 40	89
716		1557	KOOKLA ERKO	EST		2:00:18	1:00:37	898	M	327
717		1346	MATHIESEN JAN	DEN	Fjordloberne	2:00:19	0:55:53	624	M 60	9
718	140	694	STASHKEVICH YANA	GBR		2:00:20	0:53:00	448	NN	7
719		1235	LEEMET KALEV	EST	Myfitness	2:00:20	1:01:09	918	M	328
720		338	PEETRIMÄGI SIIM	EST		2:00:25	0:57:31	725	M	329
721		630	SAIA MARGUS	EST		2:00:25	0:56:17	650	M	330
722		603	KÄRPUK ANDRUS	EST	Go Group	2:00:29	0:56:47	681	M 50	21
723		1472	KASK ANDRES	EST		2:00:31	1:00:56	912	M	331
724	141	569	GLADÕSHEVA GALINA	EST	EP SK	2:00:34	0:54:10	520	N 50	7
725	142	667	NAABER MERILI	EST		2:00:35	0:55:06	574	N	92
726		1251	SÕÕRU ARGO	EST	Tartu Inline Team	2:00:37	0:55:07	576	M 40	90
727		533	KOFF INDREK	EST	Härra Tee & proua Kohvi	2:00:37	0:57:25	718	M	332
728	143	1302	SIBRITS KETRIN	EST	FB jooksmine	2:00:37	0:59:22	818	N	93
729		1065	KASELA TAAVI	EST		2:00:48	0:59:39	836	M	333
730	144	1119	VOOLMA HALLIKI	EST		2:00:55	0:56:49	682	NN	8
731		823	SAKOWSKI MACIEJ	POL		2:01:00	0:55:55	629	M	334
732	145	862	LEIPALU ENE	SWE		2:01:02	0:57:10	699	N 50	8
733		1419	TYRIE DOUGAL	GBR		2:01:03	1:03:29	1023	M	335
734		1364	BUKSH NATHAN	GBR		2:01:03	1:03:28	1021	M	336
735	146	354	WIDMARK ANNA	FIN	Anundsjö IF	2:01:06	0:56:02	642	N	94
736	147	754	PERSSON INGELA	SWE	slk Oxelösund	2:01:07	0:55:00	569	N 45	9
737		1214	KOCH KAUBI	EST		2:01:07	0:57:45	743	M	337
738		535	PÕLDMA VAHUR-PAUL	EST	UUSVANATEATER	2:01:10	0:57:25	716	M	338
739	148	708	BROX KJELDBY TORIL	NOR	team kjeldby	2:01:10	0:56:44	675	N 50	9
740		1224	REITER HARDI	EST		2:01:10	0:58:27	780	M 40	91
741		897	URB ÜLO	EST	Kolm Paksu	2:01:13	0:56:28	661	M 55	18
742		963	VELLING TAIVO	EST	Trismile	2:01:23	1:06:16	1135	M 40	92
743		1384	KETTUNEN PERTTI	FIN		2:01:26	1:00:01	861	M 55	19
744		395	PÕDER VALDO	EST		2:01:26	0:54:53	561	M	339
745		352	TIMOFEJEVS EDGARS	LAT		2:01:27	0:54:24	539	M	340
746		542	TUULIK MARTIN	EST		2:01:29	0:59:27	823	M	341
747		573	MATSI JORGEN	EST	Elustreening Eesti	2:01:29	0:55:45	611	M	342
748		1377	ITKONEN JUKKA	FIN	Good Morning Sport	2:01:30	0:57:10	698	M 55	20
749		321	DSILNA INDRO	EST		2:01:44	0:59:16	814	M	343
750		801	HIRVE RAINE	EST		2:01:46	1:00:14	871	M	344
751	149	1259	RÄSTAS JAANA	EST		2:01:48	0:58:37	784	N	95
752		1385	KNUDSEN PALLE	DEN		2:01:52	1:00:46	907	M 50	22
753		1002	SHEIN MARK	EST		2:01:53	0:58:25	776	M	345
754		1183	HEINAMÄE ARTUR-ANDRES	EST	Kalev	2:01:56	1:05:45	1114	P	14
755		807	STERMITZ GERHARD	AUT	BSK Kelag	2:01:57	0:57:06	695	M 45	49
756	150	759	STOKSTAD HEGE	NOR		2:01:58	0:59:49	846	N	96
757		1167	JÜRGENSTEIN KARL	EST		2:01:58	0:59:25	820	P	15
758		1220	SUITS KASPAR	EST		2:02:00	0:59:05	805	M	346
759	151	525	JÕGI KATRIN	EST		2:02:00	0:55:53	621	NN	9
760	152	907	KORHONEN ANNE	FIN		2:02:07	1:00:00	859	N	97
761		677	BRIKER RIHO	EST		2:02:07	1:00:33	886	M	347
762		425	LOITMAA JAANUS	EST		2:02:08	0:57:27	720	M	348
763	153	427	JÜRGENSON ERIKA	EST	21CC Triatloniklubi	2:02:10	0:57:36	731	N 40	21
764		885	LAANEARU JANEK	EST		2:02:18	0:57:40	735	M	349
765		1023	PLOOM PEETER	EST		2:02:20	0:57:09	697	M 40	93
766		1126	VEIBERG MAREK	EST	EWK	2:02:20	1:00:52	910	M 40	94
767		675	SALLA JAKO	EST		2:02:21	0:58:59	796	M	350
768	154	574	SURVA LAIDI	EST		2:02:21	0:58:59	795	N	98
769		1599	LEHIS SVEN	EST		2:02:23	0:55:56	631	M 40	95
770	155	497	TOODU KERSTI	EST		2:02:30	0:55:41	607	N 55	3
771	156	753	MARKKULA HELI	FIN		2:02:31	1:00:00	860	N	99
772		1289	AINOMÄE OLEV	EST		2:02:36	0:59:41	840	M 55	21
773		1359	LUMISTE RAIVO	EST		2:02:37	1:00:24	880	M 40	96
774		1567	CICHOMSKI RAFAK	EST		2:02:38	0:59:41	839	M	351
775		1199	URBMETS ALLAR	EST		2:02:38	1:00:14	872	M 40	97
776		1294	KIVIMÄGI GERT	EST		2:02:39	0:57:18	704	MJ	15
777		1286	NIIN ARON TANEL	EST		2:02:39	0:57:18	705	P	16
778	157	1583	ZHAROVA EKATERINA	RUS	WorldClass	2:02:43	0:57:38	733	N	100
779		1197	KASEARU TARMO	EST		2:02:46	1:00:41	902	M	352
780	158	471	MULLA KAJA	EST		2:02:47	0:59:29	824	N 45	10
781		1554	BUSSEL ALEKSANDR			2:02:47	0:55:40	605	M	353
782		1221	REMMELGAS JOOSEP	EST		2:02:51	0:57:44	739	M	354
783	159	1541	RELANDER MARI	FIN		2:02:53	0:59:16	816	N	101
784		795	DRESCHER JOHN	DEN	Fjordloberne	2:02:56	0:57:49	745	M 40	98
785		1589	ROSENBERG MARTIN	EST		2:03:00	1:00:44	904	M	355
786		1514	KUUSK HENRI	EST		2:03:03	1:02:17	958	MN	35
787		992	VAHHER MARTIN	EST		2:03:08	0:57:50	747	MJ	16
788		1476	LUHARI MART	EST		2:03:11	1:00:50	908	M	356
789	160	1509	KALDARU AULI	EST	Kiilto	2:03:11	0:59:51	847	N	102
790		363	PELLO IVAR	EST	Elioni Spordiklubi	2:03:12	0:57:36	730	M	357
791	161	796	RYHL SVENSSON IDA	DEN	Fjordloberne	2:03:13	0:58:26	777	N 60	2
792		1484	KARU KAAREL	EST	P.D.Team	2:03:19	0:59:16	815	M	358
793	162	368	SOTNIKOVA DIANA	EST		2:03:24	0:55:35	601	N	103
794		869	KLESHNIAK YURY	BLR		2:03:25	0:57:06	693	M 45	50
795		1304	VELDRE INDREK	EST		2:03:30	0:59:40	837	M	359
796		341	MÜNTER BRUNO	EST	Kiltsi Tööjõureservid	2:03:31	0:57:20	707	M 55	22
797		1429	KRAAM STEFAN	EST		2:03:31	1:01:46	938	MJ	17
798		1450	SEIL TÕNU	EST		2:03:31	0:58:04	759	M	360
799	163	634	VOLENS MARET	EST	kpme	2:03:34	0:57:37	732	N 40	22
800		892	VAADE VEIKO	EST		2:03:34	0:57:42	738	M	361
801		1117	KUPRI ARVI	EST		2:03:37	0:57:23	713	M	362
802	164	978	VEIMER ANNIKA	EST		2:03:39	0:56:18	651	N 40	23
803	165	1584	MUKHINA OLGA	RUS	WorldClass	2:03:41	0:59:59	858	N	104
804	166	1288	MALTIS JAKKO	EST		2:03:45	0:55:02	572	N	105
805	167	1102	SUTT KATRI	EST	Audru Spordiklubi	2:03:51	0:58:26	779	N	106
806	168	1572	VAERAND MONIKA	EST		2:03:52	1:01:09	917	N	107
807	169	871	KALE MERLE	EST		2:03:55	0:57:04	689	N	108
808		490	RAND ERGO	EST	Pärnu SVK	2:03:55	0:58:20	768	M 70	1
809	170	1027	LAINELA SILVIE	EST		2:04:00	0:59:00	797	N	109
810	171	840	KÜLLJASTINEN KRISTI	EST	MYFITNESS	2:04:03	0:58:45	787	N	110
811		1454	LEHT TÕNIS	EST		2:04:04	1:01:46	939	M	363
812		1475	HINN SVEN	EST		2:04:10	0:56:44	674	M 40	99
813	172	698	SHIMMO RUTH	EST		2:04:16	0:59:15	813	N 45	11
814		1184	VILBERG VOOVA	EST		2:04:16	0:57:33	728	M 65	6
815		1246	NOKKUR ANTS	EST	Rõõsa	2:04:22	0:53:04	458	MJ	18
816	173	1006	LEPING KRISTI	EST		2:04:31	0:59:35	832	N	111
817		790	BOBÕLEV SERGEI			2:04:32	1:00:06	864	M	364
818		1099	GREENBAUM TOOMAS	EST		2:04:32	1:02:03	952	M	365
819		557	TILK KARL	EST		2:04:35	1:01:56	945	MJ	19
820		688	CRISP DEREK	GBR	Reading Roadrunners	2:04:41	0:57:21	708	M 50	23
821	174	577	SIKKA TUULIKKI	EST	Tartu SAK	2:04:41	0:58:22	769	NJ	3
822		1459	MÄND MADIS	EST		2:04:42	0:57:22	711	M	366
823		1487	HAAS MARCO	EST		2:04:45	0:55:04	573	M 40	100
824		990	VINOGRADOV OLEG	EST	Arigato Spordiklubi	2:04:46	0:59:34	831	M	367
825	175	1274	VETEMÄE LAGLE	EST		2:04:46	1:00:37	897	N	112
826		1547	PÄRENSON REIGO	EST		2:04:48	0:59:07	808	M	368
827		1546	KASE PAUL	EST		2:04:48	0:59:06	807	M	369
828		1326	ILP RAGNAR	EST		2:04:53	1:00:08	867	M	370
829		1593	SADU URMAS	EST		2:04:55	0:56:38	673	M 45	51
830	176	585	KIVIMAA KATRIN	EST		2:05:01	0:57:36	729	N 40	24
831		1568	BAUM RAIVO	EST		2:05:01	1:02:19	960	M 45	52
832		818	HAAVEL ANDRES	EST		2:05:02	0:59:30	826	M 45	53
833	177	1076	RAASIK THEA	EST		2:05:03	1:02:43	979	N	113
834		1348	JUHANSON ALLAN	EST		2:05:03	1:02:43	977	M	371
835	178	489	RISTIMETS RIINA	EST		2:05:10	0:58:42	786	N 40	25
836	179	1590	PALTS MAIRE	EST		2:05:10	1:00:24	878	N 45	12
837		423	JUHANSOO REINO	EST		2:05:13	1:00:09	868	M	372
838	180	631	EILMANN SEREN	EST		2:05:21	0:59:39	835	N	114
839	181	733	ANDERSSON ELISABET	SWE	SLK Oxelösund	2:05:21	0:55:56	633	N 45	13
840		940	JUGASTE MIHKEL	EST		2:05:22	1:03:16	1013	M	373
841		827	SLETHAUG JOHS	NOR	hovding	2:05:26	1:00:41	901	M 65	7
842	182	908	KALA KATRIN	EST		2:05:27	0:59:38	834	N	115
843	183	1391	LOOLAID-RAUDPUU EVA	EST	Ummisjalu	2:05:28	0:59:29	825	N	116
844	184	516	ASSMANN ELO	EST		2:05:29	1:00:37	896	NN	10
845	185	1039	IVANOVA ALLA	EST		2:05:30	0:59:36	833	N	117
846		1519	LINDEPUU RUNNAR	EST		2:05:36	1:02:18	959	M	374
847		594	DONAT ZVI	ISR		2:05:37	1:01:26	924	M 40	101
848	186	684	FAGERHEIM ANNE KRISTINE	NOR		2:05:40	1:00:07	865	N	118
849		469	RUTKOVSKIS LEONTIJS	LAT	Maratona klubs	2:05:42	1:00:35	895	M 60	10
850		672	AHTI LEO	FIN		2:05:54	1:04:15	1048	M	375
851		399	SOOSÕRV ANTS	EST	Tallinna Rendžuklubi	2:05:54	1:00:32	885	M 40	102
852	187	1136	HANSING DAISI	EST		2:06:04	0:58:50	790	N	119
853		576	LEHTSALU MAREK	EST		2:06:05	1:02:52	991	M	376
854		793	LANGKOW JESPER	DEN	Fjordloberne	2:06:06	0:58:23	770	M 50	24
855		1143	SCHWEIGERT ERWIN	EST		2:06:07	1:02:48	986	M	377
856		706	CRACCO PIERGIORGIO	ITA		2:06:24	0:55:57	634	M 55	23
857		826	OLTOLINI ANGELO	ITA		2:06:32			M 60	11
858	188	824	BUSCONI ASSUNTA	ITA		2:06:32			N 55	4
859	189	685	KOPLIMÄGI MARIKA	EST		2:06:33	0:59:54	851	N	120
860		748	HUUNAN-SEPPÄLÄ MATTI	FIN	Tuusulan tallaajat	2:06:46	1:02:03	950	M 65	8
861	190	747	HUUNAN-SEPPÄLÄ LIISA	FIN	Tuusulan tallaajat	2:06:46	1:02:03	953	N 60	3
862		1013	LOKKOTA JUHAN	EST	Saku Õlletehas	2:06:49	1:00:04	863	M	378
863		513	KORASTELJOV MIHHAIL	EST		2:06:51	1:00:11	870	M 40	103
864		563	TAMMELA HILJAR	EST	ÜTM	2:06:52	1:01:17	920	M	379
865		738	BEHNKE KARSTEN	GER	SG Flensburg-Handewitt	2:06:52	0:57:04	687	M	380
866		548	KOPPEL TÕNU	EST		2:06:55	1:03:03	997	M 40	104
867		422	ALLIKVEE EERO	EST		2:06:55	0:58:38	785	M	381
868	191	794	KUNSTEK PINA	DEN	Fjordloberne	2:06:55	1:01:52	943	N 45	14
869		723	ELMÉR BENGT	SWE	Ringhals Maraton Klubb	2:06:58	0:57:47	744	M 50	25
870		524	LAID ROBERT	EST		2:06:59	1:00:22	876	M	382
871	192	1408	PURA JENNI	FIN		2:07:02	1:03:15	1009	N	121
872	193	1410	PURA SIRPA	FIN	Tammelan Ryske	2:07:02	1:03:15	1010	N 50	10
873		1061	HEINMETS MAGNUS	EST		2:07:07	1:01:03	915	M	383
874		1041	PRILLOP ERKKI	EST		2:07:10	1:00:34	891	M	384
875	194	623	TIMMUSK KAI	EST		2:07:11	1:01:34	930	N	122
876		1542	RITALA KARI	FIN		2:07:11	1:02:49	987	M 45	54
877	195	1464	HERTMANN TRIIN	EST		2:07:12	0:57:54	751	N	123
878	196	1148	TIITUS KRISTEL	EST		2:07:15	1:01:29	927	N	124
879		1017	ANSPER ARNE	EST		2:07:19	1:00:25	883	M 40	105
880	197	519	PIISKOPPEL KRISTIINA	EST		2:07:21	1:02:42	974	N	125
881	198	973	VARI MERJE	EST	MARS	2:07:22	0:59:42	841	N	126
882		1114	SALAMÄE TOMAS	EST		2:07:23	1:03:01	996	MN	36
883	199	1122	TERAS ANU	EST		2:07:24	1:02:24	967	N	127
884		1072	ITO YOSHIHARU	JPN		2:07:27	1:01:31	928	M 70	2
885	200	1495	RUOTSALA PIA	EST		2:07:40	1:06:07	1129	N	128
886	201	619	JÕGI ELE-LIIS	EST		2:07:44	0:58:13	763	N	129
887		392	LAUMETS HENRI	EST		2:07:51	0:56:03	644	M	385
888		870	HÄRM ANDREI	EST		2:07:51	0:57:01	686	M	386
889		828	HAMPF ANDERS	FIN		2:07:58	0:59:25	821	M	387
890		1508	ULM ANNES	EST		2:08:00	1:00:21	873	M	388
891	202	858	HOOP KATI	EST		2:08:00	1:01:22	923	N	130
892	203	1261	UIBOAID AIRI	EST	Eesti Panga SK	2:08:01	1:02:23	966	N	131
893	204	1109	KÕIVA ANN	EST		2:08:02	1:01:27	925	N	132
894	205	1308	RAHE LAURA	EST		2:08:03	0:59:53	849	N	133
895	206	919	ROSENTHAL AVE	EST		2:08:07	1:02:42	976	N	134
896		1432	RAHU KALLE	EST		2:08:08	0:58:03	758	M 40	106
897	207	555	ALT MAILIS	EST		2:08:09	0:59:31	829	N	135
898	208	1100	TEMPEL MARJU	EST	MATATE SK	2:08:09	1:00:25	882	N	136
899	210	899	VALNER VIIVIKA	EST		2:08:10	1:01:40	935	NJ	4
900	209	1021	PAULBERG DIANA	EST		2:08:10	1:01:40	936	N	137
901	211	1400	MYLLYNIEMI ANU	FIN		2:08:15	1:03:36	1024	N	138
902	212	1255	LAES REELIKA	EST		2:08:16	1:01:02	914	N	139
903	213	1574	GRANNENFELT MONA	FIN		2:08:23	1:02:19	961	N	140
904		1564	MÜNZER OLEG	EST		2:08:23	1:00:21	874	M	389
905		691	FRANCESCO LOMBARDO	ITA	Dakar	2:08:24	1:02:04	955	M 50	26
906		949	FEIL MARKO	EST		2:08:25	1:02:44	981	M	390
907	214	980	KAASIK JUTA	EST	NELSON	2:08:25	0:59:56	853	N 40	26
908	215	344	NÕMMISTE LEIE	EST		2:08:29	0:59:33	830	N	141
909		797	JENSEN OLE B.	DEN	Fjordloberne	2:08:29	0:57:24	715	M 50	27
910		583	KUKK MAIT	EST	Might just do it	2:08:30	0:57:21	710	M	391
911	216	618	MAANSO HELINA	EST		2:08:32	1:00:34	889	NN	11
912	217	743	MELBARDE GUNITA	LAT		2:08:34	1:00:07	866	N	142
913		996	SUURTEE AIVAR	EST		2:08:34	0:59:30	828	MJ	20
914	218	1187	RÄPPO SIGNE	EST		2:08:37	0:59:40	838	N	143
915		864	MEIMER RENÉ	EST	21CC	2:08:38	1:00:33	888	M 60	12
916	219	1250	LEHOLA KRISTIINA	EST		2:08:41	0:59:53	848	N 40	27
917	220	627	SAMMUL MIRJAM	EST		2:08:41	1:04:21	1052	N	144
918		1242	PÄRN MARTIN	EST		2:08:45	1:04:22	1054	M	392
919		878	KIVILAAN AIN	EST	SK Viljandi Jokker	2:08:56	1:01:39	934	M 40	107
920	221	1369	EIZVERTINA MARA	LAT		2:09:06	1:03:41	1028	N	145
921		1018	TALI OLGER	EST		2:09:06	0:56:02	643	M	393
922		820	GROSSI ANDREA	ITA	Verde Pisello Group Milano	2:09:09	1:02:22	963	M 40	108
923	222	712	KALDRÅSTØYL HANNE	NOR		2:09:09	1:00:22	875	N	146
924		1388	KUULUVAINEN PANU	FIN		2:09:19	1:03:19	1018	M	394
925	223	760	UUKKIVI KRISTI	EST		2:09:21	1:05:06	1074	N	147
926		355	TAMMEKÄND PRIIT	EST	facebook jooksmine	2:09:21	1:00:50	909	M	395
927		431	NÕMMIK RAIVO	EST		2:09:22	1:02:43	978	M	396
928	224	938	KAUKOKARI SIRKKA-LIISA	FIN		2:09:28	1:00:35	894	N 65	1
929	225	1600	GYBULSKIS ASTRID	EST		2:09:29	1:02:51	988	N	148
930	226	1489	KELL REET	EST		2:09:30	1:02:33	970	N	149
931		1485	TIITS TOOMAS	EST		2:09:33	1:02:33	972	M	397
932		692	MAURIZIO FIORE	ITA	Dakar	2:09:33	1:01:47	940	M 50	28
933	227	1571	VEERME KARMEN	EST	TÜ akadeemiline spordiklubi	2:09:43	1:04:19	1051	NN	12
934	228	501	LAIKRE KARMEN	EST		2:09:45	0:59:47	845	NN	13
935		1003	GRAF ANDRUS	EST		2:09:51	1:02:42	975	M	398
936	229	1533	EDSTRAND MONIKA	SWE	Killinge AIF	2:09:54	1:01:35	931	N 60	4
937	230	1125	MURD MERILY	EST		2:09:55	1:05:06	1073	N	150
938	231	1124	TÕLD MARIEL	EST		2:09:58	1:02:00	948	N	151
939		473	TÕLD VILLI	EST		2:09:58	1:02:00	947	M	399
940	232	976	JALAST ENEKEN	EST	Elioni Spordiklubi	2:09:59	1:04:48	1066	N	152
941		1106	GLASE MARGUS	EST	Sidepataljon	2:10:03	1:00:45	905	M 40	109
942	233	1243	ERM EVELIINE	EST		2:10:04	1:01:20	922	N	153
943	234	935	SEPP MERIT	EST		2:10:07	1:03:05	1001	N	154
944		1145	PUUSEPP HARRYS	EST		2:10:08	1:03:05	1000	M	400
945		1254	TEEKIVI TANEL	EST		2:10:12	1:04:10	1044	M	401
946		1217	REMMEL REIN	EST		2:10:12	1:04:11	1046	M	402
947	235	522	LAMBUR REVE	EST		2:10:16	0:58:34	782	N	155
948	236	621	TALALAEV HELEN	EST		2:10:20	0:59:57	854	N	156
949		1458	KÕIVA MARTIN	EST	Hakkliha	2:10:26	0:58:46	788	M	403
950		822	ZERBINI MARCO	ITA	Forza e Coraggio	2:10:28	1:02:22	962	M 40	110
951	237	386	KALIND KADRI	EST		2:10:34	0:58:25	775	N	157
952	238	1159	HALLIK ANNELI	EST		2:10:35	1:01:36	932	N	158
953	239	1276	KIMBER-KAARMA LEA	EST		2:10:36	1:02:22	964	N 40	28
954		1556	MAISTE MAIDO	EST		2:10:41	1:03:16	1012	M	404
955		891	MAKS MADIS	EST		2:10:41	1:03:40	1026	M	405
956		1230	TIITINEN MARKO	FIN	Rakennustuote Sport club	2:10:48	1:06:43	1148	M	406
957		596	RAFFAELE FERRA	SUI	no	2:10:49	0:59:57	855	M 75	3
958	240	792	LARSEN VIBEKE	DEN	Fjordloberne	2:10:52	1:01:49	942	N 45	15
959		1285	ELMET HEIKI	EST		2:10:55	0:56:59	685	M 45	55
960	241	346	LUKS KÜLLIKI	EST	U-Klubi	2:10:55	1:00:10	869	N 40	29
961		710	GUARINO LUIGI	ITA		2:10:57	1:00:59	913	M 40	111
962	242	586	FREUDENTHAL MARIS	EST		2:10:58	1:05:23	1091	N	159
963	243	909	TEHVER KAARI	EST		2:11:00	1:04:56	1072	N	160
964	244	541	TOOMET AVE	EST		2:11:02	1:04:15	1049	N	161
965	245	674	PALTS KRISTEL	EST		2:11:09	1:00:24	881	N	162
966		1130	RAADO RIHO	EST		2:11:16	1:03:17	1014	M	407
967	246	1320	LILLEBERG ERIKA	EST		2:11:16	1:03:17	1015	N	163
968		1579	SAARMETS KALEV	EST		2:11:21	1:04:40	1059	M	408
969		1024	AERMATES ENNO	EST		2:11:23	0:59:58	856	M 40	112
970	247	416	ALVELA MARI	EST		2:11:30	1:02:44	983	N	164
971	248	491	TÕNISSON KAROLIINA	EST		2:11:31	1:03:13	1006	N	165
972	249	1292	SEPP EVELIN	EST		2:11:31	1:02:44	984	N	166
973		492	TÕNISSON HANNES	EST		2:11:31	1:03:13	1007	M	409
974		1437	PALMET MARTIN	EST		2:11:32	1:04:47	1063	M	410
975		1356	SEPP RAIN	EST		2:11:33	1:04:47	1064	M	411
976	250	1309	RÜÜTEL MAARJA	EST		2:11:35	1:04:48	1065	N	167
977	251	763	UDRAS KAILI	EST		2:11:39	1:00:24	879	N	168
978	252	666	MÄE MARGE	EST		2:11:41	1:02:26	968	N	169
979		1505	NOORMÄGI MARGUS	EST		2:11:43	0:58:57	793	M	412
980		1026	KOOR KRISTJAN	EST		2:11:51	1:02:36	973	M	413
981	254	925	SEPP EVELIN	EST	Politsei- ja Piirivalveamet	2:11:58	1:05:28	1095	N	170
982	253	927	VAHTER JANE	EST	Politsei- ja Piirivalveamet	2:11:58	1:05:28	1096	N	171
983	255	926	JÜRISSON JAANIKA	EST		2:11:59	1:05:28	1097	N	172
984	256	681	PUNGAR ENE	EST		2:12:01	1:00:24	877	N 40	30
985	257	972	KAASIK KAIRI	EST	MARS	2:12:03	0:59:43	842	N	173
986	258	383	REISMANN MAIU	EST		2:12:03	0:57:06	694	N	174
987		1482	VIILIPUS MART	EST		2:12:07	1:06:14	1132	M	414
988	259	580	SILD KERTU-KIRIT	EST		2:12:12	1:02:51	989	N	175
989		639	PITK ANDRES	EST	IIZI	2:12:14	1:00:46	906	M 50	29
990		1535	FERNANDEZ ESPINA ALVARO	EST		2:12:16	0:59:54	852	M	415
991		714	KIMMINS SIMON	GBR	FAT LADS	2:12:19	0:58:36	783	M 50	30
992		808	SUIK KALEV	EST		2:12:24	1:00:28	884	M 40	113
993	260	606	ROSENBERG GRISELDA	EST	Elujooks	2:12:26	0:59:44	843	N	176
994	261	682	KAUPS ENE	EST		2:12:29	1:02:12	956	N 45	16
995		640	MEIUS LEHOR	EST		2:12:33	1:04:45	1061	M	416
996	262	1087	HEINARU MARIS	EST		2:12:34	1:01:38	933	N	177
997		917	SAAR MARKO	EST		2:12:35	1:05:17	1086	M	417
998		643	KALDA KRISTO	EST		2:12:38	1:01:18	921	M	418
999		325	RAHULA ANDRES	EST	CluBB	2:12:43	1:02:01	949	M	419
1000	263	918	KUND AET	EST		2:12:47	1:05:22	1090	N	178
1001		1265	JÄRV MIKK	EST		2:12:55	1:06:14	1133	M	420
1002	264	1008	TAMMISTU TRIIN	EST		2:12:56	1:05:16	1084	N	179
1003	265	357	EIDUKS ELVIRA	EST	MTÜ Elujooks	2:12:59	0:59:44	844	N	180
1004		732	SUHORUKOV VLADIMIR	RUS	Champion	2:13:04	0:52:05	393	M 45	56
1005		1313	ANNUSVER PRIIT	EST		2:13:07	0:58:10	760	M	421
1006	266	579	VISTER TRIINU	EST		2:13:12	0:58:19	766	NN	14
1007	267	582	VARIK KATRIN	EST		2:13:17	1:05:23	1092	N	181
1008	268	945	KIVI RITA	EST	Nordea Spordiklubi	2:13:23	1:01:29	926	N	182
1009	269	1577	OJAPALO ANNELI	FIN	RR	2:13:27			N	183
1010	270	1141	OKSA TUULA	FIN		2:13:28	1:00:35	893	N 65	2
1011		1375	HEWITT NEAL	NOR		2:13:31	1:03:05	999	M 40	114
1012	271	787	HANSEN GITTE	DEN	Fjordloberne	2:13:33	1:01:53	944	N 50	11
1013		613	RIIDAMETS MARTIN	EST	Püha Loomaaed	2:13:34	1:02:03	951	M 55	24
1014	272	1474	RÜÜTEL KRISTINA	EST		2:13:36	0:59:54	850	N	184
1015		1032	TORP PEEP	EST		2:13:37	0:56:17	649	M	422
1016	273	1414	SCHMITT INES	GER	Laufgemeinschaft schulz aktiv	2:13:41	1:03:19	1019	N	185
1017	274	660	SAAR MARJAN	EST		2:13:45	1:03:00	994	N	186
1018	275	1172	KANGUR LIIS	EST		2:13:47	1:05:47	1122	T	4
1019	276	1090	TALVISTE BRITT	EST		2:13:48	0:59:27	822	N	187
1020	277	1279	RÜÜTLI INGRID	EST		2:13:54	1:01:58	946	N	188
1021	278	939	KIVISTIK ELERI	EST		2:13:55	1:05:38	1104	N	189
1022		632	KÕLLAMAA KALEVI	EST	T KLUBI	2:13:56	1:05:47	1120	M	423
1023		932	TAMMSALU RAIT	EST		2:14:04	1:07:37	1163	M	424
1024		1001	PARK TÕNU	EST		2:14:08	1:03:39	1025	M 40	115
1025	279	1387	KUJANPÄÄ RAIJA	FIN		2:14:08	1:03:04	998	N 55	5
1026	280	1325	KANGER MARI	EST	Suusahullud	2:14:10	1:05:46	1116	N	190
1027	281	1201	DOBRÕDNJOVA OLGA	EST	suusahullud	2:14:10	1:05:46	1118	N	191
1028	282	961	KÄRPUK MARI-LIIS	EST	Go Group	2:14:13	1:08:39	1180	NN	15
1029		1352	KALLIO JUHA	FIN		2:14:16	1:01:31	929	M 50	31
1030	283	537	LIIV TIINA-MAI	EST		2:14:17	1:05:31	1099	N	192
1031	284	831	SIRKIÄ HANNA	FIN		2:14:23	1:06:29	1142	N	193
1032		776	DANIELSEN THOMAS	NOR		2:14:25	1:03:56	1037	M	425
1033		628	KANARIK KRISTJAN	EST		2:14:27	1:03:24	1020	M	426
1034	285	673	RAUDKEPP LIISA	EST		2:14:28	1:09:53	1203	NN	16
1035	286	751	MÄKYNEN KAROLIINA	FIN		2:14:30	1:04:27	1056	N	194
1036		849	KOLLO IMRE	EST		2:14:31	1:09:07	1191	M	427
1037		1306	RAJAMÄGI PRIIT	EST		2:14:34	1:02:44	985	M	428
1038	287	1045	VÕSU-TATTER HEIDI	EST		2:14:35	1:02:29	969	N	195
1039		440	SAFUTINS VIKTORS	LAT	Maratona klubs	2:14:36	1:02:52	990	M 65	9
1040	288	757	SALMINEN PAULA	FIN		2:14:39	1:03:18	1016	N 45	17
1041		756	SALMINEN ISMO	FIN	Sihtuunan Sima	2:14:39	1:03:18	1017	M 45	57
1042	289	1453	TURJA SIGRID	EST		2:14:44	1:03:42	1032	NN	17
1043	290	550	GRANBAK GERLI	EST	ForEstGump	2:15:03	1:02:04	954	N	196
1044	291	591	SILLASOO SIGNE	EST	Äripäeva Spordiklubi	2:15:09	1:05:51	1124	N	197
1045	292	874	RÜNDVA MAARIT	EST		2:15:10	1:02:16	957	N	198
1046	293	556	ÕUNAPUU PIRET	EST		2:15:10	1:02:43	980	N	199
1047		1162	PAAS ANDRES	EST		2:15:12	1:00:54	911	M	429
1048		1179	AMUR MARGUS	EST		2:15:15	1:09:01	1186	M	430
1049	294	511	KÄNGSEP MARGIT	EST		2:15:17	1:01:45	937	N 40	31
1050	295	737	TIAINEN SANNA	FIN		2:15:31	1:05:14	1083	N	200
1051		731	SKELE ANDIS	LAT		2:15:33	1:06:31	1144	M	431
1052	296	894	HALLIKAS KÄRT	EST		2:15:35	1:06:27	1141	N	201
1053		1488	ROOTS ANTO	EST		2:15:37	1:04:56	1071	M 40	116
1054		509	PÄRNAPUU RIIVO	EST		2:15:41	0:57:56	754	M	432
1055		1569	KIVISTIK VAHUR	EST		2:15:47	1:05:45	1115	M 45	58
1056	297	1075	KRAAPPA MAARIT	FIN	Marttilan Murto	2:15:50	1:06:53	1155	N	202
1057		903	VERTMANN TEX	EST		2:15:59	1:05:13	1082	M	433
1058		1009	PALK VIKTOR	EST		2:16:03	1:06:32	1145	M 40	117
1059	298	1280	ASPER ANGELIKA	EST	Jooksuinglid	2:16:07	1:05:46	1119	N	203
1060	299	1340	SIINER TRIIN	EST	Jooksuinglid	2:16:07	1:05:46	1117	N 40	32
1061		1405	PAZOS ROBERT	USA		2:16:09	1:01:12	919	M 45	59
1062	300	8	PEEBO MARGIT	EST	Stamina SK	2:16:13	1:03:42	1029	N 40	33
1063	301	954	MERI MAARJA-LIIS	EST	Eesti Energia Spordiklubi	2:16:14	1:04:49	1067	N	204
1064		1478	AVASTU VILJAR	EST		2:16:15	1:00:39	899	M	434
1065		1395	MANNINEN ERKKI	FIN	Nastola	2:16:15	1:04:51	1070	M 55	25
1066	302	879	NIIDLA HELENA	EST		2:16:16	1:04:01	1038	N	205
1067		962	KIIGE HENDRIK	EST		2:16:21	1:02:53	992	M	435
1068		1055	LEHISTE JANEK	EST		2:16:21	1:06:07	1128	M	436
1069	303	1150	PETERSON TRIIN	EST	Fittest Klubi OÜ	2:16:23	0:57:32	726	N 40	34
1070	304	1128	LIIV ANNIKA	EST	Liivide SK	2:16:24	1:05:26	1094	NN	18
1071	305	657	KADAKAS KADRI	EST		2:16:25	1:00:40	900	N	206
1072	306	1105	KESKITALO KIRSTI	FIN	Marttilan Murto	2:16:25	1:06:53	1156	N 55	6
1073	307	1074	LINNA SANNA	FIN	Marttilan Murto	2:16:26	1:06:54	1157	N 45	18
1074	308	989	AAB ANNELI	EST	Elioni Spordiklubi	2:16:34	1:04:49	1068	N	207
1075		663	TULP KRISTJAN	EST	Slacker Running	2:16:34	0:58:58	794	M	437
1076		982	RIINER JAANUS	EST	Elioni Spordiklubi	2:16:35	1:02:54	993	M	438
1077	309	1319	KEKKONEN JAANA	EST	Swedbank	2:16:37	1:05:28	1098	N	208
1078		1412	RÕUK OLLE	EST		2:16:40	1:03:44	1034	M	439
1079	310	970	KOITJÄRV MEELIKA	EST		2:16:46	1:05:34	1102	N	209
1080	311	886	BERGROTH MARI	FIN		2:16:51	1:05:40	1108	N	210
1081	312	644	TAMM HELLIS	EST		2:16:53	1:03:41	1027	N 45	19
1082	313	687	TRYGG ANU	FIN		2:16:54	1:06:49	1154	N 40	35
1083	314	686	KALLIO MARIKA	FIN		2:16:54	1:06:49	1151	N	211
1084	315	671	KORNILOFF MERI	FIN		2:16:58	1:06:49	1150	N	212
1085	316	893	TAMM SIIRI	EST	Elioni Spordiklubi	2:17:05	1:03:08	1005	N	213
1086		517	JUURSOO MEELIS	EST		2:17:28	1:02:33	971	M 40	118
1087		695	GOUGH BRIAN	GBR	ivanhoe runners	2:17:32	1:03:44	1033	M 65	10
1088	317	936	KRUUDA GERDA	EST		2:17:33	1:05:12	1080	N	214
1089	318	1222	TAMM PIRET	EST		2:17:33	1:06:57	1158	N 40	36
1090	319	1064	RÄTSEP KERSTI	EST		2:17:34	1:04:03	1041	N	215
1091	320	1082	KUKEMELK EPP-MARE	EST		2:17:39	1:05:44	1111	N	216
1092	321	1322	LAID MARKO	EST		2:17:48	1:14:43	1249	N	217
1093	322	952	KARRI RIIN	EST		2:17:52	1:06:22	1139	N	218
1094	323	1318	PUNG MAIGI	EST	Swedbank	2:18:00	1:05:13	1081	N	219
1095		1091	LAANMETS HERKI	EST		2:18:00	0:59:30	827	M	440
1096	324	752	MÄKYNEN KATARIINA	FIN		2:18:00	1:04:27	1055	N	220
1097	325	951	LIIV MARJU	EST		2:18:07	1:06:21	1137	N	221
1098	326	1210	SASS KRISTEL	EST		2:18:07	1:04:12	1047	N	222
1099	327	964	ANNUSVERE EVE	EST		2:18:08	1:04:21	1053	N	223
1100	329	1237	PÕLDNIIT PILLE	EST		2:18:08	1:05:38	1105	N	225
1101	328	1238	PÕLDNIIT LIINA	EST		2:18:08	1:05:38	1106	N	224
1102	330	1411	RIMSA ELINA	LAT		2:18:17	1:03:42	1030	N	226
1103		1393	PUU GERRY	EST	WWW.HOT.EE/PIKAMAAJOOKSMINE	2:18:28	1:02:23	965	M	441
1104	331	1342	PÕLDSALU EPP	EST		2:18:32	1:09:56	1204	N	227
1105	332	539	RUUL RITI	EST		2:18:32	1:03:15	1008	N	228
1106		1301	ARULA MARTIN	EST	KK Viimsi	2:18:43	1:05:53	1125	M	442
1107		1300	EINASTE TANEL	EST	KK Viimsi	2:18:43	1:05:53	1126	M	443
1108		1539	MALOVEC JAN	SVK	Miso&Jano Sport	2:18:46	1:00:34	890	M	444
1109		1481	MAISTE MEELIS	EST		2:18:54	1:03:16	1011	M	445
1110		1516	METSAVAS TARVO	EST		2:18:59	1:00:02	862	M	446
1111		1095	KÜTSAR RIHO	EST		2:19:07	1:03:06	1003	M 40	119
1112		1496	RUMMA INDREK	EST		2:19:08	1:03:05	1002	M 40	120
1113		1580	GRANNENFELT EEVA	FIN		2:19:18	1:05:10	1076	M 50	32
1114	333	969	TOOMSALU LEELA	EST		2:19:24	1:05:11	1078	N	229
1115	334	910	HEIL KATI	EST		2:19:24	1:05:11	1077	N	230
1116	335	661	KUDRASHOVA GALINA			2:19:30	1:07:26	1162	N 45	20
1117	336	528	PEETS KADI	EST		2:19:40	1:04:34	1058	N	231
1118		318	LAGEMANN GODO	GER	Rapid Ramirez Sektion Berlin	2:19:48	1:06:41	1146	M 45	60
1119	337	1160	PAJO TERJE	EST		2:19:53	1:05:20	1088	N 45	21
1120	338	880	PÄRN PIRET	EST		2:20:08	1:06:14	1131	N	232
1121		881	PÄLL ERKI	EST		2:20:09	1:06:14	1130	M	447
1122		1188	KAEVAL HILLAR	EST		2:20:12	1:02:44	982	M 50	33
1123	339	1054	SURVA AUNE	EST	Sidepataljon	2:20:12	1:06:21	1138	N	233
1124	340	898	TOOMAST ANNA	EST		2:20:17	1:09:02	1187	N	234
1125		1307	DAMBE RENE	EST		2:20:25	1:03:53	1035	M	448
1126	341	860	KOLI KATRI	FIN		2:20:35	1:05:11	1079	N 45	22
1127		1022	LÕHMUS VIKTOR	EST		2:20:39	1:06:26	1140	M 40	121
1128	342	1345	KULDKEPP TIINA	EST		2:20:44	1:06:15	1134	N	235
1129	343	1083	VIRUNURM VIRGE	EST		2:20:56	1:06:31	1143	N	236
1130	344	1101	PÄRNSALU KAIRI	EST		2:21:04	1:08:31	1179	N	237
1131	345	545	VÄÄRTNÕU KATRIN	EST		2:21:05	1:10:24	1210	N	238
1132		995	VEERING VESSE	EST		2:21:06	1:04:07	1042	M	449
1133	346	887	VEERING LEEN	EST		2:21:06	1:04:08	1043	NJ	5
1134		1293	TÕLL URMAS	EST		2:21:08	1:03:01	995	M 40	122
1135		581	KIPPEL IVAR	EST		2:21:13	1:05:43	1110	M 40	123
1136	347	906	LUKS DANIELLE	EST	Paul Kerese Maleklubi	2:21:17	1:06:49	1152	T	5
1137		339	PULLERITS TÕNU	EST		2:21:18	1:03:29	1022	M 60	13
1138		652	KULL PRIIDU	EST		2:21:30	1:07:48	1168	M	450
1139	348	1512	MÖLDER RIINE	EST	Sarise Kuningriigi SK	2:21:34	1:05:41	1109	N 40	37
1140	349	1501	TAUTS VERONIKA	EST	MY Fitness	2:21:39	1:10:34	1214	N	239
1141	350	1047	ANJA AILE	EST	TriSmile	2:21:42	1:05:39	1107	N	240
1142	351	1390	SMITH LIISA	EST		2:21:54	1:03:54	1036	N	241
1143	352	1107	EVARTSON RAILI	EST	Sidepataljon	2:21:57	1:06:21	1136	N	242
1144	353	1284	RÄTSEP INGA-REET	EST		2:22:08	1:10:31	1213	N	243
1145	354	1517	SIPELGAS LISETTE-HUANIITA	EST		2:22:19	1:08:55	1184	NJ	6
1146	355	944	BAIDINA SVETLANA	EST	Nordea Spordiklubi	2:22:23	1:04:47	1062	N	244
1147	356	941	RÄÄK ERET	EST	Nordea Spordiklubi	2:22:23	1:03:42	1031	N	245
1148		735	KNITTEL TIM	FIN		2:22:34	1:05:17	1085	M	451
1149	357	1271	NEIDER PILLE	EST		2:22:36	1:09:15	1194	N	246
1150	358	705	PENTHOR SONJA	AUT	42komma195.at	2:22:37	1:09:03	1188	N 40	38
1151		750	JOHANSSON TOMAS	SWE	slk Oxelösund	2:22:53	1:04:41	1060	M 55	26
1152	359	1121	IBRUS KADRI	EST	MyFitness	2:23:03	1:09:17	1196	N	247
1153	360	1104	RÄST KRISTIINA	EST		2:23:10	1:09:14	1193	N	248
1154		626	PARKKILA TERO	FIN		2:23:12	1:06:42	1147	M	452
1155		1030	ROOLAID TOOMAS	EST	TA OK	2:23:42	1:07:47	1167	M	453
1156	361	1430	KONSTANTINOVA LILIA	EST		2:23:42	1:09:15	1195	N	249
1157	362	1523	AVRUTINA VALERIA	EST		2:23:43	1:11:57	1227	N	250
1158	363	633	POHLA HEIKE	EST		2:23:46	1:04:01	1039	T	6
1159		719	MAGNUS REINSJÖ	SWE	Ringhals Maraton Klubb	2:23:57	1:04:10	1045	M 45	61
1160	364	1019	VELTHUT AGNE	EST	MTÜ Elujooks	2:23:57	1:05:45	1113	N	251
1161		1232	OLAK HEINAR	EST		2:24:12	1:09:25	1198	M 75	4
1162	365	799	ULLMAN KAROLINA	EST		2:24:18	1:06:58	1159	N	252
1163	366	1108	KANGRO MERIKE	EST	Tartu Inline Team	2:24:22	1:08:08	1173	N	253
1164		1331	METSTAK TÕNIS	EST	TEAM KATRIINA	2:24:52	1:07:42	1165	M	454
1165	367	946	UUSTALU DIANA	EST	Nordea Spordiklubi	2:25:01	1:09:40	1202	N	254
1166	368	911	PELLJA KRISTI	EST	JOKA	2:25:03	1:04:50	1069	NN	19
1167	369	1249	LOO LILLE	EST	Tartu Inline Team	2:25:06	1:08:08	1174	N	255
1168	370	1116	NOOL KÄTTA	EST		2:25:20	1:05:44	1112	NN	20
1169		835	KLINGSTEDT OVE	SWE	Hultsfreds Löparklubb	2:25:21	1:06:01	1127	M 50	34
1170		1570	KAKK ERKI	EST		2:25:24	1:11:02	1218	M	455
1171	371	696	GOUGH MARY	GBR	ivanhoe runners	2:25:39	1:07:44	1166	N 65	3
1172		934	REISBERG REIMO	EST		2:25:51	1:08:00	1170	M	456
1173	372	1452	PASTARE JOLANTA	LATVIA	SEB	2:26:01	1:06:49	1153	N	256
1174		1057	SIIROJA ALLAR	EST		2:26:03	1:07:05	1160	M	457
1175	373	704	SANG KAIRI	EST		2:26:18	1:13:25	1234	NN	21
1176		1401	NYKYRI ERKKI	FIN	Helsinki	2:26:19	1:13:47	1236	M 65	11
1177		515	MEIGAS MAIT	EST		2:26:26	1:05:34	1101	M	458
1178		1157	TÕNISSON KRISTJAN	EST		2:26:34	1:11:02	1219	M	459
1179	374	1155	TÕNISSON INGA	EST		2:26:34	1:11:03	1220	N	257
1180		1431	AAVA URMO	EST	Rally Estonia	2:26:34	1:08:41	1182	M	460
1181		1270	KARING TOIVO	EST		2:26:54	1:08:54	1183	M 55	27
1182	375	1394	MUST MERLE	EST	FB Jooksmine	2:26:54	1:14:05	1242	NN	22
1183	376	791	RASMUSSEN SOLVEJG	DEN	Fjordloberne	2:26:55	1:05:24	1093	N 50	12
1184	377	1154	SUURORG LIINA	EST		2:27:07	1:08:15	1176	N	258
1185	378	904	VEEREMÄE DEA	EST		2:27:26	1:09:29	1199	N	259
1186	379	813	KARPOVICA GUNA	LAT		2:27:33	1:04:29	1057	N 75	1
1187	380	784	KALDA KATI	EST	Elioni spordiklubi	2:27:56	1:05:49	1123	N	260
1188	381	1036	ŠKEPAST MARJU	EST		2:28:01	1:14:04	1241	N	261
1189		676	LJAPUSTIN ALEKSANDR	EST		2:28:10	1:05:36	1103	M 50	35
1190		1085	SIHVER SANDER	EST	SK Kalev Pärnu	2:28:13	1:08:01	1172	P	17
1191	382	1086	SIHVER KATRIN	EST		2:28:37	1:08:01	1171	N 40	39
1192	383	1449	VAHER ENDLA	EST		2:28:42	1:05:22	1089	NN	23
1193		915	VELK GERT	EST		2:29:07	1:07:06	1161	MJ	21
1194	384	1120	PAIST VIIVIKA VIKTORIA	EST		2:29:16	1:08:15	1175	N	262
1195		1471	PUHVEL LAURI	EST		2:29:25	1:05:08	1075	M	461
1196		572	SIMM JOOSEP	EST		2:29:26	1:11:18	1221	M	462
1197	385	1456	SAKS SILVIA	EST		2:29:27	1:08:40	1181	T	7
1198	386	1034	KONDOR KARIN	EST		2:29:31	1:11:00	1215	N	263
1199		665	SAKS ERKI	EST		2:29:33	1:11:33	1224	M	463
1200	387	664	RICHTER RIIN	EST		2:29:34	1:11:33	1225	N	264
1201		653	JOHANSON RIHO	EST		2:29:39	1:11:01	1216	M	464
1202	388	1497	CYBULSKIS ARIANE	EST		2:29:45	1:12:08	1228	N	265
1203	389	1465	HÕBE SEILA	EST		2:29:45	1:10:26	1211	N	266
1204	390	1010	NÕMMELA KERSTI	EST	AS G4S Eesti	2:29:49	1:06:46	1149	N	267
1205	391	1445	TUULING MARIS	EST	G4S Spordiklubi	2:30:03	1:07:41	1164	N	268
1206	392	567	POLJAKOVA ANGELIKA	EST		2:30:05	1:09:40	1201	N	269
1207	393	1016	VAINO KAISA	EST		2:30:11	1:10:17	1207	N	270
1208		488	LEHTPUU ERKI	EST		2:30:40	1:04:16	1050	M	465
1209	394	588	KIVIRÄHK KAIRI	EST		2:31:03	1:10:09	1205	NJ	7
1210	395	1460	LUIKMEL RAILI	EST		2:31:09	1:05:18	1087	N	271
1211		742	PUTNINS RIHARDS	LAT		2:31:18	1:04:02	1040	M	466
1212		102	RAUDSIK RIIDO	EST		2:31:29	1:05:32	1100	MN	37
1213	396	1053	TOLK TRIINU	EST		2:31:43	1:09:29	1200	N	272
1214		629	LÕHMUS IVO	EST		2:31:45	1:14:40	1248	M	467
1215	397	578	KIPPEL KIRKE-STINA	EST	TIK	2:31:46	1:11:24	1223	T	8
1216	398	1178	VILK URVE	EST	Äripäeva Spordiklubi	2:31:51	1:10:22	1208	N	273
1217		1324	PÕLDOJA MIHKEL	EST		2:32:00	1:10:23	1209	M	468
1218	399	562	LAURI MARILIIS	EST		2:32:24	1:05:47	1121	N	274
1219		1056	KÜNNAPAS OLIVER	EST		2:32:24	1:08:31	1178	M	469
1220	400	612	KLAUS HEVE-RIIN	EST		2:32:28	1:07:48	1169	N	275
1221	401	942	SKOBLOV KADI	EST	Nordea Spordiklubi	2:33:12	1:08:31	1177	N	276
1222	402	843	LIIK-TAMM KAJA	EST		2:33:22	1:15:11	1253	N	277
1223	403	810	JÄRVLEPP KAIA	EST		2:34:00	1:12:25	1231	N	278
1224	404	943	AAS JANNE	EST	Nordea Spordiklubi	2:34:09	1:09:05	1189	N	279
1225		1526	SAMULIN VADIM	EST		2:34:27	1:18:49	1272	M	470
1226		802	GRENNESS OIVIND	NOR	Kondis	2:34:35	1:10:29	1212	M 75	5
1227		1241	MÄNNIK MARTIN	EST		2:34:58	1:03:08	1004	M	471
1228		896	VIIKMAA ANDY	EST		2:35:06	1:14:52	1250	M	472
1229		1594	LEPPIK MEELIS	EST		2:35:08	1:14:53	1251	M	473
1230	405	1264	KASELA SILVA	EST		2:35:20	1:15:58	1262	NN	24
1231		1341	PARRI ERKI	EST		2:35:49	1:19:28	1273	M	474
1232	406	1028	OLL MOONIKA	EST		2:36:05	1:13:48	1237	N	280
1233	407	836	BARBIER HEATHER	USA		2:36:11	1:16:08	1266	N	281
1234	408	1118	PILLE ANNELI	EST		2:36:12	1:15:59	1263	N 45	23
1235		1502	VINT RAIDO	EST		2:36:13	1:13:14	1232	P	18
1236	409	1334	ALLIKAS KARIN	EST		2:36:13	1:13:31	1235	N 40	40
1237	410	767	KULDMA KRISTI	EST		2:36:26	1:15:15	1254	N	282
1238	411	905	VEEREMÄE GEA	EST		2:36:38	1:11:02	1217	N	283
1239	412	1296	MAAREND EVA	EST		2:36:48	1:15:42	1258	N	284
1240	413	1297	MAAREND MARIE	EST		2:36:51	1:15:42	1257	N	285
1241		647	SOOSAAR SANDER	EST		2:36:59	1:13:24	1233	M	475
1242	414	1427	BIRK KRISTINA	EST		2:37:00	1:15:30	1256	N	286
1243	415	561	HÜNERSON MERILI	EST		2:37:19	1:09:19	1197	N	287
1244	416	780	DAL CIN OLGA	ITA		2:38:18	1:15:49	1260	N 50	13
1245	417	717	LINDBERG FREDRIKA	FIN	Houtskär IF	2:38:28	1:15:16	1255	N	288
1246	418	924	MAASEN SIIRI	EST	Regionaalhaigla Spordiklubi	2:39:05	1:11:24	1222	N 40	41
1247	419	1455	VENDLAND ELISABETH	EST	pole	2:39:18	1:08:56	1185	T	9
1248	420	1373	HEIKKILÄ TARJA-LIISA	FIN		2:39:23	1:20:33	1277	N 65	4
1249		617	RIIVE HENRI	EST		2:40:04	1:15:50	1261	MN	38
1250	421	895	LUTTERUS KARINA	EST		2:40:07	1:14:35	1246	N	289
1251	422	1581	VIPP ALICE	EST		2:40:30	1:09:07	1192	N	290
1252	423	650	EHRLICH MARITE	EST		2:40:56	1:14:01	1240	NN	25
1253	424	845	MÄNNAMAA MIRJAM	EST		2:41:51	1:13:49	1239	N	291
1254		900	TÄRK AIVAR	EST		2:41:52	1:13:49	1238	M	476
1255	425	1360	AALTO EMMA	FIN		2:42:19	1:19:29	1275	N	292
1256	426	999	VIŠNEVSKI KAIE	EST	Swedbank	2:42:20	1:15:10	1252	N	293
1257	427	592	KAAL LIISI	EST	21CC Triatloniklubi	2:42:33	1:10:14	1206	N	294
1258	428	1014	TÄÄR KARIN	EST		2:42:36	1:19:28	1274	N	295
1259	429	544	TOONEKURG INGRID	EST		2:43:11	1:16:23	1268	N	296
1260		1007	OTS IVAR-ILLIMAR	EST	triatleet	2:43:23	1:11:39	1226	M	477
1261	430	1208	APRI SILLE	EST		2:44:10	1:17:12	1271	N	297
1262	431	937	KLAOS HELEN	EST		2:44:17	1:14:25	1243	N	298
1263		1366	DAVIDSSON KENNETH	SWE	Ringhals maraton club	2:45:26	1:20:58	1278	M 55	28
1264	432	816	KUTTI ELLE	EST		2:45:37	1:15:43	1259	N	299
1265	433	812	MEDUSONE NATALIJA	LAT		2:45:41	1:14:31	1245	N 75	2
1266	434	817	KALJURAND KRISTI	EST		2:46:19	1:12:10	1229	N	300
1267		1139	SUURPERE ARVI	EST		2:46:52	1:09:05	1190	M 40	124
1268	435	499	JÄRVE KADRI	EST	karateklubi Impact	2:47:25	1:16:04	1265	NN	26
1269	436	380	BRANDSTACK APOLLONIA	FIN		2:47:56	1:16:17	1267	N	301
1270	437	599	AALTO ELINA	FIN		2:48:39	1:23:24	1281	N	302
1271		615	TALVOJA PEET	EST		2:49:06	1:19:40	1276	M 70	3
1272		1553	FILIMONOV ARTJOM			2:49:25	1:16:35	1269	M	478
1273	438	868	SATS INGRID	EST		2:49:36	1:17:11	1270	N 40	42
1274	439	1153	SAKS MAARIKA	EST		2:50:50	1:22:36	1280	N 45	24
1275		1402	OSCAR STEFAN	BUL		2:50:52	1:16:02	1264	M	479
1276	440	1168	ÄNILANE PIRET	EST		2:52:44	1:12:12	1230	N	303
1277		1367	DI GIACOMO MARIO	ITA	TERRAMIA	2:56:00	1:21:11	1279	M 65	12
1278	441	607	SENTJUROVA DIANA	EST		3:01:50	1:28:12	1283	NN	27
1279		1033	ORTIZ DE ARTIÑANO JAVIER	EST		3:07:31	1:14:37	1247	M 40	125
1280		724	ERIKSSON OLOF	SWE	Ringhals marathon club	3:17:46	1:28:21	1284	M 45	62
1281		1473	NAGEL JARMO	EST		3:30:11	1:25:00	1282	M	480
1282		800	EVERS HERMANN	GER		3:44:35	1:46:53	1285	M 75	6
1283	442	1462	SAAR HELIKA	EST		3:46:50			N	304
1284		848	LOO RENE	EST			0:47:18	185	M	
1285		1223	JUHANDI AIVAR	EST	Sparta		0:47:34	194	M	
1286		6	KARM KRISTJAN	EST	Stamina SK		0:48:52	245	M	
1287		1196	SAAR IVARI	EST			0:54:51	558	M	
1288		1228	TERÄVÄINEN JANI	FIN	Rakennuslogistiikka		0:59:24	819	M	
1289		1534	EVANS MATTHEW	GBR	Wrexham Wrockets		1:14:27	1244	M	
1290		107	MÕTTUS MÄRTEN	EST	21CC Triatloniklubi				M	
1291		108	LELOV MARKO	EST	SK Lemons				M	
1292		125	KERIDON TIINA	EST					N	
1293		154	EMERSON ANDRUS	EST					M	
1294		155	GREENBAUM MARKO	EST	AA				M	
1295		302	KAASIK KAIDO	EST	monier				M	
1296		307	LOOS MARE	EST					NN	
1297		315	BRUSOVA INGA	LAT					N	
1298		323	LINNAMÄGI TAIVO	EST					M	
1299		326	METSA JAAN	EST					M 40	
1300		329	VEERET ANDREAS	EST	Puna-Puna Maffia				M	
1301		336	KESKEL AILE	EST					N	
1302		342	URI RAIKO	EST	Rulluisuklubi ABEC				M	
1303		388	LOBANOV RAUL	EST	Äripäeva Spordiklubi				M	
1304		393	SOOSAAR HANNES	EST					M	
1305		409	MUST AIN	EST	Elioni Spordiklubi				M 40	
1306		451	KEIŠS JURIS	LAT	Maratona klubs				M	
1307		467	LAKSA IVETA	LAT	Maratona klubs				N	
1308		479	KUSLAPUU KARIN	EST					N	
1309		500	KAMBURA JÜRI	EST					M 40	
1310		502	VAASK MAARIKA	EST	Dolores				N	
1311		506	MAISVEE RANDO	EST					M	
1312		512	TEDER INGRID	EST					N	
1313		523	TRAMM MAIRE	EST					N 40	
1314		526	VOOLAINE ANDRUS	EST					M 55	
1315		536	RAADIK TAAVI	EST	Paikuse Motoklubi				M 40	
1316		543	LUHAMETS MARIS	EST	Arctic Sport Club				N	
1317		549	JOHANSON HENRI	EST	ForEstGump				M	
1318		551	VÕSU JAAN	EST					M 40	
1319		553	VARBLANE HANNO	EST					M	
1320		560	BOSSACK PIRET	EST					N	
1321		566	KRILLO KAROLYN	EST	Might just do it				N	
1322		568	ERNES SANDER	EST	ÜTM				M	
1323		571	VASSILJEVA JELENA	EST					N	
1324		575	RIIVITS-ARKONSUO IIVI	EST					N 50	
1325		584	AIMLA KRISTINA	EST					N	
1326		587	HAAPSAL GUNNAR	EST					M 40	
1327		589	ANTSO TIMMO	EST	SK Saarde				M	
1328		590	PÕLD HELENA	EST					N	
1329		593	POSPIECH FRANK	GER					M 45	
1330		595	JAATINEN MIKKO	FIN					M	
1331		598	RENTEL AIVI	EST					N	
1332		602	JAANIMETS SANDRA	EST					N	
1333		605	NAGLEE KATHLEEN	EST					N 40	
1334		609	SCHOEFEGGER KARIN	AUT					N	
1335		614	URBALA ERGO	EST					M	
1336		616	NUUT LIISA	EST					NN	
1337		620	LAMBERGS ANDRIS	LAT					M	
1338		624	SPINOSI VALERIO	FIN					M	
1339		625	LUNG MARTI	EST	Hansa SK				M	
1340		635	LAHE RIINA	EST	Hermes				N 40	
1341		637	TUKKIA KATRIN	EST					N	
1342		641	SIZASK KÜLLI	EST					N	
1343		642	ERIK BIRGIT	ESP					N	
1344		651	RAUD TANEL	EST	Tallinn Hash House Harriers				M	
1345		655	CASTELNOVO ANDREA	EST/ ITA					M	
1346		668	HANNUS HEIGO	EST					M	
1347		669	SHEVTSHENKO PJOTR	EST					M	
1348		678	ANDRESEN NELE	EST					N	
1349		679	PUGATSOV ILJA	EST	Elioni spordiklubi				M	
1350		680	RINGO MARTIN	EST					M	
1351		693	FLYNN RUSSELL	NOR					M	
1352		697	WOERETSHOFER PETER	GER					M 45	
1353		715	LISOVAJA IJA	LAT					N	
1354		720	MORAN DANIEL	GBR					M	
1355		727	KINNUNEN ARJA	FIN					N 45	
1356		762	ROOM JENNIFER	GBR					N 40	
1357		764	STRÖMBERG JARI	FIN					M 50	
1358		769	LOOTUS ANASTASSIJA	EST					N	
1359		770	NYLUND TATU	FIN					M	
1360		774	VAGULA RAIT	EST	Elioni Spordiklubi				MN	
1361		779	RUBIN MONIQUE	NED					N 40	
1362		811	KINNUNEN TEEMU	FIN					M	
1363		825	KAUTTO SANNA	FIN					N 45	
1364		829	PAAJANEN ANU	FIN					N	
1365		833	KIM ANATOLY	RUS					M	
1366		837	BARBIER HEATHER	GBR					N	
1367		850	AAS ANNIKA	EST					N	
1368		852	LANGE JOSEF	GER	Norma OK				M 55	
1369		861	KRAVCUKS JEVGENIJS	LAT					M	
1370		867	PETERSON ANNA	EST					NJ	
1371		882	MEHTÄLÄ ANETTE	FIN					N	
1372		888	TRALLMANN TAUNO	EST					M	
1373		929	KRENTSEL ILJA	RUS					M	
1374		959	TIITS HELEN	EST	Eesti Energia Spordiklubi				N	
1375		981	NUUTMANN SVEN	EST					M	
1376		986	JOKINEN SUSANNA	EST					N	
1377		993	LIBIETIS KRISTAPS	LAT	Nike Riga Run				M	
1378		1005	KOSONEN-POSTI PAULA	FIN					N 50	
1379		1040	SPITSÕN JANARI	EST					M	
1380		1043	ROHUMETS TIIT	EST	VR Transpoint				M	
1381		1046	PRITS RAIT	EST					M	
1382		1049	SNELLMAN INKA	FIN	Team Inka				N 50	
1383		1051	KIISKINEN TAPIO	FIN	Team Inka				M 60	
1384		1094	TAMM IVO	EST	FB Jooksmine				M	
1385		1132	VEERING PRIIT	EST					M	
1386		1137	KARU JOONAS	EST					MN	
1387		1212	KULLAMAA REIN	EST					M 40	
1388		1227	MÄTLIK MAANUS	EST					M	
1389		1260	KRANFELDT KAIDO-PAUL	EST					M 45	
1390		1278	REITER ANDRUS	EST					M	
1391		1314	PETTAI EVELI	EST					N	
1392		1358	USTAV MART	EST	Nööbi				M	
1393		1434	NURMIK KALLE	EST					M	
1394		1443	NIINE KRISTJAN	EST	G4S Spordiklubi				MN	
1395		1470	VAHERMAA TOOMAS	EST	polaria				M 40	
1396		1492	POST JAAK	EST					MJ	
1397		1529	VIITANEN RISTO	FIN					M 70	
1398		1531	PÄLLO ALVAR	EST					MN	
1399		1563	KRIIS TARMO	EST					M	