Koht	Nkoht	Nr	Nimi	Klubi	Aeg	Vkl	Vkl_koht
1		1	Püi Taivo	Sportkeskus.ee	0:34:10	M21	1
2		1072	Vallimäe Viljar	TÜ ASK	0:34:14	M21	2
3		3	Nikolajev Ilja	Stamina Arcotransport Tiim	0:34:34	M21	3
4		2	Tserepannikov Sergei	Stamina Arcotransport Tiim	0:35:17	M21	4
5		28	Fosti Roman	Stamina Arcotransport Tiim	0:35:20	M21	5
6		1112	Jürs Sander	Sportkeskus.ee	0:35:50	M21	6
7		681	Koselev Vjatseslav	KJK Kalev Sillamäe	0:36:19	M40	1
8		827	Paap Hasso	TÜ ASK	0:36:41	M21	7
9		5	Lein Andrus	Rakvere KJK "ViKe"	0:36:54	M35	1
10		852	Pirksaar Margus	Jooksupartner	0:37:00	M35	2
11		683	Košelev Deniss	TÜ ASK	0:37:06	M21	8
12		4	Tambur Taavi	Stamina Arcotransport Tiim	0:37:19	M21	9
13		742	Lillelaid Tõnu		0:37:43	M21	10
14		6	Reinsalu Kristo	Stamina Arcotransport Tiim	0:37:50	M21	11
15		1110	Männik Allan	Sportkeskus.ee	0:38:00	M21	12
16		11	Hodõrev Mart	KJK Kalev Sillamäe	0:38:01	M18	1
17		14	Veilberg Ago		0:38:09	M40	2
18		18	Piirsalu Meelis	Sidepataljon	0:38:27	M35	3
19		961	Soo Allar		0:38:35	M21	13
20		12	Orm Olari		0:38:42	M21	14
21		1030	Truusalu Jaagup	TÜ ASK	0:38:47	M21	15
22		741	Lillelaid Tarmo		0:38:48	M21	16
23		17	Dzjuba Ilja	Stamina Arcotransport Tiim	0:39:00	M21	17
24		1064	Vaine Heinar	VAK Staier	0:39:08	M18	2
25		8	Salla Raimo	Türi Jõud	0:39:21	M21	18
26		9	Kallaste Jaanus	SK Rada Kolgaküla	0:39:23	M21	19
27		26	Pedak Jaanus		0:39:27	M40	3
28		1011	Tiit Mati	SKM!	0:39:30	M40	4
29		13	Kilk Ain	Eesti Worldloppeti Klubi	0:39:31	M40	5
30		1134	Luik Lauri	Läänemaa KJK	0:39:34	M21	20
31	1	29	Luik Liina	TÜ ASK	0:39:41	N21	1
32		20	Laur Mikk	KJK Lõunalõvi	0:39:49	M21	21
33		19	Ratasepp Rait		0:40:08	M21	22
34		997	Tarm Toomas	Sportkeskus.ee	0:40:10	M40	6
35		1177	Pallo Rait		0:40:12	M35	4
36	2	751	Luik Leila	TÜ ASK	0:40:13	N21	2
37	3	104	Rihma Annika	Sportkeskus.ee	0:40:20	N21	3
38	4	37	Dolmatova Kristina	Stamina Arcotransport Tiim	0:40:23	N21	4
39		33	Sulev Veiko	KV Logistikakeskus	0:40:42	M21	23
40		1150	Sabre Kaupo	Põlva KJK	0:40:50	M40	7
41		605	Jaaska Allan-Peeter	Stamina SK	0:41:05	M40	8
42		47	Maiste Tarmo		0:41:20	M35	5
43		27	Tilga Kajar		0:41:21	M40	9
44		23	Järvi Esko		0:41:22	M21	24
45		32	Lään Christjan		0:41:22	M35	6
46		15	Vaher Vladimir	Stamina Arcotransport Tiim	0:41:34	M21	25
47		849	Piirimäe Pärtel	Suusahullud	0:41:35	M35	7
48		934	Savastver Alar	Stamina SK	0:41:36	M40	10
49		34	Jakson Ahto	JOOKSUPORTAAL	0:41:42	M40	11
50		56	Orgulas Kaido		0:41:45	M40	12
51		1106	Moks Matis	Vak Staier	0:41:54	M21	26
52		592	Heinmann Rauno		0:42:02	M21	27
53	5	24	Kärner Evelin	Stamina Arcotransport Tiim	0:42:10	N21	5
54		1133	Meri Martin	Pringlike.ee	0:42:11	M21	28
55		962	Soo Kristen		0:42:12	M18	3
56	6	752	Luik Lily	TÜ ASK	0:42:12	N21	6
57		45	Tasimov Sergey	SK Mits	0:42:15	M35	8
58		1129	Randaru Veiko		0:42:16	M40	13
59		55	Tiiksaar Aaro	5xa	0:42:17	M21	29
60		1145	Lukretsenko Mihhail		0:42:18	M21	30
61		729	Leino Peep	Tabasalu TK / TriSmile	0:42:26	M21	31
62		54	Kangro Priit		0:42:34	M35	9
63		35	Bauman Jaanus		0:42:41	M35	10
64		900	Reitsnik Tarmo	Stamina SK	0:42:43	M35	11
65		960	Songisepp Kaspar	Elva Suusaklubi	0:42:51	M21	32
66		658	Kibuspuu Tiit		0:42:59	M40	14
67		21	Pähn Janar	VAK Staier	0:43:08	M35	12
68		69	Nassar Oskar		0:43:18	M21	33
69		1148	Valdas Sander	RIMI Food AS	0:43:20	M35	13
70		10	Sagaja Martin	Eesti Raudtee SK	0:43:24	M21	34
71		763	Lüüs Sigmar		0:43:27	M21	35
72		65	Rattas Raido		0:43:28	M21	36
73		50	Kingo Gunnar	Westline Team	0:43:29	M21	37
74		1096	Voolaid Raimond		0:43:31	M16	1
75		98	Sõber Elion		0:43:31	M21	38
76		63	Sild Reio	Viljandi Suusaklubi	0:43:38	M16	2
77		84	Ruul Rünno	Elioni Spordiklubi	0:43:41	M40	15
78		40	Vahkal Kaido		0:43:43	M35	14
79		39	Enok Marek	Fauni Kaubanduse OÜ	0:43:43	M21	39
80		52	Rähn Alar		0:43:45	M21	40
81	7	668	Klade Piret		0:43:49	N21	7
82		877	Pärna Ain		0:44:01	M21	41
83		1084	Vetevoog Kaido	Stamina SK	0:44:05	M35	15
84		635	Kaljuvee Janno		0:44:06	M40	16
85		167	Pae Markus Rene	Reaalkool/Audentes	0:44:11	M16	3
86		987	Tali Tiit	Ilves	0:44:14	M50	1
87		120	Pisa Leho		0:44:16	M21	42
88		58	Kuznetsov Madis		0:44:17	M35	16
89		1136	Rohtla Risto	HRS	0:44:17	M21	43
90		57	Hussar Karel		0:44:18	M16	4
91		946	Siht Jüri		0:44:18	M40	17
92		690	Kruustük Veiko	MonaVie	0:44:20	M21	44
93		61	Säkk Janar		0:44:24	M21	45
94		53	Sinijärv Taavi		0:44:28	M21	46
95		70	Narmont Donatas	Jooksja	0:44:34	M40	18
96		62	Kooskora Kristo		0:44:40	M21	47
97		767	Maleva Marco		0:44:46	M40	19
98	8	80	Tarum Janelle	Alpi Suusaklubi	0:44:47	N21	8
99		612	Joonas Peep	Private Project	0:44:53	M40	20
100		1018	Toom Toomas	Stamina SK	0:44:53	M50	2
101		1139	Hrushov Pjotr	Sillamaa Kalev	0:44:58	M60	1
102		64	Tinast Toivo		0:45:02	M21	48
103		83	Männik Ahti		0:45:08	M21	49
104		727	Lehtla Reigo	JCI Spordiklubi	0:45:10	M40	21
105		123	Kimask Eduard	SK USPEX	0:45:10	M35	17
106		60	Hillep Einar		0:45:11	M40	22
107		654	Kauts Janno		0:45:12	M21	50
108		841	Pehk Heimar		0:45:12	M21	51
109		1043	Tõnnison Arvi		0:45:15	M40	23
110		793	Mõttus Henri	TÜ ASK	0:45:17	M16	5
111	9	43	Andrejeva Olga	Stamina Arcotransport Tiim	0:45:20	N21	9
112		68	Bessonov Sergei	F-Automaatika	0:45:22	M21	52
113		82	Raap Ilmar	meie	0:45:27	M40	24
114		1163	Karjama Tarmo	100% Design	0:45:30	M35	18
115		85	Siim Andres		0:45:31	M40	25
116		1032	Tserednitsenko Nikita		0:45:32	M16	6
117		67	Tikva Indrek	Albe Team	0:45:32	M40	26
118		31	Teder Martin		0:45:32	M21	53
119		59	Villo Raul	KimaRillen	0:45:39	M21	54
120		107	Unt Toomas	KV Logistikakeskus	0:45:41	M35	19
121		94	Rüütelmaa Andrus	KV Logistikakeskus	0:45:42	M35	20
122		95	Jõemets Aivo		0:45:42	M40	27
123		110	Filatov Kalmer		0:45:44	M40	28
124		76	Ignatenko Igor		0:45:47	M40	29
125		42	Saluveer Ago		0:45:49	M21	55
126		160	Petraudze Andre		0:45:49	M21	56
127		77	Valdmaa Lauri		0:45:54	M21	57
128		72	Abner Andre	Stamina SK	0:45:54	M40	30
129	10	609	Johanson Liis	Sportkeskus.ee	0:45:56	N21	10
130		190	Zirk Kunnar	TriSmile	0:45:57	M35	21
131		78	Atonen Marek	VAK Staier	0:45:59	M21	58
132		1090	Viirmann Ott		0:46:00	M21	59
133		575	Enn Lauri		0:46:02	M21	60
134		41	Einasto Mart		0:46:05	M40	31
135		823	Orlovski Tiit	SIS	0:46:06	M21	61
136		79	Koskaru Meelis	MAKSU- JA TOLLIAMETI SPORDIKLUBI	0:46:06	M21	62
137		90	Kuningas Andres		0:46:08	M35	22
138		91	Liivandi Eero	G4S SK	0:46:11	M21	63
139		159	Karin Peeter	SGG Estonia SE	0:46:12	M21	64
140		81	Paumets Meelis		0:46:13	M35	23
141		559	Avaste Tarvo		0:46:13	M40	32
142		66	Salla Marek	Türi Jõud	0:46:14	M21	65
143		918	Rähn Ahto		0:46:23	M21	66
144	11	106	Aluvee Helen	TÜ ASK	0:46:24	N18	1
145		46	Lumberg Alari		0:46:26	M21	67
146		787	Miina Heino		0:46:35	M40	33
147		75	Mõttus Märten	21cc triatloniklubi	0:46:39	M21	68
148		619	Jänes Margus		0:46:50	M21	69
149		860	Priks Morten	VAK Staier	0:46:52	M21	70
150		1119	Riks Rando	SK Aaspere	0:46:54	M18	4
151		74	Maas Elmer	Metsaime Team	0:46:57	M35	24
152		659	Kiiranen Kalle		0:47:02	M50	3
153		233	Sõrmus Silver	Tallinna FC Flora	0:47:05	M16	7
154		207	Mihkelson Ain	Hansa SK	0:47:05	M35	25
155		101	Ermel Jürgen	MTÜ RLM	0:47:05	M21	71
156		86	Sarap Aivar		0:47:06	M40	34
157		641	Kamberg Kristofer Erik		0:47:06	M16	8
158		1152	Sirk Kristo	OK Kobras	0:47:07	M16	9
159		177	Kerno Kaimar	Keila SHK	0:47:09	M21	72
160		38	Parve Heikki		0:47:12	M40	35
161		894	Rebane Taivo		0:47:13	M50	4
162		140	Remmel Ernesto		0:47:18	M40	36
163		169	Tuvikene Leonhard	Eesti Raudtee SK	0:47:24	M60	2
164		453	Juurikas Raimo		0:47:27	M35	26
165		121	Polt Kalju		0:47:34	M60	3
166		569	Dovnar Taavi		0:47:35	M21	73
167		968	Sootalu Tiit		0:47:37	M40	37
168		618	Jõgis Janek		0:47:38	M40	38
169		92	Mäesepp Aigar	Hansa SK	0:47:39	M21	74
170	12	601	Irves Monika	KJK Lõunalõvi	0:47:40	N35	1
171		839	Peedu Agris		0:47:42	M21	75
172		99	Kurvits Ain	Merko Ehitus	0:47:43	M40	39
173		809	Nurm Peep	TKoG	0:47:44	M21	76
174		117	Tuul Harry		0:47:45	M21	77
175		132	Tooming Marko	MTÜ Estgaels	0:47:45	M21	78
176		856	Plumer Raivo	Mägi EK	0:47:45	M50	5
177		682	Kostrov Roman	Pskov Ski Team	0:47:46	M40	40
178		103	Alamets Lari	EAS	0:47:48	M40	41
179	13	783	Merill Mägi	Stamina Arcotransport Tiim	0:47:49	N21	11
180		141	Põldoja Heino	Jõgeva SVS	0:47:49	M60	4
181		97	Sikka Timo Tõnis	TÜ ASK	0:47:50	M21	79
182		1169	Tokko Rainer	Vanamõisa SK	0:47:50	M40	42
183		133	Zirnask Mario		0:47:51	M21	80
184		1056	Šuskov Aleksandr		0:47:51	M21	81
185		122	Suursaar Ülo		0:47:52	M40	43
186		154	Roop Andrei		0:48:01	M50	6
187		1055	Urb Sergei	SK Mits	0:48:01	M50	7
188		271	Urb Jaanus		0:48:04	M21	82
189		109	Nuka Innar		0:48:05	M21	83
190		698	Kullamaa Rein		0:48:08	M40	44
191		102	Kaljumäe Aivo	Hansa SK	0:48:09	M35	27
192		158	Männa Rait		0:48:11	M21	84
193		112	Pähn Ragnar	VAK Staier	0:48:16	M21	85
194		151	Sindonen Voldemar		0:48:18	M50	8
195		842	Pere René		0:48:22	M40	45
196		162	Hämäläinen Keio		0:48:25	M21	86
197	14	932	Sauga Mari	Hansa SK	0:48:29	N40	1
198		1079	Veermäe Martin		0:48:29	M35	28
199		182	Keskra Raivo		0:48:30	M21	87
200		785	Metsmägi Andres		0:48:31	M21	88
201		830	Paesüld Harles	Hansa SK	0:48:31	M35	29
202		693	Kukk Raido	Lopetijukud	0:48:34	M35	30
203		113	Hollo Janno		0:48:36	M40	46
204		71	Mustkivi Mart	Sampo SK	0:48:39	M35	31
205		93	Kirsipuu Avo	Eesti Worldloppeti Klubi	0:48:41	M40	47
206		867	Pulles Marten		0:48:41	M16	10
207		186	Mandre Oliver		0:48:41	M21	89
208		879	Pärnaste Mikk	Sparta	0:48:43	M16	11
209		708	Kuuskla Priit	SK Aaspere	0:48:43	M21	90
210		656	Kenkmann Peeter		0:48:46	M21	91
211		795	Mäll Margus	GMP Clubhotel & Pühajärve restoran	0:48:48	M21	92
212		640	Kamberg Artur		0:48:50	M18	5
213	15	116	Kurist Helina	CFC Spordiklubi	0:48:52	N16	1
214		166	Hummal Erkki		0:48:53	M35	32
215		48	Laineste Andres	Stamina SK	0:48:54	M40	48
216		114	Grigoriev Sergei	Eesti Põlevkivi SK	0:48:55	M50	9
217		580	Gamzejev Erik	Põhjarannik	0:48:56	M40	49
218		88	Mägi Enn		0:48:57	M50	10
219		646	Karolin Indrek		0:48:58	M35	33
220		172	Lomp Margus	Eesti Energia Spordiklubi	0:48:59	M40	50
221		139	Saar Laur	PharmaSwiss / TC2000	0:48:59	M40	51
222	16	560	Avikson Margit	OK Põlva Kobras	0:48:59	N21	12
223		73	Talviste Raimo		0:48:59	M21	93
224		848	Piir Jürgen		0:49:02	M21	94
225		874	Põllendik Rait	Nordea SK	0:49:02	M35	34
226		805	Noormaa Margus		0:49:05	M40	52
227		105	Raun Rain		0:49:08	M40	53
228		786	Mihailov Kaspar		0:49:10	M21	95
229		179	Põldsaar Paul		0:49:12	M35	35
230		100	Vahtra Janek		0:49:15	M35	36
231		1120	Nagel Karl-Gustav	SK Aaspere	0:49:15	M16	12
232	17	1140	Bernat Galina	Sillamaa Kalev	0:49:18	N50	1
233		1048	Tühis Janno		0:49:20	M21	96
234		629	Kakko Mairolt	Bona Fide	0:49:21	M40	54
235		598	Ilves Tõnu		0:49:21	M40	55
236		192	Jõeleht Jaago	Hansa SK	0:49:24	M35	37
237		135	Siiak Indrek		0:49:25	M35	38
238		644	Kapp Tarvo		0:49:27	M40	56
239		1080	Veisman Martin		0:49:29	M21	97
240		675	Kokk Kristo		0:49:31	M40	57
241		706	Kuusik Kalle		0:49:33	M40	58
242		253	Hendrikson Tõnu	Elioni Spordiklubi	0:49:35	M35	39
243	18	478	Vulla Ela		0:49:37	N21	13
244		822	Oranen Peeter		0:49:39	M21	98
245		1037	Tuur Taavi		0:49:42	M21	99
246		924	Saetalu Andres		0:49:44	M16	13
247		115	Kookla Eero		0:49:46	M35	40
248		1052	Univer Neeme		0:49:48	M35	41
249		181	Reinbach Indrek		0:49:50	M35	42
250		1063	Vahtra Märt		0:49:51	M21	1
251	19	236	Voksepp Helen		0:49:52	N21	14
252		89	Vassus Raul		0:49:53	M21	101
253		929	Salumaa Marko	ilmandu klubi	0:50:02	M21	102
254		134	Ponder Neeme		0:50:10	M50	11
255		147	Luts Vahur		0:50:10	M40	59
256		926	Sakkeus Jüri		0:50:12	M50	12
257		124	Saar Janno		0:50:14	M21	103
258		561	Bachaus Arno	Team 30+	0:50:14	M21	104
259		148	Laanbek Marek		0:50:14	M21	105
260		709	Kuuskmäe Raul		0:50:17	M40	60
261		125	Gröön Janar		0:50:18	M21	106
262		161	Lopsik Priit	Hansa SK	0:50:19	M21	107
263	20	1108	Leppmets Marianne	Stamina SK	0:50:21	N21	15
264		1107	Trääder Helvis	Stamina SK	0:50:22	M21	108
265		1159	Kullamaa Kaarel	Lähte Suusaklubi	0:50:25	M16	14
266		143	Tammist Koit		0:50:28	M40	61
267	21	235	Kummer-Leman Ülle	Sportkeskus.ee	0:50:29	N50	2
268		1040	Tõnismäe Tiit		0:50:30	M40	62
269		137	Zirnask Villu	Stamina SK	0:50:32	M40	63
270		191	Gussev Rain		0:50:35	M21	109
271	22	596	Ilves Elin		0:50:36	N40	2
272		138	Maasikrand Mart	Pilsner Sport Power	0:50:38	M40	64
273		170	Laanmets Jüri		0:50:40	M50	13
274		111	Treiberg Andrus	Hansa SK	0:50:40	M21	110
275		96	Ollep Janek	SK Saarde	0:50:41	M40	65
276		209	Innos John		0:50:41	M40	66
277		108	Lang Heiki		0:50:44	M40	67
278		1059	Uustare Ain		0:50:49	M21	111
279		1118	Kams Uku	SK Aaspere	0:50:53	M18	6
280		884	Rabakukk Karl Erik	Biathlon	0:50:54	M16	15
281		765	Maiste Margus	proge	0:51:00	M21	112
282		224	Merivälja Margus		0:51:01	M21	113
283		195	Mättas Jaan	VAK Staier	0:51:02	M70	1
284	23	248	Randmaa Katri		0:51:04	N35	2
285		193	Reimets Avo		0:51:05	M60	5
286		953	Sikk Argo		0:51:06	M35	43
287		1007	Tereštšenkov Aleksei	U-klubi	0:51:07	M40	68
288		1165	Rossar Risto	IIZI SK	0:51:07	M21	114
289		199	Ivanov Marek		0:51:09	M35	44
290		178	Kokmann Imre		0:51:10	M21	115
291		541	Ahtijainen Riho	Raplamaa Tublid Maratoonarid	0:51:15	M21	116
292		268	Metsküla Üllar		0:51:17	M40	69
293		155	Laineveer Indrek		0:51:21	M21	117
294		319	Valt Ahti		0:51:21	M21	118
295		153	Sikka Toivo		0:51:22	M40	70
296	24	189	Kalda Ruth	TÜ ASK	0:51:23	N40	3
297		136	Krilovs Ringo	Würth AS	0:51:24	M21	119
298		1093	Vilper Andres		0:51:25	M35	45
299		574	Ellervee Toomas Hendrik		0:51:25	M16	16
300		163	Hansen Joonas		0:51:26	M21	120
301		263	Tiisvelt Rein		0:51:26	M50	14
302		778	Medar Tõnu		0:51:30	M40	71
303		1125	Kaldmaa Imre		0:51:33	M35	46
304		1157	Lehesmets Kristjan		0:51:35	M21	121
305		573	Ellervee Toomas		0:51:37	M40	72
306		957	Sirel Andres		0:51:39	M21	122
307	25	174	Mell Relika		0:51:42	N35	3
308		970	Speek Jüri	EMT	0:51:43	M35	47
309		180	Lahe Marek	Danone	0:51:44	M21	123
310		254	Kingo Priit	Hansa SK	0:51:46	M21	124
311	26	626	Kaiv Jaanika		0:51:48	N21	16
312		200	Saaremäel Indrek		0:51:50	M35	48
313		175	Jääger Heiki		0:51:50	M40	73
314		131	Õunap Urmas		0:51:51	M40	74
315		1097	Voolaid Veiko	Otepää Kehakultuurikollektiiv	0:51:51	M21	125
316		127	Jänes Urmet	korp! Rotalia	0:51:57	M35	49
317		283	Vallner Kristjan	FB Jooksmine	0:52:00	M21	126
318		220	Lepik Marek		0:52:03	M21	127
319		1175	Rääk Tarmo		0:52:03	M35	50
320		1111	Väizanen Urmo		0:52:05	M21	128
321		197	Ots Magnus-Mait	LEOLA	0:52:05	M40	75
322		173	Kallavus Ain		0:52:09	M40	76
323	27	205	Jõemets Kaja	Mitš	0:52:13	N40	4
324	28	697	Kull Liisa	TriSmile	0:52:14	N21	17
325	29	259	Treu Merilin		0:52:16	N18	2
326	30	292	Pruus Birgit		0:52:16	N18	3
327		267	Treu Urmas		0:52:16	M35	51
328		542	Ahtijainen Risto	Raplamaa Tublid Maratoonarid	0:52:18	M21	129
329		902	Rennit Leho	Albe Team	0:52:18	M50	15
330	31	678	Konts Dagmar-Maria		0:52:22	N21	18
331		1138	Saul Udo		0:52:23	M40	77
332		241	Kaljuvee Kristo		0:52:23	M21	130
333		152	Vinogradov Vladimir	T28A Spordiklubi	0:52:26	M40	78
334		244	Pelapson Rain		0:52:26	M21	131
335		301	Paur Silver	SK Aaspere	0:52:26	M21	132
336		119	Läte Anatoli	Suusahullud	0:52:28	M40	79
337		824	Osmin Martin	ATO SK	0:52:29	M21	133
338		792	Muuk-Adrat Andres		0:52:30	M21	134
339	32	1015	Timmusk Kerda	SRD	0:52:30	N16	2
340		1102	Võsu Jaan		0:52:34	M40	80
341		168	Elmet Märt		0:52:36	M40	81
342	33	1070	Vallaste Kristel		0:52:39	N21	19
343	34	214	Muru Merike		0:52:43	N40	5
344		768	Malmre Mallor	Keskkond & Partnerid OÜ	0:52:44	M35	52
345		733	Lember Toomas		0:52:44	M50	16
346		251	Palmar Kalle	Piirivalve SKK	0:52:45	M60	6
347		959	Soeson Toomas	Elion	0:52:46	M35	53
348		1078	Veeremaa Tanel		0:52:46	M21	135
349		548	Altmets Heimar		0:52:47	M21	136
350	35	252	Treffner Kadri		0:52:48	N21	20
351		880	Pärtelpoeg Ingmar		0:52:52	M35	54
352		264	Gluhhovtsenko Maksim	Eesti Energia SK	0:52:53	M21	137
353	36	242	Parts Valli		0:52:54	N21	21
354		576	Ennuste Madis		0:52:55	M35	55
355		212	Tee Dmitri	USPEX	0:52:56	M35	56
356		890	Randmäe Margus		0:52:57	M21	138
357		274	Üprus Fred		0:52:59	M40	82
358		218	Kane Rein		0:53:00	M60	7
359		247	Tähepõld Margus		0:53:01	M21	139
360	37	184	Lees Loviisa	Nõmme Spordiklubi	0:53:04	N16	3
361		1151	Tilgre Taimar	OK Kobras	0:53:05	M40	83
362		281	Härmaste Rannar		0:53:06	M21	140
363	38	249	Mõistus Merlin		0:53:07	N21	22
364		187	Lehesmets Alar		0:53:07	M21	141
365		118	Ritso Valter	Hansa SK	0:53:08	M21	142
366		149	Jürgenstein Indrek	Stamina SK	0:53:09	M40	84
367		203	Kalle Rein	Keskkonnaamet	0:53:09	M35	57
368		243	Rebane Urmas		0:53:11	M35	58
369		228	Maasing Kaupo	Hansa SK	0:53:12	M21	143
370		913	Roots Jaanus		0:53:14	M40	85
371		969	Soovik Jüri		0:53:18	M50	17
372		908	Roos Valeri		0:53:19	M40	86
373		620	Järv Allan		0:53:20	M35	59
374		213	Kulberg Ragnar		0:53:23	M21	144
375		638	Kalmu Kalvo		0:53:23	M35	60
376		1024	Tretjakov Roman		0:53:29	M21	145
377		1053	Õunpuu Jaak		0:53:31	M35	61
378		775	Martinson Raido	Viru JVP	0:53:34	M21	146
379	39	1012	Tiitmaa Kaity-Marin		0:53:36	N21	23
380		740	Lille Veiko		0:53:37	M21	147
381		724	Lauring Karre	Kuup3 SK	0:53:40	M40	87
382		887	Raid Reimo		0:53:41	M35	62
383		1162	Pitk Indrek		0:53:42	M40	88
384		375	Vesiallik Sten	Würth AS	0:53:50	M21	148
385		585	Hallimäe Rain		0:53:50	M50	18
386		261	Salmar Avo		0:53:50	M60	8
387		935	Seeba Aarne		0:53:53	M35	63
388	40	600	Irves Meriliin	Ekstreempark	0:53:55	N16	4
389		229	Kitsing Meelis	MKM	0:53:56	M35	64
390		219	Englas Valdur		0:53:58	M21	149
391		260	Lapõnin Serafim		0:53:59	M60	9
392		614	Justin Ions		0:53:59	M40	89
393	41	208	Kruusmann Geidi	Tamsalu	0:54:01	N21	24
394		286	Harkov Andrei		0:54:02	M21	150
395		221	Vassar Veiko	FB Jooksmine	0:54:02	M21	151
396		185	Trees Margus		0:54:04	M35	65
397		183	Trees Mihkel	Nõmme SK	0:54:05	M16	17
398		240	Saar Siim		0:54:07	M50	19
399		198	Jõeleht Urmas		0:54:08	M40	90
400		258	Soon Silver		0:54:12	M21	152
401		779	Medijainen Eero		0:54:12	M50	20
402		993	Tamm Hallar	Raplamaa Tublid Maratoonarid	0:54:14	M21	153
403		238	Ansi Martin		0:54:15	M35	66
404		539	Aaviste Veiko		0:54:17	M35	67
405		237	Mägi Indrek		0:54:18	M35	68
406		587	Hanson Henri		0:54:18	M21	154
407	42	936	Seleznjova Julia	USPEX	0:54:20	N21	25
408	43	630	Kala Tiina	Raha24	0:54:21	N21	26
409	44	277	Ehrlich Imbi		0:54:23	N40	6
410		262	Mändla Raul		0:54:26	M35	69
411		246	Mikkor Ergo	Elioni Spordiklubi	0:54:28	M21	155
412		694	Kulbas Risto		0:54:28	M50	21
413		875	Põri Ivar		0:54:30	M21	156
414	45	636	Kallak Kaire		0:54:31	N40	7
415		870	Purgalis Jurgis	Danone	0:54:32	M21	157
416		761	Läns Indrek		0:54:33	M35	70
417	46	558	Avaste Piia	WILO team	0:54:34	N21	27
418		1166	Laidre Marti	JK Piraaja	0:54:35	M21	158
419		567	Castelnovo Andrea		0:54:36	M21	159
420		1006	Telvar Tarmo		0:54:37	M21	160
421		639	Kals Jaak	Lopetijukud.	0:54:37	M21	161
422	47	711	Kõiv Laura	Sparta	0:54:38	N21	28
423	48	339	Kusnets Kerli		0:54:39	N21	29
424		1143	Lindepuu Erkki	Eesti Energia	0:54:39	M21	162
425		188	Kolk Marko	Jooksuklubi Sarma	0:54:40	M40	91
426	49	610	Joonas Inge		0:54:41	N40	8
427	50	276	Okas Erje	LIVIKO	0:54:42	N35	4
428	51	436	Kindlam Jaanika	Elioni Spordiklubi	0:54:47	N35	5
429		616	Jõekäär Märt		0:54:49	M40	92
430		257	Viira Andres		0:54:51	M40	93
431		210	Vürmer Silver		0:54:52	M21	163
432		829	Pae Kuno	SK AEG	0:54:53	M40	94
433		288	Lehismets Jaan		0:54:55	M21	164
434	52	758	Lõhmus Margit		0:54:56	N21	30
435		615	Juurma Madis	MKM	0:54:58	M21	165
436		599	Inno Ermo	Elioni Spordiklubi	0:54:59	M21	166
437		762	Lükk Villu		0:54:59	M21	167
438		781	Meos Tõnu		0:55:01	M50	22
439		307	Limmer Ailar		0:55:01	M50	23
440	53	368	Bauman Evelin		0:55:02	N21	31
441	54	330	Aruvald Kairi	Samsung Sports Academy	0:55:03	N21	32
442		1103	Värk Ivo	Merevägi	0:55:03	M35	71
443		1073	Vann Theodor	ITBIT	0:55:04	M21	168
444		306	Aedmaa Ants		0:55:05	M21	169
445		1161	Seškens Leons		0:55:11	M50	24
446		202	Hussar Argo		0:55:12	M21	170
447		204	Hõbemäe Priit	SILLER AUTO	0:55:13	M35	72
448		282	Zirnask Gunnar		0:55:15	M50	25
449		201	Reimets Ramon		0:55:16	M21	171
450	55	446	Valk Kairit	Elioni Spordiklubi	0:55:16	N21	33
451		227	Ruul Mati		0:55:17	M40	95
452		308	Bürkland Martin	Hansa SK	0:55:19	M21	172
453	56	230	Lahe Riina	Danone	0:55:20	N40	9
454		737	Lidaka Peteris	adidas	0:55:21	M21	173
455		549	Altmets Valev		0:55:21	M40	96
456		817	Ojasalu Marek		0:55:23	M21	174
457		272	Aaslaid Kaido		0:55:23	M40	97
458		978	Särak Ivo		0:55:24	M21	175
459	57	1049	Uibopuu Laura		0:55:28	N21	34
460		361	Press Jüri		0:55:30	M35	73
461		1077	Veenpere Henrik		0:55:30	M21	176
462		586	Hallingu Erki		0:55:33	M40	98
463		303	Pihu Tenno		0:55:34	M35	74
464		266	Jaama Sander		0:55:36	M21	177
465		305	Jesse Riho		0:55:38	M40	99
466		1105	Peterson Kristjan		0:55:39	M21	178
467		217	Laaneväli Alar		0:55:40	M40	100
468		739	Liivrand Eero	Sparta	0:55:47	M40	101
469		222	Teder Gunnar		0:55:49	M40	102
470		287	Lõhmus Raul	emt topeltpluss klient	0:55:50	M40	103
471		1123	Pakkas Lauri		0:55:52	M21	179
472		194	Siimu Priit	Vilajndi Aerutamisklubi	0:55:52	M21	180
473	58	265	Piskunov Marlen		0:55:54	N21	35
474		378	Nõmmiste Sulev		0:55:54	M40	104
475		466	Nõmmiste Kalev		0:55:55	M35	75
476		296	Pool Tarmo		0:55:55	M21	181
477		1113	Kangur Tarmo		0:55:56	M50	26
478	59	332	Juhanson Jaana	Ida-Tallinna Keskhaigla	0:55:57	N21	36
479		348	Kajari Mart	Sparta	0:55:59	M40	105
480	60	354	Luik Terje		0:55:59	N21	37
481		351	Ignatenko Ingmar		0:56:00	M16	18
482	61	1068	Valge Gätly		0:56:01	N21	38
483		387	Ojakäär Toomas		0:56:02	M35	76
484		562	Belajev Jaan		0:56:03	M35	77
485		660	Kikas Kalmer		0:56:04	M35	78
486		144	Karpovitch Sergei		0:56:07	M35	79
487		1095	Vlassov Jüri		0:56:13	M21	182
488		862	Prokopjuk Bogdan		0:56:15	M40	106
489	62	316	Pellenen Evelin		0:56:17	N21	39
490		328	Tagel Ilmar		0:56:21	M60	10
491		1091	Vildersen Tarmo		0:56:23	M21	183
492	63	996	Tamm Terje	Valio	0:56:23	N21	40
493		686	Krull Andres	***Cruelo***	0:56:24	M35	80
494		333	Laigna Marko		0:56:26	M21	184
495		704	Kuznetsov Peeter		0:56:28	M35	81
496		285	Elmet Karl Erik		0:56:29	M21	185
497		974	Sunts Herko		0:56:31	M21	186
498		1058	Uusma Andres	MKM	0:56:31	M40	107
499	64	320	Jürjo Helen	Elioni Spordiklubi	0:56:32	N21	41
500	65	790	Muni Pille	JCI Spordiklubi	0:56:33	N21	
501	66	766	Makus Ann		0:56:33	N21	43
502		196	Nokkur Lembit		0:56:37	M40	108
503		703	Kuslapuu Jüri		0:56:38	M50	27
504		688	Krumm Ivo	Albe Team	0:56:40	M40	109
505		695	Kuldkepp Andrus		0:56:41	M35	82
506		391	Kalda Krister		0:56:44	M35	83
507	67	314	Valter Järvi		0:56:46	N50	3
508		372	Schweigert Erwin		0:56:46	M21	187
509		1074	Vares Ahti		0:56:48	M35	84
510		611	Joonas Kalev		0:56:49	M40	110
511		250	Kasesalu Hardo		0:56:50	M21	188
512		334	Nakkurt Tarmo	CLIK	0:56:52	M40	111
513		647	Karp Veiko		0:56:55	M40	112
514	68	293	Ott Marje		0:56:58	N50	4
515		1122	Ermann Rait	Rademar	0:56:59	M21	189
516	69	1060	Vaasna Eneli	Eneli Vaasna	0:56:59	N21	44
517		844	Perm Marko		0:57:00	M40	113
518		280	Puidak Priit		0:57:01	M70	2
519		951	Siilbek Aare		0:57:02	M50	28
520		743	Lillemets Kalle	EMT Topeltpluss	0:57:05	M40	114
521		754	Luts Harry		0:57:10	M50	29
522	70	689	Kruus Marje		0:57:15	N21	45
523		898	Rein Siim		0:57:15	M21	190
524		129	Tõruvere Kaarel	Saint-Gobain Glass Estonian Se	0:57:21	M21	191
525		239	Vaher Indrek		0:57:21	M35	85
526	71	858	Poopuu Anu		0:57:22	N21	46
527	72	323	Mikkor Karin		0:57:31	N21	47
528		847	Piir Enn		0:57:33	M50	30
529		544	Akenpärg Egert	Käkk Attack	0:57:34	M21	192
530	73	1026	Truu Elizabeth		0:57:35	N21	48
531		1167	Lepp Kristjan	SK Autsaider	0:57:36	M21	193
532	74	1075	Vassiljev Riinu		0:57:37	N21	49
533		648	Karu Kaarel	P.D.Team	0:57:37	M35	86
534		878	Pärnaste Ats	Sparta	0:57:38	M35	87
535	75	313	Toomingas Terje	Stamina SK	0:57:38	N21	50
536		1016	Toim Allan		0:57:39	M50	31
537		1141	Metsaorg Jüri	Maria Jooksuklubi	0:57:40	M40	115
538	76	366	Helmja Kati		0:57:41	N21	51
539	77	1149	Lehtoja Eha		0:57:44	N50	5
540		225	Uksov Denis		0:57:45	M21	194
541		358	Kristin Toomas	Tondiraba	0:57:45	M40	116
542	78	342	Ernits Ingrit		0:57:46	N40	10
543	79	1147	Lohk Lea		0:57:47	N50	6
544		871	Purje Peep		0:57:47	M21	195
545		994	Tamm Risto		0:57:48	M21	196
546		353	Pugatsov Ilja	Elion Spordiklubi	0:57:49	M21	197
547		1154	Kriisa Roland		0:57:52	M40	117
548		340	Piht Arvo		0:57:53	M40	118
549		337	Niitav Raiko		0:57:55	M21	198
550		290	Lopsik Andrei	Eesti Energia Spordiklubi	0:57:55	M50	32
551	80	956	Sipelgas Kristiina	MKM	0:57:56	N21	52
552		302	Pähklamäe Viktor	Würth	0:57:59	M40	119
553		304	Alajaan Andres	emt topeltpluss klient	0:58:00	M60	11
554		975	Suurkuusk Andreas		0:58:01	M21	199
555	81	1144	Tilga Kaari		0:58:01	N18	4
556		215	Kald Priit	Pärnu surfiklubi	0:58:08	M35	88
557		1132	Isakov Viktor		0:58:10	M50	33
558		223	Abner Frank	Jaak Mae Suusakool	0:58:10	M16	19
559		1156	Smirnov Meelis		0:58:14	M40	120
560		411	Mäekivi Veiko		0:58:15	M21	200
561	82	744	Lillemets Kelina		0:58:16	N16	5
562	83	297	Viljalo Liisi	SK Saue Tammed	0:58:17	N21	53
563		325	Niit Jaak		0:58:22	M40	121
564	84	855	Ploompuu Riika	Hansa SK	0:58:24	N40	11
565		812	Ojala Rain		0:58:29	M40	122
566		863	Üprus Ronald		0:58:32	M21	201
567		861	Prits Ahti		0:58:33	M40	123
568		564	Bitter Väino		0:58:33	M40	124
569		584	Grünvald Olavi	PwC	0:58:34	M40	125
570		859	Praks Renee		0:58:35	M35	89
571		150	Kiipsaar Raido		0:58:36	M40	126
572		726	Lehiste Ülar		0:58:36	M40	127
573		868	Pulver Margus	Chill Out Sport	0:58:38	M40	128
574		289	Kaur Jaanus		0:58:39	M40	129
575	85	384	Unt Janne		0:58:42	N35	6
576		1002	Tehver Agur		0:58:43	M40	130
577		355	Meentalo Tarmo		0:58:44	M35	90
578		1099	Vorontsov Aleksei	T28A SK	0:58:45	M35	91
579		327	Kukke Heikki		0:58:45	M35	92
580		901	Remmik Aadi	Kolm Paksu	0:58:46	M35	93
581		583	Grishin Sergey	Pskov Ski Team	0:58:48	M21	202
582	86	938	Sepalaan Kadri	Suusahullud	0:58:49	N21	54
583	87	667	Kivistik Stina		0:58:54	N21	55
584	88	341	Kapten Tiina		0:58:56	N35	7
585		326	Maripuu Madis		0:58:59	M40	131
586		551	Andresson Raul		0:59:04	M40	132
587		374	Jaago Karl-Stig	FSW Vabamaadlus	0:59:05	M21	203
588		882	Raaper Risto		0:59:06	M21	204
589	89	958	Sisas Nele		0:59:07	N21	56
590		991	Talvik Ott		0:59:07	M21	205
591	90	364	Kivioja Katrin		0:59:08	N21	57
592		317	Nokkur Ants	Rõõsa	0:59:08	M18	7
593		273	Arutyunyan David	Tartu Ülikool	0:59:10	M21	206
594		336	Unt Marius	Sparta	0:59:12	M40	133
595	91	357	Ütsmüts Kairi	Hansa SK	0:59:13	N35	8
596	92	923	Saar Signe		0:59:19	N35	9
597		345	Roosileht Anti		0:59:19	M18	8
598		1114	Nool Robin	EN Kool	0:59:21	M16	20
599		1031	Tsarski Aivar		0:59:21	M40	134
600		808	Nurk Kuldar		0:59:22	M21	207
601	93	595	Hämäläinen Katrin		0:59:23	N21	58
602	94	684	Krillo Birgit		0:59:24	N21	59
603		676	Kompus Andrus	Eesti Worldloppeti Klubi	0:59:24	M50	34
604		1100	Vugt Mart		0:59:27	M40	135
605		925	Saetalu Andres		0:59:28	M40	136
606		392	Kruusimaa Karl		0:59:31	M21	208
607		363	Trofimov Ove		0:59:31	M21	209
608	95	782	Merenäkk Margarete		0:59:35	N21	60
609		803	Niitsoo Jaan	Raplamaa Tublid Maratoonarid	0:59:36	M21	210
610		942	Sepp Veiko	Suusahullud	0:59:37	M35	94
611	96	422	Villak Marju		0:59:38	N21	61
612	97	382	Kuus Maila		0:59:40	N35	10
613		298	Soomre Teet		0:59:40	M35	95
614	98	400	Seljak Katrin		0:59:42	N40	12
615		1061	Vaasna Tiit		0:59:43	M50	35
616		621	Kaarma Henri		0:59:45	M35	96
617	99	1028	Truu Sippie	Tartu Suusaklubi	0:59:46	N35	11
618		1001	Teekivi Tanel		0:59:47	M21	211
619		1038	Tõll Marko	TriSmile	0:59:47	M21	212
620		346	Münter Bruno		0:59:47	M50	36
621		927	Saks Raimond	Elioni Spordiklubi	0:59:48	M50	37
622	100	945	Shein Tiina		0:59:48	N35	12
623		380	Hipeli Einari		0:59:49	M70	3
624	101	335	Terro Evelin		0:59:51	N21	62
625		1066	Vaino Indrek	Mercury SK	0:59:53	M35	97
626		1101	Vuks Ahti	Kolm Paksu	0:59:53	M35	98
627		347	Pugatsov Aleksandr		0:59:54	M50	38
628	102	356	Jesse Karin		0:59:57	N40	13
629		312	Hook Endel		0:59:57	M70	4
630		732	Lell Alari	Nike / AS Jalajälg	0:59:59	M35	99
631		756	Luug Veiko		1:00:00	M35	100
632	103	309	Gladõsheva Galina	Eesti Põlevkivi SK	1:00:04	N50	7
633	104	818	Ojasoon Ave	CFC Spordiklubi	1:00:05	N21	63
634		734	Lepik Kajar		1:00:07	M21	213
635	105	377	Keldu Maiken		1:00:11	N35	13
636		770	Mansberg Heigo		1:00:11	M35	101
637		393	Sepp Tõnu		1:00:13	M35	102
638		1071	Vallimäe Valmar		1:00:14	M35	103
639		331	Lehesmets Taivo		1:00:17	M50	39
640		796	Männiste Valdur		1:00:17	M40	137
641	106	454	Kälviäinen Kaie		1:00:18	N21	64
642		769	Maltis Jakko		1:00:19	M21	214
643		1089	Viin Imre	Kolm Paksu	1:00:20	M35	104
644		771	Mardna Kristjan		1:00:20	M16	21
645		772	Mardna Mihkel		1:00:20	M40	138
646	107	370	Naisson Gerlin	adidas	1:00:21	N21	65
647		691	Kuhlbach Hannes	SEB	1:00:24	M40	139
648		394	Leek Tarmo		1:00:25	M50	40
649	108	589	Harju Kairit		1:00:26	N21	66
650		1094	Vindi Janno		1:00:28	M21	215
651		1130	Pärn Enrik		1:00:30	M40	140
652	109	845	Peterson Triin		1:00:30	N40	14
653	110	777	Medar Marianne		1:00:31	N21	67
654		1044	Täht Kalle		1:00:31	M21	216
655	111	949	Siibak Kristi		1:00:31	N21	68
656		412	Vahtrik Valdo		1:00:34	M21	217
657		532	Peever Anti		1:00:36	M21	218
658	112	692	Kuiv Kadiliis	ITBIT	1:00:36	N21	69
659		736	Leppik Oliver	paarisjooks	1:00:41	M18	9
660		723	Laur Yves		1:00:43	M16	22
661		360	Kivikangur Raido		1:00:45	M21	219
662	113	428	Jägel Kadri		1:00:45	N21	70
663		369	Üprus Erik-Voldemar		1:00:53	M60	12
664		294	Vaino Erki		1:00:55	M21	220
665	114	1036	Tulik Maarja		1:01:06	N21	71
666		543	Ahven Ahto		1:01:08	M18	10
667		526	Kukk Andrus	Würth AS	1:01:10	M40	141
668	115	1115	Alber Triin	EN Kool	1:01:12	N16	6
669		807	Nugis Janek		1:01:12	M35	105
670		905	Rohtma Valdek	SK Toonus	1:01:14	M21	221
671	116	903	Rets Pille		1:01:18	N21	72
672		789	Mudrov Alexey	Pskov Ski Team	1:01:19	M50	41
673		642	Kamberg Peeter		1:01:20	M40	142
674		421	Sulemenkov Igor	Fortuuna	1:01:24	M40	143
675	117	410	Eller Eike		1:01:26	N40	15
676		1013	Tiits Toomas	Samsung Sports Academy	1:01:26	M35	106
677		437	Pelisaar Ago	MKM	1:01:35	M21	222
678		426	Urb Ülo		1:01:35	M50	42
679		1127	Mõtsmees Priit		1:01:38	M40	144
680		409	Luup Tarmo	KV Logistikakeskus	1:01:40	M21	223
681		948	Sihver Enn		1:01:44	M50	43
682	118	385	Sillaots Kristel	Pakendikeskus As	1:01:45	N35	14
683		556	Atonen Mario		1:01:45	M16	23
684	119	420	Saat Kaidi		1:01:47	N21	73
685	120	1092	Vill Maive		1:01:48	N21	74
686		972	Sults Kunnar		1:01:49	M40	145
687	121	408	Talu Juta	SK Tahk	1:01:53	N60	1
688	122	730	Leisner Liis	Eesti Energia SK	1:01:57	N21	75
689		390	Voolaine Andrus		1:01:58	M50	44
690	123	425	Rahe Laura	Jooksja	1:02:01	N21	76
691	124	404	Talts Eve	Elioni Spordiklubi	1:02:03	N35	15
692	125	820	Oot Tii		1:02:06	N21	77
693		232	Peterson Urmas		1:02:10	M21	224
694		1027	Truu Janek	Tartu Suusaklubi	1:02:14	M35	107
695	126	1029	Truu Stiine-Liisa	Tartu Suusaklubi	1:02:14	N16	7
696		405	Markson Uno		1:02:15	M50	45
697	127	1124	Kams Pille	Team Innopolis	1:02:17	N21	78
698	128	1081	Velve Ursel	Samsung Sports Academy	1:02:20	N21	79
699		1035	Tulf Taago	Samsung Sports Academy	1:02:20	M21	225
700		838	Pedai Martin	Kuup3 SK	1:02:20	M35	108
701		310	Riisma Henri	Eesti Raudtee SK	1:02:22	M18	11
702		1067	Vainumaa Herki		1:02:23	M40	146
703		1046	Täht Taivo		1:02:25	M40	147
704	129	643	Kanger Liina		1:02:27	N21	80
705		952	Siilbek Taavi	Raplamaa Tublid Maratoonarid	1:02:27	M21	226
706		1042	Tõnisson Kristjan		1:02:27	M35	109
707		720	Laanesoo Ando		1:02:28	M40	148
708	130	679	Koplimägi Marika		1:02:28	N35	16
709		955	Sindonen Lauri		1:02:30	M21	227
710	131	843	Perm Kaari		1:02:31	N16	8
711		399	Vaade Veiko		1:02:31	M35	110
712	132	671	Kohal Krista		1:02:32	N35	17
713		418	Suislepp Peeter		1:02:33	M40	149
714	133	463	Nõmmiste Leie		1:02:36	N35	18
715	134	797	Naaber Merili		1:02:40	N21	81
716		496	Seil Tõnu	adidas	1:02:45	M21	228
717		963	Soodla Raul		1:02:48	M40	150
718	135	687	Krull Triin		1:02:48	N21	82
719	136	388	Seilenthal Sirle		1:02:49	N35	19
720	137	379	Tramm Maire		1:02:49	N40	16
721	138	553	Arro Kersti	Hansa SK	1:02:51	N40	17
722		977	Sõrmus Tanel		1:02:55	M21	229
723		362	Mälksoo Ürjo		1:02:56	M60	13
724		417	Kangro Kalev	Eesti AGA spordiklubi	1:03:01	M40	151
725		1014	Tikva Daniel	Albe Team	1:03:02	M16	24
726		315	Ellam Erik	Samsung Sports Academy	1:03:05	M35	111
727	139	397	Mustkivi Siiri	Arctic Sport Club	1:03:05	N35	20
728		1126	Altin Enn		1:03:07	M40	152
729	140	460	Timmusk Kai		1:03:08	N35	21
730	141	373	Vessmann Ailen		1:03:23	N21	83
731		350	Sindonen Siim		1:03:26	M21	230
732	142	652	Kattai Kaia		1:03:30	N40	18
733		431	Metsa Erkki		1:03:31	M35	112
734	143	429	Getman Ljudmilla		1:03:33	N50	8
735		578	Ers Alger		1:03:33	M35	113
736		1087	Viil Indrek		1:03:35	M21	231
737		447	Kurik Arvi		1:03:39	M21	232
738	144	833	Pantalon Kaido		1:03:44	N21	84
739		1121	Anton Arvo		1:03:45	M21	233
740		1158	Kundla Kalev		1:03:46	M21	234
741	145	1160	Seškena Signe		1:03:50	N21	85
742	146	1034	Tuisk Maris		1:03:53	N40	19
743	147	750	Luhaäär Reet		1:03:59	N50	9
744		1039	Tõll Urmas		1:04:00	M40	153
745	148	432	Nurmis Pille	Elioni Spordiklubi	1:04:01	N50	10
746	149	367	Udalov Maiu		1:04:02	N40	20
747		834	Parmas Aalo		1:04:02	M50	46
748	150	591	Hein Katre	Otepää Kehakultuurikollektiiv	1:04:03	N21	86
749		788	Mitt Aron		1:04:05	M21	235
750	151	869	Pungar Ene		1:04:06	N40	
751	152	450	Nõmmik Annika		1:04:07	N21	87
752		386	Istsenko Sergei	JK START	1:04:09	M50	47
753		799	Napa Kristjan		1:04:09	M21	236
754	153	395	Uukkivi Kristi		1:04:12	N21	88
755	154	919	Rästas Jaana		1:04:16	N21	89
756	155	537	Aas Annika		1:04:22	N21	90
757		889	Rajamägi Priit		1:04:24	M35	114
758		371	Lillenthal Karel	R24 Motorsport	1:04:26	M21	237
759	156	414	Kivimaa Katrin		1:04:30	N40	22
760	157	1109	Raid Marianne		1:04:32	N16	9
761		406	Mauer Tiit	TÜ ASK	1:04:41	M40	154
762		413	Raamat Raigo	Elioni Spordiklubi	1:04:43	M21	238
763		588	Hansschmidt Neeme		1:04:45	M40	155
764	158	444	Erm Eveliine		1:04:48	N35	22
765	159	983	Taalberg Kadi		1:04:49	N21	91
766		776	Maurer Raim	SK Aaspere	1:04:51	M18	12
767	160	455	Talviste Britt		1:04:52	N21	92
768	161	1003	Tehver Kaari		1:04:55	N35	23
769		673	Koit Ando		1:04:57	M35	115
770	162	571	Eilmann Seren		1:05:01	N21	93
771	163	850	Piirsoo Clelia		1:05:03	N40	23
772	164	1171	Habakuk Iveta		1:05:03	N40	24
773	165	813	Ojamets Salme		1:05:07	N50	11
774	166	981	Zakrisson Ülle		1:05:08	N35	24
775	167	441	Laretei Riina	Elioni Spordiklubi	1:05:10	N50	12
776	168	1168	Hein Laura		1:05:10	N21	94
777	169	1142	Kubo Kitty	Maria Jooksuklubi	1:05:11	N35	25
778		816	Ojasaar Tauno		1:05:11	M35	116
779	170	427	Mägi Triin		1:05:16	N21	95
780	171	1050	Ulst Jaanika		1:05:20	N21	96
781	172	922	Rüütel Maarja		1:05:20	N21	97
782	173	403	Puks Krista	VAK Staier	1:05:24	N21	98
783		988	Tallmeister Uno	Piirivalve Spordi Keskklubi	1:05:26	M60	14
784	174	837	Pasik Annika	MKM	1:05:27	N21	99
785	175	398	Suursaar Ülle		1:05:29	N50	13
786		1045	Loo Meelis		1:05:37	M40	156
787		440	Vilberg Voova		1:05:38	M60	15
788	176	721	Laikre Katrin		1:05:46	N40	25
789	177	836	Parve Kaisa		1:05:47	N21	100
790	178	419	Laikre Karmen		1:05:47	N21	101
791	179	998	Tauts Veronika		1:05:52	N21	102
792	180	547	Alt Mailis		1:05:57	N21	103
793	181	603	Ivanova Erika		1:05:59	N21	104
794	182	554	Arro Krista		1:06:18	N35	26
795		278	Thomas Paul		1:06:31	M35	117
796	183	461	Rosenstein Marika		1:06:35	N21	105
797	184	674	Koit Katrin		1:06:36	N35	27
798		443	Kippel Ivar		1:06:38	M40	157
799	185	552	Andresson Triin		1:06:40	N21	106
800	186	1164	Rossar Kadri	IIZI SK	1:06:40	N21	107
801	187	415	Apart Tiina	BEST Diskokoondis	1:06:40	N21	108
802	188	897	Rehkli Ragne		1:06:45	N21	109
803	189	1116	Mõistus Andra	EN Kool	1:06:47	N16	10
804		449	Luts Lembitu		1:07:01	M35	118
805	190	458	Kaljulaid Maria		1:07:04	N21	110
806	191	452	Rennit Triin	Albe Team	1:07:11	N16	11
807	192	1083	Veski Piret		1:07:13	N21	111
808		637	Kalmann Priit		1:07:15	M21	239
809		1146	Lümat Alo		1:07:16	M35	119
810		716	Köök Mark	USTA	1:07:34	M16	25
811		349	Oja Tiit		1:07:36	M21	240
812	193	1086	Viiask Elin		1:07:37	N21	112
813		396	Remmel Rein		1:07:38	M21	241
814	194	430	Kõiv Kristel	EMT	1:07:39	N21	113
815	195	448	Kangro Mairis		1:07:44	N40	26
816		459	Suik Kalev		1:07:48	M40	158
817	196	624	Kaasik Piret		1:07:50	N35	28
818	197	465	Kippel Kirke-Stina		1:07:53	N16	12
819		1076	Vatsel Rigo		1:07:57	M40	159
820		1117	Nool Oliver	EN Kool	1:08:00	M16	26
821	198	1004	Telgmaa Piret		1:08:00	N35	29
822	199	928	Salmistu Merle	Riigi Kinnisvara AS	1:08:00	N21	114
823	200	383	Oll Anu		1:08:02	N35	30
824	201	531	Loigu Anu	MKM	1:08:02	N35	31
825		722	Larm Liivar		1:08:03	M40	160
826	202	489	Everst Kristiina	KV Logistikakeskus	1:08:07	N21	115
827		457	Meigas Meelis		1:08:20	M21	242
828	203	439	Naagel Tiiu	KV Logistikakeskus	1:08:21	N21	116
829	204	498	Sepp Silja		1:08:22	N21	117
830	205	442	Vallner Katre	FB Jooksmine	1:08:27	N35	32
831	206	906	Roopärg Marika		1:08:27	N40	27
832	207	986	Tali Margit	GMP Clubhotel & Pühajärve restoran	1:08:28	N21	118
833	208	471	Maasik Mall		1:08:29	N40	28
834		433	Nemvalts Margus		1:08:30	M21	243
835	209	509	Lemendik Helena		1:08:48	N40	29
836	210	434	Puusepp Marjo		1:08:51	N21	119
837		456	Plovits Kaido		1:08:55	M21	244
838		1170	Peterson Indrek		1:08:55	M35	120
839	211	481	Üksti Janne		1:09:01	N21	120
840	212	664	Kirss Heleri		1:09:01	N21	121
841	213	485	Luik Chris-Evelin		1:09:02	N21	122
842	214	1017	Toodu Kersti		1:09:03	N50	14
843	215	493	Ernits Laura		1:09:07	N16	13
844	216	1009	Tibar Kai		1:09:09	N35	33
845	217	633	Kaldre Kristiina		1:09:23	N21	123
846	218	773	Margus Helen		1:09:23	N35	34
847	219	1019	Toome Reelika		1:09:26	N21	124
848	220	488	Joasoon Liivi		1:09:27	N35	35
849		359	Oago Reino		1:09:39	M21	245
850		479	Rosenberg Tiit		1:09:40	M60	16
851	221	731	Rüütel Raili		1:09:41	N35	36
852		1008	Tereštšenkov Juri		1:09:51	M21	246
853	222	445	Turb Margit		1:09:59	N35	37
854		912	Roots Anto		1:10:05	M40	161
855	223	645	Karjahärm Tiina	adidas	1:10:07	N35	38
856	224	545	Alavere Karin		1:10:08	N35	39
857	225	521	Peebo Margit	Stamina SK	1:10:08	N40	30
858	226	451	Nokkur Kadri	Rõõsa	1:10:20	N21	125
859	227	995	Tamm Siiri	Elioni Spordiklubi	1:10:23	N21	126
860	228	476	Ilves Kristi		1:10:26	N21	127
861	229	490	Sadrak Eha		1:10:30	N40	31
862	230	467	Kasenõmm Evelin		1:10:34	N21	128
863	231	517	Valdmaa Hille		1:10:34	N60	2
864	232	933	Saulep Merilyn		1:10:36	N21	129
865	233	604	Jaago Külli	FB Jooksmine	1:10:44	N35	40
866	234	579	Esna Urve		1:10:45	N35	41
867		486	Borodenko Inno	Harjutaja	1:10:55	M35	121
868		1155	Rist Karlo		1:10:58	M21	247
869	235	540	Abner Liina		1:11:13	N35	42
870	236	480	Viira Maret		1:11:24	N40	32
871	237	791	Must Merle	www.jookseme.com	1:11:25	N21	130
872	238	999	Tauts Virve		1:11:28	N50	15
873		365	Mustkivi Mart Albert	FC Nõmme United	1:11:32	M16	27
874		470	Põldoja Mihkel		1:11:33	M21	248
875	239	1137	Räst Kristiina		1:11:41	N21	131
876	240	469	Eespõld Jane		1:11:47	N35	43
877		510	Kranfeldt Kaido-Paul		1:11:54	M40	162
878		487	Voolaid Vello		1:11:58	M40	163
879	241	1054	Unt Marianne	Hansa SK	1:12:07	N40	33
880	242	1082	Veske Tiia		1:12:07	N40	34
881		757	Lõhmus Ivo		1:12:15	M21	249
882	243	917	Ruul Riti	Hansa SK	1:12:18	N21	132
883		653	Kaugerand Juhan		1:12:25	M21	250
884		941	Sepp Silver		1:12:26	M35	122
885	244	499	Läte Ene		1:12:34	N35	44
886	245	916	Rull Monika	SIS	1:12:35	N18	5
887		608	Joa Olev		1:12:36	M70	5
888		1104	Tuisku Raimo	Sporttiveteraanit	1:12:37	M60	17
889	246	623	Kaasik Kairit		1:12:45	N40	35
890		1153	Tael Sulev		1:12:55	M40	164
891		464	Pullerits Tõnu		1:12:56	M60	18
892	247	950	Siibak Merle		1:12:57	N21	133
893	248	979	Säre Kristiina		1:13:05	N35	45
894	249	519	Rebane Egle		1:13:11	N35	46
895		402	Hindreus Ivo		1:13:20	M21	251
896	250	502	Kuldma Kristi		1:13:31	N21	134
897		438	Sihver Sander		1:13:39	M16	28
898		920	Rätsep Tarmo		1:13:40	M35	123
899	251	513	Kürsa Tiia		1:13:53	N40	36
900	252	930	Samuel Evelin		1:13:56	N35	47
901	253	990	Talve Keiu	SIS	1:13:58	N21	135
902		1135	Pihu Ramus	Viljandi Sõudeklubi	1:14:00	M16	29
903		507	Aab Eik		1:14:02	M21	252
904	254	755	Luts Kersti	Lopetijutad.	1:14:05	N21	136
905	255	516	Vellerind Aveli		1:14:07	N21	137
906	256	780	Mehine Erle		1:14:25	N21	138
907	257	632	Kalda Karolina		1:14:25	N21	139
908	258	475	Soots Kätlin	KV Logistikakeskus	1:14:29	N21	140
909		966	Soosaar Andres		1:14:31	M60	19
910	259	514	Reimets Britt		1:14:38	N21	141
911		505	Valdmaa Ants		1:14:38	M70	6
912	260	904	Rohtma Merilin		1:14:41	N21	142
913		634	Kaljula Andres		1:14:47	M21	253
914		650	Kase Rene		1:15:14	M35	124
915	261	1020	Toomik Siiri		1:15:18	N35	48
916		497	Liba Erkki		1:15:51	M35	125
917	262	506	Alajaan Aire		1:16:05	N21	143
918	263	468	Toover Egle		1:16:08	N35	49
919	264	536	Aaren Kati		1:16:20	N21	144
920	265	719	Laaneots Merle	Chill Out Sport	1:16:21	N21	145
921	266	472	Sihver Katrin		1:16:25	N40	37
922	267	512	Ööpik-Vaade Ainika		1:16:42	N21	146
923	268	501	Heido-Rosenberg Terje		1:16:47	N40	38
924	269	883	Raaper Triin		1:17:01	N21	147
925	270	774	Markvardt Margaret	adidas	1:17:03	N16	14
926		381	Markvardt Ago	adidas	1:17:03	M40	165
927		864	Puhk Rainer		1:17:04	M21	254
928		546	Alliksaar Valdeko	VAK Staier	1:17:23	M60	20
929		492	Laretei Tarmo		1:17:35	M60	21
930	271	503	Kõo Katrin		1:17:57	N21	148
931		702	Kurg Kristjan		1:18:10	M16	30
932		810	Nõmmik Alo		1:18:11	M40	166
933	272	914	Rull Mari	SIS	1:18:25	N35	50
934		511	Ilves Viktor		1:18:29	M60	22
935	273	483	Vainumaa Kaili		1:18:31	N40	39
936	274	581	Ginter Monika		1:18:34	N21	149
937	275	1176	Karus Katrin		1:18:39	N40	40
938	276	1128	Tõnnis Ülle-Ella		1:18:40	N40	41
939	277	300	Bärengrub Brit	LIVIKO	1:18:40	N21	150
940	278	1010	Tiisler Triin		1:19:27	N21	151
941	279	602	Isberg Anu		1:19:50	N40	42
942	280	881	Pärtlas Kärt	adidas	1:20:05	N21	152
943		748	Lode Vello		1:20:10	M70	7
944	281	701	Kurg Agnes		1:20:43	N21	153
945	282	967	Sootalu Inna		1:20:52	N40	43
946	283	533	Raudkivi Pille	KAJA	1:21:06	N40	44
947	284	495	Vilk Urve		1:21:07	N21	154
948	285	500	Läte Eneli	Tartu Suusaklubi	1:21:32	N16	15
949	286	518	Maidle Este		1:21:59	N50	16
950	287	523	Zguro Emma		1:22:02	N50	17
951	288	525	Kristin Sigrid		1:22:24	N40	45
952		484	Nokkur Arno		1:22:57	M16	31
953		965	Soonvald Urmo	Delfi	1:23:02	M35	126
954	289	1065	Vainküla Kirsti	Delfi	1:23:02	N35	51
955	290	508	Arras Monika		1:23:03	N21	155
956		921	Rääbis Ain		1:23:26	M40	167
957	291	971	Subi Kadi		1:23:28	N21	156
958	292	520	Laumets Merit		1:23:43	N21	157
959	293	677	Konga Kadri		1:23:51	N35	52
960		713	Käpa Tõnis		1:23:57	M70	8
961	294	980	Zahharova Oksana		1:24:35	N21	158
962		857	Pokk Rein		1:24:57	M40	168
963	295	866	Pukk Helen		1:25:25	N21	159
964		728	Lehtmets Janek		1:25:30	M21	255
965	296	524	Kuusik Inga		1:25:48	N50	18
966	297	504	Peets Kadi		1:25:51	N21	160
967	298	606	Jakobson Merle		1:25:51	N35	53
968	299	631	Kalamees Kadri		1:27:25	N21	161
969	300	527	Pärtelpoeg Katrin		1:28:36	N40	46
970	301	666	Kivipõld Küllike		1:28:54	N40	47
971	302	538	Aas Elen	EMT	1:28:55	N21	162
972	303	798	Naarits Emily		1:28:55	N21	163
973		1173	Heinonen Jonas		1:29:55	M35	127
974	304	885	Rabakukk Piret	Hansa SK	1:32:06	N40	48
975	305	811	Nõmmik Tuuli		1:32:06	N40	49
976	306	876	Pärli Kertti		1:32:37	N35	54
977	307	851	Pirbe Liina		1:32:37	N21	164
978	308	896	Rehkli Malle		1:33:05	N50	19
979	309	910	Roosioja Jane		1:33:06	N40	50
980	310	528	Hindrea Lily		1:34:05	N40	51
981		530	Hindrea Ahto		1:34:05	M50	48
982	311	984	Tael Kaja		1:34:17	N50	20
983		1131	Vahtramäe Aivar		1:34:44	M40	169
984	312	815	Ojasaar Merike		1:37:28	N60	3
985	313	1172	Heinonen Triin		1:37:58	N21	165
986	314	550	Andresson Heljo		1:38:38	N60	4
987	315	529	Põdra Katrin		1:38:48	N35	55
988	316	1005	Telling Siiri		1:38:53	N40	52
989		685	Kristin Meelis	Nõmme KJK	1:41:57	M16	32
990		535	Kõre Aivar		1:48:33	M40	170
991	317	655	Keldo Margit	Eesti Energia Spordiklubi	1:49:17	N40	53
992	318	680	Korjas Kai	Hansa SK	1:49:17	N50	21
993	319	1051	Õunap Piret		1:49:17	N40	54
994	320	888	Raidsalu Tea		1:53:10	N21	166
995	321	627	Kajari Maris	Sparta	1:59:06	N21	167
996	322	753	Lukka Triin	Sparta	1:59:06	N21	1