Koht	Nkoht	Nr	Nimi	Klubi_Kool	Linn_Maak	Aeg	Vkl	Koht_Vkl	 
1		3	KIVISTIK KAUR			0:43:29.1	M21	1	 
2		14	NIKOLAJEV ILJA	FLOBERG CAPITAL OÜ	VIIMSI VALD	0:43:56.8	M21	2	 
3		2	VALLIMÄE VILJAR			0:44:01.3	M21	3	 
4		5	VEDEHIN NIKOLAI			0:44:17.2	M21	4	 
5		47	TŠEREPANNIKOV SERGEI		TALLINN	0:44:57.0	M21	5	 
6		9	KOŠELEV VJATŠESLAV		SILLAMÄE	0:45:12.6	M35	1	 
7		26	SASMIN KAUPO			0:45:25.8	M21	6	 
8		6	LIPP RALF	AS KUMA		0:46:42.4	M21	7	 
9		11	LEIN ANDRUS		VINNI	0:46:51.7	M35	2	 
10		22	KALLASTE JAANUS		KASISPEA KÜLA	0:47:14.8	M21	8	 
11		421	LILLELAID TÕNU		TALLINN	0:47:24.8	M21	9	 
12		48	REINSALU KRISTO		TALLINN	0:47:31.1	M35	3	 
13		15	UTAR URMAS		KÜLITSE	0:47:53.3	M45	1	 
14		23	ERALA RANNO		TALLINN	0:48:08.6	M35	4	 
15		17	REINART HARDO		KOERU	0:48:39.4	M21	10	 
16		18	VEILBERG AGO	PÄÄSTEAMET	TAMSALU	0:48:43.4	M45	2	 
17		16	PÕLDRE URMAS		JÄRVEKÜLA	0:48:44.5	M45	3	 
18		754	SELDER TAAVI		JÕHVI VALD	0:48:55.1	M21	11	 
19		21	VAINE HEINAR		VANAVESKI KÜLA	0:49:09.8	M18	1	 
20		735	SALLA RAIMO		TÜRI	0:49:16.2	M21	12	 
21		2506	SOO ALLAR		Puurmanni	0:50:09.6	M21	13	 
22		184	JAASKA ALLAN-PEETER		TALLINN	0:50:21.3	M35	5	 
23		73	ALLASE OLAVI		KÕLTSI KÜLA	0:50:25.7	M18	2	 
24	1	45	TALTS EVELIN		TALLINN	0:50:29.6	N35	1	 
25		10	PIRKSAAR MARGUS			0:50:31.6	M35	6	 
26		712	ROSEN ULF		TALLINN	0:50:33.5	M35	7	 
27		822	TAMM MARTIN		RAPLA	0:50:36.5	M21	14	 
28		424	LILLEMÄGI INDREK		PÕLVA	0:50:49.2	M21	15	 
29		20	SIMSON PRIIT	EESTI PÄEVALEHT	TALLINN	0:51:18.9	M35	8	 
30	2	29	TAMBET HELEENE			0:51:20.9	N18	1	 
31		993	GORŠENIN ROMAN			0:51:28.5	M21	16	 
32		857	TOMSON HENEK			0:51:31.6	M21	17	 
33		41	MENDEL MARK		TALLINN	0:51:36.5	M16	1	 
34	3	44	ARRO LIIS-GRETE		TALLINN	0:51:41.2	N18	2	 
35		965	VOOLAID RAIMOND		RAASIKU	0:51:47.4	M16	2	 
36	4	695	RIHMA ANNIKA			0:51:49.6	N21	1	 
37		997	VAHER VLADIMIR		Tallinn	0:51:54.0	M18	3	 
38		24	VAHER PAAVO		SAUGA V	0:52:11.2	M35	9	 
39		849	TIPP ARGO		PAIDE	0:52:35.9	M21	18	 
40	5	37	LUIK LILY			0:52:38.4	N21	2	 
41		850	TIPPI BERT			0:52:40.2	M21	19	 
42		843	TILGA KAJAR		PUKA	0:52:41.2	M45	4	 
43		27	LELOV ANDRES		SAUGA	0:52:44.3	M35	10	 
44		462	LÄÄN CHRISTJAN		JÄNEDA	0:52:49.4	M35	11	 
45		278	KIBUSPUU TIIT	RMK	TERIKESTE K.	0:52:51.0	M45	5	 
46		49	ANDRESSON MART			0:52:54.3	M21	20	 
47		12	RAJA ALLAR			0:52:54.3	M21	21	 
48		281	KINDEL HANNO	MEDIA HOUSE	TALLINN	0:53:00.5	M35	12	 
49		469	MAISTE TARMO	PROGE	TALLINN	0:53:32.8	M35	13	 
50		152	HANG TAUNO		TALLINN	0:53:33.7	M35	14	 
51		905	VAHKAL KAIDO		TARTU	0:53:35.6	M35	15	 
52		751	SEEPÕLD RAIN	AAA KLIIMASANPROJEKT OÜ	TALLINN	0:53:36.1	M21	22	 
53		502	MIIL SIIM		TÜRI	0:53:40.1	M21	23	 
54		733	SALININ ANTON		SILLAMÄE	0:53:46.0	M16	3	 
55		122	ENN LAURI		TALLINN	0:53:48.4	M21	24	 
56		19	SUBI RIVO		VILJANDI	0:53:51.2	M35	16	 
57		982	ÕUN JAAN		KURESSAARE	0:53:52.3	M21	25	 
58		684	REILJAN RAUL		SÕMERPALU	0:53:53.8	M21	26	 
59	6	36	MÄTAS EGLE			0:54:00.3	N21	3	 
60		932	VELBA HEIKI		KOHTLA-JÄRVE	0:54:08.9	M21	27	 
61		98	BAUMAN JAANUS		JÄÄTMA KÜLA	0:54:13.9	M35	17	 
62		810	TALU PRIIT	EE SK	PÄRNU	0:54:14.0	M35	18	 
63		28	TAMMEMÄE JOOSEP		VILJANDI	0:54:19.2	M21	28	 
64		934	VELLESTE NEEME-RAIN		TALLINN	0:54:20.1	M21	29	 
65		50	EINASTO MART		TARTU	0:54:21.2	M35	19	 
66		107	BÕTKOV MIHHAIL	ERICSSON EESTI AS	TALLINN	0:54:25.4	M21	30	 
67		123	ENNO KRISTJAN		MAARDU	0:54:25.9	M35	20	 
68		172	HÕBE TARMO	RALLY ESTONIA	TALLINN	0:54:30.0	M21	31	 
69		802	SÄKK JANAR		SÕMERU KÜLA, KIILI VALD	0:54:32.7	M21	32	 
70		947	VETEVOOG KAIDO		TALLINN	0:54:37.9	M35	21	 
71		930	VEEROOS ERKI		TALLINN	0:54:48.1	M35	22	 
72		202	JUUS AIVAR	TÖÖSTUSPROJEKT	PEETRI KÜLA, RAE VALD	0:54:55.2	M35	23	 
73		606	PAVLOVSKI ROMAN		LAAGRI	0:54:59.6	M21	33	 
74		120	ELLRAM LAURI		IMAVERE	0:55:02.1	M21	34	 
75		520	MÄE VAHUR		LEMMETSA KÜLA	0:55:09.9	M14	1	 
76		279	KIMASK EDUARD		TALLINN	0:55:19.8	M35	24	 
77		734	SALLA MAREK		TÜRI	0:55:25.5	M21	35	 
78		334	KUZNETSOV MADIS		TALLINN	0:55:39.4	M35	25	 
79		767	SIHT JÜRI		VILJANDI	0:55:41.4	M45	6	 
80		112	EHALA ANDRES		KILDU KÜLA	0:55:47.0	M18	4	 
81		82	ANNILO MIHKEL		KOHILA	0:55:52.8	M18	5	 
82		511	MUMM INDREK		MURASTE KÜLA	0:56:01.5	M35	26	 
83		382	LASS RISTO		SAARDE V	0:56:09.3	M35	27	 
84		673	RANDMÄE KERMO		VÕIVAKU	0:56:12.8	M16	4	 
85		239	KALJUVEE JANNO		TALLINN	0:56:13.9	M35	28	 
86		782	SINIJÄRV TANEL		ANIJA VALD	0:56:17.7	M21	36	 
87		282	KINGO GUNNAR		TALLINN	0:56:25.1	M21	37	 
88		486	MEIDLA TIIT		TALLINN	0:56:27.8	M35	29	 
89		2510	RAJANDO KRISTJAN		Tallinn	0:56:28.8	M35	30	 
90		972	VÕIP RAIVO		NARVA	0:56:30.1	M45	7	 
91		556	NÕMM MEELIS		RAE VALD	0:56:37.2	M35	31	 
92		319	KRUUSAMÄGI UKU		KOSE	0:56:40.5	M18	6	 
93		994	AIRIK RAIN		Keila	0:56:42.1	M35	32	 
94		574	OLL ALLAR		KOSE	0:56:42.1	M16	5	 
95		277	KESKKÜLA KAROL		HAABNEEME	0:56:44.4	M35	33	 
96		709	ROOSNUPP PRIIT		TALLINN	0:56:45.8	M35	34	 
97		167	HILLEP EINAR	JUSTIITSMINISTEERIUM	TALLINN	0:56:49.0	M35	35	 
98		425	LILLIPUU KAUR		TALLINN	0:56:53.0	M18	7	 
99		66	ALAMETS ÜLARI	EAS	TALLINN	0:56:57.5	M45	8	 
100		842	TIKVA INDREK	BCS ITERA AS	KEILA	0:56:58.7	M35	36	 
101		545	NOŠKA MARGUS		SÄREVERE	0:56:59.7	M21	38	 
102		304	KOOP KALLE		SAARDE V	0:57:00.4	M45	9	 
103		901	VAHER RISTO		SAUGA V	0:57:07.5	M14	2	 
104		86	ANTON ARVI		PUPASTVERE KÜLA	0:57:15.5	M18	8	 
105		164	HELLERMA ANDRES	MARSH KINDLUSTUSMAAKLER AS	TALLINN	0:57:17.6	M21	39	 
106		998	KENDLA TAIVO		Tallinn	0:57:18.4	M35	37	 
107		417	LIIVAK HANNES	SISEKAITSEAKADEEMIA	TALLINN	0:57:22.8	M35	38	 
108		522	MÄE VAHUR		PÄRNU	0:57:27.0	M21	40	 
109		272	KASU RAIGO		LIHULA	0:57:34.3	M16	6	 
110		539	NAGEL KARL-GUSTAV		AASPERE	0:57:35.5	M16	7	 
111		903	VAHESAAR HEIGO-ELMAR		JÄRISTE KÜLA, JOOSTI	0:57:37.8	M16	8	 
112		555	NÕMM MARDEN	TALLINNA TULISED ILVESED GAA	PAIDE VALD PUIATU KÜLA	0:57:49.1	M21	41	 
113		862	TOOMING MARKO		TÜRI	0:57:49.2	M21	42	 
114		13	TAIMSOO KASPAR			0:57:56.9	M21	43	 
115	7	463	LÜKK MERLYN		TALLINN	0:57:57.0	N21	4	 
116		316	KRIMM RAIDO		TALLINN	0:58:00.4	M21	44	 
117		357	KÕRGE KAAREL KASPER		SÄÄSKÜLA	0:58:01.5	M16	9	 
118		261	KARIN PEETER	SAINT-GOBAIN GLASS ESTONIA SE	ELVA	0:58:03.9	M21	45	 
119		832	TAPO MEELIS		PAIDE	0:58:05.7	M21	46	 
120		620	PIIR JÜRGEN		PAIDE	0:58:06.7	M21	47	 
121		359	KÄREMA AGO		TALLINN	0:58:10.3	M35	39	 
122		675	RANDMÄE HEIKI		VÕIVAKU	0:58:10.7	M35	40	 
123		784	SION AIVO		PAIDE	0:58:12.1	M45	10	 
124		268	KASK VILLU		VIITNA	0:58:12.9	M35	41	 
125		256	KANNIMÄE DANIEL		TUKSI	0:58:14.7	M18	9	 
126		705	ROODEN MIKK		KOHTLA- NÕMME VALD	0:58:18.2	M16	10	 
127		677	RATNIK EINAR	AS KUMA	TÜRI	0:58:20.5	M21	48	 
128		906	VAHTRA MÄRT		PATIKA	0:58:25.4	M21	49	 
129		219	JÜRIADO JUHAN		TALLINN	0:58:26.3	M21	50	 
130		58	AASTE HANNO		TALLINN	0:58:28.1	M21	51	 
131		331	KURAVKIN DMITRY		TALLINN	0:58:32.6	M21	52	 
132		305	KOOSER ARTHUR		VIIMSI	0:58:32.9	M14	3	 
133		187	JAKOBSON EERO		TALLINN	0:58:34.0	M35	42	 
134	8	900	VAHER ANNIKA		KURESSAARE	0:58:36.4	N35	2	 
135		244	KALVIK KALLE		VIISU	0:58:37.2	M35	43	 
136		970	VUTT INGMAR		KANGRU K.	0:58:39.7	M35	44	 
137		839	TEREŠTŠENKOV ALEKSEI		TALLINN	0:58:43.2	M45	11	 
138		371	LAASU ARNOLD		PÄRNU	0:58:45.6	M45	12	 
139		315	KRILOVS RINGO	WÜRTH	TOILA VALD	0:58:48.0	M21	53	 
140		921	VANNAS TARMO		TALLINN	0:58:50.4	M21	54	 
141		493	MERIVÄLJA MARGUS		RAE VALD, PEETRI KÜLA	0:58:50.9	M21	55	 
142		851	TOHVER TARMO		JÕHVI LINN JÕHVI VALD	0:58:50.9	M35	45	 
143	9	344	KUUSIK MAIE		TALLINN	0:58:51.1	N35	3	 
144		477	MARAN TARVO		TALLINN	0:58:52.6	M35	46	 
145		324	KUKK MEELIS	PÄRNU LV	PÄRNU	0:58:56.4	M45	13	 
146		2521	LIEBENAU RAUL		Valga	0:58:59.3	M21	56	 
147		956	VILLO RAUL		KIILI	0:59:00.2	M35	47	 
148		788	SNITSARENKO TARASS		MAARDU	0:59:03.1	M21	57	 
149		474	MALMRE MALLOR		TALLINN	0:59:04.5	M35	48	 
150		321	KUHI PEETER		RAKVERE	0:59:10.8	M35	49	 
151		907	VAHTRAMÄE LAURI		VODJA KÜLA	0:59:15.0	M21	58	 
152		596	PALLING KALLE		TALLINN	0:59:16.7	M21	59	 
153		313	KRASS REIMO		PAIDE	0:59:22.2	M21	60	 
154		519	MÄE MEELIS	LINDALINI AS	LEMMETSA KÜLA	0:59:24.0	M21	61	 
155		530	MÄNNIK AHTI	VIKING WINDOW AS	PAIDE VALD	0:59:24.9	M21	62	 
156		666	RAHI INDREK		TALLINN	0:59:25.3	M45	14	 
157		236	KALDOJA REEMET		TALLINN	0:59:26.3	M21	63	 
158		297	KOKK MEELIS	RUUKKI PRODUCTS, PÄRNU	PÄRNU	0:59:32.4	M45	15	 
159		594	PAJUPUU JANNO		TALLINN	0:59:35.2	M21	64	 
160		104	BOMBUL ANDRUS		SILLAOTSA	0:59:35.5	M21	65	 
161		563	NÕMMISTE SULEV		ÜLENURME	0:59:37.2	M35	50	 
162		585	ORUPÕLD KRISTOFER		RAKVERE	0:59:38.8	M16	11	 
163		457	LÕIV ANDRES		TÜRI	0:59:43.6	M18	10	 
164		298	KOKLA MADIS		TALLINN	0:59:44.4	M45	16	 
165		391	LEESMÄE JÜRI		PÄRNU	0:59:44.8	M65	1	 
166		245	KAMS UKU		AASPERE	0:59:46.2	M18	11	 
167		664	RAAP ILMAR		KADRINA	0:59:46.5	M35	51	 
168		141	GRAUEN PETERI		ARAVETE	0:59:54.1	M35	52	 
169		250	KANGUR RAUL	OBER-HAUSI KINNISVARA	LEISI VALD	0:59:55.8	M35	53	 
170		833	TEDER RINALDO		VALGA	0:59:56.3	M21	66	 
171		591	PAJU KAIDO	EDELARAUDTEE	TÜRI	0:59:56.3	M45	17	 
172		148	HAAS MART		TALLINN	1:00:00.1	M21	67	 
173		415	LIIN URMAS		KOERU	1:00:01.8	M35	54	 
174		197	JOHANSON JAANUS		VILJANDI	1:00:09.6	M35	55	 
175		779	SIMSON MARGUS		TALLINN	1:00:11.2	M21	68	 
176		685	REIM RICHARD		TALLINN	1:00:17.3	M21	69	 
177		322	KUHI TÕNU		RAKVERE	1:00:17.5	M35	56	 
178		828	TAMMELEHT MIHKEL		TAPA VALD	1:00:21.3	M35	57	 
179		59	AAVE MARIUS		TARTU	1:00:21.6	M21	70	 
180		347	KUUSIK ANDRUS		RÄNI KÜLA	1:00:22.8	M21	71	 
181		441	LUBI VALLO-PEEDU	RAITA ENVIRONMENT BALTIC OÜ	PÄRNU	1:00:25.0	M45	18	 
182		78	ALTMETS HEIMAR		OETI KÜLA	1:00:26.5	M18	12	 
183		996	KURVITS KAIT		Uuemõisa	1:00:27.6	M21	72	 
184	10	326	KUKK KAIDI KEIR		PÄRNU	1:00:28.7	N18	3	 
185	11	780	SINIJÄRV HELEEN		ANIJA VALD	1:00:31.4	N21	5	 
186		816	TALVIK MIKK		VAO KÜLA	1:00:32.2	M21	73	 
187		575	OLLEP JANEK		PAIKUSE V	1:00:32.6	M35	58	 
188		683	REIGO ERKO		TALLINN	1:00:34.8	M35	59	 
189		117	EINBERG GERY	GECC KONSULTATSIOONID OÜ	TALLINN	1:00:38.2	M35	60	 
190		523	MÄGI ENN		TALLINN	1:00:40.5	M45	19	 
191		203	JÕEMETS AIVO		RAKVERE	1:00:40.8	M35	61	 
192		284	KIRSIPUU AVO		VITI KÜLA HARKU VALD	1:00:46.9	M45	20	 
193		560	NÕMMIK KRISTIAN		NÕMME	1:00:49.6	M21	74	 
194		116	EILAT TAAVI		TALLINN	1:00:50.4	M21	75	 
195		446	LUKKATS ANDRES		KOIGI	1:00:55.6	M35	62	 
196	12	179	ILVES ELIN		TARTU	1:00:56.4	N45	1	 
197		156	HANSEN RAIN		TÜRI	1:00:57.1	M21	76	 
198		2502	PÕLDSAAR PAUL		Järva-Jaani	1:00:57.4	M35	63	 
199		62	AIT JANEK		JÜRI	1:00:59.9	M35	64	 
200		8	GUSSEV RAIN		LOKSA	1:01:03.9	M21	77	 
201	13	628	PILT SIIRI		TARTU	1:01:09.1	N35	4	 
202	14	33	BERNAT GALINA		TALLINN	1:01:09.7	N45	2	 
203	15	150	HALJASTE ANNELI		PÜÜNSI, VIIMSI	1:01:19.6	N35	5	 
204		789	SOO HANNES	WILO EESTI	TALLINN	1:01:22.6	M35	65	 
205		491	MERES RENE	SIMPLBOOKS OÜ	TALLINN	1:01:25.8	M21	78	 
206		589	PAAP KIMMO		TALLINN	1:01:28.0	M21	79	 
207		162	HEINSALU RAUL	PKC EESTI	KEILA	1:01:29.5	M35	66	 
208	16	627	PILLI MOONIKA		RAKVERE	1:01:31.4	N21	6	 
209	17	671	RANDMAA KATRI		TALLINN	1:01:36.0	N35	6	 
210		636	PRIKS HANNO		OTEPÄÄ	1:01:41.1	M45	21	 
211		386	LAURING KARRE	ERR	TALLINN	1:01:42.3	M45	22	 
212		352	KUUSMANN MARTEN		KOHTLA-NÕMME	1:01:43.5	M13	1	 
213	18	884	TULP TIIA		HÄRGLA	1:01:47.8	N45	3	 
214		985	MEIER ERGO			1:01:48.7	M35	67	 
215		881	TUBALKAIN MARGUS		TALLINN	1:01:49.5	M45	23	 
216		2525	IDAVAIN TAAVI		Järva-Jaani	1:01:49.9	M21	80	 
217		507	MILLER ARGO	EHITUSEKSPERTIISIBÜROO OÜ	TALLINN	1:01:50.1	M21	81	 
218		515	MUSTING AKSEL	KEVAMER A.V.OÜ	TALLINN	1:01:50.9	M45	24	 
219		143	GRIGORJEV SERGEI			1:01:51.4	M45	25	 
220	19	286	KIVI LIINA		VIIMSI VALD	1:02:01.2	N21	7	 
221		381	LAJA LEHO		TALLINN	1:02:05.4	M35	68	 
222		621	PIIROJA PRIIT		JÄRVA-JAANI	1:02:05.5	M16	12	 
223	20	252	KANGUR TAIMI		KURESSAARE	1:02:07.1	N35	7	 
224		479	MARMOR KRISTIAN	MERCANTILE GROUP	TALLINN	1:02:11.7	M21	82	 
225		680	RAUDSEPP RAIVO		TÜRI	1:02:13.9	M45	26	 
226		936	VESKI HANNES	FILTER AS	RAKVERE	1:02:14.3	M45	27	 
227	21	32	IDAVAIN TIINA	RMK	KAGAVERE KÜLA	1:02:15.5	N55	1	 
228	22	323	KUIV KADILIIS		TALLINN	1:02:18.1	N21	8	 
229		542	NIGU VILLEM		TARTU	1:02:18.5	M21	83	 
230		992	TAMERI TARVI		Türi	1:02:18.7	M21	84	 
231		667	RAIEND URMO		TALLINN	1:02:24.9	M35	69	 
232		524	MÄGI INDREK		TALLINN	1:02:26.0	M35	70	 
233		379	LAIMETS JAANUS		PÄRNU	1:02:33.2	M21	85	 
234		861	TOOMING MAREK		TÜRI	1:02:42.2	M21	86	 
235		613	PETERSON KRISTJAN		TALLINN	1:02:42.6	M21	87	 
236		623	PIIRSALU REIN		TALLINN	1:02:50.8	M65	2	 
237		166	HIIENURM RAIN		MOOSTE	1:02:55.3	M16	13	 
238		488	MEISTER KRISTEN	VIKING WINDOW AS	TÜRI VALD	1:02:57.4	M18	13	 
239		527	MÄGI ARVED		TÜRI VALD	1:02:58.9	M45	28	 
240		989	KARJUS KAIDO		Tallinn	1:03:01.9	M35	71	 
241		818	TAMM REIGO	AS KUMA	TÜRI	1:03:05.3	M21	88	 
242		115	EIER TEET		VÄNDRA	1:03:09.0	M21	89	 
243		979	ÕIGLANE JANEK		VÄNDRA	1:03:11.4	M18	14	 
244	23	489	MELL RELIKA	AS PWC	KANGRU KÜLA, KIILI VALD	1:03:11.5	N35	8	 
245		292	KIVISAAR TÕNIS		PAIDE	1:03:13.4	M21	90	 
246		875	TREIBERG ANDRUS		TALLINN	1:03:13.7	M21	91	 
247		935	VESIALLIK STEN	WÜRTH AS	TALLINN	1:03:15.6	M21	92	 
248		106	BUŠIN PEEP		ELVA	1:03:16.5	M21	93	 
249		430	LINT ANDRUS		TALLINN	1:03:18.4	M45	29	 
250		534	MÜÜR MAIK		RÄNI KÜLA	1:03:22.4	M21	94	 
251		679	RAUDSEPP JAN		TALLINN	1:03:24.2	M35	72	 
252		800	SUURMÄGI MARKO	ÜHINENUD AJALEHED AS	VILJANDI LINN	1:03:24.6	M35	73	 
253		742	SANGLA MATIS		ÜLENURME VALD	1:03:24.9	M21	95	 
254		904	VAHESAAR TAURI-VILJAR		JÄRISTE KÜLA, JOOSTI	1:03:24.9	M18	15	 
255		426	LILLO EINAR	PIRITA JK RELIIKVIA	TALLINN	1:03:25.3	M35	74	 
256		771	SIIM ANDRES		PÄRNU	1:03:26.4	M35	75	 
257		410	LEPIKSAAR INDREK		KADAPIKU KÜLA	1:03:27.1	M35	76	 
258	24	858	TOOM MARJU		TÕRVA	1:03:31.0	N35	9	 
259		84	ANNISTE ALLAN		KABALA	1:03:32.2	M45	30	 
260		88	ANTSO IMRE		TALLINN	1:03:34.9	M21	96	 
261		69	ALBERT AUGUST		TÜRI	1:03:35.6	M45	31	 
262		240	KALJUVEE KRISTO		TALLINN	1:03:37.1	M21	97	 
263		876	TREIER AARE		SAUE VALD	1:03:37.1	M21	98	 
264		2524	JÄRVA JUHO		Viimsi	1:03:38.1	M35	77	 
265		276	KEIV INVER	EESTI ENERGIA SK	TALLINN	1:03:38.3	M21	99	 
266		258	KAPP INDREK		OTEPÄÄ	1:03:39.3	M45	32	 
267		837	TEMPEL MARKO		HAABNEEME	1:03:41.4	M21	100	 
268		746	SAU TAUNO		RAPLA	1:03:44.5	M21	101	 
269	25	2503	JÄGEL KADRI		Tallinn	1:03:46.9	N21	9	 
270	26	372	LAEV NELE		TALLINN	1:03:50.6	N21	10	 
271		625	PILDER KAUPO		SAUE VALD, MAIDLA KÜLA	1:03:51.6	M21	102	 
272		232	KALA TAAVI		ÄÄSMÄE KÜLA	1:03:51.8	M21	103	 
273		283	KIRSIPUU RIHO		VITI KÜLA HARKU VALD	1:03:52.3	M16	14	 
274	27	456	LÕHMUS MARGIT		VALGA	1:03:53.6	N21	11	 
275	28	229	KAIRITE INNA		TALLINN	1:03:57.1	N21	12	 
276	29	230	KALA TIINA	SWEDBANK	RANDVERE KÜLA, VIIMSI VALD	1:03:59.6	N21	13	 
277		516	MUSTONEN MAREK		SILLA KÜLA	1:04:01.1	M35	78	 
278		248	KANE REIN		LOKSA	1:04:05.0	M65	3	 
279		439	LOPSIK PRIIT		VIIMSI VALD	1:04:06.7	M21	104	 
280		427	LIMMER AILAR		TALLINN	1:04:07.4	M45	33	 
281		130	ERRAPART ROMAN	IP KÕNEKESKUSTE OÜ	TALLINN	1:04:07.7	M21	105	 
282		732	SAKKEUS JÜRI		SUURUPI	1:04:10.6	M55	1	 
283		588	PAABEL VILJAR	VESKISILLA		1:04:13.3	M21	106	 
284		827	TAMMELA ANDRIS	ÜHINENUD AJALEHED AS	PÄRNU LINN	1:04:14.8	M35	79	 
285		847	TILK TAAVI		TALLINN	1:04:16.6	M21	107	 
286	30	513	MURU MERIKE		HARKU VALD	1:04:17.8	N45	4	 
287		390	LEESMANN JARGO		PÄRNU	1:04:17.9	M21	108	 
288	31	113	EHRLICH IMBI	AS TAIG	PAIDE LINN	1:04:20.5	N45	5	 
289		670	RANDLA ERIK		TARTU	1:04:20.5	M21	109	 
290		759	SEMPELSON SVEN		PÄRNU	1:04:21.8	M35	80	 
291		508	MOONEY TRISTAN		TALLINN	1:04:24.6	M14	4	 
292	32	235	KALDA RUTH		TARTU	1:04:25.2	N45	6	 
293		409	LEPIK RAINER	SELI TERVISEKESKUS	RAPLA VALD	1:04:29.4	M21	110	 
294		999	LIIVOJA KUIDO		Rae vald	1:04:33.0	M35	81	 
295		723	SAADI ROOMET		PAIDE LINN	1:04:37.7	M21	111	 
296		882	TUBLI PEETER		ÄÄSMÄE KÜLA	1:04:39.0	M21	112	 
297		834	TEE EDUARD		TALLINN	1:04:40.4	M21	113	 
298		369	LAANMETS JÜRI		TALLINN	1:04:40.7	M55	2	 
299		510	MULDRE KRISTIAN		TALLINN	1:04:45.6	M16	15	 
300	33	840	TIBAR MARION		TALLINN	1:04:46.2	N21	14	 
301		792	SOOVIK JÜRI		VILJANDI	1:04:49.0	M45	34	 
302		980	ÕIGLANE JAAN		VÄNDRA	1:04:49.3	M35	82	 
303		968	VOOREMÄE RAIVO		TÜRI	1:04:50.2	M35	83	 
304		52	AASLAID KAIDO		PÄRNU	1:04:50.4	M45	35	 
305	34	927	VASSILJEV RIINU		TARTUMAA	1:04:52.0	N21	15	 
306		54	AASMA ANTI	AUTO100 TALLINN AS	KÄRDLA	1:04:52.3	M21	114	 
307	35	749	SAVTŠENKO KSENIA		SILLAMÄE	1:04:55.0	N14	1	 
308		361	KÄSPER PRIIT		TARTU	1:04:55.6	M35	84	 
309		241	KALLAS MATI		VILJANDI	1:04:56.8	M45	36	 
310		544	NOKKUR LEMBIT		HABAJA	1:04:57.0	M45	37	 
311		652	PÕLDMAA AIVAR		TRIIGI KÜLA	1:04:57.5	M35	85	 
312	36	988	MÄRSS LY			1:04:57.5	N35	10	 
313		975	VÄLJAOTS KAIN		TALLINN	1:04:58.3	M35	86	 
314		653	PÕLDOJA ARGO	BETOTRADE	TALLINN	1:04:58.3	M21	115	 
315		873	TRAVE MIKK		KUUSE KÜLA, KÄRLA VALD	1:04:58.6	M21	116	 
316	37	776	SILLANURM LY		TALLINN	1:04:59.0	N35	11	 
317	38	254	KANNE SIIM		PAIDE	1:04:59.0	N21	16	 
318		984	ÜÜRIKE HANS	EOK		1:05:00.4	M21	117	 
319		238	KALJUMÄE SIIM		TALLINN	1:05:01.1	M21	118	 
320		302	KOOKLA EERO		HARKU VALD	1:05:02.9	M35	87	 
321		517	MUTS MEELIS	ÜHINENUD AJALEHED AS	VILJANDI LINN	1:05:04.5	M35	88	 
322		397	LEIBENAU MATIS		TALLINN	1:05:06.0	M35	89	 
323		943	VEST MARKO		R-A	1:05:06.9	M18	16	 
324	39	330	KUMMER-LEMAN ÜLLE		TALLINN	1:05:08.0	N55	2	 
325		154	HANGA KAROL		VARDJA KÜLA	1:05:10.7	M13	2	 
326		153	HANGA KNUT	DEMINEERIMISKESKUS	VARDJA KÜLA	1:05:10.9	M35	90	 
327		622	PIIRSALU AIVO		KOERU	1:05:12.5	M21	119	 
328		163	HELENURM KALEV	SA PAIDE SPORDI- JA TERVISEKESKUS	PAIDE LINN	1:05:12.6	M21	120	 
329		185	JAASKA TIMO			1:05:13.7	M21	121	 
330		343	KUUSIK ANDO		TALLINN	1:05:16.2	M35	91	 
331		923	VARBOLA ERKI	EAS	TALLINN	1:05:19.6	M35	92	 
332		958	VILUMETS SIIM		RAKVERE	1:05:22.4	M21	122	 
333		411	LEPISTE SANDER		PAIDE	1:05:24.7	M35	93	 
334		419	LILIENBERG ERGO		TALLINN	1:05:27.3	M35	94	 
335		450	LUTS HARRY		JÄRVA-JAANI	1:05:27.7	M45	38	 
336		168	HIOB PRIIT		VILJANDI	1:05:29.4	M35	95	 
337		105	BULAK RAIKI	LENNUBAAS	HAAPSALU	1:05:29.6	M21	123	 
338		798	SULUSTE TAUNO	TAUNEXAUTO	PÄRNU LINN	1:05:31.8	M21	124	 
339		768	SIIAK INDREK		LAGEDI	1:05:32.3	M35	96	 
340		109	DIANOV ARTUR		HAAPSALU	1:05:32.9	M21	125	 
341		367	KÜNNAPAS TÕNU		MAARDU	1:05:34.5	M55	3	 
342		158	HARKMANN ALDER		TALLINN	1:05:35.0	M21	126	 
343		133	ESULA JANAR		TALLINN	1:05:35.1	M21	127	 
344		836	TELLING JUHAN		LINNAMÄE	1:05:41.2	M45	39	 
345		440	LORVI URMAS		TALLINN	1:05:41.9	M45	40	 
346		978	VÜRMER SILVER		TALLINN	1:05:42.8	M21	128	 
347		763	SEPTEMBER KEVO		VILJANDI	1:05:44.2	M21	129	 
348	40	500	MEY TEA		RÄNI KÜLA	1:05:45.1	N35	12	 
349		325	KUKK AALO		TALLINN	1:05:45.8	M55	4	 
350	41	204	JÕEMETS KAJA		JÕHVI	1:05:47.2	N45	7	 
351		691	RENNIT LEHO		TALLINN	1:05:48.4	M45	41	 
352		853	TOMINGAS TOIVO		PÄRNU	1:05:48.4	M45	42	 
353		821	TAMM TANEL	SPORTLAND	TARTU	1:05:49.2	M21	130	 
354		51	AASALEHT ALAR		TALLINN	1:05:49.2	M45	43	 
355	42	537	NAABER MERILI		TARTU	1:05:50.9	N21	17	 
356		453	LÕHMUS VELJO		HÄÄDEMEESTE	1:05:51.3	M35	97	 
357		990	SUURMAN HERKKI		Kiili	1:05:55.9	M45	44	 
358		572	OJASALU MAREK		TALLINN	1:05:56.1	M21	131	 
359		303	KOOLMA EGERT		KEHTNA VALD, KOOGIMÄE KÜLA	1:05:57.7	M21	132	 
360		641	PUIESTIK PEEP		VÄNDRA	1:05:58.7	M35	98	 
361	43	617	PIHLAK JEKATERINA		PAIDE	1:06:00.1	N35	13	 
362		136	FIMBERG TEET		VÄIKE-MAARJA	1:06:01.1	M35	99	 
363		796	SULEND HERKI		TALLINN	1:06:12.4	M35	100	 
364		642	PULK LENNART	ÜHINENUD AJALEHED AS	PÄRNU LINN	1:06:14.2	M35	101	 
365		561	NÕMMIK DEIVY		PÕLTSAMAA	1:06:14.3	M21	133	 
366		131	ERVIN ANDRES		AUDRU VALD	1:06:15.4	M21	134	 
367		96	ASPER ALLAR		PAIDE	1:06:15.6	M21	135	 
368		55	AASMA ALO	PAIDE LINNAVALITSUS	PAIDE LINN	1:06:15.8	M21	136	 
369	44	332	KURS MARILIIS	KOHTLA-NÕMME	KOHTLA-NÕMME	1:06:24.0	N35	14	 
370		387	LAVRENTJEV IVAN		TALLINN	1:06:26.5	M18	17	 
371		608	PEETRIMÄGI SIIM	INSPECTA	TALLINN	1:06:27.0	M21	137	 
372		349	KUUSKLA PRIIT		VIHULA VALD	1:06:28.1	M21	138	 
373		846	TILK KRISTIAN-DANEL		SAUE VALD	1:06:29.1	M18	18	 
374	45	223	KAASIK HANNA-BRITA		ANNIKVERE KÜLA	1:06:29.6	N13	1	 
375		275	KEERMA JAAN		ROOSNA-ALLIKU	1:06:30.8	M45	45	 
376	46	954	VILLEMSON ANNELI		IRU KÜLA	1:06:31.9	N21	18	 
377		949	VIIKOJA RAINIS		VILJANDI	1:06:34.3	M35	102	 
378		192	JALLAI RIIVO		VÕRU	1:06:36.3	M21	139	 
379		310	KOZIK ALEKSANDR		TALLINN	1:06:41.9	M21	140	 
380		90	AOLAID MARTEN		TABASALU	1:06:44.8	M13	3	 
381	47	64	AITMAN HANNELY		TALLINN	1:06:45.1	N21	19	 
382		175	IBIS MARGUS		TOBRASELJA KÜLA	1:06:45.1	M45	46	 
383		380	LAIMETS TOOMAS		LAUPA	1:06:51.0	M45	47	 
384		805	ŠEVTŠENKO PJOTR		TALLINN	1:06:51.5	M21	141	 
385		171	HUMMAL ERKKI		LUIGE ALEVIK	1:06:53.1	M35	103	 
386		674	RANDMÄE MARGUS		PÄRNU	1:06:53.4	M21	142	 
387		886	TUUR TAAVI		TARTU	1:06:53.8	M21	143	 
388		398	LEIER TÕNIS		PURILA	1:06:57.2	M55	5	 
389	48	290	KIVIMÄE MARIE-MÄDLI		AUDRU	1:06:57.3	N16	1	 
390		533	MÜÜR JANAR	PPA	PAIDE	1:06:59.8	M21	144	 
391		922	VARBLAS EVERT		KOSE VALD	1:07:00.5	M45	48	 
392		601	PARIS ERJO		PAIDE	1:07:03.8	M21	145	 
393		217	JÜRGENS JANAR	HORECA SERVICE	PÄRNU	1:07:06.1	M35	104	 
394		689	REITER HARDI		TALLINN	1:07:10.3	M35	105	 
395		615	PIHKVA ARNE		KOSE VALD.	1:07:12.5	M35	106	 
396	49	668	RAJASTE GEIDI		TARTU	1:07:14.1	N21	20	 
397		362	KÄSPER RANDO		TARTU	1:07:17.1	M21	146	 
398		576	OLLINO ANDRES		VÄÄNA-JÕESUU	1:07:18.2	M35	107	 
399		663	RAAG REEMO		LUIGE	1:07:19.1	M21	147	 
400	50	920	VALTER JÄRVI		TALLINN	1:07:20.1	N55	3	 
401		845	TILK TAIVO	MURUNIIDUK.EE	TALLINN	1:07:24.0	M35	108	 
402		375	LAIDOJA AIN		VIIMSI	1:07:25.2	M45	49	 
403		951	VIILIPUS MART	MT EXPORT GROUP OÜ	ELVA	1:07:27.1	M21	148	 
404		220	JÜRIMAA MIHKEL		TALLINN	1:07:27.9	M21	149	 
405	51	914	VALGE GÄTLY		VÕRU	1:07:28.2	N21	21	 
406	52	400	LEIF MAIVE		PAIDE	1:07:31.0	N35	15	 
407		724	SAAMANN GERT		TÜRI	1:07:31.2	M35	109	 
408		719	RUUL SANDER		LOKUTA KÜLA, TÜRI VALD	1:07:31.9	M21	150	 
409	53	718	RUUL SIGRID		LOKUTA KÜLA	1:07:32.0	N21	22	 
410	54	212	JÄRVE MARINA		TALLINN	1:07:36.0	N45	8	 
411		717	RUUL MATI	TALENT	TALLINN	1:07:39.1	M45	50	 
412		484	MEHINE MARTIN		TALLINN	1:07:42.2	M21	151	 
413	55	874	TREFFNER KADRI		KROOTUSE	1:07:44.6	N21	23	 
414		487	MEIER RAIVO		ASSAKU	1:07:49.3	M65	4	 
415		384	LAURI TEHO		TÜRI	1:07:49.7	M21	152	 
416		794	SUIK KARL-KRISTJAN		TALLINN	1:07:50.5	M16	16	 
417	56	138	GERASSIMOVA ANASTASIA		TALLINN	1:07:57.0	N21	24	 
418		894	URVA URMAS	ISB	KIRIKLA	1:08:00.4	M35	110	 
419	57	257	KAPP MARI-LY		OTEPÄÄ	1:08:06.1	N18	4	 
420		909	VAKS TOOMAS		PAIDE	1:08:09.8	M21	153	 
421		711	ROOTSMA AGU		TALLINN	1:08:12.4	M21	154	 
422		713	RUDISSAAR HANNO		ROOSNA-ALLIKU VALD	1:08:16.0	M18	19	 
423		280	KIMMEL LAURI		TARTU	1:08:17.4	M21	155	 
424		392	LEHISMETS JAAN		KALDA KÜLA	1:08:19.2	M21	156	 
425		496	METS OLAV		TALLINN	1:08:20.6	M21	157	 
426	58	306	KOPLIMÄGI MARIKA	KVÜÕA	TARTU	1:08:24.6	N35	16	 
427		190	JALAKAS MARTIN		KEILA	1:08:29.2	M16	17	 
428		181	IVANOV MAREK		HARKU VALD, TÜRISALU KÜLA	1:08:33.8	M35	111	 
429	59	730	SABRE DORIS		TARTU	1:08:42.1	N21	25	 
430		866	TOPS RAINER	SPORTLAND	TALLINN	1:08:42.4	M35	112	 
431		879	TROPP RAIMO		TALLINN	1:08:46.7	M21	158	 
432		155	HANNI KALJU		TALLINN	1:08:49.6	M35	113	 
433		234	KALDA KRISTER		TALLINN	1:08:49.6	M35	114	 
434		89	AOLAID ARDI		TABASALU	1:08:49.9	M35	115	 
435		135	FILIPPOV ARTJOM		TALLINN	1:08:53.9	M21	159	 
436		79	ALTMETS VALEV		OETI KÜLA	1:08:56.8	M45	51	 
437		756	SELGE AARE		KARINU	1:08:58.5	M45	52	 
438		806	TŠEREDNIK ANDREI		TALLINN	1:09:02.3	M21	160	 
439		807	TAAL ASKO	VIKING WINDOW AS	KAREDA VALD	1:09:03.1	M18	20	 
440		461	LÄNS INDREK		TALLINN	1:09:03.4	M35	116	 
441		460	LÄNS LAURI		LAAGRI	1:09:03.4	M21	161	 
442	60	910	VALANG ANN		SÄREVERE	1:09:04.6	N21	26	 
443	61	422	LILLEMETS KELINA		VILJANDI	1:09:05.1	N14	2	 
444	62	614	PETERSON TRIIN		TALLINN	1:09:07.2	N35	17	 
445		408	LEPIK MAREK	EF RAND JA TUULBERG AS	TARTU	1:09:07.7	M35	117	 
446		265	KASCHAN MARTIN		TÜRI	1:09:07.9	M18	21	 
447	63	755	SELEZNJOVA JULIA		TALLINN	1:09:08.7	N21	27	 
448		564	NÕMMISTE KALEV		SIMUNA	1:09:10.2	M35	118	 
449	64	557	NÕMM KÜLLI		RAE VALD, JÜRI	1:09:12.3	N35	18	 
450	65	198	JOTAUTAS MARIA		TALLINN	1:09:12.6	N21	28	 
451		418	LIIVRAND EERO		TALLINN	1:09:14.3	M45	53	 
452		605	PAUMVERK TARVO	VIKING WINDOW AS	TALLINN	1:09:16.2	M35	119	 
453		883	TULP KRISTJAN	TALLINNA TEEDE AS	TALLINN	1:09:17.5	M21	162	 
454		727	SAAR PEEDU		TARTU	1:09:18.3	M21	163	 
455	66	817	TALVIS RAILI		TUDU	1:09:20.5	N21	29	 
456		512	MUROMÄGI AVO		TARTU	1:09:23.3	M21	164	 
457		270	KASKA MARKO		TALLINN	1:09:26.5	M35	120	 
458		2509	KIKKAS HEIKKI		Põltsamaa	1:09:39.3	M35	121	 
459		102	BOITSOV SIIM	COPARTNER OÜ	KLOOGA	1:09:40.0	M21	165	 
460	67	482	MATVEJEVA JANA		AHULA K.	1:09:44.7	N45	9	 
461		1000	JALAKAS ARSEL		Kaalepi	1:09:45.1	M35	122	 
462		808	TAAL KRISTO		TÜRI	1:09:49.3	M35	123	 
463	68	634	POTTMANN KERSTI		MÄETAGUSE KÜLA	1:09:50.5	N21	30	 
464		407	LEPASEPP RANNO		KURISOO KÜLA	1:09:53.0	M16	18	 
465		645	PUU JAANEK		TALLINN	1:09:53.2	M35	124	 
466		459	LÄLL VERNER		KURISOO KÜLA	1:09:53.4	M18	22	 
467	69	338	KUULME KRISTIINA	USS SECURITY	TALLINN	1:09:54.0	N21	31	 
468	70	856	TOMP MAIGI		VILJANDI	1:09:54.7	N21	32	 
469		855	TOMP AHTI		TALLINN	1:09:55.1	M21	166	 
470	71	99	BELJANTSEVA JELENA		TARTU LINN	1:09:55.8	N21	33	 
471	72	765	SIBUL MAIVE		TARBJA KÜLA	1:09:57.2	N35	19	 
472	73	388	LAVRINENKO KAIRE	TALLINK DUTY FREE AS	TÜRI	1:10:07.4	N21	34	 
473		826	TAMME RAIDO		JÕHVI	1:10:10.3	M21	167	 
474	74	81	ALUSALU SANDRA		TÜRI	1:10:10.6	N21	35	 
475		2519	MUUG JAAK		Tartu	1:10:12.2	M35	125	 
476	75	295	KLEEMEIER MARIELLE		PAIDE LINN	1:10:13.8	N16	2	 
477		698	RIKS RANDO		AASPERE	1:10:15.1	M18	23	 
478		2514	OTS MAGNUS-MAIT		Tallinn	1:10:17.9	M35	126	 
479		660	PÄRNPUU ELVIS		KEILA	1:10:22.0	M21	168	 
480	76	973	VÕSU-TATTER HEIDI		TALLINN	1:10:22.3	N21	36	 
481	77	320	KRUUSMANN GEIDI		TAMSALU	1:10:24.0	N21	37	 
482		193	JAMMER ÜLO		KOERU ALEVIK	1:10:25.5	M55	6	 
483		761	SEPP HENN		VILJANDI	1:10:25.7	M55	7	 
484		432	LOBANOV RAUL		TALLINN	1:10:27.2	M21	169	 
485		353	KUUSMIK AIVAR	TEVENER OÜ	TALLINN	1:10:28.0	M45	54	 
486		124	ENTAL MADIS		TALLINN	1:10:30.4	M21	170	 
487		672	RANDMERE AHTI		ALBU KÜLA	1:10:34.1	M35	127	 
488	78	890	UDUSAAR AET		TALLINN	1:10:35.3	N21	38	 
489		505	MIKK JANNO		SUURE-JAAN VALD	1:10:36.2	M21	171	 
490		396	LEHTOJA URMAS	TALLINNA VANGLA	RIISIPERE	1:10:38.6	M45	55	 
491	79	880	TRUVE ELIZABETH		KELVINGI KÜLA	1:10:39.2	N14	3	 
492	80	188	JAKOBSON ÕNNE-LIINA		TALLINN	1:10:39.8	N21	39	 
493		438	LOPSIK ANDREI		KOHTLA-JÄRVE	1:10:40.0	M55	8	 
494		294	KLAOS SANDER	NORDEA PANK	TALLINN	1:10:41.3	M21	172	 
495		38	TAGEL RAINER			1:10:43.7	M21	173	 
496		127	ERM ERICH		TALLINN	1:10:45.3	M21	174	 
497		550	NURK INDREK		SÄREVERE	1:10:46.7	M21	175	 
498	81	741	SANGLA KARIN		ÜLENURME	1:10:46.8	N35	20	 
499		335	KUTSAR KASPAR		KOIGI	1:10:47.1	M18	24	 
500	82	87	ANTONS MAILI		ARAVETE	1:10:50.8	N35	21	 
501	83	412	LESNER SANDRA		TALLINN	1:10:55.3	N21	40	 
502		481	MATVEJEV AHTO	JÄRVA TEED	ALBU VALD	1:10:57.1	M45	56	 
503	84	869	TRAGEL ELLI MARIE		ELVA	1:10:59.9	N16	3	 
504		374	LAI MARGUS	TAMREX	RAE VALD	1:11:03.0	M35	128	 
505		703	RONK TOOMAS		VILJANDI	1:11:04.0	M35	129	 
506		224	KAASIK MAGNUS		ANNIKVERE KÜLA	1:11:07.9	M45	57	 
507		892	URB ÜLO		TALLINN	1:11:08.8	M55	9	 
508		452	LUUS ARVO		TALLINN	1:11:09.5	M65	5	 
509	85	308	KORI KÜLLI		TÜRI	1:11:10.1	N21	41	 
510	86	610	PELLENEN EVELIN		TARTU	1:11:13.8	N35	22	 
511		211	JÄRVE EINAR		TALLINN	1:11:16.6	M45	58	 
512	87	205	JÕESSAR KRISTA	POLITSEI- JA PIIRIVALVEAMET	LOKUTI KÜLA SAKU VALD	1:11:16.7	N35	23	 
513		963	VOOL NEEME		PAIDE LINN	1:11:17.0	M35	130	 
514	88	946	VETEMÄE LAGLE		TALLINN	1:11:23.6	N21	42	 
515		809	TAGEL ILMAR	MTA	PÕLVA	1:11:25.3	M65	6	 
516		781	SINIJÄRV OMARI		ANIJA VALD	1:11:32.8	M35	131	 
517	89	769	SIIBAK KRISTI		TALLINN	1:11:36.1	N35	24	 
518		259	KAPP RIHO		PAIDE LINN	1:11:36.5	M65	7	 
519	90	969	VULLA ELA		TAPA	1:11:37.8	N21	43	 
520		336	KUTTI KULDAR	BESTCLEAN	NISSI VALD	1:11:44.3	M35	132	 
521		775	SIKKA TOIVO	ERM	TARTU	1:11:50.3	M45	59	 
522	91	981	ÕIGLANE TERJE		VÄNDRA	1:11:52.3	N35	25	 
523		736	SALMAR AVO		PÄRNU	1:11:55.2	M65	8	 
524		688	REINULA HENDRIK		JÄNEDA	1:11:56.9	M16	19	 
525		174	HÄMÄLÄINEN MATTI		HAMINA	1:11:58.5	M55	10	 
526		206	JÕGI TARMO		TALLINN	1:11:59.9	M21	176	 
527	92	631	PLOOMPUU RIIKA	SWEDBANK	KEHRA	1:12:03.9	N35	26	 
528		957	VILT ANDRUS	EF RAND & TUULBERG AS	TARTU	1:12:07.5	M21	177	 
529		926	VASARIK AARNE		SAUE	1:12:08.6	M21	178	 
530		449	LUSTI KEIJO		TÜRI	1:12:11.7	M18	25	 
531		466	MAASIK ALARI		VÕHMA	1:12:12.9	M35	133	 
532		804	SÖÖRD PRIIT		PAIDE	1:12:13.2	M35	134	 
533	93	129	ERNITS INGRIT		JÕGEVA	1:12:13.4	N45	10	 
534		700	ROHTJÄRV JANIS			1:12:13.9	M45	60	 
535		68	ALATSEI TÕNU		RAKKE	1:12:15.4	M21	179	 
536		864	TOOMINGAS JAAN		SAUE	1:12:16.0	M35	135	 
537	94	693	RETS PILLE		TALLINN	1:12:17.8	N21	44	 
538		228	KAIO MARTIN		JÄNEDA	1:12:19.9	M16	20	 
539		178	ILUS ANDRUS		VILJANDI	1:12:20.0	M35	136	 
540	95	863	TOOMINGAS TERJE		SAUE	1:12:20.9	N21	45	 
541		682	REESAAR VELLO		TALLINN	1:12:20.9	M65	9	 
542		464	MAALMANN MARIO		HARKU	1:12:21.0	M21	180	 
543	96	649	PÕDER HELENE		TALLINN	1:12:25.1	N21	46	 
544		945	VESTUNG KRISTJAN		PAIDE	1:12:26.2	M35	137	 
545	97	632	PORKVELI MARGE		AMBLA VALD	1:12:27.2	N21	47	 
546	98	340	KUUS MAILA		TARTU	1:12:28.1	N35	27	 
547		264	KARUSSAAR KAIDO		TALLINN	1:12:29.1	M45	61	 
548	99	480	MATTIISEN TIINA		PAPSAARE	1:12:32.4	N45	11	 
549	100	208	JÄRV TIIU		TARTU	1:12:33.0	N45	12	 
550	101	707	ROOPÄRG MARIKA		TALLINN	1:12:35.6	N45	13	 
551		260	KARILAID UKO		TÜRI	1:12:36.3	M21	181	 
552		355	KÕIVA ÜLAR		PAIDE	1:12:36.3	M21	182	 
553		119	ELLRAM JÜRI		IMAVERE	1:12:38.3	M55	11	 
554		595	PALKSAAR VAHUR		PÄRI KÜLA	1:12:40.7	M45	62	 
555		423	LILLEMETS KALLE		VILJANDI	1:12:40.9	M45	63	 
556		657	PÄLL ERKI		TARTU	1:12:43.4	M21	183	 
557	102	251	KANGUR KADRI	VENDOR EESTI OÜ	TALLINN	1:12:43.8	N21	48	 
558	103	764	SHEIN TIINA	MSH	TALLINN	1:12:48.3	N35	28	 
559		616	PIHL KRISTJAN		PAIDE	1:12:48.3	M21	184	 
560	104	503	MIKAADU LEA		VÕHMA	1:12:49.3	N45	14	 
561		592	PAJULA AIN		KAIU	1:12:50.5	M35	138	 
562		546	NUGA AHTI		MÕRASTE KÜLA	1:12:53.5	M21	185	 
563		870	TRAKS KRIS	VIKING WINDOW AS	PAIDE LINN	1:12:55.5	M18	26	 
564	105	529	MÄNNIK AURIKA	TALLINNA TULISED ILVESED GAA	PAIDE VALD PUIATU KÜLA	1:12:55.7	N21	49	 
565	106	811	TALU JUTA		PÄRNU	1:12:56.8	N65	1	 
566	107	271	KASPER KÄTLIN	TALLINNA TIHASE LASTEAED	TALLINN	1:12:58.1	N21	50	 
567		986	KRAAN HENDRIK		Paide	1:12:58.3	M13	4	 
568		964	VOOLAID GEIR SAMUEL		PAIDE LINN	1:12:58.4	M14	5	 
569	108	311	KOTKAS SIGNE	PAIDE VALLA LASTEAED-KOOL	PAIDE	1:13:02.1	N21	51	 
570		950	VIIL INDREK		TARTU	1:13:04.1	M21	186	 
571	109	604	PAULUS SILJA		KEILA	1:13:05.7	N21	52	 
572		125	ERLENHEIM KARL		KEILA	1:13:05.7	M21	187	 
573		962	VOLKE HARRY	TAMREX	RAASIKU VALD	1:13:07.2	M35	139	 
574		237	KALJAKIN ALAR		SAUGA ALEVIK	1:13:08.2	M21	188	 
575	110	629	PILV VILVE		ARAVETE	1:13:12.8	N45	15	 
576	111	231	KALA KATRIN		PAIDE	1:13:13.6	N35	29	 
577		413	LESSEL MARTIN			1:13:18.8	M21	189	 
578		497	METSA ERKKI		ÜLENURME	1:13:19.5	M35	140	 
579		991	VAIKJÄRV TARVO ENDEL		Koigi	1:13:20.7	M14	6	 
580		246	KAMS VILJAR		KOIGI	1:13:21.1	M14	7	 
581		916	VALK JAANUS		VÄIKE-MAARJA VALD	1:13:23.5	M21	190	 
582	112	61	ADAMSON MARIS		VÄIKE-MAARJA VALD	1:13:23.5	N21	53	 
583	113	373	LAHE RIINA		ALLIKU KÜLA	1:13:24.9	N35	30	 
584	114	971	VÕHMAR KRISTI		KOHTLA-JÄRVE	1:13:33.3	N21	54	 
585		249	KANGUR ANDO	EM-SERV AS	HAABNEEME	1:13:38.7	M35	141	 
586		483	MAUER TIIT		TARTU	1:13:41.2	M35	142	 
587	115	959	VINGISAAR TERJE		TALLINN	1:13:42.5	N35	31	 
588		646	PUULMANN ERIC	SVEA FINANTSEERIMINE OÜ	SAUE	1:13:44.6	M21	191	 
589	116	93	ARUMÄE GRETE	ÜHINENUD AJALEHED AS	PÄRNU LINN	1:13:47.6	N21	55	 
590		656	PÄHKLAMÄE VIKTOR	WÜRTH	KIRIKUKÜLA	1:13:47.9	M35	143	 
591		454	LÕHMUS INDREK		TARTU	1:13:48.6	M45	64	 
592	117	898	UUSTALU SVETLANA		HABAJA	1:13:48.7	N21	56	 
593	118	455	LÕHMUS SILJA		TARTU	1:13:49.1	N45	16	 
594	119	139	GLADÕSHEVA GALINA		IDA-VIRUMAA	1:13:49.9	N45	17	 
595		681	REBANE HEIKI		TALLINN	1:13:53.6	M21	192	 
596	120	913	VALGE KERLI		TALLINN	1:13:55.9	N21	57	 
597		598	PAOSALU REIMO		TALLINN	1:13:57.8	M21	193	 
598	121	420	LILLE LIIS	AS HARJU KEK	KEILA	1:13:58.6	N65	2	 
599	122	159	HAUGAS KEIJU	INTERALTUS OÜ	TALLINN	1:13:59.1	N21	58	 
600		559	NÕMMIK RAIVO		TALLINN	1:14:01.3	M35	144	 
601	123	146	HAARDE MAIKEN	ABB AS	JÜRI, RAE VALD	1:14:02.0	N21	59	 
602	124	960	VOLENS MARET	KPME OÜ	TALLINN	1:14:04.4	N35	32	 
603	125	570	OJAMAA EDIT		TÜRI	1:14:07.0	N21	60	 
604		173	HÄMÄLÄINEN KEIO		TALLINN	1:14:07.7	M21	194	 
605		435	LOHE LEMBIT	G4S	TALLINN	1:14:08.8	M55	12	 
606	126	218	JÜRGENSON ERIKA		TALLINN	1:14:12.2	N35	33	 
607		535	MÜÜRSEPP ARTUR		PALA	1:14:20.3	M16	21	 
608	127	940	VESKIMÄE AIRE		TALLINN	1:14:21.6	N21	61	 
609		720	RÄBOKON TARVO		TALLINN	1:14:24.8	M21	195	 
610		687	REINTAL MARGUS		TALLINN	1:14:27.2	M21	196	 
611	128	227	KADASTIK VERONIKA	POLITSEI- JA PIIRIVALVEAMET	PÕLVA VALD	1:14:28.5	N21	62	 
612		97	AUL ANDRE		TÜRI	1:14:36.3	M21	197	 
613	129	731	SAGAR MAIRE		TÜRI VALD	1:14:39.2	N45	18	 
614		2507	AESMA MADIS		Paide	1:14:40.9	M21	198	 
615	130	289	KIVILO-PAAS EVELIN		TALLINN	1:14:41.7	N21	63	 
616		590	PAAS TOOMAS	REISIRAHA OÜ	TALLINN	1:14:41.9	M35	145	 
617	131	690	RENNIT TRIIN		TALLINN	1:14:41.9	N14	4	 
618		63	AIT KASPAR		JÜRI	1:14:43.0	M13	5	 
619	132	888	TÄÄR KARIN		TARTU	1:14:43.5	N21	64	 
620	133	366	KÜLLJASTINEN KRISTI		PAIDE	1:14:45.3	N35	34	 
621	134	582	ORAV ANNELA			1:14:46.7	N21	65	 
622	135	579	ONNO KERLI		VÕRU	1:14:51.5	N21	66	 
623		403	LELLSAAR MIKK		TÜRI	1:14:52.0	M21	199	 
624	136	929	VEERE KAIRI		TALLINN	1:14:57.3	N35	35	 
625	137	531	MÄNNIK MARJU		TALLINN	1:15:02.0	N21	67	 
626	138	448	LUSTI INGE		SAKU	1:15:02.4	N35	36	 
627	139	300	KOLLER KARIT	TIMEKS-TOP OÜ	PAIDE LINN	1:15:03.6	N21	68	 
628	140	639	PRÜKK KATRIN		TARTU	1:15:05.0	N35	37	 
629		274	KAUR KASPAR	SWEDBANK AS	TALLINN	1:15:07.8	M21	200	 
630		659	PÄRNA RANEL		TALLINN	1:15:07.8	M16	22	 
631	141	377	LAIDOJA REET		VIIMSI	1:15:10.0	N35	38	 
632	142	835	TEHVER LIIS		TALLINN	1:15:10.5	N21	69	 
633		966	VOOLAID VELLO		RAASIKU	1:15:11.4	M45	65	 
634	143	757	SELJAK KATRIN		TALLINN	1:15:13.1	N35	39	 
635		80	ALTMETS MIKK		TADE KÜLA	1:15:15.8	M35	146	 
636		820	TAMM TÕNU	MARKIT HOLDING AS	TALLINN	1:15:22.6	M21	201	 
637		889	TÜRKSON ARNE		TARTU	1:15:23.6	M35	147	 
638	144	465	MAANSO HELINA		LAAGRI	1:15:23.8	N21	70	 
639	145	314	KRIIT KADI		PAIDE LINN	1:15:25.8	N21	71	 
640		2517	PAAP MIKK		Ambla	1:15:26.5	M21	202	 
641	146	651	PÕLDMAA EGLE		PAIDE	1:15:29.5	N18	5	 
642		696	RIKBERG ANTS	SISEKAITSEAKADEEMIA	VÄIKE-MAARJA	1:15:29.5	M55	13	 
643	147	405	LENZ ELIZABETH		PAIDE	1:15:30.8	N35	40	 
644		360	KÄRPUK ANDRUS	GOBUS	PÄRNU	1:15:32.7	M45	66	 
645		648	PÕDER TARMO		PÄRNU	1:15:34.1	M35	148	 
646		2522	SAAVAN RAIDO		Ambla	1:15:34.9	M35	149	 
647	148	103	BOLTOVSKY MAIA		TARTU	1:15:38.5	N35	41	 
648		2518	MEIKUP JAN-ERIK		Tallinn	1:15:42.2	M13	6	 
649	149	597	PALS ANNE		TALLINN	1:15:42.6	N55	4	 
650	150	602	PATUNE EVA	DADA	VILJANDI	1:15:49.3	N21	72	 
651		443	LUKIN VAHUR		SAKU	1:15:49.8	M21	203	 
652		738	SALUSTE JAAN		KIILI	1:15:51.0	M35	150	 
653	151	638	PRUUL MAALI		RAKKE V	1:15:51.1	N16	4	 
654		53	AASLAID KENNO		PÄRNU	1:15:56.8	M16	23	 
655		624	PIISNER ERGO	JÄRVA TARBIJATE ÜHISTU	PAIDE LINN	1:15:56.9	M21	204	 
656		558	NÕMMIK RAIN	JÄRVA TARBIJATE ÜHISTU	PAIDE LINN	1:15:57.1	M21	205	 
657		169	HORDO KASPAR		PAIDE VALD	1:15:58.1	M16	24	 
658		301	KOLLOM SANDER		LUUNJA V. PILKA K.	1:15:58.6	M35	151	 
659	152	328	KULDPÄRG ENE	JÄRVA TÜ	PAIDE	1:15:58.8	N35	42	 
660		170	HORDO KAAREL		PAIDE VALD	1:16:00.4	M21	206	 
661		603	PAUL AIVAR		TALLINN	1:16:04.0	M35	152	 
662		983	ÖÖPIK KRISTJAN		TÜRI	1:16:09.7	M21	207	 
663		144	GRITŠENKO VADIM		PAIDE LINN	1:16:09.8	M21	208	 
664		267	KASEMETSA KASPAR		KOIGI V.	1:16:14.3	M16	25	 
665	153	67	ALAOTS MAIE		RAKVERE	1:16:16.4	N45	19	 
666		186	JAESKI AIVAR		JÄRVEKÜLA	1:16:17.7	M45	67	 
667		285	KISAND MARTIN-LEO	EESTI ENERGIA AS	TALLINN	1:16:17.8	M21	209	 
668		944	VEST ARE		ROOSNA-ALLIKU	1:16:22.2	M35	153	 
669		402	LEISALU SIIM		KEILA VALD	1:16:28.0	M21	210	 
670	154	2508	LAES REELIKA		Rapla	1:16:29.2	N21	73	 
671		569	OJALILL RAIMOND		KOSE	1:16:29.5	M35	154	 
672	155	341	KRUUSAMÄGI KATRIN		KOSE	1:16:29.7	N21	74	 
673	156	337	KUTTI ELINA		NISSI VALD	1:16:34.3	N21	75	 
674	157	823	TAMM MARI-LIIS		TÜRI	1:16:34.7	N16	5	 
675		458	LÕKK RAIVO	RADEMAR OÜ	TALLINN	1:16:37.1	M21	211	 
676		931	VEHLMANN JAAN		TALLINN	1:16:37.5	M65	10	 
677		128	ERMANN RAIT			1:16:37.6	M21	212	 
678		536	MÜÜRSEPP TOOMAS		PALA	1:16:37.9	M35	155	 
679		351	OLLE KERT	RADEMAR	TALLINN	1:16:37.9	M21	213	 
680		773	SIKK ERIK		ARUKÜLA	1:16:38.2	M35	156	 
681	158	803	SÄÄLIK TIINA		KASSINURME K.	1:16:38.3	N45	20	 
682		697	RIKKER KARL-STEVEN		VÄNDRA VALD	1:16:40.1	M14	8	 
683		908	VAIKJÄRV TAURI		IMAVERE	1:16:41.4	M18	27	 
684	159	149	HAAV ÜLLE		LUUNJA	1:16:43.1	N45	21	 
685		737	SALONG SULEV		KURESSAARE	1:16:45.3	M55	14	 
686		121	ENDRIKS HENDRIK		JÕHVI	1:16:49.1	M21	214	 
687		710	ROOTS ANTO		TARTU	1:16:57.0	M35	157	 
688	160	2515	OJASU JANE		Tallinn	1:17:00.3	N18	6	 
689	161	383	LASSI ANNELI	VIKING WINDOW AS	PAIDE LINN	1:17:01.8	N35	43	 
690	162	207	JÄME ANNALIISA		TARTU	1:17:03.1	N18	7	 
691		552	NURKLIK RAUNO		PAIDE	1:17:11.8	M18	28	 
692		995	HERMANN ERKO			1:17:13.8	M18	29	 
693		795	SUIK KALEV		TALLINN	1:17:19.7	M35	158	 
694	163	868	TORRO LIIS		TALLINN	1:17:21.8	N21	76	 
695		772	SIITAM MATI		TALLINN	1:17:21.9	M35	159	 
696		354	KÕIV KASPAR		RAPLA	1:17:26.9	M21	215	 
697	164	312	KRAFT KAI		TALLINN	1:17:32.5	N21	77	 
698		967	VOOREMÄE GUNNAR		TÜRI	1:17:34.2	M45	68	 
699		551	NURKLIK RIVO		PAIDE	1:17:35.1	M21	216	 
700	165	243	KALMA MARI		TALLINN	1:17:38.5	N18	8	 
701		498	METSNIK JAANUS		PAIKUSE ALEV	1:17:39.0	M21	217	 
702	166	470	MAISTE ÜLLE		TALLINN	1:17:39.7	N21	78	 
703		118	ELLIK ROBERT		KEILA	1:17:44.1	M14	9	 
704		74	ALLIK ALARI	TALLINNA ÜLIKOOL	TALLINN	1:17:45.5	M35	160	 
705		785	SIRAKI JAANUS		PÄRNU	1:17:52.8	M35	161	 
706	167	364	KÖÖP KADRI		HARKU VALD, TÜRISALU KÜLA	1:17:54.4	N35	44	 
707	168	126	ERM EVELIINE		LUHAMETSA KÜLA	1:17:59.0	N35	45	 
708	169	752	SEIRE PILLE	VIKING WINDOW AS	KAREDA VALD	1:18:05.0	N35	46	 
709	170	494	MESILA KAIDI		KOSE	1:18:07.4	N21	79	 
710	171	210	JÄRVALT RENNA		HARJUMAA	1:18:07.6	N35	47	 
711		317	KROONI RAGNAR		PAIDE	1:18:08.6	M21	218	 
712	172	293	KIVISTIK ELERI		TARTU	1:18:09.2	N21	80	 
713		213	JÄRVE HARPO		TÜRI	1:18:16.0	M21	219	 
714		476	MALV MADIS		TALLINN	1:18:17.0	M35	162	 
715	173	475	MALV ESTHER		TALLINN	1:18:17.4	N21	81	 
716	174	611	PERTEL HAIDE		JÕHVI VALD	1:18:18.6	N21	82	 
717	175	896	URVA MERILI		VANAMÕISA	1:18:21.3	N13	2	 
718		307	KORBUN KALEV	VÄDERSTAD	TARTU	1:18:24.3	M35	163	 
719	176	2523	SUVI ANNEGRET		Tallinn	1:18:26.7	N16	6	 
720	177	593	PAJULA HEIVI		KAIU	1:18:27.0	N35	48	 
721	178	525	MÄGI TRIIN		TALLINN	1:18:27.6	N21	83	 
722		431	LIPPA INDREK		ARDU	1:18:30.8	M35	164	 
723	179	161	HEINARU JANNE		KOHILA	1:18:30.9	N21	84	 
724		538	NAABER JAAN		TALLINN	1:18:31.2	M21	220	 
725	180	919	VALLNER KATRE		TALLINN	1:18:39.5	N35	49	 
726		581	ORAV RAINER	JOT EESTI	TALLINN	1:18:47.6	M21	221	 
727		725	SAAR ARTO		JÄRVA-JAANI	1:18:50.9	M21	222	 
728	181	647	PUULMANN MARI-LIISU		TALLINN	1:18:54.1	N21	85	 
729	182	183	JAANI ANNE		PÕLTSAMAA	1:18:54.6	N45	22	 
730	183	444	LUKJANOV SILVI	ÜHINENUD AJALEHED AS	PAIDE LINN	1:18:57.2	N35	50	 
731		543	NIRGI FREDERIK		HALJALA	1:19:05.4	M13	7	 
732		790	SOOMRE RANDO		TÜRI	1:19:05.6	M35	165	 
733		669	RAND ERGO		PÄRNU	1:19:06.6	M65	11	 
734	184	955	VILLEMSON KRISTA		TALLINN	1:19:11.8	N35	51	 
735		899	VAAB ENNO		PAIDE	1:19:13.8	M35	166	 
736	185	977	VÄÄRTNÕU KATRIN		KADRINA VALD	1:19:16.1	N21	86	 
737	186	77	ALLIKSOO KRISTIINA	FEMME	KOIGI	1:19:20.1	N21	87	 
738		370	LAANOJA LAURI		TALLINN	1:19:20.3	M35	167	 
739	187	225	KAASIK KAIRIT		TALLINN	1:19:29.6	N35	52	 
740	188	2520	OJAMETS SALME		Viljandi	1:19:34.2	N45	23	 
741	189	389	LEEDU LY		TALLINN	1:19:43.5	N35	53	 
742		253	KANNE KASPAR		TALLINN	1:19:46.0	M14	10	 
743	190	848	TINNURI LIINA		RAKVERE	1:19:50.2	N45	24	 
744	191	60	ADAMSON KRISTIINE		EBAVERE	1:19:56.9	N21	88	 
745	192	766	SIEMANN PIPI-LIIS		TÜRI VALD	1:19:57.8	N35	54	 
746		933	VELIN JAN		KOIGI V.	1:19:58.5	M16	26	 
747		2512	VOLT RONALD		Mustla	1:19:58.6	M14	11	 
748		580	OPPAR ROBERT		RUUSMÄE KÜLA	1:20:06.9	M21	223	 
749	193	974	VÄIN TRIIN	FEMME TANTSUTÜDRUKUD	PAIDE	1:20:14.4	N21	89	 
750	194	394	LEHTMETS MONIKA		SAUGA	1:20:14.8	N21	90	 
751	195	584	ORULA SILJA		TARTU	1:20:16.3	N21	91	 
752	196	797	SULEV KESSU		SIMUNA	1:20:16.8	N21	92	 
753		541	NESTOR MART		VINNI VALD	1:20:18.1	M45	69	 
754	197	356	KÕLL KRISTI		TALLINN	1:20:20.4	N21	93	 
755		791	SOOSALU ARMIN	PILVEPROJEKT OÜ	KIILI ALEV	1:20:23.6	M21	224	 
756		553	NURMBERG AIGAR		TALLINN	1:20:25.1	M21	225	 
757	198	860	TOOMESOO LAURA		SAUGA	1:20:31.8	N21	94	 
758	199	65	ALAJAAN AIRE	FAZER EESTI AS	TÕRVANDI	1:20:39.4	N21	95	 
759		778	SIMSON JANAR		PAIDE	1:20:48.0	M21	226	 
760		414	LIIGAND ANTS	TT TARKVARA OÜ	RAMSI	1:20:49.1	M45	70	 
761	200	255	KANNEL KÜLVI		TALLINN	1:20:55.7	N21	96	 
762	201	100	BERNHARDT MAIE		TÜRI	1:20:55.8	N45	25	 
763	202	721	RÄST KRISTIINA		TARTU	1:20:57.9	N21	97	 
764	203	35	MULLA KAJA		TALLINN	1:21:05.3	N45	26	 
765	204	686	REINFELD PIRET	PAIDE LINNAVALITSUS	PAIDE LINN	1:21:07.2	N35	55	 
766	205	708	ROOSIPUU NELE		ÜLENURME	1:21:10.4	N21	98	 
767	206	142	GRENTS GRETE		TALLINN	1:21:33.9	N21	99	 
768	207	895	URVA HELEN		VANAMÕISA	1:21:45.1	N14	5	 
769	208	309	KOROL BIRGITA		PAIDE LINN	1:22:02.4	N35	56	 
770		209	JÄRVA MATTI			1:22:09.1	M65	12	 
771	209	191	JALAKAS KAIRI		ALBU VALD	1:22:10.6	N21	100	 
772	210	199	JUHANSON RELIKA		KRIILEVÄLJA KÜLA	1:22:11.3	N21	101	 
773		562	NÕMMIK RAIT		TALLINN	1:22:13.4	M21	227	 
774		743	SAPP JAAN	SA PAIDE SPORDI- JA TERVISEKESKUS	PAIDE VALD	1:22:20.3	M35	168	 
775		2516	PUŠKARJOV PEETER		Rae vald	1:22:28.9	M45	71	 
776	211	830	TAMSAR KATRIN		TALLINN	1:22:29.4	N45	27	 
777		831	TAMSAR TOOMAS		TALLINN	1:22:29.5	M45	72	 
778	212	618	PIHLAK LIISA		TALLINN	1:22:41.9	N21	102	 
779	213	770	SIIBAK MERLE		TALLINN	1:22:42.5	N21	103	 
780	214	2513	AAS JANNE		Tallinn	1:22:42.6	N21	104	 
781	215	912	VALDMAA HILLE		TALLINN	1:22:47.6	N55	5	 
782	216	565	NÕMMISTE LEIE		SIMUNA	1:22:58.1	N35	57	 
783		72	ALLA JOEL		TAPA	1:23:09.7	M35	169	 
784		182	JAAGO AIVAR		MÄRJAMAA	1:23:10.6	M55	15	 
785	217	318	KRULL ANNE		TARTU	1:23:14.5	N35	58	 
786	218	937	VESKI ANNIKA	JUHAN ABC	RAKVERE	1:23:20.2	N35	59	 
787	219	554	NURMIS PILLE		TALLINN	1:23:20.6	N45	28	 
788	220	365	KÖÖSEL KÄDI	VÄÄNA PUUKOOL	TABASALU	1:23:20.7	N35	60	 
789	221	852	TOLK TRIINU	EAS	TALLINN	1:23:26.5	N21	105	 
790	222	110	DOBOLINA TATJANA		TALLINN	1:23:26.8	N21	106	 
791	223	599	PARBO MARGE		TALLINN	1:23:31.9	N35	61	 
792	224	643	PULST KADRI		TALLINN	1:23:37.5	N21	107	 
793	225	801	SÕRMUS SIRLI	MARKIT HOLDING AS	TALLINN	1:23:40.2	N21	108	 
794	226	222	KAAL LIISI		TALLINN	1:23:50.0	N21	109	 
795	227	799	SUUR MAICHL		PÕLVA	1:23:56.5	N35	62	 
796		854	TOMINGAS STEN ERIK		PÄRNU	1:24:00.5	M13	8	 
797	228	939	VESKIMÄE RIINA		PÄRNU	1:24:01.6	N21	110	 
798	229	2511	RITSON JANIKA		Tallinn	1:24:03.4	N21	111	 
799	230	176	IDAVAIN TEELE		KAGAVERE KÜLA	1:24:25.5	N21	112	 
800		506	MIKSON MART	PAIDE LINNAVOLIKOGU	PAIDE LINN	1:24:27.2	M55	16	 
801		532	MÜNZER SILVER		VÄÄTSA V	1:24:27.4	M13	9	 
802		436	LOKOTAR RAIGO		PAIDE	1:24:32.3	M14	12	 
803		640	PUHVEL LAURI		TARTU	1:24:33.0	M35	170	 
804		434	LODI SILVER		TALLINN	1:24:34.2	M21	228	 
805	231	2504	SABOLOTNI PILLE		Saue	1:24:34.5	N35	63	 
806	232	378	LAIDRO LUULE		RAKVERE	1:24:45.8	N65	3	 
807	233	111	EESMAA HELE		PÄRNU	1:24:47.2	N21	113	 
808		819	TAMM PEETER	MARKIT HOLDING AS	TALLINN	1:24:49.8	M35	171	 
809	234	786	SIRKEL MARIS	SA TALLINNA HAMBAPOLIKLIINIK	TALLINN	1:24:50.8	N35	64	 
810	235	43	SAPP PIRET		Tartu	1:24:53.7	N35	65	 
811	236	762	SEPPING LEENI		TARTU	1:24:54.3	N21	114	 
812		2505	AUSMEES TOOMAS		Harku	1:25:09.1	M45	73	 
813	237	490	MELTSAS IVIKA		TÜRI	1:25:14.8	N21	115	 
814	238	287	KIVI RITA		TALLINN	1:25:17.5	N35	66	 
815	239	658	PÄRN PIRET		ÜLENURME VALD, RÄNI KÜLA	1:25:21.8	N21	116	 
816	240	722	RÜÜTEL SIGRID		TALLINN	1:25:24.0	N21	117	 
817		728	SAAREND MAURI	ESTRAVEL	KEILA	1:25:33.2	M35	172	 
818		701	ROHTMA VALDEK		HAASLAVA VALD, MÕRA KÜLA	1:25:36.1	M21	229	 
819		145	GUTAK ROMAN		TÜRI	1:25:36.4	M21	230	 
820	241	416	LIIV ÜLLE		RAKVERE	1:25:40.7	N35	67	 
821	242	215	JÄRVPÕLD TIINA		VIRAKSAARE PAIDE VALD	1:25:44.3	N35	68	 
822	243	194	JANKO IRINA		PAIDE	1:25:45.1	N35	69	 
823		492	MERISTE MEHIS	ATI PROFIIL OÜ	UUSKÜLA KÜLA	1:25:49.6	M45	74	 
824	244	783	SINISALU ALIIS		ARE ALEVIK	1:26:09.9	N21	118	 
825		226	KADAI TANEL		KAASIKSAARE	1:26:13.9	M35	173	 
826		813	TALU KALLE		R-ALLIKU	1:26:15.7	M14	13	 
827		94	ARUTYUNYAN DAVID		TARTU	1:26:18.5	M21	231	 
828	245	694	RIDALA RIINA		ARDU	1:26:24.1	N21	119	 
829		509	MUINASTE RAIMO	RADEMAR	PÄRNU	1:26:33.9	M21	232	 
830		526	MÄGI HEIKI		TAMMISTE KÜLA	1:26:34.3	M21	233	 
831	246	504	MIKELSONS MOONIKA		TAMMISTE KÜLA	1:26:34.3	N21	120	 
832	247	716	RUUL RITI	SWEDBANK AS	TALLINN	1:26:34.7	N21	121	 
833	248	501	MIDT SILLE		R-ALLIKU	1:26:37.6	N14	6	 
834	249	368	KÜTT MADIKEN		HAAPSALU	1:26:44.0	N21	122	 
835	250	661	PÄRNSALU KAIRI		TALLINN	1:26:48.6	N21	123	 
836	251	165	HENDRIKSON LIISA		PAIDE	1:26:53.5	N21	124	 
837		872	TRALLMANN TAUNO		TALLINN	1:26:55.1	M35	174	 
838		478	MARCINKEVICZ JÜRI	BT SEVEN	PEETRI ALEV	1:26:57.3	M45	75	 
839	252	518	MUTS MERLIN	ÜHINENUD AJALEHED AS	VILJANDI LINN	1:27:01.0	N45	29	 
840	253	406	LEPA TRIIN	ÜHINENUD AJALEHED AS	PÄRNU LINN	1:27:02.5	N21	125	 
841		288	KIVILAAN AIN	ÜHINENUD AJALEHED AS	VILJANDI LINN	1:27:02.9	M35	175	 
842		299	KOLLA PAUL		SAAREPEEDI	1:27:03.9	M45	76	 
843	254	637	PRUUL MARILYS		TALLINN	1:27:05.5	N21	126	 
844		132	ESPERK TAAVI		TALLINN	1:27:05.7	M21	234	 
845	255	897	UUSTAL JAANA		KEILA VALD	1:27:07.5	N21	127	 
846		706	ROOG RAIDO		TARTU	1:27:08.5	M21	235	 
847	256	39	AIMLA KRISTIINE-TEELE			1:27:09.8	N21	128	 
848		745	SATSI ÜLLAR			1:27:10.0	M21	236	 
849	257	777	SILLAR MAIKEN	TIMEKS-TOP OÜ	PAIDE LINN	1:27:11.2	N21	129	 
850		472	MAJOROV MARCUS		TÜRI	1:27:23.7	M13	10	 
851	258	376	LAIDOJA KADI		VIIMSI	1:27:28.3	N18	9	 
852	259	473	MAJOROV MARINA		JÄNDJA KÜLA	1:27:32.5	N35	70	 
853		915	VALGO SANDER		PAIDE LINN	1:27:40.0	M18	30	 
854	260	95	GRAUBERG MARTHA-BERYL		TILA KÜLA	1:27:47.3	N21	130	 
855		137	FREI JANIS		TÜRI LINN	1:27:47.3	M35	176	 
856	261	177	IILA KATRIN		VILJANDIMAA SAAREPEEDI V VÕISTRE K	1:27:53.7	N21	131	 
857	262	626	PILLAI REELIKA			1:27:56.0	N21	132	 
858	263	726	SAAR KRISTINE		PIIUMETSA KÜLA	1:28:01.2	N35	71	 
859		433	LODE VELLO		MOOSTE VALD	1:28:07.1	M65	13	 
860		76	ALLIKSAAR VALDEKO		VASTEMÕISA	1:28:14.1	M65	14	 
861		467	MADJAR MIIKA-WILLIAM		PAIDE LINN	1:28:20.4	M16	27	 
862	264	814	TALUNIK MARIT		PAIDE LINN	1:28:25.7	N16	7	 
863	265	630	PIRN ANNE	MANDATUM LIFE INSURANCE BALTIC SE	HAASLAVA VALD	1:28:35.6	N35	72	 
864	266	893	URBALU ELERIN		AMBLA	1:28:42.7	N21	133	 
865		948	VIHERPUU HANNES		HAABNEEME	1:28:43.2	M35	177	 
866	267	774	SIKK MIINA		LAAGRI ALEVIK	1:28:49.7	N21	134	 
867		824	TAMM INDREK		HAABNEEME	1:28:49.8	M21	237	 
868	268	633	POZNAHIRKO SVETLANA			1:28:56.2	N45	30	 
869	269	650	PÕDRA SIGRID		IISAKU	1:28:57.3	N21	135	 
870	270	514	MUST MERLE		TARTU	1:28:58.2	N21	136	 
871	271	471	MAISTE MARII		TÜRI VALD	1:29:03.6	N21	137	 
872	272	56	AASMA KÄDU		KÄRDLA LINN	1:29:10.6	N21	138	 
873	273	34	TEEVÄLI LEILI		TARTU	1:29:15.7	N65	4	 
874		196	JOA OLEV		TALLINN	1:29:30.0	M65	15	 
875	274	214	JÄRVET BRITT		PAIDE	1:29:34.7	N18	10	 
876	275	924	VARE MARI-LIIS			1:29:43.0	N21	139	 
877		867	TORNIK ERGO		PAIDE LINN	1:30:01.2	M16	28	 
878		953	VIISITAM ANTS		TAPA VALD	1:30:17.7	M65	16	 
879	276	548	NURK LIZANNE	TIMEKS-TOP OÜ	PAIDE LINN	1:30:24.0	N21	140	 
880	277	329	KUMMER MARI		KOHILA	1:30:33.3	N21	141	 
881	278	568	OJALA RITA	EDELARAUDTEE	TÜRI	1:30:47.4	N45	31	 
882		583	ORGVEE KEIJO		PAIDE LINN	1:31:07.4	M13	11	 
883	279	838	TENTER MARI-ANN		JÄRVEKÜLA KÜLA	1:31:12.7	N35	73	 
884		812	TALU ANU		PÄRNU	1:31:16.3	M45	77	 
885		654	PÕLDOJA MIHKEL		TALLINN	1:31:37.8	M21	238	 
886		885	TURRO ANDRES		JÄRVEKÜLA	1:31:40.9	M35	178	 
887	280	242	KALLASTE MOONIKA		TALLINN	1:31:47.4	N35	74	 
888		753	SELBERG RAGNAR		SAKU	1:31:47.7	M35	179	 
889	281	739	SAMPKA EPP		PAIDE	1:32:44.9	N18	11	 
890		567	OJA MIRKO		PAIDE	1:32:45.4	M21	239	 
891	282	902	VAHER KATI		PÄRNU LINN	1:32:46.1	N21	142	 
892		760	SENGBUSCH ILMAR		TÜRI	1:32:47.0	M65	17	 
893		296	KOGERMANN MEELIS	MARKIT HOLDING AS	TALLINN	1:33:52.0	M35	180	 
894	283	57	AASMÄE HALLIKI		TÜRISALU, HARKU VALD	1:34:07.3	N21	143	 
895		987	ALBE MICHAEL			1:34:18.5	M45	78	 
896		586	OSBEK KRISTJAN			1:34:37.3	M21	240	 
897		699	RISTISSAAR REIN	'EXPOLIO AS'	RAPLA	1:34:50.2	M55	17	 
898	284	451	LUTSAR MAARJA		TARTU	1:35:08.6	N18	12	 
899		844	TILK TOOMAS	ESTMOTOR OÜ	SAUE VALD	1:35:15.3	M35	181	 
900	285	468	MAIDLE ESTE		SINDI	1:35:27.2	N55	6	 
901	286	702	ROHUSTE REELIKA		RAPLA	1:35:50.9	N21	144	 
902	287	692	RESIK KERLY		MÄRJAMAA	1:35:51.0	N21	145	 
903	288	385	LAURIMAA MAI		RAPLA	1:35:51.0	N35	75	 
904		911	VALDMAA ANTS		TALLINN	1:36:01.1	M65	18	 
905		134	EVOLINI MARCO	MARKIT HOLDING AS	TALLINN	1:36:04.3	M21	241	 
906		961	VOLKE RICHARD	TAMREX	RAASIKU VALD	1:36:04.5	M13	12	 
907	289	655	PÕLLUMAA LIISA		TARTU	1:36:12.7	N21	146	 
908	290	108	DAVÕDOVA LIINA		HAAPSALU	1:36:54.1	N21	147	 
909	291	216	JÄRVPÕLD TEELE		VIRAKSAARE PAIDE VALD	1:37:04.9	N21	148	 
910	292	600	PARIK ILME		TALLINN	1:37:54.6	N45	32	 
911	293	2527	SAARE KRISTA			1:40:46.2	N35	76	 
912		714	RUMM JUHAN		RAKVERE	1:40:59.9	M65	19	 
913	294	442	LUKAS KELLI		PAIDE	1:41:35.5	N16	8	 
914		2501	ALTPERE RIINA		Pärnu	1:41:50.4	M21	242	 
915	295	263	KARMING EVELYN	ESTRAVEL	TALLINN	1:42:47.1	N45	33	 
916		291	KIVIMÄE TARMO		PAIDE	1:43:19.9	M21	243	 
917		619	PIILBAUM JANNO		TALLINN	1:43:21.2	M35	182	 
918	296	2526	SCHMIDT KAREN		Tartu	1:43:32.9	N21	149	 
919	297	865	TOONEKURG KADRIN	ESTRAVEL	TALLINN	1:45:35.4	N21	150	 
920	298	428	LINDJÄRV ELIZABETH		PAIDE	1:52:09.7	N13	3	 
921		748	SAVELLI MARKO		TALLINN	1:52:57.1	M21	244	 
922		587	OTT ARDO	VIKING WINDOW AS	PAIDE LINN	1:53:51.6	M13	13	 
923	299	928	VEELMAA MARJU	VIKING WINDOW AS	PAIDE LINN	1:53:52.2	N21	151	 
924	300	612	PETERSON KAJA		SÄREVERE	1:55:53.4	N21	152	 
925	301	918	VALLIMÄGI MARIKA		TAPA	1:57:30.1	N45	34	 
926	302	917	VALLIMÄGI HELERI		PAIDE	1:57:30.3	N21	153	 
927		859	TOOMEJÕE JÜRI		TALLINN	1:57:55.3	M55	18	 
928	303	577	OLONEN LAURA		TÜRI VALD	2:07:30.5	N14	7	 
