Koht	Nkoht	Nr	Nimi	Klubi	Aeg	Kaotus	Vkl	Koht	 
1		1801	VALLIMÄE VILJAR	Sportkeskus.ee	1:06:13		M	1	 
2		1802	NIKOLAJEV ILJA	Odav Laen AS	1:07:37	0:01:24	M	2	 
3		1806	TŠEREPANNIKOV SERGEI	Stamina Arcotransport tiim	1:09:17	0:03:04	M	3	 
4		1803	VINOGRADOV YURY	sylvia.gatchina.ru	1:09:34	0:03:21	M	4	 
5		1807	SASMIN KAUPO	Spordikeskus.ee	1:10:08	0:03:55	M	5	 
6		1808	VULLA ELAR	KJK VIKE	1:11:15	0:05:02	M	6	 
7		1815	MATISONS AIGARS	MARATONA KLUBS	1:12:37	0:06:24	M40	1	 
8		1809	REINSALU KRISTO	Stamina Arcotransport tiim	1:12:41	0:06:28	M	7	 
9		1805	SOZONOV VLADIMIR	sylvia.gatchina.ru	1:14:10	0:07:57	M	8	 
10		1813	KOŠELEV DENISS	Tü ASK	1:15:49	0:09:36	M	9	 
11		2518	ANDRESSON MART	TARTU ÜLIKOOLI AKADEEMILINE SPORDIKLUBI	1:15:58	0:09:45	M	10	 
12		2513	ROOMET REGET	PÄRNU	1:16:13	0:10:00	M	11	 
13	1	1855	SOKOLOVA NATALIA	SHVSM-KRASNOGVARDEETS	1:16:41	0:10:28	N	1	 
14		1814	VEILBERG AGO	Päästeamet	1:17:05	0:10:52	M45	1	 
15		1828	KULMATICKII MARAT	sylvia.gatchina.ru	1:17:17	0:11:04	M	12	 
16	2	1818	TALTS EVELIN	Stamina ArcoTransport Running Team	1:17:31	0:11:18	N	2	 
17		2327	SAAN AIN	J.n.M.	1:17:33	0:11:20	M55	1	 
18		1853	AFANASIEV VCTOR	SHVSM-KRASNOGVARDEETS	1:17:33	0:11:20	M45	2	 
19		1817	AADLI ERKKI	Saue Tammed	1:18:24	0:12:11	M	13	 
20		2318	ROSEN ULF	21 cc triatlonklubi	1:18:27	0:12:14	M40	2	 
21		1826	SUBI RIVO	VAK Staier	1:18:31	0:12:18	M	14	 
22		1816	KRAAS ANDREAS	seiklusporr	1:18:41	0:12:28	M	15	 
23		1891	SIMSON PRIIT	Elva Jooksusari	1:18:47	0:12:34	M	16	 
24		1943	ELLER VILLU		1:19:52	0:13:39	MN	1	 
25		1823	HANG TAUNO		1:20:02	0:13:49	M	17	 
26		1842	BAUMAN JAANUS		1:20:19	0:14:06	M	18	 
27	3	2515	MÄTAS EGLE	TARTU ÜLIKOOLI AKADEEMILINE SPORDIKLUBI	1:20:39	0:14:26	N	3	 
28		1819	JAASKA ALLAN	stamina sk	1:20:58	0:14:45	M40	3	 
29		2294	RANDMAN PRIIT	Spordiklubi Metsasõbrad	1:21:02	0:14:49	M	19	 
30		1821	UNDREST JAANUS	Eesti Posti SK	1:21:05	0:14:52	M	20	 
31	4	1838	ANDREJEVA OLGA	Stamina Arcotransport tiim	1:21:07	0:14:54	N	4	 
32		1844	VALDMAA LAURI		1:21:32	0:15:19	M	21	 
33		1982	ILUMÄE INDREK	Iproject Oü	1:21:50	0:15:37	M	22	 
34		1892	TAMMEMÄE JOOSEP	Viljandi suusaklubi	1:21:50	0:15:37	MN	2	 
35		2261	PIISKOPPEL KAURI	Päästeamet	1:21:51	0:15:38	P	1	 
36		1832	VAHKAL KAIDO	FB JOOKSMINE	1:21:55	0:15:42	M	23	 
37		1829	BELOUSOV ALEKSEI	sylvia.gatchina.ru	1:22:01	0:15:48	M	24	 
38		1858	BÕMBERG RAIN	JK Piraaja	1:22:02	0:15:49	M	25	 
39		1850	KINDEL HANNO	FB Jooksmine	1:22:11	0:15:58	M40	4	 
40		1890	SIHT JÜRI	VAK Staier	1:22:18	0:16:05	M45	3	 
41		1845	IVANOV ARVO	Politsei	1:22:23	0:16:10	M40	5	 
42		1846	KUUSALU ASKO	Vanamõisa suusaklubi	1:22:33	0:16:20	M	26	 
43		1849	KIBUSPUU TIIT	VAK Staier	1:22:54	0:16:41	M45	4	 
44		1872	KILKI SIIM	KJK Vike	1:23:02	0:16:49	MN	3	 
45		1830	TIPP ARGO		1:23:18	0:17:05	M	27	 
46		1918	ANNILO MIHKEL		1:23:25	0:17:12	MN	4	 
47		1884	ORGULAS KAIDO		1:23:39	0:17:26	M45	5	 
48		2555	TAMMOJA ANDRUS		1:23:42	0:17:29	M45	6	 
49		2551	TOMP AHTI		1:23:51	0:17:38	M	28	 
50	5	2516	LUIK LILY	TARTU ÜLIKOOLI AKADEEMILINE SPORDIKLUBI	1:23:54	0:17:41	N	5	 
51		2532	LILLEMÄGI INDREK		1:24:16	0:18:03	M	29	 
52		1833	EINASTO MART		1:24:30	0:18:17	M40	6	 
53		1885	PILDER KAUPO	SS Marathon	1:24:46	0:18:33	M	30	 
54		2017	KALJURAND URMAS	Stamina SK	1:24:52	0:18:39	M50	1	 
55		1851	ÕUN JAAN	FB Jooksmine	1:24:55	0:18:42	M	31	 
56		1831	KALA TAAVI		1:24:56	0:18:43	M	32	 
57		1836	LÄÄN CHRISTJAN	FB Jooksmine	1:24:59	0:18:46	M	33	 
58		1865	HEIN HEIGO	Läänemaa KJK	1:25:01	0:18:48	M	34	 
59		1835	LAINESTE ANDRES	Stamina SK	1:25:12	0:18:59	M40	7	 
60		1824	TOPLAAN ANTI	EELK Kuressaare	1:25:22	0:19:09	M40	8	 
61	6	1839	ARRO LIIS GRETE	Stamina Arcotransport tiim	1:25:23	0:19:10	NN	1	 
62		1834	JUHKOV JANAR	nnn.sportkeskus.ee	1:25:35	0:19:22	M	35	 
63		1897	VETEVOOG KAIDO		1:25:49	0:19:36	M	36	 
64		2113	KÜBARSEPP KARMO	TTü	1:25:52	0:19:39	MN	5	 
65		1977	HÄMÄLÄINEN KEIO	Jooksupartner	1:26:04	0:19:51	M	37	 
66		2359	SILDVEE MÄRT		1:26:07	0:19:54	M	38	 
67		2234	PAAP NEEME-JAAK	Sõpruskond	1:26:28	0:20:15	M45	7	 
68		1874	LAASU ARNOLD	SK Saarde	1:26:32	0:20:19	M50	2	 
69		2569	LINDE JÜRI		1:26:45	0:20:32	M40	9	 
70		2562	KINGO GUNNAR		1:26:51	0:20:38	M	39	 
71		2245	PALU TIIT	Juhtimisteater	1:26:55	0:20:42	M40	10	 
72	7	1841	TARUM JANELLE	Stamina Arcotransport tiim	1:26:57	0:20:44	NN	2	 
73		2201	MÄNNIK AHTI	Tallinna Tulised Ilvesed GAA	1:26:58	0:20:45	M	40	 
74		2246	PARMAS MARTIN	ooo	1:27:00	0:20:47	M	41	 
75		1980	HYDE MATTHEN	British Embassy	1:27:07	0:20:54	M40	11	 
76		1876	LEIMANN RAGNAR	JK PIRAAJA	1:27:15	0:21:02	M	42	 
77		1920	ANTALAINEN LAURI	Advisio OU	1:27:28	0:21:15	M	43	 
78		2158	LUMISTE TANEL	Hansa Spordiklubi	1:27:42	0:21:29	M	44	 
79		1945	ENN LAURI		1:27:50	0:21:37	M	45	 
80		2343	SCHMIDT RAGNAR		1:27:51	0:21:38	M	46	 
81		1946	ENNO KRISTJAN	Elioni SK	1:28:14	0:22:01	M	47	 
82		2445	TÜRKSON ARNE	Suusahullud	1:28:15	0:22:02	M40	12	 
83		2120	LAANEMETS RAIVO		1:28:19	0:22:06	M40	13	 
84		1994	JUUS AIVAR	TööSTUSPROJEKT	1:28:23	0:22:10	M	48	 
85		2317	ROOSNUPP PRIIT		1:28:38	0:22:25	M40	14	 
86		2394	TALU PRIIT	EE Spordiklubi	1:28:46	0:22:33	M40	15	 
87		2316	ROOSIMÄGI ALLAN	Jõhvikas	1:28:50	0:22:37	M	49	 
88		1921	ANTON ARVI		1:29:02	0:22:49	MN	6	 
89		2101	KUUSALU IVO	EUK	1:29:04	0:22:51	M	50	 
90		2365	SNITSARENKO TARASS	Eesti Panga Spordiklubi	1:29:19	0:23:06	M	51	 
91		2491	VILLO RAUL		1:29:24	0:23:11	M	52	 
92		2035	KASK ATS	mul ei ole neid	1:29:26	0:23:13	M	53	 
93		1968	HEINMETS HALMAR	TTü	1:29:32	0:23:19	M	54	 
94		2436	TUUR TAAVI	LHV Pank	1:29:33	0:23:20	M	55	 
95		2575	MALEVA MARKO		1:29:33	0:23:20	M45	8	 
96	8	2163	LÜKK MERLYN		1:29:40	0:23:27	NN	3	 
97		1860	TOOM TOOMAS	SK Stamina	1:29:41	0:23:28	M50	3	 
98	9	2520	LAURING KARRE		1:29:45	0:23:32	N45	1	 
99		1896	VALERTS ANDRIS	MARATONA KLUBS	1:29:49	0:23:36	M40	16	 
100		2182	MERIVÄLJA MARGUS		1:30:07	0:23:54	M	56	 
101	10	1843	VAHER ANNIKA	SJK Sarma	1:30:09	0:23:56	N40	1	 
102		2486	VIIRMANN OTT		1:30:24	0:24:11	M	57	 
103		1936	EHRSTEIN REIMO	Insenerehitus	1:30:24	0:24:11	M	58	 
104		1879	LOKK SULEV	Stamina SK	1:30:28	0:24:15	M40	17	 
105		1883	NILK ANDRUS	ooo	1:30:28	0:24:15	M50	4	 
106		2304	REILJAN RAUL	Kõrgem Sõjakool	1:30:29	0:24:16	MN	7	 
107		2125	LASS RISTO	SK Saarde	1:30:43	0:24:30	M	59	 
108		2415	TOHT MARTIN		1:30:43	0:24:30	M	60	 
109		2043	KESKKÜLA KAROL		1:30:47	0:24:34	M	61	 
110	11	2387	KUUSIK ANTS	VAK Staier Viljandi	1:30:52	0:24:39	N60	1	 
111		2528	GERING MARGUS		1:30:54	0:24:41	MN	8	 
112		1880	MÄLTER MEELIS	Harju KEK RSK	1:30:56	0:24:43	M	62	 
113		2188	MILVA TARMO		1:30:57	0:24:44	M40	18	 
114	12	1881	MÄLTER MARGIT		1:30:59	0:24:46	N40	2	 
115		1873	KIVILA MATIS	Võru Suusaklubi	1:31:03	0:24:50	MN	9	 
116	13	1848	LEMBERG ANNEKEN	JCI Estonia	1:31:06	0:24:53	N	6	 
117		1877	LEISALU TANEL		1:31:10	0:24:57	M	63	 
118		1887	RAAP ILMAR	meie	1:31:15	0:25:02	M40	19	 
119		2190	MUMM INDREK		1:31:20	0:25:07	M40	20	 
120	14	2227	OKS MARGIT	Sportland	1:31:28	0:25:15	N	7	 
121		2411	TIKVA INDREK	Albe Team	1:31:30	0:25:17	M40	21	 
122		2216	NURK AARE		1:31:32	0:25:19	M45	9	 
123		2593	PÄRNASSALU TOOMAS		1:31:36	0:25:23	M40	22	 
124		2138	LIIN URMAS		1:31:38	0:25:25	M	64	 
125		2426	SEEPÕLD RAIN		1:31:44	0:25:31	M	65	 
126		2069	KOOP KALLE	SK Saarde	1:31:48	0:25:35	M45	10	 
127		2128	LEHISMETS JAAN		1:31:51	0:25:38	M	66	 
128		2287	RAASTAD CHRISTOPHER	TTü	1:32:00	0:25:47	M	67	 
129		2031	KAROLIN INDREK	SK Metsasõbrad	1:32:08	0:25:55	M	68	 
130		2580	MOOR TOOMAS		1:32:12	0:25:59	M45	11	 
131		2278	PÕLLENDIK RAIT	MTü Nordea Spordiklubi	1:32:13	0:26:00	M	69	 
132		2577	OJA REIMO		1:32:21	0:26:08	MN	10	 
133		2527	REHLEM STEVEN		1:32:21	0:26:08	M	70	 
134		2510	LIEBENAU RAUL		1:32:23	0:26:10	M	71	 
135		1894	TÕNNISON ARVI		1:32:23	0:26:10	M45	12	 
136	15	1856	ALNEK KARMEN		1:32:25	0:26:12	N	8	 
137		2048	KIIS TOOMAS	Rakvere JK Tarvas	1:32:28	0:26:15	MN	11	 
138		1888	REIN MARGUS	JK Hermes	1:32:35	0:26:22	M60	1	 
139		2495	VÕIP RAIVO	Politsei Ida prefektuur	1:32:42	0:26:29	M45	13	 
140		2384	SÄRAK IVO		1:33:03	0:26:50	M	72	 
141		2231	OPP ANDRES		1:33:07	0:26:54	MJ	1	 
142	16	1854	ROOKS PILLE		1:33:08	0:26:55	N	9	 
143		2504	LÜÜS SIGMAR		1:33:22	0:27:09	MN	12	 
144		2102	KUUSIK ARON		1:33:27	0:27:14	MJ	2	 
145		1991	JAKOBSON EERO		1:33:28	0:27:15	M	73	 
146		1984	ILVES TÕNU		1:33:31	0:27:18	M45	14	 
147		1996	JÕEMETS AIVO	Team30+	1:33:32	0:27:19	M40	23	 
148		2465	VANN THEODOR	FB Jooksmine/ Itbit Glükomed	1:33:32	0:27:19	M	74	 
149	17	2284	MELL RELIKA		1:33:34	0:27:21	N	10	 
150		2464	VALTIN KRISTO		1:33:38	0:27:25	P	2	 
151		1861	ERVIN URMAS		1:33:39	0:27:26	M45	15	 
152		2063	KOKLA MADIS		1:33:43	0:27:30	M50	5	 
153		1987	INNOS JOHN	JELD-WEN Eesti AS	1:33:44	0:27:31	M40	24	 
154		2028	KARIN PEETER	SGG Estonia SE	1:33:45	0:27:32	M	75	 
155	18	2293	RANDMAA KATRI		1:33:48	0:27:35	N	11	 
156		2500	ÕIGLANE JAAN		1:33:49	0:27:36	M40	25	 
157		2086	KUKK MEELIS	SK Jõulu	1:33:53	0:27:40	M50	6	 
158		2208	NAGEL KARL-GUSTAV	SK Aaspere	1:33:53	0:27:40	P	3	 
159	19	1983	ILVES ELIN		1:33:58	0:27:45	N45	2	 
160		2070	KOOSAPOEG KALMER		1:34:10	0:27:57	M40	26	 
161		2508	VAIK ARNO		1:34:17	0:28:04	M	76	 
162		1959	GRÖÖN JANAR	ECOKYTE.ee	1:34:17	0:28:04	M	77	 
163		1852	ABRAMS MODRIS	LSC/ Maratona Klubs	1:34:23	0:28:10	M55	2	 
164		2274	PROSIN MÄRT		1:34:39	0:28:26	M	78	 
165		2456	VAHESAAR HEIGO-ELMAR		1:34:43	0:28:30	P	4	 
166	20	1837	MÄGI MERILL	Stamina Arcotransport tiim	1:34:44	0:28:31	N	12	 
167	21	1857	BERNAT GALINA	Stamina SK	1:34:49	0:28:36	N50	1	 
168		2400	TAMMELEHT MIHKEL		1:34:57	0:28:44	M	79	 
169		2143	LINKE MARTIN		1:35:06	0:28:53	M	80	 
170	22	1961	HAARDE MAIKEN	adidas	1:35:09	0:28:56	N	13	 
171		2349	SEMPELSON SVEN		1:35:17	0:29:04	M40	27	 
172		2506	LEESMÄE JÜRI		1:35:23	0:29:10	M65	1	 
173		2299	RAUDSEPP ANDRUS		1:35:26	0:29:13	M	81	 
174		1951	EVISALU MAIT		1:35:28	0:29:15	M40	28	 
175		2240	PAJUPUU JANNO		1:35:31	0:29:18	M	82	 
176		2241	PAJUR ANDRUS		1:35:36	0:29:23	M50	7	 
177		2403	TATRIK IVO	21CC Triatloniklubi	1:35:41	0:29:28	M	83	 
178		1934	EHRENPREIS LAURI		1:35:46	0:29:33	M	84	 
179	23	2141	LILLEORU MERLE	JCI Estonia	1:35:46	0:29:33	N	14	 
180		1901	AAMISEPP ANDRES		1:35:49	0:29:36	M	85	 
181		2077	KRIISA HELAR	Ideekamin	1:35:50	0:29:37	M40	29	 
182		2084	KUHI PEETER		1:35:52	0:29:39	M40	30	 
183		1810	PAAP HASSO	Tü ASK	1:36:01	0:29:48	M	86	 
184		2110	KÖSTER SILVER		1:36:02	0:29:49	M	87	 
185		2079	KRILLOVS RINGO	nüRTH	1:36:02	0:29:49	M	88	 
186		1969	HEINSALU RAUL	Albe Team	1:36:06	0:29:53	M40	31	 
187	24	1895	PILLI MOONIKA	ööjooks TEAM	1:36:09	0:29:56	N	15	 
188		2195	MUZAKKO MARGO		1:36:12	0:29:59	M	89	 
189		2406	TERVE ALLAN		1:36:13	0:30:00	M	90	 
190		2507	SANGLA MATIS		1:36:30	0:30:17	MN	13	 
191		2233	OTTO RAIT		1:36:35	0:30:22	M	91	 
192		1893	TELLING JUHAN	JK HERMES	1:36:42	0:30:29	M45	16	 
193		2103	KUUSKLA PRIIT	SK AASPERE	1:36:44	0:30:31	M	92	 
194	25	2526	MURU MERIKE		1:36:47	0:30:34	N45	3	 
195		2305	REINEBERG TARMO		1:36:54	0:30:41	M	93	 
196		1886	PRIKS HANNO	VAK Staier	1:37:00	0:30:47	M45	17	 
197		2302	RAUN RAIN		1:37:01	0:30:48	M40	32	 
198		2544			1:37:09	0:30:56			 
199		2119	LAANEMETS MEELIS	Kirde KRK	1:37:10	0:30:57	M	94	 
200		2314	ROODEN MIKK	Rakvere Ametikool	1:37:11	0:30:58	P	5	 
201		2062	KOKK KRISTO	SK Metsasõbrad	1:37:12	0:30:59	M40	33	 
202	26	1866	HIMMA EVELYN		1:37:15	0:31:02	N40	3	 
203		2003	JÜRIADO JUHAN		1:37:20	0:31:07	M	95	 
204		2498	VÄRK RENÉ		1:37:24	0:31:11	M	96	 
205		2194	MUSTONEN MAREK		1:37:25	0:31:12	M	97	 
206		2453	UUSKÜLA RAUNO	Kadrina	1:37:26	0:31:13	MN	14	 
207		1942	ELLER EIK	AS Maves	1:37:26	0:31:13	M55	3	 
208		2373	SOOMRE RANDO		1:37:33	0:31:20	M	98	 
209		2548	VISNAPUU TANEL		1:37:37	0:31:24	M	99	 
210		2442	TÄHESTE TANEL	SK Metsasõbrad	1:37:47	0:31:34	M	100	 
211		2553	AAVE MARUS		1:37:48	0:31:35	M	101	 
212		1973	HILLEP EINAR	Justiitsministeerium	1:37:51	0:31:38	M40	34	 
213		2581	NIKOLAJEV DIMITRI		1:37:56	0:31:43	M55	4	 
214		1804	KAMS UKU		1:37:58	0:31:45	MJ	3	 
215		2042	KESKEL URMO		1:37:58	0:31:45	M	102	 
216		2521	REIGO ERKO		1:38:00	0:31:47	M	103	 
217	27	2247	PARTS VALLI		1:38:02	0:31:49	N	16	 
218		2355	SIIM ANDRES	SK SAARDE	1:38:06	0:31:53	M40	35	 
219		2430	TUBALKAIN MARGUS	Stamina SK	1:38:06	0:31:53	M45	18	 
220		2133	LEPIKSAAR MADIS	Aru Grupp AS	1:38:06	0:31:53	M	104	 
221	28	2435	TUULA REEDA		1:38:07	0:31:54	N	17	 
222	29	2162	LÕHMUS MARGIT		1:38:10	0:31:57	N	18	 
223		2313	ROHTSALU JAAK	OK Rakvere	1:38:18	0:32:05	M50	8	 
224		2001	JÜRGENSTEIN INDREK	Stamina SK	1:38:25	0:32:12	M45	19	 
225		2269	PLUMER RAIVO	Mägi EK	1:38:28	0:32:15	M50	9	 
226	30	2012	KAIRITE INNA		1:38:31	0:32:18	NN	4	 
227		2360	SILEM PRIIT	Eesti AGA spordiklubi	1:38:32	0:32:19	M	105	 
228	31	2023	KANGUR TAIMI	JK SARMA	1:38:32	0:32:19	N40	4	 
229		2321	ROUHIJAINEN MADIS	Tallinna ülikool	1:38:43	0:32:30	M	106	 
230		2489	VILL ÜLLAR		1:38:43	0:32:30	M40	36	 
231		2129	LEHTER AIVAR	Oü TLG HOTELL	1:38:48	0:32:35	M45	20	 
232		2338	SAREMAT TARMO	JCI Estonia	1:38:49	0:32:36	M	107	 
233		2385	SÄREV MIHKEL	Orissaare	1:38:52	0:32:39	M	108	 
234	32	1859	EISAN JAANIKA		1:38:54	0:32:41	N	19	 
235		2083	KRUUSAMÄGI UKU		1:38:55	0:32:42	MJ	4	 
236		2033	KARU ÜLLAR		1:38:56	0:32:43	M	109	 
237		2038	KAUR JAANUS		1:38:57	0:32:44	M45	21	 
238		2085	KUHI TÕNU		1:39:02	0:32:49	M40	37	 
239	33	2524	PILT SIIRI		1:39:05	0:32:52	N40	5	 
240		1909	ALAMETS ÜLARI	EAS	1:39:12	0:32:59	M45	22	 
241		2447	ULK ALAR		1:39:13	0:33:00	M60	2	 
242		2472	VEEROOS ERKI		1:39:18	0:33:05	M	110	 
243		2117	KÜTTIS RADEK	JCI Estonia	1:39:19	0:33:06	M40	38	 
244		2019	KALJUVEE JANNO	Jooksupartner	1:39:21	0:33:08	M40	39	 
245		2039	KEIV INVER	Eesti Energia SK / Jooksupartner	1:39:23	0:33:10	M	111	 
246		2008	RAIEND URMO	Stamina SK	1:39:23	0:33:10	M40	40	 
247	34	2396	TAMM MERJE	RLK	1:39:25	0:33:12	N40	6	 
248		2257	PEÄRNBERG KARL-ANDRES	Mareplast	1:39:27	0:33:14	M	112	 
249		2171	MANNINEN ERGO	Hanaii Express	1:39:29	0:33:16	M	113	 
250		1956	GAMZEJEV ERIK	Põhjarannik SK	1:39:33	0:33:20	M45	23	 
251	35	2408	TIBAR MARION		1:39:38	0:33:25	N	20	 
252		2051	KINDSIGO RENO		1:39:42	0:33:29	M	114	 
253		2311	RIKS RANDO	SK Aaspere	1:39:49	0:33:36	MJ	5	 
254		2362	SINDONEN VOLDEMAR		1:39:49	0:33:36	M50	10	 
255		2431	TUBLI PEETER	OK Kooperaator	1:39:50	0:33:37	M	115	 
256	36	2297	RANT ELINA		1:39:51	0:33:38	N	21	 
257		2022	KANGRO PRIIT		1:39:51	0:33:38	M40	41	 
258		2543	VÄIZANEN URMO		1:39:51	0:33:38	M	116	 
259		2026	KAPP TARVO	Kükametsa PK	1:39:57	0:33:44	M40	42	 
260		2537	SEPP TIIT		1:40:11	0:33:58	M	117	 
261		2402	TARUM ROLAND		1:40:14	0:34:01	M	118	 
262		2503	ÜÜRIKE HANS	TTü	1:40:16	0:34:03	M	119	 
263		2567	GRIGORJEV SERGEI		1:40:17	0:34:04	M50	11	 
264		2018	KALJUVEE KRISTO		1:40:22	0:34:09	M	120	 
265		1889	RENNIT LEHO	Albe Team	1:40:26	0:34:13	M50	12	 
266		1947	ERLENHEIM KARL		1:40:28	0:34:15	M	121	 
267		2060	KOHA PRIIT	JELD-WEN Eesti AS	1:40:28	0:34:15	M	122	 
268		2081	KRISTMANN RANDO	JELD-WEN Eesti AS	1:40:29	0:34:16	M	123	 
269		1955	FOGTMANN ERIK	JELD-WEN Eesti AS	1:40:30	0:34:17	M	124	 
270	37	1875	LAVRIKOVA SVETLANA	sylvia.gatchina.ru	1:40:37	0:34:24	N50	2	 
271		2466	VANNAS TARMO		1:40:45	0:34:32	M	125	 
272		1902	AAN TOOMAS	Koeru SK	1:40:50	0:34:37	M50	13	 
273	38	2272	POTTMANN KERSTI		1:40:50	0:34:37	N	22	 
274	39	1868	JÄRVE MARINA	JK Hermes	1:40:53	0:34:40	N45	4	 
275		2243	PALM RAIKO		1:40:55	0:34:42	M	126	 
276		2541	RAUHAINEN ARTUR		1:40:56	0:34:43	M	127	 
277	40	2087	KUKK KAIDI KEIR	SK Jõulu	1:40:57	0:34:44	NJ	1	 
278		2150	LUBI VALLO-PEEDU	Samotar	1:41:00	0:34:47	M45	24	 
279		2475	VEISMAN MARTIN		1:41:12	0:34:59	M	128	 
280		2193	MUSTING AKSEL		1:41:20	0:35:07	M50	14	 
281	41	2123	LARIN RAGNE	Põltsamaa Felix AS	1:41:22	0:35:09	N	23	 
282		2353	SIIAK INDREK		1:41:23	0:35:10	M	129	 
283		2289	RAHI INDREK	Fittest	1:41:26	0:35:13	M45	25	 
284	42	2134	LEPPMETS MARIANNE	FYSIOPARK	1:41:27	0:35:14	N	24	 
285		2428	TRÄÄDER HELVIS	FYSIOPARK	1:41:27	0:35:14	M	130	 
286		2220	NÕMM MARDEN	Tallinna Tulised Ilvesed GAA	1:41:42	0:35:29	M	131	 
287		2434	TUNGER RAIN		1:41:42	0:35:29	M	132	 
288		2478	VESKI HANNES	Rakvere	1:41:48	0:35:35	M45	26	 
289		2592	ORGUSAAR MÄRT		1:41:49	0:35:36	M40	43	 
290		2052	KIVESTI AIN		1:41:52	0:35:39	M	133	 
291		2186	MIKK ÜLLAR	RADEMAR	1:41:57	0:35:44	M	134	 
292		2047	KIIS TÕNIS	Sisekaitseakadeemia	1:41:59	0:35:46	M	135	 
293		2331	SAKKEUS JÜRI	SakiSport	1:42:00	0:35:47	M55	5	 
294		2407	TESKA TAAVI	TTü	1:42:05	0:35:52	M	136	 
295		2534	HERMSALU HANDO		1:42:11	0:35:58	M	137	 
296		2198	MÄEKIVI JAANUS	Floorin	1:42:13	0:36:00	M	138	 
297		2271	POSTI VEIKO		1:42:15	0:36:02	M40	44	 
298		2323	RUUDI MARTIN	Aru Grupp AS	1:42:17	0:36:04	M	139	 
299		1917	ALVER OLIVER		1:42:27	0:36:14	M	140	 
300		2583	LIMMER AILAR		1:42:28	0:36:15	M50	15	 
301		2122	LAJA LEHO		1:42:29	0:36:16	M40	45	 
302	43	2461	VALGE GÄTLY		1:42:38	0:36:25	N	25	 
303		2014	KALDA KRISTER		1:42:47	0:36:34	M	141	 
304		1912	ALBERT AUGUST		1:42:49	0:36:36	M45	27	 
305		2512	JAAKSOO RAIN		1:42:52	0:36:39	M	142	 
306		2242	PALK RUDOLF		1:43:06	0:36:53	M	143	 
307		2107	AASTE HANNO		1:43:10	0:36:57	M	144	 
308		2599	PLUTUS LAURI		1:43:33	0:37:20	M	145	 
309		2590	VILT ANDRUS		1:43:35	0:37:22	M	146	 
310		2290	RAIK KALVI	Rautakesko AS	1:43:35	0:37:22	M40	46	 
311		2154	VAHESAAR TAURI-VILJAR		1:43:49	0:37:36	MJ	6	 
312		2058	KLEMET MARTINUS		1:43:53	0:37:40	M	147	 
313		2589	LEPIK MAREK		1:43:56	0:37:43	M	148	 
314		2066	KONGO KRISTJAN	MTü Nordea Spordiklubi	1:44:00	0:37:47	M	149	 
315		2286	PÄÄBUS VEIKO		1:44:02	0:37:49	M40	47	 
316		2591	PETERSON KRISTJAN		1:44:04	0:37:51	M	150	 
317		2088	KUKK AALO	Eesti Panga SK	1:44:04	0:37:51	M55	6	 
318		2215	NUGA AHTI		1:44:07	0:37:54	M	151	 
319		2136	LETT KALLE	Tulika Takso	1:44:07	0:37:54	M55	7	 
320		2531	PAAP KIMMO		1:44:14	0:38:01	M	152	 
321		2374	SOOVIK JÜRI		1:44:14	0:38:01	M50	16	 
322		2505	IRVES HILLAR	EKSTREEMPARK	1:44:29	0:38:16	M45	28	 
323		1972	HEREM MARTIN	Kirde KRK	1:44:32	0:38:19	M	153	 
324		2358	SIKKA TOIVO	ERM	1:44:42	0:38:29	M50	17	 
325		2550	TOMUSK ILMAR		1:44:47	0:38:34	M45	29	 
326		2080	KRIMM RAIDO	JK Jalgpallihaigla	1:44:48	0:38:35	M	154	 
327		2064	KOLK MARKO	SARMA	1:44:50	0:38:37	M40	48	 
328		2457	VAHTER TANEL		1:44:58	0:38:45	MN	15	 
329		2416	TOHVER TARMO	Kaevanduste Spordiklubi	1:44:59	0:38:46	M40	49	 
330		1964	HANNI KALJU		1:45:03	0:38:50	M	155	 
331		2471	VEBER TOOMAS		1:45:09	0:38:56	M	156	 
332		2090	KUKKE HEIKKI		1:45:17	0:39:04	M	157	 
333		2576	OJASALU MAREK		1:45:17	0:39:04	M	158	 
334		1867	HIOB PRIIT	VAK STAIER	1:45:18	0:39:05	M	159	 
335		2511	TOPS RAINER	AS JALAJÄLG	1:45:18	0:39:05	M	160	 
336	44	2258	PIHLAK JEKATERINA		1:45:18	0:39:05	N40	7	 
337		2324	RUUL MATI		1:45:18	0:39:05	M50	18	 
338	45	2361	SILLANURM LY		1:45:21	0:39:08	N40	8	 
339		2288	RAATMA ARVO		1:45:24	0:39:11	M	161	 
340		2514	TOPS ASSAR		1:45:25	0:39:12	M40	50	 
341		2212	NOKKUR LEMBIT	SK Rõõsa	1:45:26	0:39:13	M45	30	 
342	46	2509	TOOM MARJU		1:45:33	0:39:20	N	26	 
343		2370	SOLMAN RISTO	JCI Estonia	1:45:39	0:39:26	M	162	 
344		2563	TALVIK MIKK		1:45:48	0:39:35	M	163	 
345		2132	LEPIK RAINER	Seli Tervisekeskus	1:45:58	0:39:45	M	164	 
346		2139	LIIVER AIMAR	Elioni SK	1:46:02	0:39:49	M	165	 
347		2559	MITROFANSKY JEGOR		1:46:03	0:39:50	M	166	 
348		2175	MARTINSON RAIDO	Viru jalaväepataljon	1:46:06	0:39:53	M	167	 
349		2142	LILLO EINAR	Pirita JK Reliikvia	1:46:08	0:39:55	M40	51	 
350		2263	PIKNER PRIIT	Kirde KRK	1:46:11	0:39:58	M	168	 
351		2007	KAARMA RISTO	Sportland	1:46:16	0:40:03	MN	16	 
352	47	1995	JÕEMETS KAJA	SK Mitš	1:46:17	0:40:04	N45	5	 
353		2191	MURIK GERD	Sportland	1:46:17	0:40:04	MN	17	 
354		2587	ERILAID JANIS		1:46:22	0:40:09	M	169	 
355	48	2470	VASSILJEV RIINU	FB Jooksmine	1:46:23	0:40:10	N	27	 
356		2112	KÜBAR URMO		1:46:25	0:40:12	M	170	 
357	49	2180	MERENÄKK MARGARETE		1:46:30	0:40:17	N	28	 
358		2536	PIILBERG VALVO		1:46:31	0:40:18	M	171	 
359	50	2285	PÄRTEL SIRET	Koeru SK	1:46:41	0:40:28	N45	6	 
360		2211	NIGU VILLEM		1:46:44	0:40:31	M	172	 
361		2350	SEPPAR ELVIS		1:46:51	0:40:38	M	173	 
362		2225	NÕMMISTE SULEV		1:46:56	0:40:43	M40	53	 
363		2226	NÕMMISTE KALEV		1:46:56	0:40:43	M40	52	 
364		2477	VESIALLIK STEN	nüRTH	1:47:05	0:40:52	M	174	 
365		2329	SAARELA MARKO	Viru jalaväepataljon	1:47:09	0:40:56	M	175	 
366		2298	RAUDSAAR TAAVI		1:47:09	0:40:56	M	176	 
367		2480	VESKIMETS ANDRI	TTü	1:47:20	0:41:07	MN	18	 
368		2156	LUKIN VAHUR		1:47:21	0:41:08	M	177	 
369		2094	KUNGUS AHTO		1:47:22	0:41:09	M40	54	 
370		2485	VIILIPUS MART	MT Export Group Oü	1:47:22	0:41:09	M	178	 
371		2030	KAROLIN MARTIN		1:47:23	0:41:10	M	179	 
372	51	2381	SUURSU MAARIKA	JELD-WEN Eesti AS	1:47:32	0:41:19	N	29	 
373	52	2254	PELLENEN EVELIN		1:47:34	0:41:21	N	30	 
374	53	2146	LOHK LEA		1:47:36	0:41:23	N50	3	 
375	54	2499	ÕIGLANE TERJE		1:47:42	0:41:29	N40	9	 
376	55	1971	HELMJA KATI		1:47:46	0:41:33	N	31	 
377		2292	RAMMO MATT	TTü	1:47:47	0:41:34	M	180	 
378		2459	VALDMANN VAHUR		1:47:51	0:41:38	M	181	 
379		2221	NÕMMIK KAIDU	JELD-WEN Eesti AS	1:47:52	0:41:39	M40	55	 
380	56	2463	VALTER JÄRVI		1:47:57	0:41:44	N55	1	 
381		2034	KASEVÄLI MAIRO		1:48:03	0:41:50	M	182	 
382		2230	OLVET RIVO		1:48:15	0:42:02	P	6	 
383	57	2309	RETS PILLE		1:48:23	0:42:10	N	32	 
384	58	2460	VALGE KERLI	Jooksupartner	1:48:28	0:42:15	N	33	 
385		2476	VEREV OLAVI		1:48:29	0:42:16	M65	2	 
386		1997	JÕESAAR RAINER	TTü	1:48:30	0:42:17	M	183	 
387		2170	MALTIS JAKKO		1:48:32	0:42:19	M	184	 
388		2295	RANDMÄE MARGUS	Pärnu Kahe Silla Klubi	1:48:34	0:42:21	M	185	 
389	59	1864	GERASSIMOVA ANASTASIA		1:48:35	0:42:22	N	34	 
390		2322	RUDISSAAR HANNO		1:48:36	0:42:23	MJ	7	 
391		2259	PIHLAK SANDER	Benito Puit AS	1:48:40	0:42:27	M	186	 
392		2429	TŠEREDNIK ANDREI		1:48:40	0:42:27	M	187	 
393	60	2205	NAABER MERILI	FB jooksmine	1:48:44	0:42:31	N	35	 
394		1981	IBIS MARGUS		1:48:50	0:42:37	M45	31	 
395		2484	VIHERPUU HANNES	nüRTH	1:48:54	0:42:41	M40	56	 
396		2427	TRISBERG KARL-ERICH	Advokaadibüroo Tark Grunte Sutkiene	1:48:56	0:42:43	M	188	 
397	61	2371	SOOME IMBI	JCI Estonia	1:48:59	0:42:46	N40	10	 
398	62	1863	ETVERK MERIKE	Rakvere Lihakombinaat	1:49:07	0:42:54	N40	11	 
399		2099	KUUDER KUNNAR	Savi-ja Lubjameistrid Oü	1:49:16	0:43:03	M	189	 
400	63	2255	PETERSON TRIIN		1:49:17	0:43:04	N40	12	 
401	64	1989	JAAKSON HANNA		1:49:21	0:43:08	N	36	 
402		2049	LOHUR PEEDU		1:49:22	0:43:09	M	190	 
403		2424	TOOMINGAS JAAN		1:49:29	0:43:16	M	191	 
404		2440	TÕNISSON TAMBET		1:49:34	0:43:21	M	192	 
405		2501	ÕUNAPUU KARL	Kirde KRK	1:49:37	0:43:24	M	193	 
406		2393	TALI MEELIS	Kirde KRK	1:49:37	0:43:24	M	194	 
407		2438	TÕKKE MARGUS		1:49:44	0:43:31	M40	57	 
408		2252	PEETRIMÄGI SIIM		1:49:45	0:43:32	M	195	 
409		2450	URVA URMAS		1:49:47	0:43:34	M40	58	 
410	65	1978	HÄRM EVE	Tallinna Lennujaama Spordiklubi	1:49:50	0:43:37	N	37	 
411		1929	BAUMAN MEELIS		1:49:56	0:43:43	M	196	 
412		2189	MOONEY TRISTAN		1:49:56	0:43:43	P	7	 
413		2177	MEIER RAIVO	JK HERMES	1:49:56	0:43:43	M65	3	 
414		2312	ROHTMA VALDEK		1:49:59	0:43:46	M	197	 
415	66	1898	ZALITE INGA	VSK Noskrien	1:50:00	0:43:47	N	38	 
416		1820	RAAM MÄRT	Rakvere SK	1:50:00	0:43:47	M	198	 
417		1812	ERALA RANNO		1:50:01	0:43:48	M	199	 
418		2250	PAUR SILVER	SK AASPERE	1:50:01	0:43:48	M	200	 
419		2149	LORVI URMAS		1:50:02	0:43:49	M45	32	 
420	67	1923	ARON KRISTI	Kunda ühisgümnaasium	1:50:07	0:43:54	N	39	 
421		1932	BUŠIN PEEP		1:50:11	0:43:58	M	201	 
422		2479	VESKI MIHKEL	Rakvere Gümnaasium	1:50:13	0:44:00	MJ	8	 
423		2118	LAAGER RAIN	Oü MAILER	1:50:21	0:44:08	M	202	 
424		1957	GLUHHOVTSENKO MAKSIM		1:50:23	0:44:10	M	203	 
425		2522	LIIVARAND EERO		1:50:31	0:44:18	M45	33	 
426	68	2095	KURS MARILIIS	Kohtla-Nõmme SK	1:50:35	0:44:22	N	40	 
427		2106	KÄBIN RAIT		1:50:37	0:44:24	M	204	 
428		2380	SUURKUUSK ANDRES	Sparta	1:50:41	0:44:28	M50	19	 
429		2251	PEDAJAS KAIDUR	nestline Team	1:50:46	0:44:33	M40	59	 
430	69	2244	PALOOTS KARIN		1:50:46	0:44:33	N	41	 
431	70	2454	UUSKÜLA LIIS	Männikumägi	1:50:50	0:44:37	NJ	2	 
432	71	1922	ANTONS MAILI	Ambla SK	1:51:05	0:44:52	N40	13	 
433	72	2556	MEY TEA		1:51:13	0:45:00	N	42	 
434		2130	LEINAKSE MADIS	Tallinna Tehnikaülikool	1:51:14	0:45:01	M	205	 
435	73	2423	TOOMINGAS TERJE	SK Stamina	1:51:18	0:45:05	N	43	 
436		2386	SÄÄRITS LAURI		1:51:20	0:45:07	M	206	 
437	74	1908	AITMAN HANNELY	SK AASPERE	1:51:23	0:45:10	N	44	 
438		1976	HODÕREV SERGEI	Politsei Ida prefektuur	1:51:25	0:45:12	M40	60	 
439		2561	KELL AARNE		1:51:25	0:45:12	M60	3	 
440		2280	PÄHKLAMÄE VIKOTR	nüRTH	1:51:25	0:45:12	M40	61	 
441		2578	OIDE MATI		1:51:29	0:45:16	MN	19	 
442		2301	RAUDSEPP ANDRES	Rakvere Ametikool	1:51:31	0:45:18	MJ	9	 
443		2383	SÄBEL VIRKO	Aru Grupp AS	1:51:32	0:45:19	M	207	 
444		2401	TAMMJÄRV JAANUS		1:51:32	0:45:19	M40	62	 
445		2533	PALO EVEN		1:51:37	0:45:24	MN	20	 
446	75	1913	ALNEK AIRI		1:51:46	0:45:33	N45	7	 
447		1915	ALTMETS VALEV		1:51:48	0:45:35	M45	34	 
448	76	2335	SANGLA KARIN		1:51:52	0:45:39	N40	14	 
449		1906	AGU HANS	Mars	1:51:55	0:45:42	M	208	 
450	77	2219	NÕGU LIISI		1:52:07	0:45:54	N	45	 
451		2330	SAAREND MATI		1:52:16	0:46:03	M60	4	 
452		2105	KÕIV KULDAR		1:52:25	0:46:12	M	209	 
453		2585	SIIDRA KAIMAR		1:52:29	0:46:16	M	210	 
454	78	2586	EHASALU MARTA		1:52:29	0:46:16	N	46	 
455		2055	KIVIOJA KALEV	Pajusti Ehitus Grupp	1:52:31	0:46:18	M45	35	 
456		2300	RAUDSEPP AIVAR	Alutaguse Malev	1:52:37	0:46:24	M50	20	 
457	79	2127	LEETMAA ÕNNE-LIINA		1:52:41	0:46:28	N	47	 
458		2444	TÜRK MAARJO		1:52:43	0:46:30	M	211	 
459		1958	GOLBERG ANDRUS	Politsei Ida prefektuur	1:52:47	0:46:34	M40	63	 
460	80	2568	GLADÕSEVA GALINA		1:52:59	0:46:46	N50	4	 
461		2276	PUNA VALDO		1:53:08	0:46:55	M	212	 
462		2161	LÕHMUS INDREK		1:53:08	0:46:55	M50	21	 
463	81	2096	KUSNETS KERLI	eitsa	1:53:08	0:46:55	N	48	 
464	82	2160	LÕHMUS SILJA		1:53:08	0:46:55	N50	5	 
465		2398	TAMM INDREK		1:53:12	0:46:59	M	213	 
466		2275	PUIESTIK PEEP		1:53:12	0:46:59	M40	64	 
467	83	2011	KADASTIK VERONIKA		1:53:13	0:47:00	N	49	 
468		2283	PÄRNPUU ELVIS		1:53:21	0:47:08	M	214	 
469		2399	TAMM KAIRO		1:53:23	0:47:10	M	215	 
470	84	2566	OJAOTS KAURA		1:53:24	0:47:11	N	50	 
471		2439	TÕNISE LAURI		1:53:29	0:47:16	M	216	 
472		2059	KLIIMAN ELARI	SK Saarde	1:53:32	0:47:19	M	217	 
473		1988	IVANOV MAREK		1:53:33	0:47:20	M	218	 
474		2068	KOOLI TERKO	JELD-WEN Eesti AS	1:53:35	0:47:22	M	219	 
475		1941	ELLER ENDRIK	Trismile	1:53:46	0:47:33	M	220	 
476		1930	BAUMVERK MÄRT		1:53:54	0:47:41	M40	65	 
477		2347	SEINPERE VELLO		1:54:08	0:47:55	M	221	 
478	85	2481	VESKIMÄE AIRE		1:54:09	0:47:56	N	51	 
479	86	2249	PAULUS SILJA	Elujooks	1:54:12	0:47:59	N	52	 
480		2341	SAU TAUNO	Pääste	1:54:13	0:48:00	M	222	 
481		2412	TILK TAAVI		1:54:13	0:48:00	M	223	 
482		2446	UKSOV DENIS	RTA Tarbatu	1:54:19	0:48:06	M	224	 
483	87	2168	MALINOVSKAJA KRISTINA		1:54:20	0:48:07	N	53	 
484	88	2579	JÕGI KATRIN		1:54:21	0:48:08	NN	5	 
485		2545	PAAS MEELIS		1:54:24	0:48:11	M	225	 
486		2187	MIKSON VALENTIN	NIISAMA/Oü Graveerimiskeskus	1:54:27	0:48:14	M50	22	 
487		2061	KOKK URMAS	Tallinna Prantsuse Lütseum	1:54:28	0:48:15	M50	23	 
488	89	2490	VILLAK MARJU	FB jooksmine	1:54:31	0:48:18	N	54	 
489	90	1925	ASI ASTRID		1:54:34	0:48:21	N	55	 
490	91	2140	LILLE LIIS	Harju KEK RSK	1:54:39	0:48:26	N65	1	 
491	92	2315	ROOPÄRG MARIKA	MyFitness	1:54:39	0:48:26	N45	8	 
492		2065	KOMPUS ANDRUS	Eesti norldloppeti Klubi	1:54:44	0:48:31	M50	24	 
493		2144	LOBANOV RAUL	äRIPäEVA SK	1:54:52	0:48:39	M	226	 
494		2468	VASARIK AARNE		1:54:53	0:48:40	M	227	 
495		2390	ZIRNASK GUNNAR		1:54:55	0:48:42	M55	8	 
496	93	2164	MAANSO HELINA	Suusahullud	1:55:06	0:48:53	N	56	 
497		1878	LĪDAKA PĒTERIS	adidas	1:55:07	0:48:54	M	228	 
498	94	1999	JÕESSAR KRISTA	Politsei- ja Piirivalveamet	1:55:13	0:49:00	N	57	 
499		2204	MÜÜRSEPP TARMO	Siilike	1:55:23	0:49:10	M40	66	 
500		2021	KAMS TAAVI	Rakvere Karmeli kogudus	1:55:26	0:49:13	MN	21	 
501		1825	ARUTYUNYAN DAVID		1:55:26	0:49:13	M	229	 
502		1940	EINSTEIN MIIKAEL	Rakvere Karmeli kogudus	1:55:26	0:49:13	P	8	 
503		2357	SIKK ERIK		1:55:38	0:49:25	M40	67	 
504	95	1927	AUSMEES EVELIN	JCI Estonia	1:55:41	0:49:28	N	58	 
505		2388	ŠEVTŠENKO PJOTR		1:55:44	0:49:31	M	230	 
506	96	2268	PLOOMPUU GRETHE-JOHANNA	Harju KEK RSK	1:55:47	0:49:34	T	1	 
507		1937	EIMLA MIHKEL		1:55:50	0:49:37	MN	22	 
508		2425	TOOS TAAVI	korp!Leola	1:55:52	0:49:39	M	231	 
509		2148	LOPSIK ANDREI	Eesti Energia SK	1:55:53	0:49:40	M55	9	 
510		2147	LOPSIK PRIIT	Hansa SK	1:55:53	0:49:40	M	232	 
511	97	2267	PLOOMPUU RIIKA	Hansa SK	1:55:56	0:49:43	N40	15	 
512		1938	EINBAUM PEETER		1:56:04	0:49:51	M	233	 
513	98	2253	PEETS KADI		1:56:22	0:50:09	N	59	 
514	99	1993	JUNDAS KADRI-ANN	JELD-WEN Eesti AS	1:56:38	0:50:25	N40	16	 
515		2469	VASK RAAVO	Estonian Cell	1:56:39	0:50:26	M	234	 
516		2266	PITK MAIRO	Stora Enso Eesti AS Näpi saev	1:56:43	0:50:30	M	235	 
517		2560	ARUSK KARL		1:56:49	0:50:36	P	9	 
518		1970	HEINTALU MARTIN	JELD-WEN Eesti AS	1:57:08	0:50:55	M	236	 
519		2184	METS MADIS	Toila	1:57:12	0:50:59	M	237	 
520	100	2554	LESNER SANDRA		1:57:12	0:50:59	N	60	 
521		1952	FILIPPOV ARTJOM		1:57:19	0:51:06	M	238	 
522		1985	INGEL ALAN	TTü	1:57:20	0:51:07	M	239	 
523	101	2494	VOLMERSON LIINA		1:57:21	0:51:08	N	61	 
524	102	2006	KAARMA MARGE	Sportland	1:57:26	0:51:13	N40	17	 
525		2104	KUUSMANN HEIKI	RADEMAR	1:57:26	0:51:13	M	240	 
526		2229	OLLE KERT	RADEMAR	1:57:26	0:51:13	M	241	 
527		2570	KAASIK KEN		1:57:26	0:51:13	MJ	10	 
528		2573	KOLLOM SANDER		1:57:31	0:51:18	M40	68	 
529	103	2448	UNDREST ANNELI	Eesti Posti SK	1:57:43	0:51:30	N	62	 
530		2410	TIKS PRIIT		1:57:44	0:51:31	M	242	 
531	104	2594	AAGVER MARIS		1:57:51	0:51:38	N	63	 
532		2366	SOELL SIEGFRIED	Brokolli Poner Team	1:57:52	0:51:39	M40	69	 
533	105	2015	KALE MERLE		1:57:52	0:51:39	N	64	 
534	106	1919	ANNUK MERIKENE		1:57:55	0:51:42	N	65	 
535	107	2185	METSSALU GINA	RADEMAR	1:57:56	0:51:43	N	66	 
536		1822	VARES KRISTJAN	Vak Staier	1:57:56	0:51:43	M	243	 
537	108	2196	MÕIK CAISA-MERILI		1:58:08	0:51:55	N	67	 
538		2598	TINTS JOEL		1:58:12	0:51:59	M45	36	 
539		2176	MAUER TIIT		1:58:14	0:52:01	M40	70	 
540	109	2443	TÄÄR KARIN		1:58:14	0:52:01	N	68	 
541		2535	JALAST RAUL		1:58:14	0:52:01	M40	71	 
542		2074	KORSAR TAAVI		1:58:20	0:52:07	M	244	 
543		2109	KÄRPUK ANDRUS	GoBus	1:58:20	0:52:07	M50	25	 
544	110	2027	KAPTEN TIINA		1:58:20	0:52:07	N	69	 
545	111	2002	JÜRIADO TIIU	Suusahullud	1:58:29	0:52:16	N	70	 
546		2319	ROSENBERG TARMO		1:58:30	0:52:17	M	245	 
547		1998	JÕESAAR RANDAR	TTü	1:58:31	0:52:18	M	246	 
548		2036	KASPER JAANUS		1:58:35	0:52:22	M	247	 
549		2433	TULP KRISTJAN	Slacker Running	1:58:38	0:52:25	M	248	 
550		2296	RANDVER KRISTER	SA KIK	1:58:45	0:52:32	M	249	 
551	112	2348	SELJAK KATRIN	Itella	1:58:50	0:52:37	N40	18	 
552	113	2564	VIRKUS KARMEL		1:58:55	0:52:42	T	2	 
553	114	2493	VIRKUS KATREL	TTü	1:58:55	0:52:42	NN	6	 
554		2462	VALLIMAA OLAR	JELD-WEN Eesti AS	1:59:04	0:52:51	M	250	 
555		2091	KULL AIVO	JELD-WEN Eesti AS	1:59:07	0:52:54	M45	37	 
556		2413	TIMMERMANN TOOMAS		1:59:13	0:53:00	M	251	 
557	115	2307	RELVIK KRISTI		1:59:15	0:53:02	N	71	 
558	116	2538	VIMERPUU KAIRI		1:59:30	0:53:17	N40	19	 
559		2310	RIKKER KARL-STEVEN	Vändra Gümnaasium	1:59:36	0:53:23	P	10	 
560		2342	SAUPÕLD TAURI	TTü	1:59:50	0:53:37	M	252	 
561		2279	PÕLLUÄÄR AHTI	Savi- ja Lubjameistrid Oü	2:00:06	0:53:53	M	253	 
562	117	2214	NOORLIND GERDA	Tallinna ülikool	2:00:13	0:54:00	N	72	 
563	118	2542	METS MARI		2:00:13	0:54:00	N	73	 
564		2336	SARAPU SIIM	JELD-WEN Eesti AS	2:00:16	0:54:03	M	254	 
565		2474	VEILBERG AGO	Päästeamet	2:00:19	0:54:06	M45	38	 
566		2600	ABEL RENEE		2:00:25	0:54:12	M40	72	 
567	119	2483	VETEMÄE LAGLE		2:00:32	0:54:19	N	74	 
568	120	2100	KUUS MAILA		2:00:34	0:54:21	N40	20	 
569		2372	SOOMRE TEET		2:00:34	0:54:21	M	255	 
570		1990	JAHILO VALDO	TriSmile	2:00:37	0:54:24	M40	73	 
571		2525	KARTAU MADIS		2:00:44	0:54:31	MJ	11	 
572	121	2097	KUTTI ELINA		2:00:49	0:54:36	N	75	 
573		2098	KUTTI KULDAR	Bestclean Puhastusteenistus Oü	2:00:51	0:54:38	M	256	 
574	122	2356	SIKK MIINA		2:00:51	0:54:38	N	76	 
575	123	2232	ORULA SILJA	Flamante	2:00:54	0:54:41	N	77	 
576	124	1963	HAAV ÜLLE		2:01:06	0:54:53	N50	6	 
577	125	1974	HILLER MAIKI	Sparta	2:01:08	0:54:55	N	78	 
578	126	2379	SUUR MAICHL		2:01:10	0:54:57	N	79	 
579	127	2340	SARV ENELI		2:01:10	0:54:57	N	80	 
580		2574	LEHTOJA URMAS		2:01:15	0:55:02	M45	39	 
581		2089	KUKK KALLE		2:01:17	0:55:04	M40	74	 
582		1953	FJODOROV ALEKSANDER		2:01:20	0:55:07	M	257	 
583	128	2409	TIGANE SILVA		2:01:21	0:55:08	N45	9	 
584	129	2004	JÜRISAAR MARIT		2:01:30	0:55:17	N	81	 
585	130	2308	RENTNIK REELIKA		2:01:31	0:55:18	N	82	 
586		2458	VAINSALU MIKO	JELD-WEN Eesti AS	2:01:32	0:55:19	M	258	 
587		2364	SMIRNOV DMITRI	Sportland	2:01:33	0:55:20	M	259	 
588	131	2071	KOPLIMÄGI MARIKA	KVüõA	2:01:33	0:55:20	N40	21	 
589	132	2108	KÄRP MARGRIT	TERVIS GRUPP	2:01:35	0:55:22	N40	22	 
590		2131	LEISALU SIIM	Timbeco noodhouse Oü	2:01:37	0:55:24	M	260	 
591		2584	JÄNES KALLE		2:01:41	0:55:28	M	261	 
592		2029	KARJA ARTJOM	Politsei- ja Piirivalveamet	2:01:45	0:55:32	M	262	 
593		2352	SERG REEMO	SCA	2:01:52	0:55:39	M	263	 
594		2552	ROOMET RENE		2:01:57	0:55:44	M40	75	 
595		2072	KOPPEL TÕNU		2:01:57	0:55:44	M40	76	 
596		1954	FLOREN JANEK		2:02:00	0:55:47	M	264	 
597	133	2209	NAISSON GERLIN	adidas	2:02:04	0:55:51	N	83	 
598		2344	SEIL TÕNU	adidas	2:02:04	0:55:51	M	265	 
599	134	2056	KIVISTIK ELERI	FB jooksmine	2:02:05	0:55:52	N	84	 
600		2054	KIVILAAN AIN	ühinenud Ajalehed	2:02:07	0:55:54	M	266	 
601		2419	TOMENTŠUK VITALI	Kirde KRK	2:02:10	0:55:57	M	267	 
602	135	2320	ROSENBLATT REET	Flamante	2:02:18	0:56:05	N	85	 
603	136	1869	JÜRGENSON ERIKA	21CC Triatloniklubi	2:02:20	0:56:07	N40	23	 
604	137	1910	ALAOTS MAIE	Lasteaed Kungla	2:02:23	0:56:10	N45	10	 
605	138	2334	SALUJÕE KAIDI		2:02:27	0:56:14	N	86	 
606		2037	KASTEMÄE TARMO	Innopolis	2:02:27	0:56:14	M	268	 
607	139	2354	SIILIVASK KAIE		2:02:31	0:56:18	N	87	 
608		2206	NAABER JAAN	adidas	2:02:37	0:56:24	M	269	 
609	140	1965	HEINARU JANNE	adidas	2:02:37	0:56:24	N	88	 
610		2025	KANNISTE AIVAR	nüRTH	2:02:43	0:56:30	M45	40	 
611		1975	HIPELI EINARI		2:02:44	0:56:31	M65	4	 
612		2549	KULVER RÜNNO		2:02:51	0:56:38	M	270	 
613	141	2306	REISEL ASTA	DB Schenker	2:02:57	0:56:44	N45	11	 
614		2333	SALLA JAKO	Justiitsministeerium	2:03:02	0:56:49	M	271	 
615	142	2377	SURVA LAIDI		2:03:03	0:56:50	N	89	 
616	143	1931	BOLTOVSKY MAIA	KVüõA	2:03:12	0:56:59	N40	24	 
617	144	2013	KALA KATRIN		2:03:30	0:57:17	N	90	 
618	145	2363	SISAS NELE		2:03:34	0:57:21	N	91	 
619	146	2116	KÜTTIM ANNE		2:03:37	0:57:24	N40	25	 
620	147	2224	NÕMMISTE LEIE		2:03:40	0:57:27	N	92	 
621		2339	SAREVET HENRI	TTü	2:03:44	0:57:31	MN	23	 
622	148	2115	KÜLLJASTINEN KRISTI	Myfitness	2:03:46	0:57:33	N	93	 
623	149	1900	TEEVÄLI LEILI	EKVA	2:03:47	0:57:34	N65	2	 
624		1911	ALAVERE ANTI		2:03:47	0:57:34	M40	77	 
625		2228	OLGO RAIVO	Stora Enso Eesti AS Näpi saev	2:04:06	0:57:53	M40	78	 
626		2530	KISAND MARTIN-LEO		2:04:21	0:58:08	M	272	 
627		1979	HÜTT RIHO		2:04:23	0:58:10	M55	10	 
628		2378	SUUR TEET		2:04:24	0:58:11	M	273	 
629	150	2441	TÕNNISON LEA		2:04:30	0:58:17	NJ	3	 
630	151	2157	LUMI KATRI		2:04:32	0:58:19	N	94	 
631		2303	REBANE HEIKI	Kroko	2:04:32	0:58:19	M	274	 
632		2213	NOKKUR ANTS		2:04:37	0:58:24	MJ	12	 
633	152	2487	VIKS LIINA		2:04:38	0:58:25	N	95	 
634	153	2200	MÄNNIK AURIKA	Tallinna Tulised Ilvesed GAA	2:04:39	0:58:26	N	96	 
635		2181	MERILA MATI		2:04:41	0:58:28	M45	41	 
636	154	2169	MALMBERG INES		2:04:46	0:58:33	N	97	 
637	155	2571	UDUSAAR AET		2:04:50	0:58:37	N	98	 
638		2422	TOOMING MARKO		2:04:52	0:58:39	M	275	 
639	156	2236	PAAPSI KEIU		2:04:56	0:58:43	N	99	 
640		2473	VEHLMANN JAAN	JK Hermes	2:04:57	0:58:44	M65	5	 
641		2256	PETERSON MAREK		2:05:32	0:59:19	M	276	 
642		1986	INNO MIHKEL		2:05:59	0:59:46	M45	42	 
643	157	2492	VILT MIRJE	Spordiklubi SIRIUS CLUB	2:06:10	0:59:57	N40	26	 
644		2382	SÕBER ELION		2:06:15	1:00:02	MN	24	 
645	158	2265	PIRN ANNE	Mandatum Life Insurance Baltic SE	2:06:17	1:00:04	N	100	 
646	159	2111	KÖÖP KADRI		2:07:09	1:00:56	N	101	 
647	160	2414	TINNURI LIINA	Lasteaed Kungla	2:07:12	1:00:59	N45	12	 
648	161	2451	UUETALU RITA	SK Metsasõbrad	2:07:13	1:01:00	N55	2	 
649		2217	NURMBERG AIGAR		2:07:22	1:01:09	M	277	 
650		2588	ROOTS ANTO		2:07:29	1:01:16	M40	79	 
651		2337	SARAPUU JOONAS	Innopolis	2:07:37	1:01:24	M	278	 
652	162	1962	HAARDE MAIKEN	Sportland	2:07:41	1:01:28	N	102	 
653		2222	NÕMMIK RAIVO	Sportland	2:07:41	1:01:28	M	279	 
654	163	2432	TUISK MARIS		2:07:47	1:01:34	N40	27	 
655		2572	LEPP ERKKI		2:07:52	1:01:39	M	280	 
656	164	2397	TAMM KARIN		2:07:56	1:01:43	N40	28	 
657	165	2496	VÄHI KARIN	Uhtna	2:07:59	1:01:46	N	103	 
658		2546	HEINMETS MAGNUS		2:08:37	1:02:24	M	281	 
659	166	2155	LUIK EVELIN		2:08:40	1:02:27	N	104	 
660	167	2392	TAJUR TRIIN		2:08:57	1:02:44	NN	7	 
661		2173	MARKOV KARL	Rakvere Ametikool	2:09:00	1:02:47	P	11	 
662	168	2218	NURMIS PILLE	Elioni SK	2:09:02	1:02:49	N50	7	 
663		2239	PAJULA VEILO		2:09:25	1:03:12	M40	80	 
664	169	2328	SAAR MARJAN		2:09:46	1:03:33	N40	29	 
665		2449	URB HANNES	Estonian Cell	2:10:02	1:03:49	M	282	 
666	170	2207	MULLA KAJA	Stamina SK	2:10:07	1:03:54	N45	13	 
667		2172	MARCINKEVICZ JÜRI	Pärm Racing Team/Kaimar Grupp Oü	2:10:12	1:03:59	M45	43	 
668	171	2502	ÕUNAPUU-SEIDELBERG KAILI		2:10:13	1:04:00	N	105	 
669	172	2565	KÄÄRST KÄRT		2:10:18	1:04:05	N	106	 
670	173	2367	SOKK AIRI		2:10:18	1:04:05	N	107	 
671	174	2078	KRIISA NELE	Alpi SK	2:10:20	1:04:07	NJ	4	 
672		2124	LARIONOV ANDRE	EKV	2:10:24	1:04:11	M	283	 
673	175	2076	KRIISA TIINA		2:10:32	1:04:19	N	108	 
674		2582	TAMBERG RENE		2:10:40	1:04:27	M	284	 
675	176	1899	ZALITE IEVA	VSK Noskrien	2:10:42	1:04:29	N	109	 
676		2174	MARKVARDT AGO	adidas	2:11:32	1:05:19	M40	81	 
677	177	1950	ERNITS INGRIT	Tabasalu Triatloniklubi	2:11:55	1:05:42	N45	14	 
678		2057	KLAOS SANDER		2:12:07	1:05:54	M	285	 
679	178	2248	PAUL REELIKA		2:12:42	1:06:29	N	110	 
680	179	2005	KAAL LIISI		2:12:56	1:06:43	N	111	 
681	180	2346	SEILENTHAL SIRLE	Grupeerunud spordilaiskurid	2:12:56	1:06:43	N	112	 
682		2345	SEILENTHAL JUHANI	MTü Pärsama Päike	2:12:56	1:06:43	M40	82	 
683	181	1948	ERM EVELIINE	Tartu Vangla	2:13:39	1:07:26	N40	30	 
684	182	2351	SEPPING LEENI		2:13:44	1:07:31	N	113	 
685	183	2082	KRULL ANNE	Tartu KHK	2:13:49	1:07:36	N40	31	 
686	184	2376	SUIK INGA	SK Kolm Paksu	2:14:16	1:08:03	N	114	 
687		1944	ENGEL MARGO		2:14:16	1:08:03	M	286	 
688	185	2326	RÜÜTEL RAILI	RADEMAR	2:14:19	1:08:06	N	115	 
689		2238	PAJU TARMO	JELD-WEN Eesti AS	2:14:22	1:08:09	MN	25	 
690		2558	MARKUS MARTIS		2:14:49	1:08:36	P	12	 
691	186	2405	TEPPAND ENNIKE		2:14:50	1:08:37	N45	15	 
692	187	2482	VESKIMÄE RIINA	Sportland	2:14:57	1:08:44	N	116	 
693	188	2009	KAASIK JUTA	NELSON	2:14:59	1:08:46	N40	32	 
694		2135	LESTMANN TAUNO	Kirde KRK	2:15:02	1:08:49	M	287	 
695	189	2417	TOLK TRIINU	EAS	2:15:02	1:08:49	N	117	 
696	190	2067	KOOK ANNIKA	Kirde KRK	2:15:03	1:08:50	NN	8	 
697		2557	MARKUS TAAVI		2:15:18	1:09:05	P	13	 
698	191	2024	KANNEL KÜLVI		2:15:20	1:09:07	N	118	 
699	192	2260	PIIRSOO CLELIA		2:15:27	1:09:14	N45	16	 
700		2368	SOKOLOV ARTJOM	Estonian Cell	2:15:56	1:09:43	M	288	 
701		2547	ÖÖPIK MIHKEL		2:16:05	1:09:52	M	289	 
702	193	1907	AIT MARILIIS	JELD-WEN Eesti AS	2:16:40	1:10:27	N	119	 
703		2281	PÄLL ERKI		2:17:44	1:11:31	M	290	 
704	194	2282	PÄRN PIRET		2:17:44	1:11:31	N	120	 
705		1939	EINSTEIN MEELIS	Rakvere Karmeli kogudus	2:17:49	1:11:36	M50	26	 
706	195	2165	MAASING MARI-LIIS	Rakvere Karmeli kogudus	2:17:55	1:11:42	NN	9	 
707		2092	KULVER KRISTO	Naerata Ometi	2:17:55	1:11:42	M	291	 
708	196	1967	HEINASTE SIRLY	JELD-WEN Eesti AS	2:18:16	1:12:03	N	121	 
709		2145	LODE VELLO		2:18:58	1:12:45	M65	6	 
710	197	2121	LAIDRO LUULE	Lääne-Virumaa SVK	2:19:37	1:13:24	N65	3	 
711	198	1903	AAS JANNE	MTü Nordea Spordiklubi	2:20:15	1:14:02	N	122	 
712		2291	RAJAMÄGI PRIIT		2:20:38	1:14:25	M	292	 
713	199	2421	TOOMESOO LAURA	Pärnu Kahe Silla Klubi	2:21:26	1:15:13	N	123	 
714		2223	NÕMMIK RAIVO	adidas	2:21:31	1:15:18	M	293	 
715	200	2467	VARTIAINEN RITA		2:21:48	1:15:35	N	124	 
716	201	2093	KUMMER MARI	Sportland	2:22:46	1:16:33	N	125	 
717	202	2539	KANGRO MERIKE		2:22:54	1:16:41	N	126	 
718		2540	MÄGI HOLGER		2:22:54	1:16:41	M	294	 
719	203	2159	LUUKA ESTA		2:22:57	1:16:44	N45	17	 
720	204	2050	KIMBER - KAARMA LEA	Sportland	2:23:28	1:17:15	N40	33	 
721	205	1935	EHRLICH MARITE		2:24:16	1:18:03	NN	10	 
722	206	2016	KALJUR MARI-LIIS	HARJU KEK RSK	2:24:18	1:18:05	N	127	 
723		1871	KALJUR MAIDO	HARJU KEK RSK	2:24:19	1:18:06	M50	27	 
724	207	2202	MÖLDER JANE	Sisekaitseakadeemia	2:24:35	1:18:22	NN	11	 
725	208	1926	ASTANOVSKAJA KATERINA		2:25:30	1:19:17	N	128	 
726		2020	KALVISTU KRISTO		2:26:02	1:19:49	M	295	 
727	209	2529	JATSA ANNI		2:26:02	1:19:49	N	129	 
728	210	2000	JÄME ANNALIISA		2:26:08	1:19:55	NN	12	 
729	211	2497	VÄITS LIINA		2:27:10	1:20:57	N	130	 
730	212	2389	ZAHHAROVA OKSANA		2:28:36	1:22:23	N	131	 
731	213	2114	KÜLAOTS KAIDI		2:28:55	1:22:42	NN	13	 
732	214	2210	NESTOR MAILI		2:28:55	1:22:42	NN	14	 
733		2197	MÄEKIVI VEIKO		2:29:52	1:23:39	M	296	 
734	215	2153	LUIK ELVE		2:29:52	1:23:39	N	132	 
735	216	2332	SAKS MAARIKA		2:29:54	1:23:41	N45	18	 
736	217	2395	TALU ANU	nestline Team	2:30:09	1:23:56	N45	19	 
737	218	2325	RÄÄK ERET	Nordea SK	2:32:21	1:26:08	N	133	 
738		2375	SPASOV ILIYAN	FMT	2:32:22	1:26:09	M	297	 
739	219	2597	METSALLIK NELE		2:32:22	1:26:09	N	134	 
740	220	2151	LUHTSALU VIRGE		2:37:12	1:30:59	N	135	 
741		2152	LUHTSALU VAHUR		2:37:12	1:30:59	M40	83	 
742		2262	PIKHOF JAN	Rautakesko AS	2:37:59	1:31:46	M	298	 
743		2596	PÕLDOJA MIHKEL		2:39:09	1:32:56	M	299	 
744	221	2595	VILK URVE		2:39:09	1:32:56	N	136	 
745	222	2455	UUSPÕLD PIIA		2:41:25	1:35:12	N	137	 
746		2179	MEREKIVI MIKK		2:42:48	1:36:35	M	300	 
747		2488	VILBERG VOOVA		2:43:15	1:37:02	M65	7	 
748		1811	TAMBUR TAAVI	Stamina Arcotransport tiim			M		 
749		1827	SOKOLOV ALEKSEI	SHVSM-KRASNOGVARDEETS			M		 
750		1840	BULINA JULIA	KJK Kalev-Sillamäe			N		 
751		1847	MUUGA MARIAN				N		 
752		1862	ERVIN ALAR	Nõmme SP KL			MJ		 
753		1870	KALDA RUTH	TüASK			N45		 
754		1882	MUULI EERIK	TüASK			MJ		 
755		1904	ABNER ANDRE	Stamina SK			M40		 
756		1905	ABRAM LIINA				N		 
757		1914	ALTIN ENN				P		 
758		1916	ALVER OTT				M		 
759		1924	ARULA KERDO	Rakvere Ametikool			P		 
760		1928	BAIDINA SVETLANA	MTü Nordea Spordiklubi			N		 
761		1933	DOBOLINA TATJANA	LegisPro Oü			N		 
762		1949	ERMANN RAIT	RADEMAR			M		 
763		1960	GUBINSKI ANNELY	RSVK			N		 
764		1966	HEINARU JANNE	Sportland			N		 
765		1992	JOONAS PEEP	Private Project			M45		 
766		2010	KADARI LIINA	adidas			N		 
767		2032	KARU KAAREL	P.D.Team			M		 
768		2040	KEMPEL GREETE				N		 
769		2041	KERDE ÜLLAR	Rakvere Ametikool			P		 
770		2044	KESKRA RAIVO				M		 
771		2045	KIENS JÜRI				M45		 
772		2046	KIENS TUULI				N50		 
773		2053	KIVIKAS ANNELII				N45		 
774		2073	KORIKOV JEVGENI	Rakvere Ametikool			MN		 
775		2075	KOSK HARLES	Kirde KRK			M		 
776		2126	LAUD REGLE	Flamante			N		 
777		2137	LETT MADIS	TTü			M		 
778		2166	MAISTE ANDRUS	Springlux			M45		 
779		2167	MAISTE ANDRUS	Springlux			M45		 
780		2178	MEIER ANNELY	Aru Grupp AS			N		 
781		2183	METS MERIKE				N40		 
782		2192	MURRO MARKO	JELD-WEN Eesti AS			M		 
783		2199	MÄGI JAANUS	Estonian Cell			M		 
784		2203	MÜNTER BRUNO	Kiltsi Tööjõureservid			M55		 
785		2235	PAAP JOEL	Sõpruskond			P		 
786		2237	PAJU TEET				M		 
787		2264	PILIPENKO MAARJA				N		 
788		2270	POOM ROOMET	Esteetika- ja tantsukool			MJ		 
789		2273	PREOBRAZHENSKAYA ANNA	SA PERH			N		 
790		2277	PUOLOKAINEN JANNO	JELD-WEN Eesti AS			M		 
791		2369	SOKOLOV AGNE	DNB			N		 
792		2391	TAGEL ILMAR	MTA Spordiklubi/Haanja Rattakl			M65		 
793		2404	TEEVÄLI LEILI	EKVA			N65		 
794		2418	TOMBAND TANEL	Rautakesko AS			M		 
795		2420	TOOM MARI-LIIS	JCI Estonia			N		 
796		2437	HEINMETS MAGNUS				M		 
797		2452	UUETALU TAVO	SK Metsasõbrad			M50		 
798		2517	MARKOV ALEKSEI	TARTU ÜLIKOOLI AKADEEMILINE SPORDIKLUBI			M		 
799		2519	KOSELEV DENIS	TARTU ÜLIKOOLI AKADEEMILINE SPORDIKLUBI			M		 
800		2523	PEDAI MARTIN				M		 
