Koht	Nkoht	Nr	Nimi	Võistkond	Aeg	2km_VF	2km_koht	Kaotus	Vkl	Koht
1	 	6	TðEREPANNIKOV SERGEI	Stamina Arcotransport meestiim	30:59.0	5:34.5	1	 	M	1
2	 	1	VALLIMÄE VILJAR	MARATONITIIM	31:00.7	5:34.5	2	1.7	M	2
3	 	3	PÜI TAIVO	MARATONITIIM	31:55.9	5:35.3	3	56.9	M	3
4	 	144	VULLA ELAR	MARATONITIIM	32:42.8	5:42.6	4	1:43.8	M	4
5	 	134	MARKOV ALEKSEI	Tartu Ülikool Mehed	32:58.1	5:49.6	7	1:59.1	M	5
6	 	4	SASMIN KAUPO	MARATONITIIM	33:09.9	5:53.7	10	2:10.9	M	6
7	 	135	ANDRESSON MART	Tartu Ülikool Mehed	33:17.7	5:49.3	6	2:18.7	M	7
8	 	45	LEHISMETS PRIIT	 	33:22.6	5:42.7	5	2:23.6	M	8
9	 	26	KOSELEV DENIS	Tartu Ülikool Mehed	33:25.6	5:51.6	8	2:26.6	M	9
10	 	5	JÜRS SANDER	Tartu Ülikool Mehed	33:53.8	6:01.1	13	2:54.8	M	10
11	 	8	REINSALU KRISTO	Stamina Arcotransport meestiim	33:56.7	6:02.5	17	2:57.7	M	11
12	 	121	MÄNNI ALLAN	 	34:21.2	6:02.2	16	3:22.2	M	12
13	 	28	AILT PRIIT	 	34:25.7	6:02.5	18	3:26.7	M	13
14	 	145	IVANOV IVAR	Tääglova Noored	34:27.4	5:52.5	9	3:28.4	M	14
15	 	33	TAMMEMÄE JOOSEP	 	34:38.4	6:03.1	20	3:39.4	MN	1
16	 	7	TAMBUR TAAVI	Stamina Arcotransport meestiim	34:38.7	6:01.6	14	3:39.7	M	15
17	 	27	KAIS ÜLARI	VAK Staier	34:47.9	6:01.7	15	3:48.9	M	16
18	 	38	HVALÕNSKI ROMAN	 	34:56.0	6:19.1	24	3:57.0	M	17
19	 	99	VEILBERG AGO	 	35:09.2	6:12.0	21	4:10.2	M 45	1
20	 	80	MATT ÜLLAR	 	35:23.2	6:17.0	22	4:24.2	M 50	1
21	 	81	JUHKOV JANAR	 	35:37.3	5:57.7	11	4:38.3	M	18
22	 	30	RAUDSEPP RAIMO	 	35:45.4	6:20.8	25	4:46.4	M	19
23	 	141	PIIP KAAREL	 	35:50.7	5:58.2	12	4:51.7	M	20
24	 	57	HANNUS SANDER	 	35:53.4	6:17.7	23	4:54.4	M	21
25	 	31	SUBI RIVO	VAK Staier	35:57.9	6:28.8	27	4:58.9	M	22
26	 	864	TAMMJÄRV KAREL	 	36:26.8	6:51.0	57	5:27.8	M	23
27	 	122	MÄE TAMBET	 	36:27.7	6:20.9	26	5:28.7	M	24
28	 	44	MOOSES MARTIN	 	36:32.6	6:02.9	19	5:33.6	M	25
29	 	146	TIPP ARGO	 	36:34.2	6:49.0	51	5:35.2	M	26
30	 	13	DZJUBA ILJA	Stamina I	36:35.9	6:40.3	34	5:36.9	M	27
31	 	77	KALA TAAVI	 	36:37.6	6:43.7	38	5:38.6	M	28
32	 	47	SIMSON PRIIT	Elva Jooksusarja Tiim	36:38.4	6:52.5	64	5:39.4	M	29
33	 	149	PIIRIMÄE PÄRTEL	 	36:41.2	6:36.5	28	5:42.2	M 40	1
34	1	15	TALTS EVELIN	STAMINA ARCOTRANSPORT NAISTIIM	36:50.7	6:39.2	30	5:51.7	N	1
35	 	20	VARES KRISTJAN	VAK Staier	36:53.7	6:40.0	32	5:54.7	M	30
36	 	120	BAUMAN JAANUS	 	36:55.5	6:52.1	63	5:56.5	M	31
37	 	9	SAVASTVER ALAR	Stamina Arcotransport meestiim	36:56.6	6:40.2	33	5:57.6	M 40	2
38	 	97	JAKSON AHTO	 	37:00.0	6:38.9	29	6:01.0	M 40	3
39	 	692	LÄÄN CHRISTJAN	 	37:01.6	6:39.5	31	6:02.6	M	32
40	 	98	HANG TAUNO	 	37:03.2	6:50.2	54	6:04.2	M	33
41	2	133	MÄTAS EGLE	Tartu Ülikool Naised	37:04.8	6:48.6	48	6:05.8	N	2
42	 	12	LAINESTE ANDRES	Stamina I	37:15.6	6:43.3	37	6:16.6	M 40	4
43	3	17	ANDREJEVA OLGA	STAMINA ARCOTRANSPORT NAISTIIM	37:22.7	6:55.7	65	6:23.7	N	3
44	 	32	VAHKAL KAIDO	FB Jooksmine	37:23.9	6:48.2	47	6:24.9	M	34
45	 	166	KIBUSPUU TIIT	 	37:27.0	6:45.7	44	6:28.0	M 45	2
46	 	155	KINDEL HANNO	FB Jooksmine	37:28.7	6:43.9	40	6:29.7	M 40	5
47	 	71	IVANOV ARVO	 	37:38.9	7:00.3	72	6:39.9	M 40	6
48	 	70	SIHT JÜRI	 	37:41.4	6:41.1	36	6:42.4	M 45	3
49	4	100	LUIK LIINA	Tartu Ülikool Naised	37:42.7	6:48.7	49	6:43.7	N	4
50	 	59	TIIKSAAR AARO	 	37:52.9	6:43.7	39	6:53.9	M	35
51	 	127	LUTS MAREK	 	38:03.5	6:51.4	58	7:04.5	M 40	7
52	 	29	KUUSIK MAIT	 	38:05.1	6:50.3	55	7:06.1	M 40	8
53	 	156	ÕUN JAAN	FB Jooksmine	38:06.0	6:44.5	42	7:07.0	M	36
54	 	916	SAAR HEIGO	 	38:10.2	7:00.8	75	7:11.2	M 40	9
55	5	16	MÄGI MERILL	STAMINA ARCOTRANSPORT NAISTIIM	38:18.4	6:48.8	50	7:19.4	N	5
56	 	634	REIVELT KALVI	 	38:23.1	6:49.8	52	7:24.1	M 40	10
57	 	103	GERING MARGUS	 	38:43.4	6:44.9	43	7:44.4	MN	2
58	 	570	LILLEMÄGI INDREK	 	38:43.8	7:18.8	99	7:44.8	M	37
59	 	641	SAAR MAIDU	 	38:44.2	7:18.9	101	7:45.2	M	38
60	6	101	LUIK LILY	Tartu Ülikool Naised	38:51.6	6:59.8	69	7:52.6	N	6
61	 	184	NÕMM MEELIS	Jooksupartner III	38:51.9	7:00.3	73	7:52.9	M	39
62	 	129	VENTA RAINIS	 	38:59.3	6:40.6	35	8:00.3	M	40
63	 	645	ANTALAINEN LAURI	 	39:02.9	6:51.9	62	8:03.9	M	41
64	 	128	ENNO KRISTJAN	 	39:05.5	7:12.0	92	8:06.5	M	42
65	 	92	VETEVOOG KAIDO	Stamina I	39:06.9	6:44.2	41	8:07.9	M	43
66	 	183	ROHELPUU ENNO	 	39:09.3	7:23.4	113	8:10.3	M 40	11
67	 	142	ANNILO MIHKEL	 	39:14.1	6:51.8	61	8:15.1	MN	3
68	 	147	EINASTO MART	 	39:14.3	6:56.5	66	8:15.3	M 40	12
69	 	87	TOMP AHTI	 	39:15.6	7:11.0	88	8:16.6	M	44
70	 	139	MÄE JAANUS	 	39:15.7	7:00.0	70	8:16.7	M	45
71	7	18	ARRO LIIS-GRETE	STAMINA ARCOTRANSPORT NAISTIIM	39:20.8	6:50.8	56	8:21.8	NN	1
72	 	511	PETERSON RICHARD	PekikõhuReissingTiim	39:20.9	7:33.3	136	8:21.9	M	46
73	 	96	PILDER KAUPO	 	39:22.9	6:59.2	68	8:23.9	M	47
74	8	676	TAMBET HELEENE	Tartu Ülikool Naised	39:23.6	7:12.1	93	8:24.6	NJ	1
75	 	187	ENN LAURI	N-Team	39:27.9	7:05.3	80	8:28.9	M	48
76	 	123	LIIVAMÄGI SIIM	 	39:32.8	6:51.7	60	8:33.8	M	49
77	9	136	TOPLAAN JOHANNA	Nobedad Jalakesed	39:35.9	7:11.7	91	8:36.9	NN	2
78	 	268	MÄNNIK AHTI	 	39:40.9	7:12.4	96	8:41.9	M	50
79	 	34	METS MADIS	 	39:43.6	6:51.5	59	8:44.6	M	51
80	 	755	KALMET TAURI	 	39:58.3	6:46.6	45	8:59.3	MN	4
81	 	58	NAGEL KARL-GUSTAV	SK Aaspere	40:04.1	6:47.7	46	9:05.1	P	1
82	 	904	VELBA HEIKI	 	40:10.0	7:49.8	174	9:11.0	MN	5
83	10	137	TÕNNE GRETE	 	40:14.4	7:00.1	71	9:15.4	NN	3
84	 	219	ANTON ARVI	 	40:17.6	7:33.4	137	9:18.6	MN	6
85	 	162	KUUSIK ARON	 	40:17.7	7:07.6	83	9:18.7	MJ	1
86	 	21	TIKVA INDREK	Albe Team	40:19.0	7:09.4	86	9:20.0	M 40	13
87	 	157	LAURING KARRE	FB Jooksmine	40:19.3	7:19.1	104	9:20.3	M 45	4
88	 	180	ÕIGLANE JAAN	 	40:21.2	7:16.8	98	9:22.2	M 40	14
89	 	196	SNITSARENKO TARASS	 	40:24.4	7:19.4	105	9:25.4	M	52
90	 	39	KASEORG TANEL	Elva Jooksusarja Tiim	40:25.1	7:12.2	95	9:26.1	MJ	2
91	 	201	HÄMÄLÄINEN KEIO	Jooksupartner II	40:28.4	7:31.8	134	9:29.4	M	53
92	 	10	LOKK SULEV	Stamina I	40:28.6	7:01.0	78	9:29.6	M 40	15
93	 	445	BAKHVAREV LEV	Kaevanduste SK	40:28.9	7:49.6	173	9:29.9	M 40	16
94	 	40	BORN ILLIMAR	Elva Jooksusarja Tiim	40:30.3	7:12.2	94	9:31.3	MJ	3
95	 	82	KOOP KALLE	SK Saarde	40:31.8	7:16.3	97	9:32.8	M 45	5
96	 	338	TÜRKSON ARNE	 	40:33.3	7:06.1	81	9:34.3	M 40	17
97	 	321	MALEVA MARCO	 	40:33.3	7:25.6	119	9:34.3	M 45	6
98	 	25	KAIGAS EINAR	Jooksupartner II	40:38.0	8:02.6	199	9:39.0	M	54
99	 	107	HÕBE TARMO	 	40:40.9	7:00.8	76	9:41.9	M	55
100	 	84	LASS RISTO	SK Saarde	40:44.9	7:03.7	79	9:45.9	M	56
101	 	211	KARIN PEETER	 	40:48.0	7:25.6	120	9:49.0	M	57
102	11	131	KUUSIK MAIE	Jooksupartner I	40:52.0	7:22.1	107	9:53.0	N 40	1
103	 	356	MERIVÄLJA MARGUS	Jooksupartner III	40:55.7	7:22.6	110	9:56.7	M	58
104	 	172	VAHTRA MÄRT	Potsatajad	41:02.3	7:24.5	114	10:03.3	M	59
105	 	91	NILK ANDRUS	 	41:05.5	7:19.1	103	10:06.5	M 50	2
106	 	111	KOTKAS KALVO	 	41:15.0	7:22.3	109	10:16.0	M	60
107	 	153	TEDER ERKI	 	41:15.0	8:11.3	218	10:16.0	M	61
108	 	138	HYDE MATTHEW	 	41:15.8	7:23.0	112	10:16.8	M	62
109	 	836	PEHK HEIMAR	 	41:20.9	7:44.9	163	10:21.9	M	63
110	 	182	RAAP ILMAR	 	41:23.0	7:18.9	100	10:24.0	M 40	18
111	 	204	KUUSALU IVO	 	41:23.9	7:34.8	140	10:24.9	M	64
112	 	223	KUUSKLA PRIIT	SK Aaspere	41:25.8	7:24.9	116	10:26.8	M	65
113	 	232	MUMM INDREK	 	41:26.2	7:53.9	184	10:27.2	M 40	19
114	 	573	VAHESAAR HEIGO-ELMAR	 	41:30.3	7:29.7	128	10:31.3	P	2
115	 	860	ODER REIN	 	41:32.0	7:47.0	166	10:33.0	M 40	20
116	 	828	KUUSK INDREK	 	41:32.4	8:03.0	202	10:33.4	M	66
117	 	86	TUUR TAAVI	 	41:33.7	7:09.3	85	10:34.7	M	67
118	 	297	SEEPÕLD RAIN	 	41:35.5	7:29.6	126	10:36.5	M	68
119	 	812	HÄELME RISTO	KERS	41:38.5	7:31.4	132	10:39.5	P	3
120	 	490	TAPO MEELIS	 	41:41.4	7:35.6	144	10:42.4	M	69
121	 	170	VÕIP RAIVO	 	41:47.8	7:59.6	197	10:48.8	M 45	7
122	 	705	UIGA TOM	 	41:48.2	7:55.1	189	10:49.2	M	70
123	 	132	NIKOPENSIUS ALLAN	 	41:48.7	6:57.8	67	10:49.7	M	71
124	 	263	KUKK MEELIS	 	41:49.6	7:24.6	115	10:50.6	M 50	3
125	12	191	VAHER ANNIKA	 	41:53.2	7:19.1	102	10:54.2	N 40	2
126	 	119	HILLEP EINAR	 	41:58.1	7:11.5	89	10:59.1	M 40	21
127	 	426	JUURSALU ANDRES	 	41:58.9	6:49.9	53	10:59.9	M	72
128	 	125	KAMS UKU	SK Aaspere	42:01.3	7:09.0	84	11:02.3	MJ	4
129	 	179	PIHLAK SANDER	 	42:01.9	7:43.0	157	11:02.9	M	73
130	 	907	NURK AARE	 	42:05.7	7:44.3	160	11:06.7	M 45	8
131	 	892	TÄÄR RANDO	 	42:11.0	7:00.5	74	11:12.0	M	74
132	 	208	VEEROOS ERKI	 	42:12.3	7:46.2	164	11:13.3	M	75
133	 	151	ARRO ALARI	 	42:15.1	7:34.6	139	11:16.1	M	76
134	 	365	PAPPEL JAANUS	 	42:15.3	7:30.1	130	11:16.3	M 40	22
135	 	23	HEINSALU RAUL	Albe Team	42:15.4	7:25.5	118	11:16.4	M 40	23
136	 	258	NÕMM MARDEN	 	42:15.9	7:48.6	171	11:16.9	M	77
137	 	222	KINKS JOOSEP	 	42:18.2	7:38.2	150	11:19.2	M	78
138	13	93	DOLMATOVA KRISTINA	Stamina II	42:20.3	7:07.3	82	11:21.3	NN	4
139	 	161	ALAMETS ÜLARI	EAS	42:23.5	7:19.5	106	11:24.5	M 45	9
140	 	206	KOKLA MADIS	 	42:24.6	7:40.9	154	11:25.6	M 50	4
141	 	46	KOOKLA EERO	 	42:24.8	7:44.3	158	11:25.8	M 40	24
142	 	761	RAND KRISTJAN	 	42:25.2	7:53.8	183	11:26.2	M	79
143	 	148	KALJUVEE JANNO	Jooksupartner II	42:25.8	7:44.4	161	11:26.8	M 40	25
144	 	683	PONDER NEEME	 	42:26.9	7:39.8	152	11:27.9	M 50	5
145	 	210	JÜRIADO JUHAN	 	42:27.8	7:51.6	176	11:28.8	M	80
146	 	126	MEDIJAINEN MIKK	A. Le Coq I	42:30.2	7:22.8	111	11:31.2	M	81
147	 	199	KUHI PEETER	 	42:32.4	7:29.7	129	11:33.4	M 40	26
148	 	35	EHASALU ERKKI	 	42:41.0	7:10.3	87	11:42.0	M	82
149	 	697	KASS SILVER	 	42:43.9	7:30.8	131	11:44.9	M	83
150	 	207	KÕLAMETS LAURI	 	42:45.0	7:35.7	145	11:46.0	M	84
151	 	395	ÄRM URMAS	 	42:46.8	7:55.9	190	11:47.8	M 45	10
152	 	455	KRIMM RAIDO	 	42:47.2	7:54.4	187	11:48.2	M	85
153	 	773	TINTERA JIRI	 	42:47.3	7:29.4	125	11:48.3	M	86
154	 	305	SEMPELSON SVEN	 	42:48.6	7:52.6	182	11:49.6	M 40	27
155	 	936	OIDRAM PRIIT	 	42:51.4	7:51.9	179	11:52.4	M	87
156	 	213	KRILOVS RINGO	SKLL	42:55.2	7:39.4	151	11:56.2	M	88
157	 	94	TUBALKAIN MARGUS	Stamina II	42:56.3	7:44.7	162	11:57.3	M 45	11
158	 	140	VEIDE HANNES	 	43:06.5	7:00.9	77	12:07.5	M	89
159	 	582	REILJAN RAUL	 	43:06.7	8:10.6	216	12:07.7	MN	7
160	 	237	VASAR SILVER	 	43:09.3	7:31.6	133	12:10.3	M	90
161	 	715	KUKKELA KEITH	 	43:09.5	7:54.5	188	12:10.5	P	4
162	 	150	TALU PRIIT	 	43:13.7	7:36.7	147	12:14.7	M 40	28
163	 	215	LOPSIK PRIIT	SKLL	43:14.0	7:40.8	153	12:15.0	M	91
164	 	154	HUMMAL ERKKI	Potsatajad	43:14.8	7:50.4	175	12:15.8	M	92
165	 	218	ÕUNAP URMAS	 	43:15.3	7:44.3	159	12:16.3	M 40	29
166	 	351	AAVE MARIUS	 	43:15.3	8:28.9	256	12:16.3	M	93
167	 	181	LEESMÄE JÜRI	 	43:19.0	8:18.7	236	12:20.0	M 65	1
168	 	751	TUPITS ARSI	 	43:25.3	8:31.1	263	12:26.3	M	94
169	 	581	TAMMELEHT MIHKEL	 	43:26.0	8:36.0	278	12:27.0	M	95
170	 	231	KRUUSAMÄGI UKU	 	43:27.3	7:28.1	122	12:28.3	MJ	5
171	 	785	TILK TAAVI	 	43:28.2	7:48.0	168	12:29.2	M	96
172	 	171	GUSSEV RAIN	 	43:28.7	7:37.8	149	12:29.7	M	97
173	 	189	LAUR MARKO	PekikõhuReissingTiim	43:30.2	7:34.8	141	12:31.2	M	98
174	 	195	PAJUPUU JANNO	 	43:33.1	7:48.3	169	12:34.1	M	99
175	 	914	MÄGI ENN	 	43:34.8	7:54.1	185	12:35.8	M 50	6
176	 	42	MÄGI INDREK	 	43:35.0	7:54.3	186	12:36.0	MN	8
177	 	276	LIEBENAU RAUL	 	43:37.1	7:25.2	117	12:38.1	MN	9
178	14	160	KIVI LIINA	Jooksupartner I	43:39.7	7:32.4	135	12:40.7	N	7
179	 	264	PEHKA RON ARNAR	 	43:45.4	8:13.7	225	12:46.4	P	5
180	 	727	OINUS TIIT	 	43:47.5	8:26.9	255	12:48.5	M	100
181	15	837	PILLI MOONIKA	 	43:50.2	7:42.5	155	12:51.2	N	8
182	 	521	KELK MART	KAMM	43:52.4	8:17.8	232	12:53.4	M	101
183	 	273	RIKS RANDO	SK Aaspere	43:52.6	7:22.1	108	12:53.6	MJ	6
184	 	501	GILL JAKOB	Nobedad Jalakesed	43:55.7	8:38.7	284	12:56.7	P	6
185	 	85	SIIM ANDRES	SK Saarde	43:56.6	7:27.8	121	12:57.6	M 40	30
186	16	598	ILVES ELIN	 	43:57.3	7:46.2	165	12:58.3	N 45	1
187	 	104	JÕEMETS AIVO	 	43:57.5	7:11.6	90	12:58.5	M 40	31
188	17	548	SILD KERSTI	 	43:58.3	7:47.0	167	12:59.3	N	9
189	 	221	REIMETS RAMON	 	44:01.9	7:36.8	148	13:02.9	M	102
190	 	176	KUHI TÕNU	 	44:04.9	7:35.1	142	13:05.9	M 40	32
191	 	203	SIIAK INDREK	 	44:07.0	8:24.5	250	13:08.0	M	103
192	 	355	VANNAS TARMO	 	44:09.2	8:14.9	226	13:10.2	M	104
193	 	882	AASTE HANNO	 	44:09.9	8:43.2	296	13:10.9	M	105
194	 	346	LIIN URMAS	 	44:11.2	9:03.2	362	13:12.2	M	106
195	18	861	TIITMAA KAITY-MARIN	 	44:12.8	7:51.8	178	13:13.8	N	10
196	 	158	SARAP AIVAR	 	44:13.3	8:10.0	214	13:14.3	M 40	33
197	19	95	BERNAT GALINA	Stamina II	44:17.5	8:10.2	215	13:18.5	N 50	1
198	 	325	NIGU VILLEM	 	44:18.0	8:38.2	282	13:19.0	M	107
199	 	352	BUðIN PEEP	 	44:18.2	8:43.9	300	13:19.2	M	108
200	 	808	LELLEP KALLE	 	44:21.3	8:05.2	206	13:22.3	M	109
201	 	198	MÄGI INDREK	 	44:23.1	7:48.9	172	13:24.1	M	110
202	 	257	MITROFANSKI JEGOR	 	44:23.3	7:28.4	123	13:24.3	M	111
203	 	493	TUBLI PEETER	 	44:25.9	8:17.4	231	13:26.9	M	112
204	20	577	SANGLA KARIN	 	44:27.3	7:29.7	127	13:28.3	N 40	3
205	 	102	KINGO GUNNAR	 	44:27.7	7:36.4	146	13:28.7	M	113
206	 	927	MANDER ASKO	 	44:28.7	7:42.6	156	13:29.7	P	7
207	 	175	GRIGORJEV SERGEI	Kaevanduste SK	44:29.1	7:57.4	192	13:30.1	M 50	7
208	 	108	PRIKS HANNO	VAK Staier	44:36.3	7:48.3	170	13:37.3	M 45	12
209	21	220	KUKK KAIDI KEIR	 	44:36.7	7:35.5	143	13:37.7	NJ	2
210	 	470	ÜÜRIKE HANS	EESTI OLüMPIAKOMITEE	44:38.5	8:31.0	261	13:39.5	M	114
211	 	296	TIIS ROBERT	 	44:43.4	7:34.0	138	13:44.4	MN	10
212	 	617	LIND PEETER	LLA	44:43.7	8:35.4	277	13:44.7	M 45	13
213	 	83	LAASU ARNOLD	SK Saarde	44:45.3	7:29.1	124	13:46.3	M 50	8
214	 	190	ROSENVALD RAUL	Tervis on teisel pool	44:46.4	8:29.1	258	13:47.4	M	115
215	22	318	RANDMAA KATRI	 	44:48.0	8:53.3	327	13:49.0	N	11
216	 	168	LUBI VALLO-PEEDU	 	44:49.3	8:18.8	237	13:50.3	M 45	14
217	23	238	MURU MERIKE	 	44:51.4	8:10.7	217	13:52.4	N 45	2
218	24	216	MIKK SILJA	 	44:59.2	7:52.0	180	14:00.2	N 40	4
219	 	578	MUSTONEN MAREK	 	45:00.3	8:13.3	224	14:01.3	M	116
220	 	197	LAANMETS JÜRI	 	45:03.3	8:04.8	205	14:04.3	M 55	1
221	 	607	KAJANDI ALLAR	 	45:07.2	8:42.5	294	14:08.2	M	117
222	 	756	PÄRTELPOEG INGMAR	 	45:07.3	8:57.6	340	14:08.3	M	118
223	25	704	IRVES MERILIIN	 	45:09.7	7:56.6	191	14:10.7	T	1
224	 	663	VEENPERE HENRIK	Regio	45:11.3	7:57.6	193	14:12.3	M	119
225	 	804	JAKOBSON STEN	Team Nike	45:17.1	8:24.3	249	14:18.1	M	120
226	 	800	SAAN TAIMO	 	45:18.4	8:52.2	322	14:19.4	M 45	15
227	 	449	ERLENHEIM KARL	 	45:19.6	8:53.0	326	14:20.6	M	121
228	 	229	TEEORG URMAS	 	45:21.5	8:08.9	213	14:22.5	M 50	9
229	 	716	PAAP KIMMO	 	45:24.8	8:34.5	273	14:25.8	M	122
230	 	404	TAMM INDREK	 	45:24.8	8:52.5	323	14:25.8	M	123
231	 	194	GRÜNVALD OLAVI	 	45:25.7	9:03.9	364	14:26.7	M 45	16
232	26	764	LÕHMUS MARGIT	 	45:25.7	8:15.7	228	14:26.7	N	12
233	 	193	LAJA LEHO	Jooksupartner III	45:37.1	8:12.4	221	14:38.1	M 40	34
234	 	24	RENNIT LEHO	Albe Team	45:38.7	8:07.6	212	14:39.7	M 50	10
235	 	185	RANG HENDRICK	 	45:45.6	7:57.6	194	14:46.6	M	124
236	 	304	KEIV INVER	Jooksupartner II	45:48.5	8:31.0	262	14:49.5	M	125
237	 	143	KÕRGESAAR KRISTJAN	 	45:48.7	8:01.8	198	14:49.7	M	126
238	 	822	MEDIJAINEN EERO	 	45:51.8	8:39.7	288	14:52.8	M 50	11
239	27	431	PILT SIIRI	PINK TIIM	45:52.8	8:43.0	295	14:53.8	N 40	5
240	28	36	KALK KATRE	Kambavaim	45:53.4	7:51.6	177	14:54.4	N	13
241	 	105	RAIEND URMO	Stamina II	45:53.7	8:29.4	259	14:54.7	M 40	35
242	 	110	TOOMING MARKO	 	45:54.8	7:52.5	181	14:55.8	M	127
243	 	173	HANNI KALJU	 	45:54.9	8:15.7	227	14:55.9	M	128
244	 	62	LIIVER AIMAR	 	45:55.2	8:05.4	207	14:56.2	M	129
245	 	647	VAHTER TANEL	 	45:57.5	9:37.4	462	14:58.5	MN	11
246	 	924	SANGLA MATIS	 	45:59.2	9:02.9	361	15:00.2	MN	12
247	 	919	RAIDMA RAINER	 	46:05.7	8:45.1	302	15:06.7	M 40	36
248	 	330	KALJUVEE KRISTO	 	46:06.8	8:04.8	204	15:07.8	M	130
249	 	703	IRVES HILLAR	 	46:09.5	8:03.6	203	15:10.5	M 45	17
250	29	164	AAVIK KARMEN	 	46:11.1	8:21.2	241	15:12.1	N	14
251	 	510	KANDLA VEIKO	PekikõhuReissingTiim	46:13.3	8:41.0	290	15:14.3	M	131
252	30	838	RIIVES MARILIN	Fantastiline nelik	46:15.0	8:18.4	234	15:16.0	T	2
253	 	758	SAU TAUNO	 	46:16.8	8:23.6	246	15:17.8	M	132
254	31	648	TIBAR MARION	 	46:20.4	9:21.8	416	15:21.4	N	15
255	 	748	SIBUL ARNO	Kambavaim	46:20.6	8:43.5	299	15:21.6	M	133
256	 	678	JAAKSOO RAIN	 	46:22.4	8:37.6	280	15:23.4	M	134
257	 	889	SOESON TOOMAS	 	46:24.8	8:32.0	265	15:25.8	M 40	37
258	32	209	JAAMA MARIS	 	46:25.5	8:06.1	209	15:26.5	N 45	3
259	 	933	VOIKA KEIJO	 	46:26.8	8:34.1	270	15:27.8	M	135
260	 	934	SEPP TIIT	 	46:31.1	8:22.3	242	15:32.1	M	136
261	 	202	MUSTING AKSEL	 	46:31.6	8:17.9	233	15:32.6	M 50	12
262	 	423	TATOMIR JANAR	Team Palmako	46:36.0	9:15.4	394	15:37.0	M	137
263	 	205	AASLAID KAIDO	 	46:41.3	8:13.3	223	15:42.3	M 45	18
264	 	536	ROOSE KAAREL	Elva Nelik	46:44.6	9:00.0	353	15:45.6	M	138
265	33	738	KALDA RUTH	 	46:47.5	8:57.6	339	15:48.5	N 45	4
266	 	391	PÄRNSALU MARKEL	 	46:48.5	8:11.6	219	15:49.5	M	139
267	 	614	KUUS RAUNO	 	46:48.7	8:57.4	338	15:49.7	MN	13
268	 	169	SAKKEUS JÜRI	 	46:49.1	8:24.1	247	15:50.1	M 55	2
269	 	508	LILLO EINAR	EESTI POLITSEI	46:54.2	8:57.7	341	15:55.2	M 40	38
270	 	819	KUZNETSOV PEETER	 	46:56.9	8:22.3	243	15:57.9	M	140
271	 	709	NOKKUR LEMBIT	RõõSA	46:58.8	8:58.7	346	15:59.8	M 45	19
272	 	359	ALBERT AUGUST	 	46:59.9	9:22.1	418	16:00.9	M 45	20
273	 	260	RAMMI ANTTI	 	47:01.0	8:31.5	264	16:02.0	M	141
274	 	825	LAANEOKS ERKKI	 	47:01.3	8:56.9	335	16:02.3	M	142
275	 	492	PEETRIMÄGI SIIM	 	47:01.5	8:39.3	287	16:02.5	M	143
276	 	780	LOHUVÄLI MIKK	Kask	47:02.8	9:28.6	445	16:03.8	M	144
277	 	514	LOHU MATI	Tervis on teisel pool	47:04.8	9:00.4	355	16:05.8	M	145
278	34	427	METSPALU MARTIN	 	47:06.4	9:14.0	392	16:07.4	N	16
279	35	331	VALGE GÄTLY	 	47:07.7	8:29.5	260	16:08.7	N	17
280	 	241	LIMMER AILAR	 	47:08.1	8:47.3	308	16:09.1	M 50	13
281	 	336	SIKKA TOIVO	 	47:10.1	8:45.8	303	16:11.1	M 50	14
282	 	217	VILT ANDRUS	 	47:12.5	8:22.6	245	16:13.5	M	146
283	 	414	VIILIPUS MART	Dynamic Quattro	47:12.8	8:43.3	297	16:13.8	M	147
284	 	900	LÕHMUS VELJO	 	47:12.8	9:27.0	438	16:13.8	M 40	39
285	 	271	KANGUR RAUL	 	47:14.6	9:36.8	459	16:15.6	M 40	40
286	 	811	PLUTUS LAURI	 	47:17.2	8:59.7	351	16:18.2	M	148
287	 	894	NAGEL GEORG-HARALD	 	47:17.5	8:24.1	248	16:18.5	P	8
288	 	226	ARUS LAURI	 	47:19.4	8:51.3	316	16:20.4	M	149
289	36	165	VULLA ELA	 	47:19.5	8:02.8	200	16:20.5	N	18
290	 	568	KASKA MARKO	 	47:22.1	8:24.7	251	16:23.1	M	150
291	37	224	LAEV NELE	 	47:23.8	8:20.1	240	16:24.8	N	19
292	 	745	KIVESTI AIN	 	47:24.0	8:49.1	312	16:25.0	M	151
293	38	558	UNDRITS AIRI	HTM	47:24.1	9:09.8	381	16:25.1	N	20
294	39	503	SEPP AVE	Nobedad Jalakesed	47:24.1	8:38.3	283	16:25.1	NN	5
295	 	239	AALIK MARKO	 	47:27.1	8:19.6	239	16:28.1	M	152
296	40	591	PELLENEN EVELIN	 	47:28.3	9:23.0	424	16:29.3	N	21
297	 	234	HALLEMAA RENE	Might Just Do It	47:30.2	8:38.1	281	16:31.2	M	153
298	 	174	LEHISMETS JAAN	 	47:31.9	8:32.1	266	16:32.9	M	154
299	 	299	TREIER TARVO	 	47:33.0	8:34.8	275	16:34.0	M	155
300	 	447	TOHVER TARMO	Kaevanduste SK	47:33.0	8:57.2	337	16:34.0	M 40	41
301	41	302	TREIER JANA	 	47:33.2	8:34.7	274	16:34.2	N	22
302	42	362	KAIRITE INNA	 	47:35.9	8:25.0	252	16:36.9	NN	6
303	 	322	VESIALLIK STEN	 	47:41.4	8:39.0	285	16:42.4	M	156
304	 	319	RUUL MATI	 	47:41.4	9:01.2	356	16:42.4	M 50	15
305	 	464	TAVITS GAABRIEL	 	47:41.4	9:01.4	357	16:42.4	M 40	42
306	 	797	KLEIMANN TARMO	 	47:44.7	8:43.4	298	16:45.7	M	157
307	 	227	VARBOLA ERKI	EAS	47:45.2	8:40.9	289	16:46.2	M	158
308	 	460	PRANTSUS VILJO	 	47:46.5	8:59.9	352	16:47.5	M 40	43
309	 	320	VIRMA RAGNAR	 	47:46.7	8:02.8	201	16:47.7	MN	14
310	43	408	TIKVA PIRET	 	47:47.7	9:19.3	405	16:48.7	N	23
311	 	918	PIILBERG VALVO	 	47:49.4	9:26.5	436	16:50.4	M	159
312	 	244	UIBUKANT ANDREI	 	47:49.7	8:55.8	333	16:50.7	M	160
313	44	621	TOOM MARJU	 	47:51.4	8:34.4	272	16:52.4	N	24
314	 	909	TALVIK MIKK	 	47:51.8	10:16.7	560	16:52.8	M	161
315	 	513	JÜRMA KULDAR	Tervis on teisel pool	47:52.9	8:29.1	257	16:53.9	M	162
316	45	461	NÕMM KÜLLI	 	47:53.0	8:33.8	268	16:54.0	N 40	6
317	 	509	RAHE MARKO	EESTI POLITSEI	47:53.5	8:45.8	304	16:54.5	M	163
318	46	506	GERASSIMOVA ANSTASIA	EESTI POLITSEI	47:55.9	8:47.1	307	16:56.9	N	25
319	 	19	ARO ANDRES	 	48:02.4	7:58.4	195	17:03.4	M 40	44
320	 	269	TOOMINGAS JAAN	 	48:03.4	9:19.8	408	17:04.4	M	164
321	 	932	REENE REENE	 	48:03.7	8:58.8	348	17:04.7	M	165
322	 	159	PURGA INDREK	number neli	48:04.1	8:18.5	235	17:05.1	M	166
323	 	309	TENNISBERG TARGO	Makulatuur	48:05.4	8:52.6	324	17:06.4	M	167
324	47	378	IVANOV INGRID	Tääglova Noored	48:07.3	8:16.9	230	17:08.3	N	26
325	 	178	RAHI INDREK	 	48:07.9	9:04.5	366	17:08.9	M 45	21
326	 	262	REPKIN PETER	 	48:08.4	8:39.1	286	17:09.4	M 40	45
327	 	265	HIOB PRIIT	 	48:09.0	8:50.8	314	17:10.0	M	168
328	 	565	NISU KASPAR	FB Jooksmine Tartu	48:10.3	8:51.4	317	17:11.3	MN	15
329	 	420	JUUR KRISTJAN	Team Palmako	48:12.1	9:16.5	399	17:13.1	M	169
330	48	488	OJANG INGRID	 	48:13.2	9:04.5	367	17:14.2	N	27
331	 	809	SÕMERA ÜLLAR	 	48:14.3	8:25.0	253	17:15.3	M	170
332	49	272	TEHVER LIIS	 	48:14.7	8:48.6	311	17:15.7	N	28
333	 	403	ORMISSON TOOMAS	 	48:17.9	8:07.0	211	17:18.9	M	171
334	50	533	VALGE KERLI	Jooksupartner I	48:19.6	8:12.8	222	17:20.6	N	29
335	 	383	LEPIK RAINER	 	48:19.7	9:21.6	415	17:20.7	M	172
336	 	312	KLAOS SANDER	 	48:19.8	8:16.2	229	17:20.8	M	173
337	 	684	IBIS MARGUS	 	48:21.4	9:52.3	495	17:22.4	M 45	22
338	51	613	PETERSON TRIIN	 	48:21.9	8:59.2	349	17:22.9	N 40	7
339	52	337	VALTER JÄRVI	 	48:22.7	8:52.9	325	17:23.7	N 55	1
340	 	233	ANSO ALLAR	 	48:23.8	11:25.5	715	17:24.8	M	174
341	 	552	KASAK KUNO	 	48:26.2	8:51.6	319	17:27.2	M	175
342	53	564	NAABER MERILI	FB Jooksmine Tartu	48:27.1	8:34.3	271	17:28.1	N	30
343	54	757	EENSAAR KERTU	 	48:28.5	9:05.2	370	17:29.5	N	31
344	 	948	POLAKENE MART	 	48:29.2	8:54.5	332	17:30.2	M 40	46
345	 	798	KASEVÄLI MAIRO	 	48:30.0	8:26.0	254	17:31.0	M	176
346	 	928	PETERSON KRISTJAN	 	48:30.4	8:53.4	328	17:31.4	M	177
347	55	566	VASSILJEV RIINU	FB Jooksmine Tartu	48:37.1	9:15.5	395	17:38.1	N	32
348	 	41	SAAL KARL-ERNST	Elva Jooksusarja Tiim	48:38.3	8:52.1	321	17:39.3	MJ	7
349	 	866	VASARIK AARNE	 	48:41.9	9:07.0	375	17:42.9	M	178
350	 	413	KUKK AALO	 	48:43.5	9:16.0	396	17:44.5	M 55	3
351	 	348	IVANOV MAREK	 	48:45.4	9:55.2	503	17:46.4	M	179
352	 	317	KALDA KRISTER	 	48:50.1	9:11.2	386	17:51.1	M	180
353	 	228	LORVI URMAS	 	48:53.3	8:58.4	345	17:54.3	M 45	23
354	 	760	LAUR YVES	 	48:53.5	8:48.6	310	17:54.5	P	9
355	 	525	LEPIK MAREK	 	48:54.5	9:19.4	406	17:55.5	M	181
356	 	421	PEEDOSK TÕNN-SIIM	Team Palmako	48:54.6	9:16.9	400	17:55.6	M	182
357	 	11	ERALA RANNO	 	48:55.5	8:58.4	344	17:56.5	M	183
358	56	443	AITMAN HANNELY	 	48:56.2	8:48.5	309	17:57.2	N	33
359	 	422	PÕLDMAA KOIT	Team Palmako	48:57.7	9:04.9	369	17:58.7	M	184
360	 	518	REISBERG URMAS	MUST KASS	48:59.9	10:49.9	632	18:00.9	M	185
361	 	43	KAARES GREGOR	 	49:04.3	8:22.5	244	18:05.3	MJ	8
362	 	200	NÕMMISTE KALEV	 	49:05.6	10:03.7	527	18:06.6	M 40	47
363	 	459	NÕMMISTE SULEV	 	49:05.7	10:03.7	526	18:06.7	M 40	48
364	 	572	HEINALO VEIKO	 	49:05.9	9:17.2	401	18:06.9	M 45	24
365	 	308	NIGUL HENDRIK	Makulatuur	49:07.5	9:59.7	511	18:08.5	M	186
366	 	516	KUUSK ANDRES	MUST KASS	49:08.9	10:16.2	558	18:09.9	M	187
367	 	249	MEIER TARMO	 	49:12.6	8:06.3	210	18:13.6	M	188
368	57	452	ÕIGLANE TERJE	 	49:13.3	9:18.3	402	18:14.3	N 40	8
369	 	462	KAMS MADIS	 	49:13.7	9:06.5	373	18:14.7	M	189
370	 	453	TÐEREDNIK ANDREI	 	49:14.6	9:10.6	384	18:15.6	M	190
371	 	726	UIBUKANT PAVEL	 	49:21.4	9:18.8	403	18:22.4	P	10
372	58	883	JOTAUTAS MARIA	 	49:21.6	8:46.6	305	18:22.6	N	34
373	 	664	VIISPERT ANDO	Regio	49:23.0	9:48.6	487	18:24.0	M	191
374	59	212	MÜÜRSEPP TIIU	 	49:24.5	8:54.1	331	18:25.5	N 55	2
375	60	230	JÕEMETS KAJA	 	49:27.7	9:59.4	509	18:28.7	N 45	5
376	61	686	LAURITS SILJA	 	49:28.2	9:02.6	360	18:29.2	N 45	6
377	62	369	RETS PILLE	 	49:29.3	9:20.0	409	18:30.3	N	35
378	63	519	SARV PIHEL	MUST KASS	49:30.7	10:50.6	639	18:31.7	N	36
379	64	816	KIVI KÄTHI	 	49:31.6	8:56.0	334	18:32.6	N	37
380	 	767	PUIESTIK PEEP	Potsatajad	49:32.7	9:46.8	483	18:33.7	M 40	49
381	 	867	HAAMER SIIMON	SKAUT	49:32.8	10:03.1	524	18:33.8	M	192
382	 	619	MUROMÄGI AVO	LLA	49:34.0	9:34.5	453	18:35.0	M	193
383	 	702	LEPPIK VILJAR	 	49:34.2	9:44.4	476	18:35.2	M 40	50
384	 	261	JUST ALAR	BELLFIRE	49:35.3	8:44.4	301	18:36.3	M 40	51
385	65	821	VEEVO MARJU	 	49:35.9	9:41.4	472	18:36.9	N	38
386	66	875	UDUSAAR AET	 	49:36.2	9:22.1	420	18:37.2	N	39
387	 	440	NIGUL MIHKEL ERICH	 	49:40.9	10:08.4	538	18:41.9	P	11
388	67	863	SIMSON KAIA	 	49:41.2	9:13.6	391	18:42.2	NN	7
389	 	381	EINULA RAUNO	 	49:43.9	9:35.4	457	18:44.9	M	194
390	68	576	TILK RIINA	 	49:45.5	9:44.8	478	18:46.5	N 40	9
391	 	915	PÄRNPUU ELVIS	 	49:46.4	9:27.2	439	18:47.4	M	195
392	 	925	LADVA INDREK	 	49:47.5	9:53.7	499	18:48.5	M	196
393	 	240	KAIS PAAVO	 	49:48.6	7:58.5	196	18:49.6	M 40	52
394	 	698	LAANEMETS RAIVO	 	49:50.3	8:58.7	347	18:51.3	M	197
395	69	478	MÄNNIK KRISTIN	 	49:51.7	9:27.8	441	18:52.7	N	40
396	 	366	ROHTMA VALDEK	 	49:52.2	8:50.2	313	18:53.2	M	198
397	 	188	HEINSAAR ANTS	N-Team	49:57.3	8:34.9	276	18:58.3	M	199
398	 	542	PINDUS MIHKEL	 	50:03.1	9:54.9	502	19:04.1	M	200
399	70	243	BELOKUROVA EVE	Kevek	50:06.4	9:07.6	376	19:07.4	N 50	2
400	71	247	PILDEN BERIT	 	50:12.4	8:57.8	342	19:13.4	N	41
401	 	631	SALMAR AVO	 	50:12.7	9:25.2	429	19:13.7	M 70	1
402	72	688	KOOSKORA TRIINU	 	50:12.9	9:23.1	425	19:13.9	N	42
403	 	789	LIIVISTE ANDRES	 	50:14.6	9:13.0	389	19:15.6	M	201
404	73	376	LÕHMUS SILJA	JO-TE	50:15.4	9:28.0	442	19:16.4	N 50	3
405	 	375	LÕHMUS INDREK	JO-TE	50:15.4	9:28.2	444	19:16.4	M 50	16
406	 	556	LINDMÄE JAAKO	HTM	50:15.9	10:28.6	584	19:16.9	M 40	53
407	 	741	KAIMER RAIDO	 	50:16.3	9:37.2	460	19:17.3	M	202
408	 	311	KALLAVUS AIN	 	50:17.2	9:46.6	482	19:18.2	M 45	25
409	 	739	MANGUSE MIHKEL	 	50:17.5	9:00.4	354	19:18.5	MN	16
410	74	523	TEPPO KRISTI	KAMM	50:17.7	9:25.7	432	19:18.7	N	43
411	75	469	TAMPERE TERJE	 	50:17.8	9:23.8	428	19:18.8	N	44
412	 	787	LIIVRAND EERO	 	50:19.2	9:40.7	469	19:20.2	M 45	26
413	 	769	KARTAU MADIS	 	50:22.4	9:08.8	378	19:23.4	MJ	9
414	76	685	EHIN PIRET	 	50:24.0	9:21.2	412	19:25.0	N	45
415	77	446	GLADÕðEVA GALINA	Kaevanduste SK	50:24.1	9:59.5	510	19:25.1	N 50	4
416	 	731	TAMMUR KAAREL	 	50:27.0	8:53.7	329	19:28.0	M	203
417	 	618	LORVI IMRE	LLA	50:28.9	9:34.9	455	19:29.9	M	204
418	 	225	ESULA JANAR	 	50:30.6	10:12.9	544	19:31.6	M	205
419	78	438	VESKIMÄE AIRE	 	50:34.8	9:26.4	435	19:35.8	N	46
420	 	433	PÄHKLAMÄE VIKTOR	 	50:34.9	9:40.9	470	19:35.9	M 40	54
421	 	740	BOIKOV SIIM	 	50:37.8	9:09.6	380	19:38.8	M	206
422	79	270	TOOMINGAS TERJE	 	50:38.2	10:01.4	518	19:39.2	N	47
423	80	626	JÕEMETS KRISTI	 	50:42.7	9:19.5	407	19:43.7	N	48
424	81	661	HOLLAND KATRE	Regio	50:43.6	9:20.9	411	19:44.6	N	49
425	 	214	LOPSIK ANDREI	SKLL	50:47.6	8:33.9	269	19:48.6	M 55	4
426	82	480	VILIPSON IRINA	 	50:52.4	9:42.0	474	19:53.4	N 50	5
427	 	246	PÄRLIST KARL	 	50:52.5	9:10.0	382	19:53.5	M	207
428	 	908	ABEL RENEE	 	50:55.6	9:10.0	383	19:56.6	M 40	55
429	83	416	SEPALAAN KADRI	 	50:56.8	9:28.1	443	19:57.8	N	50
430	84	410	SALDRE KÄRT	Rannahooaeg	50:58.6	10:23.5	572	19:59.6	N	51
431	 	242	MELTSAS VEIKO	 	51:01.6	8:58.2	343	20:02.6	M	208
432	 	633	REHTLA RENNO	 	51:04.6	9:19.3	404	20:05.6	M	209
433	85	504	ENN KAIRI	N-Team	51:05.1	9:03.4	363	20:06.1	N	52
434	 	387	PÄRNAPUU RIIVO	 	51:05.1	9:45.8	480	20:06.1	M	210
435	 	901	RUKLIS KASPARS	 	51:06.4	8:47.1	306	20:07.4	M	211
436	 	254	PUUSEPP MÄRT	Team Nike	51:08.7	8:51.6	318	20:09.7	M	212
437	86	680	SOKK ANNIKA	 	51:10.9	8:51.6	320	20:11.9	N	53
438	 	627	MAASIK ALARI	 	51:11.5	9:16.1	397	20:12.5	M	213
439	 	496	VIHERPUU HANNES	Viherpuu	51:14.2	9:53.3	498	20:15.2	M 40	56
440	87	554	PAULUS SILJA	 	51:14.4	9:23.6	427	20:15.4	N	54
441	 	444	TULP KRISTJAN	 	51:15.1	9:33.3	451	20:16.1	M	214
442	88	502	NÖPS ANNI	Nobedad Jalakesed	51:15.8	9:13.0	390	20:16.8	NJ	3
443	 	520	ALJASTE ARVO	KAMM	51:16.2	10:24.6	575	20:17.2	M	215
444	89	419	VALLASTE KRISTEL	Jooksupartner I	51:18.8	8:12.2	220	20:19.8	N	55
445	90	236	MEY TEA	 	51:27.4	9:04.8	368	20:28.4	N	56
446	 	713	LÜMAT ALO	 	51:27.9	9:02.4	359	20:28.9	M	216
447	 	733	TAMME RAIDO	 	51:30.3	10:04.0	528	20:31.3	M	217
448	91	623	MEHIDE MARIN	 	51:30.6	10:04.0	529	20:31.6	N	57
449	 	380	TÕNISSOO KARL	Tääglova Noored	51:31.6	8:05.9	208	20:32.6	M	218
450	 	782	TAMM RISTO	Kask	51:34.1	9:07.0	374	20:35.1	M	219
451	 	328	TAGEL ILMAR	 	51:35.8	9:32.0	446	20:36.8	M 70	2
452	 	401	ARUTYUNYAN DAVID	 	51:36.5	10:26.5	579	20:37.5	M	220
453	92	245	RISTISAAR EERIKA	 	51:37.0	9:08.4	377	20:38.0	N	58
454	 	706	KUTTI KULDAR	 	51:41.5	10:23.9	573	20:42.5	M	221
455	 	505	ENN RAUL	N-Team	51:45.3	8:57.2	336	20:46.3	M 55	5
456	 	649	OSTRAK AGUR	 	51:46.1	9:23.6	426	20:47.1	M 50	17
457	 	522	PAESALU MARGUS	KAMM	51:48.1	10:24.6	574	20:49.1	M	223
458	 	394	LUKIN VAHUR	 	51:48.1	11:23.6	709	20:49.1	M	222
459	 	400	VAHEMAA OLEV	Potsatajad	51:50.6	8:54.0	330	20:51.6	M	224
460	93	479	NÕGU LIISI	 	51:50.9	10:02.3	522	20:51.9	N	59
461	94	527	ROOPÄRG MARIKA	 	51:52.4	9:32.8	450	20:53.4	N 45	7
462	 	781	LUUG VEIKO	Kask	51:52.6	9:49.8	490	20:53.6	M	225
463	96	477	LETT TRIIN	 	51:52.7	9:25.6	431	20:53.7	N 45	8
464	95	531	PIHLAK JEKATERINA	 	51:52.7	10:17.1	562	20:53.7	N 40	10
465	 	897	PAUMER KRISTJAN	 	51:52.9	8:59.3	350	20:53.9	M	226
466	 	473	BURDIN IGOR	 	51:55.4	9:54.5	501	20:56.4	M	227
467	 	407	FILIPPOV ARTJOM	 	51:56.2	9:26.9	437	20:57.2	M	228
468	 	771	AASLAID KENNO	 	51:57.6	10:11.7	541	20:58.6	P	12
469	 	605	LEISALU SIIM	 	52:01.4	10:01.3	517	21:02.4	M	229
470	 	442	HARKMANN ALDER	 	52:04.2	10:12.9	543	21:05.2	M	230
471	97	743	RENNIT TRIIN	Albe Team	52:05.0	10:13.9	548	21:06.0	T	3
472	 	434	RANDLA ERIK	 	52:05.2	11:19.7	701	21:06.2	M	231
473	 	655	PAJULA AIN	 	52:06.6	9:25.5	430	21:07.6	M 40	57
474	 	870	VOLTRI REEMO	SKAUT	52:07.7	10:02.9	523	21:08.7	M	232
475	 	744	KARP VEIKO	 	52:09.4	9:14.6	393	21:10.4	M 45	27
476	98	596	LESNER SANDRA	 	52:11.2	9:49.2	488	21:12.2	N	60
477	 	674	MAURER RAIM	 	52:11.4	10:03.5	525	21:12.4	MJ	10
478	99	259	MÄNNIK AURIKA	 	52:13.4	9:26.2	434	21:14.4	N	61
479	100	651	TERAS ANUMARI	 	52:13.9	9:53.2	497	21:14.9	NN	8
480	101	507	JÕESSAR KRISTA	EESTI POLITSEI	52:18.4	9:21.3	413	21:19.4	N	62
481	 	579	MUSTONEN ENAR	 	52:29.1	10:23.4	571	21:30.1	P	13
482	102	363	PORKVELI MARGE	 	52:29.5	9:22.9	423	21:30.5	N	63
483	 	640	MÄLLO RAUNO	 	52:30.7	9:22.1	419	21:31.7	P	14
484	 	592	KISAND MARTIN-LEO	 	52:34.3	10:54.5	649	21:35.3	M	233
485	 	300	KOLLOM SANDER	 	52:35.5	8:36.6	279	21:36.5	M 40	58
486	 	555	CHRISTOFFEL JAANUS	HTM	52:37.0	9:11.5	387	21:38.0	M	234
487	103	695	JAESKI EVE	 	52:37.5	9:36.6	458	21:38.5	N	64
488	104	763	KADASTIK VERONIKA	 	52:39.0	10:39.4	609	21:40.0	N	65
489	105	467	HÄMÄLÄINEN KATRIN	EESTI OLüMPIAKOMITEE	52:39.1	9:06.2	372	21:40.1	N	66
490	 	575	KÄRPUK ANDRUS	 	52:42.2	9:57.6	506	21:43.2	M 50	18
491	106	498	VIHERPUU KAIRI	Viherpuu	52:43.7	9:47.5	484	21:44.7	N 40	11
492	107	324	VILLAK MARJU	 	52:43.8	9:27.4	440	21:44.8	N	67
493	 	721	VAHTRA TÕNU	Might Just Do It	52:45.2	10:16.1	556	21:46.2	M	235
494	 	590	LÕHMUS RAUL	 	52:46.9	9:33.4	452	21:47.9	M 40	59
495	108	374	HAAV ÜLLE	JO-TE	52:48.0	9:45.1	479	21:49.0	N 50	6
496	 	885	LEHTOJA URMAS	 	52:49.8	9:05.6	371	21:50.8	M 45	28
497	 	550	KANGUR TARMO	 	52:51.3	9:21.9	417	21:52.3	M	236
498	109	584	SELJAK KATRIN	 	52:55.4	9:32.1	447	21:56.4	N 40	12
499	 	630	AINSAAR AIN	 	52:56.6	9:32.2	448	21:57.6	M 45	29
500	 	512	VARE LAURI	PekikõhuReissingTiim	52:57.4	10:01.6	520	21:58.4	M	237
501	 	912	AGU AIVO	 	52:58.4	10:01.9	521	21:59.4	M	238
502	110	790	TUNGAL MARE	 	53:03.7	9:22.4	421	22:04.7	N 45	9
503	 	310	KASPER JAANUS	 	53:05.4	9:41.7	473	22:06.4	M	239
504	111	540	SUUR MAICHL	 	53:09.2	9:48.3	485	22:10.2	N	68
505	112	917	SANGLA KARIN	 	53:11.0	10:00.8	515	22:12.0	N 40	13
506	 	323	MAUER TIIT	 	53:11.1	10:26.2	578	22:12.1	M 40	60
507	 	517	REIMA HEIGO	MUST KASS	53:11.1	10:50.5	637	22:12.1	M	240
508	113	833	MALÕÐEVA MARIA	 	53:13.9	9:34.6	454	22:14.9	N	69
509	 	876	UMBLEJA MÄRT	 	53:15.5	10:28.1	582	22:16.5	M	241
510	 	500	REINTAL MARGUS	 	53:16.0	9:21.5	414	22:17.0	M	242
511	 	817	KOPPEL VILJAR	 	53:16.9	9:16.1	398	22:17.9	M	243
512	 	926	SATSI ALLAR	 	53:18.1	9:48.4	486	22:19.1	M	244
513	114	622	ERNITS LAURA	 	53:19.8	10:14.4	550	22:20.8	T	4
514	 	450	PÄLL ERKI	Dynamic Quattro	53:21.7	10:07.8	536	22:22.7	M	245
515	 	597	JÄRV MIKK	Dynamic Quattro	53:22.0	10:07.7	535	22:23.0	M	246
516	 	286	JUKK MEELIS	 	53:24.7	10:25.3	576	22:25.7	M 45	30
517	115	765	PEREZ TISCARENO REYNA MARIA	 	53:27.7	10:49.6	629	22:28.7	N	70
518	 	814	SUTT SAIMON	KERS	53:30.0	8:41.5	293	22:31.0	P	15
519	 	813	PARVITS EERIK	KERS	53:30.2	8:41.3	292	22:31.2	P	16
520	 	815	TÜRK KEIT	KERS	53:31.2	8:41.2	291	22:32.2	P	17
521	116	487	PULLES KADRI	 	53:31.2	10:15.4	553	22:32.2	N	71
522	117	852	RAMMI KELLI	Tartu Kalev korvpall II	53:31.3	11:04.1	662	22:32.3	T	5
523	118	829	VIIKMAA KARMEN	 	53:33.5	10:16.2	557	22:34.5	N	72
524	119	340	KOPLIMÄGI MARIKA	Üksteist	53:34.7	10:06.8	534	22:35.7	N 40	14
525	 	635	MATVEJEV TIIT	 	53:36.1	8:50.9	315	22:37.1	P	18
526	120	425	TÄÄR KARIN	 	53:36.5	9:54.1	500	22:37.5	N	73
527	 	557	TAMMJÄRV JAANUS	HTM	53:37.6	10:29.2	589	22:38.6	M 40	61
528	121	342	VENNIK KERSTI	Üksteist	53:47.4	9:49.3	489	22:48.4	N	74
529	122	734	VILL MAIVE	 	53:56.5	10:00.8	516	22:57.5	N	75
530	123	489	PIIR EVELIN	 	53:57.3	10:12.9	545	22:58.3	N	76
531	124	820	ARM KRISTIN	 	54:00.0	9:42.3	475	23:01.0	N 40	15
532	 	712	NOKKUR ANTS	RõõSA	54:04.4	9:22.6	422	23:05.4	MJ	11
533	125	326	KUPP JAANA	 	54:04.8	9:57.4	505	23:05.8	N	77
534	 	252	NÕMMIK RAIVO	Team Nike	54:07.6	10:20.8	563	23:08.6	M	247
535	126	481	ORULA SILJA	 	54:09.9	9:50.2	491	23:10.9	N	78
536	127	893	JÜRGENSON ERIKA	 	54:12.0	10:14.5	552	23:13.0	N 40	16
537	 	922	PÄRN ENRIK	 	54:13.0	9:20.5	410	23:14.0	M 40	62
538	128	677	TAMM TIINA	 	54:14.0	10:43.8	615	23:15.0	N 40	17
539	129	535	KUUS RAILI	Elva Nelik	54:18.9	9:38.3	466	23:19.9	N 40	18
540	 	314	VÄLI REIGO	 	54:19.0	9:44.6	477	23:20.0	M 40	63
541	130	532	TOODU KERSTI	 	54:20.9	9:51.7	494	23:21.9	N 55	3
542	 	799	BALÕNSKI PEETER	 	54:24.7	9:41.3	471	23:25.7	M 60	1
543	 	538	SIKK ERIK	 	54:28.5	10:23.3	570	23:29.5	M 40	64
544	131	357	SÄÄLIK TIINA	 	54:28.7	10:21.9	567	23:29.7	N 45	10
545	 	600	STALLMEISTER ARGO	 	54:31.4	9:12.4	388	23:32.4	M	248
546	 	345	SIIMUS JAAK	number neli	54:32.0	10:50.9	641	23:33.0	M	249
547	132	615	EENSAAR TEELE	 	54:32.7	10:29.1	588	23:33.7	N	79
548	 	436	NURMBERG AIGAR	 	54:35.5	10:25.3	577	23:36.5	M	250
549	133	339	BOLTOVSKY MAIA	Üksteist	54:38.3	10:06.5	532	23:39.3	N 40	19
550	134	747	PRÜKK KATRIN	 	54:39.4	11:19.4	700	23:40.4	N	80
551	135	534	LILLEMÄGI KRISTI	 	54:43.3	10:38.4	605	23:44.3	N	81
552	136	468	LINDAM TIINA	EESTI OLüMPIAKOMITEE	54:52.0	10:13.0	546	23:53.0	NN	9
553	137	654	PAJULA HEIVI	 	54:53.9	10:06.7	533	23:54.9	N 40	20
554	138	537	KUUS MAILA	Fantastiline nelik	54:54.2	9:51.3	493	23:55.2	N 40	21
555	139	255	HAARDE MAIKEN	Sportland	54:56.7	10:21.0	565	23:57.7	N	82
556	 	546	MÄND ANDZEI	 	54:57.2	9:32.7	449	23:58.2	M	251
557	140	250	HEINARU JANNE	Sportland	54:57.5	10:21.0	564	23:58.5	N	83
558	 	792	VEIMEN IVO	 	54:58.9	10:51.7	645	23:59.9	M	252
559	 	701	VÄNDA MARKO	 	55:03.9	10:05.1	530	24:04.9	M	253
560	141	644	VETEMÄE LAGLE	 	55:08.8	10:48.8	625	24:09.8	N	84
561	 	657	JALAS INDREK	 	55:10.5	10:22.6	569	24:11.5	M	254
562	 	658	JALAS JAAN	 	55:10.6	10:22.4	568	24:11.6	M	255
563	 	749	LUKS LEO	 	55:12.1	11:15.9	691	24:13.1	M	256
564	142	624	LUTS EGE	 	55:14.5	10:59.4	653	24:15.5	N	85
565	143	341	RÜÜTLI INGRID	Üksteist	55:16.1	10:00.8	514	24:17.1	N	86
566	 	788	JÕKS ALO	 	55:17.4	10:01.6	519	24:18.4	M	257
567	144	329	KÄLVIÄINEN KAIE	 	55:17.7	10:35.1	600	24:18.7	N	87
568	145	794	VOOREMÄE LINDA	 	55:23.8	10:38.4	606	24:24.8	N 45	11
569	146	463	ERNITS INGRIT	 	55:25.9	10:13.8	547	24:26.9	N 45	12
570	 	392	REBANE HEIKI	 	55:29.2	9:35.4	456	24:30.2	M	258
571	 	248	SEMMEL ARGO	Rannahooaeg	55:37.8	10:50.9	640	24:38.8	M	259
572	147	315	VÄLI MAIU	 	55:46.0	10:27.9	581	24:47.0	N 40	22
573	148	409	VÄÄRTNÕU KATRIN	 	55:49.8	10:47.3	620	24:50.8	N	88
574	 	373	METSA ERKKI	 	55:51.4	9:10.8	385	24:52.4	M	260
575	 	377	LUUKA ÜLO	JO-TE	55:52.5	9:39.0	468	24:53.5	M 50	19
576	 	682	ASO ALLAR	 	55:54.1	9:04.5	365	24:55.1	P	19
577	149	406	SIKKAL KAIRIT	Rannahooaeg	55:54.9	10:49.0	627	24:55.9	N	89
578	150	766	TORIM ENELA	 	55:56.4	10:29.6	591	24:57.4	N	90
579	 	839	RIIVES MARTIN	Fantastiline nelik	55:59.8	9:02.2	358	25:00.8	P	20
580	151	547	KASAK LAURA	 	56:00.6	10:16.4	559	25:01.6	N	91
581	 	515	NORMAK KALEV	Tervis on teisel pool	56:04.1	9:46.3	481	25:05.1	M	261
582	152	595	RIIVES AIRE	Fantastiline nelik	56:06.4	10:11.7	542	25:07.4	N 40	23
583	 	529	SUISLEPP PEETER	 	56:10.4	10:21.3	566	25:11.4	M 40	65
584	 	368	KIBUR RAGNAR-TOOMAS	 	56:15.7	10:50.5	638	25:16.7	M	262
585	 	659	ROOTS ANTO	 	56:25.0	10:46.9	619	25:26.0	M 40	66
586	153	349	KÖÖP KADRI	 	56:26.7	10:34.3	599	25:27.7	N	92
587	154	670	LILLEORG HELEN	 	56:27.1	10:16.9	561	25:28.1	N	93
588	155	457	MÜLLER LEONIE	 	56:30.8	10:48.2	622	25:31.8	T	6
589	 	439	KAUR KASPAR	 	56:30.8	10:46.5	618	25:31.8	M	263
590	156	475	JOKITÖYRÄ ANNE	 	56:36.5	11:07.9	670	25:37.5	N	94
591	 	662	LÕHMUS IVO	Regio	56:40.3	11:08.6	672	25:41.3	M	264
592	157	562	NÕMMISTE LEIE	 	56:42.0	11:06.5	667	25:43.0	N	95
593	 	779	KASE RENE	Kask	56:42.1	9:58.6	507	25:43.1	M	265
594	158	665	PATUNE EVA	 	56:42.6	11:23.8	711	25:43.6	N	96
595	159	539	SIKK MIINA	 	56:43.5	10:52.7	646	25:44.5	N	97
596	160	418	LANG KATRIN	 	56:45.6	10:14.1	549	25:46.6	N	98
597	161	625	KASEVÄLI KAI	 	56:45.6	10:27.5	580	25:46.6	N	99
598	162	823	MAUER ÜLLE	 	56:49.8	11:01.4	655	25:50.8	N 40	24
599	163	722	TEEVÄLI LEILI	Kevek	56:59.3	10:29.5	590	26:00.3	N 65	1
600	164	911	VÕRK KATI	 	57:02.6	10:48.2	623	26:03.6	N	100
601	165	364	LUMI KATRI	 	57:04.8	10:28.9	587	26:05.8	N	101
602	166	850	PÕLLUSTE BRENDA	Tartu Kalev korvpall I	57:06.2	11:10.2	673	26:07.2	T	7
603	168	851	SÄDE ERELI	Tartu Kalev korvpall I	57:06.3	11:10.3	674	26:07.3	NJ	4
604	167	725	MELEðTðENKO NADEþDA	 	57:06.3	11:20.8	702	26:07.3	N	102
605	169	690	AINELO HELEN	 	57:09.3	11:26.4	719	26:10.3	N	103
606	 	628	KALJAKIN ALAR	 	57:13.1	12:27.6	763	26:14.1	MN	17
607	170	718	KADAJA KRISTI	Teletupsud	57:16.9	11:12.9	682	26:17.9	N	104
608	171	737	KANGUR TRIIN	Teletupsud	57:22.1	10:37.5	602	26:23.1	N	105
609	172	931	LILLEORG HELLE	 	57:25.6	10:43.8	616	26:26.6	N 55	4
610	173	491	PEETRIMÄGI SIGRE	 	57:25.8	10:33.1	597	26:26.8	N	106
611	 	793	VOOREMÄE GUNNAR	 	57:26.4	10:38.9	607	26:27.4	M 45	31
612	 	601	ERS ALGER	 	57:29.2	11:02.1	657	26:30.2	M	266
613	174	884	KANGILASKI KRISTEL	 	57:30.1	11:02.1	656	26:31.1	N	107
614	 	298	SAAR HANNES	 	57:33.3	9:09.3	379	26:34.3	P	21
615	175	372	KIVISTIK ELERI	 	57:39.1	10:28.8	586	26:40.1	N	108
616	176	824	APUHTIN ANNELI	 	57:41.2	10:49.0	626	26:42.2	N	109
617	177	551	NURMIS PILLE	 	57:42.0	10:39.8	610	26:43.0	N 50	7
618	178	874	LAIKRE KARMEN	 	57:46.2	10:38.3	604	26:47.2	N	110
619	 	872	JUURSOO MEELIS	 	57:47.9	11:26.0	718	26:48.9	M 40	67
620	179	545	KOCH KETHE	 	57:49.3	10:29.8	592	26:50.3	N	111
621	180	451	PÄRN PIRET	Dynamic Quattro	57:49.5	10:10.5	540	26:50.5	N	112
622	181	530	PIRN ANNE	 	57:49.7	10:38.0	603	26:50.7	N	113
623	182	344	RIITSALU ENNA-LIISA	number neli	57:50.6	10:35.5	601	26:51.6	N	114
624	183	949	MURU ANNEMARI	 	57:51.1	10:53.5	648	26:52.1	N	115
625	184	306	ALLESE KADRI	Makulatuur	57:51.3	10:51.1	643	26:52.3	N	116
626	185	602	SUITS MARILI	 	57:52.6	10:49.6	631	26:53.6	N	117
627	186	569	RANDOJA TEELE	 	57:55.2	9:50.7	492	26:56.2	N	118
628	187	668	KESKÜLA TEELE	 	57:56.5	11:03.2	660	26:57.5	N	119
629	188	707	JAOMAA JANE	 	57:56.9	10:06.0	531	26:57.9	N 40	25
630	189	865	TÕNNE VIRVE	 	57:57.4	11:18.4	696	26:58.4	N 40	26
631	190	186	PILT ESTA	 	57:58.3	10:00.2	512	26:59.3	N 45	13
632	 	235	PILT EDMUND	 	57:58.3	10:00.2	513	26:59.3	MN	18
633	 	929	LAANOJA LAURI	 	58:00.1	10:47.5	621	27:01.1	M	267
634	 	840	TÕNNE RAIVO	BELLFIRE	58:00.1	11:11.8	678	27:01.1	M 40	68
635	191	847	VEERMÄE SILVIA	Kersti näitsikud	58:03.1	11:17.9	695	27:04.1	T	8
636	 	411	LUIK OLEV	 	58:07.1	11:18.6	699	27:08.1	M	268
637	192	841	POSTI MONIKA	BELLFIRE	58:14.8	11:11.1	675	27:15.8	N	120
638	193	905	PRUUL KATRI	 	58:18.9	11:15.0	688	27:19.9	N	121
639	194	448	MÄGI TRIIN	 	58:19.0	10:50.9	642	27:20.0	N	122
640	195	343	LIIVAPUU KRISTEL	number neli	58:23.6	11:14.2	686	27:24.6	N	123
641	 	778	ENGEL MARGO	 	58:25.6	11:15.9	692	27:26.6	M	269
642	196	700	KASEALU MARI-LIIS	 	58:27.2	11:18.5	697	27:28.2	NN	10
643	197	386	TOLK TRIINU	EAS	58:28.6	11:29.6	724	27:29.6	N	124
644	198	699	KASESALU TERJE	 	58:28.8	11:18.6	698	27:29.8	N 40	27
645	199	913	SULBI ANU	 	58:32.4	10:14.5	551	27:33.4	N 40	28
646	200	679	VILLA INGA	per aspera ad astra	58:33.0	10:58.3	650	27:34.0	N 40	29
647	201	871	ERM EVELIINE	 	58:36.4	10:59.4	652	27:37.4	N 40	30
648	202	768	KULA JAANIKA	Rannahooaeg	58:36.6	11:30.6	726	27:37.6	N	125
649	 	559	MARCINKEVICZ ROBIN	 	58:40.2	11:02.5	658	27:41.2	P	22
650	203	361	VISNAPUU KATRIN	 	58:41.7	10:10.4	539	27:42.7	N	126
651	204	710	NOKKUR KADRI	RõõSA	58:45.6	10:16.1	555	27:46.6	NN	11
652	205	880	KÜTT KAIDI MARII	Garnett	58:47.9	9:38.1	464	27:48.9	T	9
653	206	881	VARUL BRIGITTA	Garnett	58:48.2	9:38.1	463	27:49.2	T	10
654	207	878	KÄIS LAURA	Garnett	58:48.3	9:38.2	465	27:49.3	T	11
655	 	267	MALÕðEV KARL JOOSEP	 	58:59.1	9:26.2	433	28:00.1	P	23
656	 	494	TRALLMANN TAUNO	Jooksupartner III	58:59.5	11:08.4	671	28:00.5	M	270
657	208	650	ANNI HEILI	 	59:02.3	10:43.5	613	28:03.3	NN	12
658	209	397	KAASIK KAIRIT	 	59:07.6	10:58.9	651	28:08.6	N 40	31
659	210	301	TALU ANU	 	59:20.3	10:28.6	583	28:21.3	N 45	14
660	 	456	KOBAR PÄRTEL	 	59:29.2	9:52.8	496	28:30.2	P	24
661	211	856	TEDER JOHANNA ELIISE	Tartu Kalev III	59:34.0	11:11.2	676	28:35.0	T	12
662	212	857	VALS MARTA	Tartu Kalev III	59:34.2	11:13.4	684	28:35.2	T	13
663	 	382	ERILAID JANIS	 	59:35.8	8:33.6	267	28:36.8	M	271
664	213	163	OKAS KADRI	 	59:40.8	10:28.7	585	28:41.8	N	127
665	214	694	SAAR MARJAN	 	59:43.6	10:41.9	611	28:44.6	N 40	32
666	215	642	LAAS LAURA	 	59:46.7	10:50.1	633	28:47.7	N	128
667	216	580	LILLE TIINA	 	59:48.3	11:11.5	677	28:49.3	N	129
668	 	696	JAESKI RAIKO	 	59:48.5	9:37.2	461	28:49.5	P	25
669	 	898	KARTSEP JOONAS	 	59:51.3	12:29.0	764	28:52.3	P	26
670	 	553	MARCINKEVICZ JÜRI	 	1:00:03.5	11:12.5	680	29:04.5	M 45	32
671	 	941	KROOL KALLE	 	1:00:05.0	11:15.3	689	29:06.0	M 40	69
672	217	693	LAIDRO IRINA	 	1:00:05.6	10:43.6	614	29:06.6	N	130
673	218	543	VÄITS LIINA	 	1:00:07.0	11:23.8	712	29:08.0	N	131
674	 	652	SULEV JANEK	 	1:00:11.6	10:50.5	636	29:12.6	M	272
675	219	428	SAHK INGRID	 	1:00:13.6	12:43.8	776	29:14.6	N	132
676	220	424	TINT DIANA	EAS	1:00:14.2	11:29.3	723	29:15.2	N	133
677	221	667	KARJANE KAISA	 	1:00:15.3	12:26.3	762	29:16.3	NN	13
678	 	935	LUHAÄÄR JANEK	 	1:00:26.9	11:22.7	706	29:27.9	M	273
679	222	307	KÕND SIGNE	Makulatuur	1:00:34.7	10:49.6	630	29:35.7	N	134
680	223	486	VESKIMÄE RIINA	 	1:00:35.1	10:44.1	617	29:36.1	N	135
681	224	783	AHI KATRY	 	1:00:38.3	11:28.7	721	29:39.3	NJ	5
682	 	724	TAMM INDREK	 	1:00:39.4	11:29.0	722	29:40.4	M	274
683	225	729	LEPIK AVE	 	1:00:43.3	11:22.0	704	29:44.3	N	136
684	226	675	PILLE KATRI	Might Just Do It	1:00:50.5	11:25.7	716	29:51.5	N	137
685	227	669	KRILLO KAROLYN	Might Just Do It	1:00:50.7	11:25.8	717	29:51.7	N	138
686	228	620	RÄST KRISTIINA	LLA	1:00:54.7	10:43.2	612	29:55.7	N	139
687	229	717	MÄGI KRISTEL	 	1:00:58.8	10:51.7	644	29:59.8	N	140
688	230	777	KRULL ANNE	 	1:00:59.2	10:29.9	593	30:00.2	N 40	33
689	231	638	POZNAHIRKO SVETLANA	 	1:01:08.2	11:22.9	707	30:09.2	N 45	15
690	 	316	LODE VELLO	 	1:01:13.3	11:21.6	703	30:14.3	M 70	3
691	232	806	KUMMER MARI	Sportland	1:01:14.5	10:33.4	598	30:15.5	N	141
692	233	549	KANGUR KELLY	 	1:01:16.4	9:58.7	508	30:17.4	T	14
693	234	526	KAAL LIISI	 	1:01:21.1	11:30.1	725	30:22.1	N	142
694	235	653	RANDOJA RENDA	 	1:01:24.1	10:49.2	628	30:25.1	N 40	34
695	 	604	JÄRVA MATTI	 	1:01:27.0	11:51.4	742	30:28.0	M 65	2
696	236	441	POTTMANN KERSTI	 	1:01:27.9	12:21.4	759	30:28.9	N	143
697	237	371	SAMRA TIINA	 	1:01:30.1	9:56.7	504	30:31.1	N 40	35
698	238	485	ZDOBNÕH SOFIA	 	1:01:32.8	11:44.0	736	30:33.8	N	144
699	239	795	ROHTMA MERILIN	 	1:01:35.4	10:52.8	647	30:36.4	N	145
700	240	417	SEPPING LEENI	 	1:01:40.0	10:38.9	608	30:41.0	N	146
701	 	762	VANNAS VILLEM	 	1:01:41.3	11:05.0	665	30:42.3	M 50	20
702	 	910	BIRK MEELIS	 	1:01:55.0	10:30.6	595	30:56.0	M 40	70
703	 	603	TINN AARE	 	1:01:55.7	11:24.0	713	30:56.7	M 50	21
704	241	484	VIIKBERG REELI	 	1:01:57.1	11:45.4	737	30:58.1	N	147
705	242	862	SARAPUU MARI	 	1:02:02.3	11:23.0	708	31:03.3	N	148
706	 	454	ROHTLA JARMO	 	1:02:06.3	11:51.9	743	31:07.3	M	275
707	243	775	LILLE KERLI	 	1:02:12.7	11:37.6	731	31:13.7	NN	14
708	244	859	KLEINSON KERTU	Tartu Kalev III	1:02:16.7	11:46.3	738	31:17.7	T	15
709	245	818	AAS JANNE	 	1:02:21.4	11:31.5	727	31:22.4	N	149
710	246	855	PARK DORIS	Tartu Kalev korvpall II	1:02:23.2	11:04.4	663	31:24.2	T	16
711	247	854	KÜTIMETS SANDRA	Tartu Kalev korvpall II	1:02:24.5	11:40.3	735	31:25.5	T	17
712	248	842	LONDON KATI	BELLFIRE	1:02:37.0	11:15.6	690	31:38.0	N	150
713	249	389	BURK PIIA	 	1:02:48.4	11:51.4	741	31:49.4	NN	15
714	250	594	JATSA ANNI	 	1:02:50.9	11:12.5	681	31:51.9	N	151
715	251	646	HÄRMA PILLE	 	1:02:56.2	11:03.8	661	31:57.2	N	152
716	252	528	LAUMETS MERIT	 	1:03:01.4	11:17.5	693	32:02.4	NN	16
717	253	593	HAAV TIINA	 	1:03:13.8	11:12.4	679	32:14.8	N	153
718	 	770	KRULL FRIEDRICH	 	1:03:18.7	10:07.8	537	32:19.7	P	27
719	254	786	REIMANN KATI	Teletupsud	1:03:25.9	11:55.6	745	32:26.9	N	154
720	 	742	ROHDE RONALD	 	1:03:37.1	12:06.6	748	32:38.1	M	276
721	255	896	AGAFONOVA ANNA	 	1:03:43.5	11:38.8	733	32:44.5	N	155
722	256	660	SILM GETTER	 	1:03:48.3	12:18.4	758	32:49.3	T	18
723	257	845	PAJU BIRGIT	Kersti näitsikud	1:03:53.1	11:17.8	694	32:54.1	T	19
724	258	612	NARUSKI GERTTU	IROKAD	1:04:04.9	11:39.8	734	33:05.9	N	156
725	 	367	MÄLLO RAINER	 	1:04:05.2	10:31.7	596	33:06.2	M	277
726	259	784	BALÕNSKI URVE	 	1:04:11.0	11:04.4	664	33:12.0	N 60	1
727	260	589	TAMMIST LESIA	 	1:04:24.5	12:04.2	747	33:25.5	N	157
728	261	544	ANNI MERLE	 	1:04:25.2	11:13.9	685	33:26.2	N	158
729	262	879	KONTKAR MARIS	Garnett	1:04:36.4	9:38.7	467	33:37.4	T	20
730	263	606	PÕDRA SIGRID	 	1:05:05.0	11:22.4	705	34:06.0	N	159
731	264	313	KOSSINKOVA KRISTINA	 	1:05:33.6	11:07.1	669	34:34.6	N	160
732	265	950	VESKI LIA	 	1:05:41.5	11:01.3	654	34:42.5	N 50	8
733	266	750	TARASOV TRIINU	 	1:05:48.2	11:48.5	740	34:49.2	N	161
734	267	886	RÄÄK ERET	 	1:05:55.3	11:27.9	720	34:56.3	N	162
735	268	921	KIBIN REGINA	 	1:06:01.2	10:50.3	634	35:02.2	T	21
736	269	920	VENDLAND ELISABETH	 	1:06:01.8	10:50.3	635	35:02.8	T	22
737	270	353	PÕLDMAA KAIRE	 	1:06:12.1	11:55.5	744	35:13.1	N	163
738	271	902	TAAL CRISTEL	 	1:06:18.4	12:39.6	770	35:19.4	N	164
739	272	772	MÕNISTE TIINA	 	1:06:19.9	13:01.4	791	35:20.9	N	165
740	 	903	TAAL RAUL	 	1:06:20.0	12:39.6	771	35:21.0	M	278
741	273	801	ZEIGER KANNI	kAbedad	1:06:21.2	12:36.0	769	35:22.2	N	166
742	274	347	PÕVVAT KATRE	 	1:06:49.3	10:48.5	624	35:50.3	N	167
743	275	853	VAINO ELERIIN	Tartu Kalev korvpall II	1:06:50.9	11:46.3	739	35:51.9	T	23
744	278	610	MARTON MOONIKA	 	1:07:08.9	10:30.0	594	36:09.9	N	170
745	279	334	RESIK KERLY	K.A.R.M.	1:07:15.9	12:09.1	752	36:16.9	N	171
746	280	332	KASKLA AVE-GAIL	K.A.R.M.	1:07:16.1	12:08.5	749	36:17.1	N	172
747	281	335	ROHUSTE REELIKA	K.A.R.M.	1:07:16.1	12:08.6	750	36:17.1	N	173
748	282	333	LAURIMAA MAI	K.A.R.M.	1:07:16.2	12:09.1	753	36:17.2	N	174
749	 	869	LEPPSOO RIHO	SKAUT	1:07:17.2	11:03.2	659	36:18.2	MJ	12
750	283	585	SAHK KARIN	 	1:07:24.4	12:43.7	775	36:25.4	N	175
751	284	379	JAHTMAA RAILI	Tääglova Noored	1:07:30.1	11:13.3	683	36:31.1	N	176
752	285	846	SILLASOO HELEEN	Kersti näitsikud	1:07:31.7	11:34.9	728	36:32.7	T	24
753	286	844	ADAMSON ANNALEENA	Kersti näitsikud	1:07:31.9	11:35.1	729	36:32.9	T	25
754	287	561	AINELO EPP	 	1:08:00.1	12:42.1	772	37:01.1	NJ	6
755	288	560	HIIBUS KADRI	 	1:08:00.2	12:42.1	773	37:01.2	NN	17
756	 	807	TIIMANN RAUNO	 	1:08:08.7	11:06.5	666	37:09.7	M	279
757	289	805	JOOST LIILIAN	 	1:08:08.7	11:06.8	668	37:09.7	N	177
758	290	435	PIRN MIRJAM	 	1:08:14.4	10:15.6	554	37:15.4	T	26
759	291	753	LEHESTIK MERILIN	 	1:08:21.7	12:08.8	751	37:22.7	N	178
760	292	736	SIIDA GRETEL	 	1:08:23.6	11:24.6	714	37:24.6	T	27
761	293	691	KUKK SIIRI	 	1:08:31.2	12:45.3	781	37:32.2	N	179
762	294	611	LOPSIK LEA	SKLL	1:08:31.4	12:45.3	780	37:32.4	N	180
763	 	752	PÕLDOJA MIHKEL	 	1:08:38.0	12:30.0	766	37:39.0	M	280
764	295	843	VILK URVE	 	1:08:38.1	12:30.1	767	37:39.1	N	181
765	296	360	POST EVE	 	1:08:53.5	12:16.9	756	37:54.5	N	182
766	297	887	SAARNIIT SILVIA	 	1:09:14.5	11:23.6	710	38:15.5	N 55	5
767	298	388	METSALLIK NELE	 	1:09:17.5	11:14.5	687	38:18.5	N	183
768	299	714	TOOM KATRIN	 	1:09:24.6	12:17.6	757	38:25.6	N	184
769	300	583	SÕMER REELIKA	 	1:09:29.1	11:37.4	730	38:30.1	N	185
770	301	719	OJAP ANNA	 	1:09:37.9	13:06.4	793	38:38.9	N 40	36
771	302	541	KURU KERSTI	 	1:09:58.6	12:55.5	784	38:59.6	N 50	9
772	 	499	VIHERPUU RIHARD	Viherpuu	1:10:10.7	13:43.1	800	39:11.7	P	28
773	303	868	LAND LIINA	SKAUT	1:10:29.4	13:48.1	802	39:30.4	N	186
774	 	732	TREUFELD OLEV	 	1:10:29.7	12:47.8	782	39:30.7	M 55	6
775	304	402	LOONET TEELEMARI	 	1:10:34.6	12:24.7	761	39:35.6	N	187
776	305	497	VIHERPUU JOHANNA	Viherpuu	1:10:38.3	13:44.9	801	39:39.3	T	28
777	306	930	RÜBA ANNE	 	1:11:12.4	12:52.9	783	40:13.4	N	188
778	307	465	AAB ANNELI	 	1:11:51.8	13:07.4	794	40:52.8	N	189
779	308	746	PLOOM KARIN	 	1:11:52.2	13:07.5	795	40:53.2	N	190
780	309	327	JÄME ANNALIISA	 	1:11:57.6	12:16.0	754	40:58.6	NN	18
781	310	432	VOORE MEELI	PINK TIIM	1:12:09.4	12:44.4	777	41:10.4	N	191
782	311	429	KERGE KRISTI	PINK TIIM	1:12:09.6	12:44.4	778	41:10.6	N	192
783	312	791	TOOMING HELERI	Teletupsud	1:12:11.7	13:04.4	792	41:12.7	N	193
784	313	430	KOLLIST KADRI	PINK TIIM	1:12:20.2	12:44.5	779	41:21.2	N	194
785	314	835	KIIS ELIISE	Tartu Kalev korvpall I	1:12:49.6	12:02.8	746	41:50.6	T	29
786	315	629	PIKKARO SILJA	 	1:12:55.0	12:34.9	768	41:56.0	NJ	7
787	316	643	KOLLOM SIRJE	 	1:12:59.2	12:29.2	765	42:00.2	N	195
788	317	639	LIPS KRISTEL	 	1:13:01.8	12:59.5	787	42:02.8	N	196
789	318	776	UNT KRISTI	 	1:13:07.5	11:37.8	732	42:08.5	NN	19
790	319	873	ETS KRISTEL	 	1:13:24.4	12:42.8	774	42:25.4	N	197
791	 	476	KASK KAIDO	 	1:13:42.0	12:56.0	785	42:43.0	MN	19
792	320	482	SOLOMONOVA RIINA	 	1:13:42.1	12:56.2	786	42:43.1	NN	20
793	321	803	NOORMETS SIGNE	ERGO TASKU	1:13:54.4	13:00.5	789	42:55.4	N 50	10
794	322	754	JAANISK SIIRI	 	1:14:01.9	12:59.5	788	43:02.9	N	198
795	324	495	MARGENS ESTE-LIIN	 	1:14:30.0	12:16.3	755	43:31.0	NN	21
796	325	802	NOORMETS BERIT	ERGO TASKU	1:14:30.5	13:00.6	790	43:31.5	N	200
797	 	711	NOKKUR ARNO	RõõSA	1:15:07.3	13:29.2	798	44:08.3	P	29
798	327	923	LOOLAID-RAUDPUU EVA	 	1:15:40.4	13:10.5	796	44:41.4	N	202
799	 	774	RAUDPUU MADIS	 	1:15:40.6	13:10.6	797	44:41.6	M	282
800	328	405	ILVES LIISI	 	1:16:05.5	13:29.3	799	45:06.5	T	30
801	336	720	LILLE ANNE	 	1:20:49.1	14:11.7	803	49:50.1	NJ	8
802	 	396	SAAN AIN	 	 	8:19.3	238	 	M 55	 
803	 	888	SAMSON ANTON	 	 	12:23.8	760	 	M	 
804	 	2	NIKOLAJEV ILJA	 	 	 	 	 	M	 
805	 	14	AUS PRIIT	 	 	 	 	 	M	 
806	 	22	MARAN TARVO	 	 	 	 	 	M 40	 
807	 	37	SCHONE KRISTIAN	 	 	 	 	 	M	 
808	 	106	PAJU KAIDO	 	 	 	 	 	M 45	 
809	 	109	KAMBEK SIIM	 	 	 	 	 	M	 
810	 	130	RAND ALO	 	 	 	 	 	M	 
811	 	152	KUKK OTT	 	 	 	 	 	M	 
812	 	167	MUULI EERIK	 	 	 	 	 	MJ	 
813	 	177	SUVI SILVA	 	 	 	 	 	N	 
814	 	192	PROSIN MÄRT	 	 	 	 	 	M	 
815	 	251	NAABER JAAN	Sportland	 	 	 	 	M	 
816	 	253	PUUSALU MARI-LIIS	Team Nike	 	 	 	 	N	 
817	 	256	JAAGO JANIKA	 	 	 	 	 	N	 
818	 	266	JÕGEVA TOOMAS	 	 	 	 	 	M 45	 
819	 	274	SMIRNOV DMITRI	 	 	 	 	 	M	 
820	 	275	RANG KERT	 	 	 	 	 	MN	 
821	 	303	VAADUMÄE ÜLAR	 	 	 	 	 	M	 
822	 	350	NOORMÄGI LIIVI	 	 	 	 	 	N	 
823	 	354	DIETRICH MARLEN	 	 	 	 	 	N	 
824	 	358	KUUSIK KADI	 	 	 	 	 	NN	 
825	 	370	VÕSU MARGO	 	 	 	 	 	M	 
826	 	384	KITTER MARI-LIIS	 	 	 	 	 	N	 
827	 	385	KITTER ANDRES	 	 	 	 	 	M	 
828	 	390	PITSENKO TIINA	 	 	 	 	 	N	 
829	 	393	KASE KATRIN	 	 	 	 	 	N	 
830	 	398	KOLLOM KAIMAR	A. Le Coq I	 	 	 	 	M	 
831	 	399	MÖLDER RIINE	 	 	 	 	 	N 40	 
832	 	412	LÄÄNE MAIDU	 	 	 	 	 	M 60	 
833	 	415	GLUHHOVTSENKO MAKSIM	 	 	 	 	 	M	 
834	 	437	LEEMETS MARGIT	 	 	 	 	 	NN	 
835	 	458	TAVITS JOOSEP	 	 	 	 	 	P	 
836	 	466	ALLASTE MARJU	 	 	 	 	 	N 40	 
837	 	471	AMUR MARGUS	 	 	 	 	 	M	 
838	 	472	INGVER HELI	 	 	 	 	 	N	 
839	 	474	EDENBERG KAISA	 	 	 	 	 	N	 
840	 	483	TORKEL KERTTU	 	 	 	 	 	N	 
841	 	524	LUHAMETS MARIS	 	 	 	 	 	N	 
842	 	563	ALAVERE KARIN	FB Jooksmine Tartu	 	 	 	 	N	 
843	 	567	MATINA OLGA	 	 	 	 	 	N	 
844	 	571	TAMM KRISTI	 	 	 	 	 	NN	 
845	 	574	VAHESAAR TAURI-VILJAR	 	 	 	 	 	MJ	 
846	 	586	LÄTE ENELI	 	 	 	 	 	T	 
847	 	587	LÄTE ENE	 	 	 	 	 	N 40	 
848	 	588	LÄTE ANATOLI	 	 	 	 	 	M 45	 
849	 	599	RUTH KALDA	 	 	 	 	 	N 45	 
850	 	608	KALA KASPAR	 	 	 	 	 	M	 
851	 	609	KUBO KITTY	 	 	 	 	 	N 40	 
852	 	616	RÄBOVÕITRA CÄTLIN	 	 	 	 	 	N	 
853	 	632	KINGO MARGO	 	 	 	 	 	M	 
854	 	636	KINKS REET	 	 	 	 	 	N 45	 
855	 	637	VÄÄR KAIMAR	 	 	 	 	 	M	 
856	 	656	LEPPSOO DIANA	 	 	 	 	 	NN	 
857	 	666	JUNOLAINEN MAARIT	 	 	 	 	 	N	 
858	 	671	LUIDALEPP HANNES	 	 	 	 	 	M	 
859	 	672	MAIVEL MAIE	 	 	 	 	 	N	 
860	 	673	MÄND MERY-LIIS	 	 	 	 	 	NN	 
861	 	681	TAMM SIIRI	 	 	 	 	 	N	 
862	 	687	PÜKKENEN MARIS	 	 	 	 	 	N	 
863	 	689	TÄLLI HELEN	 	 	 	 	 	N	 
864	 	708	KADE INDREK	A. Le Coq I	 	 	 	 	M	 
865	 	723	ALTOF MARIA	 	 	 	 	 	NN	 
866	 	728	ZAVADSKIS ERIK	 	 	 	 	 	M 40	 
867	 	730	LAND LIINA	 	 	 	 	 	N	 
868	 	735	VÄLJAOTS AGNE	 	 	 	 	 	N	 
869	 	759	RUUT JAANUS	 	 	 	 	 	M	 
870	 	796	RAUDMETS LIISA	 	 	 	 	 	NN	 
871	 	810	VAIKNURME MAREK	 	 	 	 	 	M 40	 
872	 	826	KADE KERSTI	 	 	 	 	 	N	 
873	 	827	KALDOJA KAIA	 	 	 	 	 	N	 
874	 	830	JÄRV TIIU	 	 	 	 	 	N 45	 
875	 	831	KAASIK KILLU	 	 	 	 	 	NN	 
876	 	832	KUKK ILLE	 	 	 	 	 	N 55	 
877	 	834	KALMA MAARJA	 	 	 	 	 	N	 
878	 	848	LILLEALLIK JANELI	 	 	 	 	 	NJ	 
879	 	849	LÕHMUS GERLI	Tartu Kalev korvpall I	 	 	 	 	NJ	 
880	 	858	KIIDRON KARMEN-ELIISE	Tartu Kalev III	 	 	 	 	T	 
881	 	877	JUKK KADRI	 	 	 	 	 	N	 
882	 	890	SOESON MARTEN	 	 	 	 	 	P	 
883	 	891	SIMSON KAIA	 	 	 	 	 	NN	 
884	 	895	OKS MARGIT	 	 	 	 	 	N	 
885	 	899	TIGANE MARGRET	 	 	 	 	 	T	 
886	 	906	KERA KARL	 	 	 	 	 	P	 
