Koht	Nr	Nimi	Firma	Klubi	Aeg	Vkl	Vkl_koht	 
1	1758	TSERNJAEV ANTON			0:23:58	M	1	 
2	1699	KOSKINEN KRISTJAN	Äkke		0:24:19	MJ	1	 
3	1701	KOSKINEN MARKO	Äkke		0:24:23	PB	1	 
4	1751	TARM TOOMAS		sportkeskus.ee	0:24:34	M40	1	 
5	1365	JAKSON AHTO		FB Jooksmine	0:24:56	M40	2	 
6	1028	TIIKSAAR AARO			0:25:17	M	2	 
7	1859	FOMIN IGOR			0:25:50	M	3	 
8	1763	SINYAVSKIY VLASIY			0:25:52	PA	1	 
9	1702	TRIFONOV DANIL	Äkke		0:25:54	PA	2	 
10	1647	MALAHHOV SERGEI			0:26:12	M	4	 
11	1655	VAHTER KAIT			0:26:14	M	5	 
12	1756	MÄGI MERILL		Stamina SK	0:26:14	N	1	 
13	1046	PERE RENE		Vana Kooli Mehed	0:26:37	M45	1	 
14	1385	FAWAZ DYLAN	Clemson University		0:26:43	MJ	2	 
15	1788	AGLETDINOV ALEXEI			0:26:50	M	6	 
16	1099	REBBAN ARGO		ALUTAGUSE SUUSAKLUBI	0:26:50	PA	3	 
17	1850	SEPPEL ANDRES			0:26:51	M	7	 
18	1715	DOVNAR TAAVI		FB Jooksmine	0:26:54	M	8	 
19	1488	MÕTTUS TANEL	EE Võrguehitus	OK Võru	0:26:57	M	9	 
20	1397	NORTHROP KEVIN	University of Maryland		0:27:09	MJ	3	 
21	1395	HILD JEREMY	Drake University		0:27:11	MN	1	 
22	1757	HRENNIKOVA OLGA			0:27:12	N	2	 
23	1293	šADRIN ALEKSEI	Eesi Energia		0:27:20	M	10	 
24	1478	MÕISTUS ROBERT KLEN			0:27:23	PB	2	 
25	1654	TEPPO ANU		sportkeskus.ee	0:27:25	N	3	 
26	1572	UIBUKANT ANDREI			0:27:28	M	11	 
27	1465	VASSILJEV ALEKSANDR	Eesti Energia	Kaevanduste Spordiklubi	0:27:38	M50	1	 
28	1535	KUKK ÜLO	knc		0:27:41	M40	3	 
29	1108	ANNUS MADIS			0:27:42	M	12	 
30	1184	ÄRM URMAS			0:27:53	M45	2	 
31	1609	ŠKUBEL IGOR	Eesti Energia		0:27:59	M50	2	 
32	1066	VIRMA RAGNAR			0:28:08	MN	2	 
33	1124	KUUSIK ARON			0:28:12	MJ	4	 
34	1388	GWIN SEAN	Edinboro University of Pennsyl		0:28:18	MN	3	 
35	1643	MÄE SIIM		TLÜ	0:28:19	M	13	 
36	1389	SHAFER ETHAN	Dakota State University		0:28:25	MN	4	 
37	1396	DOWNES ALEXANDER	University of Maryland		0:28:26	MN	5	 
38	1759	BONDAREV ARTEM			0:28:34	M	14	 
39	1716	KIVI LIINA		Jooksupartner	0:28:36	N	4	 
40	1381	PIETSCH KIRK	US Armed Forces		0:28:38	M45	3	 
41	1326	OVTšINIKOVA KSENIA	Lasnamäe Hambakliinik OÜ		0:28:47	N	5	 
42	1446	SÄÄR TÕNU		JK Hermes	0:28:54	M40	4	 
43	1504	ORUPÕLD KRISTOFER			0:28:56	PA	4	 
44	1189	KONOVALOV ALEKSANDR			0:28:58	MJ	5	 
45	1384	BIRCHFIELD LOGAN	Clemson University		0:28:59	MN	6	 
46	1652	KAIGAS EINAR		Jooksupartner	0:29:00	M	15	 
47	1703	SUBBOTIN DANIL	Äkke		0:29:07	PB	3	 
48	1608	ŠKUBEL ANDREI			0:29:15	MN	7	 
49	1034	VOLOSHIN JEVGENI		FIRN	0:29:15	M60	1	 
50	1800	SOOTALU TIIT			0:29:15	M45	4	 
51	1002	DMITRIJEV ANDREI		Äkke	0:29:21	M45	5	 
52	1069	GUSSEV RAIN			0:29:30	M	16	 
53	1437	LEIBENAU MATIS	Elektrilevi OÜ	EE Spordiklubi	0:29:33	M	17	 
54	1393	PIVETZ JONATHAN	Indiana University of Pennsyl		0:29:40	MN	8	 
55	1793	BANDURIN DMITRI			0:29:41	M	18	 
56	1097	ÕUNAP URMAS			0:29:43	M40	5	 
57	1732	VÄÄRTNÕU AIVAR			0:29:45	MN	9	 
58	1413	TARM VEIKO	Norma		0:29:45	M	19	 
59	1051	SAAREMÄEL INDREK			0:29:47	M	20	 
60	1713	BELOUSSOV MIHHAIL			0:29:48	M	21	 
61	1592	HIMUšKIN ANDRE			0:29:53	M40	6	 
62	1790	OINUS TIIT			0:29:53	M	22	 
63	1394	HODGES JESSE	University of Scranton		0:29:53	MN	10	 
64	1495	BOROVKOV SERGEY	EESTI ENERGIA KAEVANDUSED	EESTI ENERGIA KAEVANDUSED SK	0:29:56	M50	3	 
65	1392	FELDMAN KYLE	California Baptist University		0:29:57	MN	11	 
66	1708	TUKANOV KONSTANTIN			0:29:58	M	23	 
67	1076	RIIVES MARILIN		Tartu SS Kalev	0:30:00	TB	1	 
68	1008	PRIBÕLOVSKAJA KSENIA		Äkke	0:30:07	TB	2	 
69	1244	VOLEGZANIN VLADIMIR	EE kaevandus k-r *AIDU*		0:30:11	M55	1	 
70	1710	KAAR ANDRES	Estlander Grupp OÜ		0:30:16	M	24	 
71	1507	MULDRE KRISTIAN			0:30:20	PA	5	 
72	1484	KÄSPER PRIIT			0:30:23	M	25	 
73	1729	ZAUGAROV SERGEI	EE EA AS		0:30:23	M	26	 
74	1276	MÜÜDLA HELIN			0:30:23	TB	3	 
75	1661	VIKMAN IVAN	Elektrilevi OÜ	Eesti Energia Spordiklubi	0:30:25	M	27	 
76	1058	ŠIRAI JEVGENI			0:30:25	MN	12	 
77	1614	SCHMIDT DMITRI		ISAMAA JA RESPUBLICA LIIT	0:30:30	M	28	 
78	1644	TAMM REIGO		TLÜ	0:30:33	M	29	 
79	1120	UMRIHHIN VJATSESLAV			0:30:35	M50	4	 
80	1130	KLEIMANN TARMO	Astri-Narva AS		0:30:42	M	30	 
81	1485	KÄSPER RANDO			0:30:43	MN	13	 
82	1228	NIKIFOROV ALEXANDER	Eesti Energia		0:30:51	M	31	 
83	1177	BOGOMOLOV VITALI	Elektrilevi	Eesti Energia Spordiklubi	0:30:52	M	32	 
84	1307	KRINPUS STEN			0:30:54	M	33	 
85	1092	TAMME RAIDO		Jõhvi motoklubi	0:30:55	M	34	 
86	1534	LIPATOV DMITRI	EE Nrva Elektrijaamad AS		0:30:55	M40	7	 
87	1235	KASKA MARKO			0:30:57	M	35	 
88	1646	ANTONS EERO	Ekore OÜ		0:31:00	M	36	 
89	1004	KARPENKO SERGEI		Äkke	0:31:04	M40	8	 
90	1711	TIHANE JAANIS			0:31:05	M	37	 
91	1477	MÕISTUS MERLIN			0:31:07	N	6	 
92	1040	LESHIHHIN ROMAN	Rik-Suur	Narva-Extrem	0:31:10	M40	9	 
93	1195	TREFFNER KADRI			0:31:11	N	7	 
94	1227	KALK KATRE	Audit Partner OÜ		0:31:12	N	8	 
95	1197	PÕLLU AIVAR	Eesti Energia Võrguehitus AS	Eesti Energia Spordiklubi	0:31:13	M	38	 
96	1387	GROMIS BENJAMIN	Northern Arizona University		0:31:15	MN	14	 
97	1704	BOBROV ALEKSANDR	Äkke		0:31:16	PB	4	 
98	1278	PÕLDOJA ARGO		Betotrade	0:31:20	M	39	 
99	1299	TILGRE TAIMAR		Ok Põlva kobras	0:31:21	M45	6	 
100	1517	PERETS VIKTOR			0:31:22	M	40	 
101	1162	TIKVA PIRET			0:31:23	N	9	 
102	1277	MÜÜDLA MARTIN			0:31:25	PB	5	 
103	1169	PAKHALUJEV SERGEY	NEJ	NEJ Spordiklubi	0:31:29	M45	7	 
104	1847	GRITSENKO NIKOLAI			0:31:32	MJ	6	 
105	1215	SUSLOV MIHHAIL		KJK"Kalev" Sillamäe	0:31:36	PB	6	 
106	1266	BADAEV ALEXEY	narva olitoostus		0:31:36	M	41	 
107	1775	IZOTOV MIRON			0:31:37	PB	7	 
108	1065	MOGLIA PAOLO			0:31:37	M45	8	 
109	1482	ARO ANDRES		Kuldratas	0:31:39	M40	10	 
110	1090	HALLEMAA RENE			0:31:40	M	42	 
111	1127	EINULA RAUNO			0:31:41	M	43	 
112	1852	PANITSEV SERGEI			0:31:43	M50	5	 
113	1241	LOPATKIN ALEXANDER			0:31:43	M60	2	 
114	1531	UIBOAID URMAS	Eesti Energia AS		0:31:47	M40	11	 
115	1653	VIRKUS KARMEL		Alutaguse SUKL	0:31:47	TB	4	 
116	1095	IRVES MERILIN	Ekstreempark		0:31:47	TA	1	 
117	1267	BARANNIKOV SERGEY	Eesti Energia Narva kärjäär		0:31:52	M50	6	 
118	1582	FETISOV STANISLAV	OÜ Tervisekeskus RAHU	Tenniseklubi Fartuna	0:32:06	M50	7	 
119	1280	SÕMERA ÜLLAR		Lõuna Politsei Spordiklubi	0:32:08	M	44	 
120	1503	UDALOV NIKITA		kalevi ujumiskool	0:32:09	PB	8	 
121	1383	ADAMS JUSTIN	Slippery Rock University		0:32:10	MN	15	 
122	1376	SPIRIN DMITRI			0:32:11	M45	9	 
123	1764	JAZEVITS MNAT			0:32:12	PB	9	 
124	1206	ŠALAJEV ALEKSANDR			0:32:13	M50	8	 
125	1161	HÕBEJÕGI TIIT	Elektrilevi OÜ		0:32:15	M	45	 
126	1145	SAVT`SENKO KSENIA		KJK"Kalev" Sillamäe	0:32:15	TB	5	 
127	1781	KÕRGMAN KOIT			0:32:17	PB	10	 
128	1338	KNJAZETSKI MIHHAIL	KA Vaiko AS		0:32:22	M	46	 
129	1700	KALA TIINA		Jooksupartner	0:32:22	N	10	 
130	1423	ILJIN VLADISLAV	Narva Karjaar	Sportklubi Eesti Energia	0:32:22	M50	9	 
131	1196	SKRABUTENAS DENISS			0:32:22	PA	6	 
132	1038	KEERMA JAAN			0:32:27	M45	10	 
133	1666	RÄTSEP REIN			0:32:29	M45	11	 
134	1637	TARASJUK SERGEI	USS Sekjuriti		0:32:30	MJ	7	 
135	1629	UDUMÄE VALDUR	Päästeteenistus		0:32:31	M50	10	 
136	1648	LUHALAID VEIKKO			0:32:32	M40	12	 
137	1538	HENRY KORDMAA			0:32:33	M	47	 
138	1007	NESTEROV ANDREY	Eesti Energia AS		0:32:33	M50	11	 
139	1858	DUDAREV MIHAIL			0:32:35	M	48	 
140	1378	TAMMEPÕLD RONALD			0:32:36	M	49	 
141	1630	PROKOFYEV MIKHAIL			0:32:36	M	50	 
142	1565	VELBA SIRJE			0:32:37	N55	1	 
143	1487	NIGUL MIHKEL ERICH			0:32:41	PB	11	 
144	1373	KÄNGSEPP RAIDO			0:32:42	M	51	 
145	1178	BOGOMOLOVA TATJANA		Maru karud	0:32:44	N	11	 
146	1279	SELIN DMITRI			0:32:44	M	52	 
147	1225	KANGUR ANDO	EM-Serv AS	EM-Serv	0:32:46	M40	13	 
148	1346	NIINEPUU VILJAR		Tartu Ülikool	0:32:47	M	53	 
149	1659	VERNER ANTON	Elektrilevi	Eesti Energia spordiklubi	0:32:50	M	54	 
150	1769	FJODOROV ARTJOM			0:32:50	PB	12	 
151	1617	KASAK RIHO		ISAMAA JA RESPUBLICA LIIT	0:32:51	M55	2	 
152	1132	JAKOVLEVA OLGA	FIE Olga Jakovleva	Narva SK FIRN	0:32:52	N50	1	 
153	1668	BAHHAJEV DENISS			0:32:53	M	55	 
154	1526	OTTENSON KAIGO			0:32:57	M	56	 
155	1581	FETISSOV SERGEI	K/H Bratja Fetisovõ		0:32:59	M60	3	 
156	1607	TASANE RAIN			0:33:01	PB	13	 
157	1510	PARTS VELLI			0:33:03	N40	1	 
158	1309	ZAITSEV ALEKSEI	Ida prefektuur		0:33:05	M	57	 
159	1102	BELJAKOV STANISLAV			0:33:06	PB	14	 
160	1009	TSÕGANOVA ELIZAVETA		Äkke	0:33:07	TB	6	 
161	1633	HELILAID DENISS	NEJ	NEJ Spordiklubi	0:33:16	M	58	 
162	1631	LOSSEV VLADIMIR		Classic Riders	0:33:18	M	59	 
163	1541	MÜÜRSEPP TIIU		KEVEK	0:33:23	N55	2	 
164	1718	AFANASIEVA IRYNA		KhNMU	0:33:26	N	12	 
165	1375	REHTLA RENNO			0:33:28	M	60	 
166	1399	TOTTEN TRACIE	University of Oregon		0:33:30	NN	1	 
167	1553	BACHMANN BRETH	Tallinna Reaalkool		0:33:30	PA	7	 
168	1039	TšUDAJEV VLADIMIR			0:33:32	M	61	 
169	1573	TRUVE ELIZABETH			0:33:34	TB	7	 
170	1650	ALA TAIMAR	Keskkonnaamet		0:33:35	M	62	 
171	1303	VILDEK KELLY		MTÜ Männikumägi	0:33:35	TB	8	 
172	1569	ROOMA IVAR		Alutaguse Suusaklubi	0:33:36	M50	12	 
173	1264	KUHI ERKI	Rakvere Reaalgümnaasium		0:33:38	PB	15	 
174	1771	METSAORG BEATRICE MARLENE			0:33:39	TA	2	 
175	1134	NOORHANI KRISTO			0:33:40	M	63	 
176	1377	MERILAINE MARTIN	Elektrilevi	Eesti Energia Spordiklubi	0:33:40	M	64	 
177	1731	PASSMANN BERND-KRISTOF			0:33:42	MJ	8	 
178	1005	MIHHAILOV EDUARD	Eesti Energia		0:33:43	M40	14	 
179	1566	GERING MIHKEL			0:33:48	PB	16	 
180	1578	SURAZAKOVA IRINA			0:33:50	NN	2	 
181	1634	KAPLETSKI ALEKSEI			0:33:51	M	65	 
182	1744	POLEšTšUK DMITRI			0:33:51	M	66	 
183	1635	TROOST ANDER			0:33:55	MJ	9	 
184	1733	JALONEN EDGAR	Eesti Energia		0:33:58	M	67	 
185	1187	OREL HELGER	Jõhvi Gümnaasium	RSK Jõhvikas	0:33:59	PB	17	 
186	1705	JAGUDINA ALJONA	Äkke		0:34:00	N	13	 
187	1246	KARJA ARTJOM	Eesti Energia		0:34:02	M	68	 
188	1849	REBANE MATIS			0:34:02	M	69	 
189	1163	JAKOVLEV GENNADI			0:34:02	M55	3	 
190	1390	WALRABENSTEIN AUSTIN	Old Dominion University		0:34:02	MN	16	 
191	1766	TEDER ALAN			0:34:07	M	70	 
192	1077	RIIVES MARTIN		Tartu SS Kalev	0:34:11	PB	18	 
193	1851	XXX XXX			0:34:12	M	71	 
194	1560	LAURIMAA ANDRUS			0:34:13	M40	15	 
195	1780	POLJAKOVA NADEZDA			0:34:15	N65	1	 
196	1313	RUZANOV ANTON	Molycorp Silmet AS		0:34:17	M	72	 
197	1519	KERT JÜRI			0:34:18	MJ	10	 
198	1458	SOKUROV YURY	Narva Elektrijaamad	Narva Elektrijaamade Spordiklu	0:34:18	M50	13	 
199	1694	RANDOJA MATI	Äkke		0:34:19	M60	4	 
200	1583	PRÜKK KATRIN	advocatus		0:34:19	N	14	 
201	1615	KONDIN VIKTOR		ISAMAA JA RESPUBLICA LIIT	0:34:19	MN	17	 
202	1106	HÄMÄLÄINEN KATRIN			0:34:20	N	15	 
203	1160	VIIKLAID ERGE		EKVA	0:34:23	N40	2	 
204	1425	SURVA KARL KEVIN			0:34:24	PB	19	 
205	1179	BONDARENKO MARIA			0:34:25	N	16	 
206	1270	KOPPEL ALO			0:34:26	PB	20	 
207	1598	TUISK KRISTIN	Saku	Saku Õlletehase Spordiklubi	0:34:27	N	17	 
208	1238	AUNBAUM HELEN			0:34:29	N	18	 
209	1567	LEHEMAA GRETE			0:34:31	TB	9	 
210	1359	KÕRVOJA MEELIS			0:34:31	M	73	 
211	1712	TURKIN VIKTOR	Hansa Law Offices		0:34:33	M45	12	 
212	1035	JÜRJO JAANUS			0:34:33	M	74	 
213	1726	VELBA TAIMI			0:34:35	N	19	 
214	1690	KALMUS KARL-KRISTJAN	MTÜ SEB Heategevusfond		0:34:40	PB	21	 
215	1305	BATLUK NIKITA	Domus Kinnisvara		0:34:41	M	75	 
216	1544	LUUD MAIKEN			0:34:42	N	20	 
217	1783	KOTSETOV ALEXANDER			0:34:44	PB	22	 
218	1508	AINSAAR AIN			0:34:47	M45	13	 
219	1061	PIHEL AIMI	Maksu-ja Tolliamet	MTA Spordiklubi	0:34:48	N60	1	 
220	1537	ROOMA JONNE		Alutaguse Suusaklubi	0:34:48	TB	10	 
221	1597	LUSTI INGE	Saku	Saku Õlletehase Spordiklubi	0:34:49	N	21	 
222	1041	KUPP JAANA	Transcom Eesti OÜ	Sparta	0:34:50	N	22	 
223	1848	CHERNIKOV DMITRI			0:34:55	M	76	 
224	1147	VAHEMAA OLEV	Silikaat Grupp	Aatrium-SISUSTUSKAUBAMAJA NR.1	0:34:55	M	77	 
225	1753	ROOTS TÕNIS			0:34:56	M	78	 
226	1719	DJOMIN RUSLAN	NEJ	NEJ SK	0:34:56	M	79	 
227	1198	PILDEN BERIT	TTÜ		0:34:57	N	23	 
228	1673	LINDAM TIINA		EOK	0:34:58	NN	3	 
229	1738	MÄNDMETS ARLI			0:34:58	M	80	 
230	1853	PANITSEV MIHHAIL			0:35:01	PB	23	 
231	1236	NOOLE ANDRES			0:35:02	M45	14	 
232	1199	SARV REEMET			0:35:02	M	81	 
233	1457	LEES ÕNNE	EESTI ENERGIA AS	EESTI ENERGIA SK	0:35:04	N40	3	 
234	1441	KAASIK OLEV			0:35:05	M50	14	 
235	1386	GREENE JORDAN	University of South Florida		0:35:06	MN	18	 
236	1391	SNELLINGS DAVID	James Madison University		0:35:06	MN	19	 
237	1739	LAUR HANS KRISTIAN		SK Lindon	0:35:07	PB	24	 
238	1337	MÄLLO RAUNO			0:35:10	PB	25	 
239	1364	SAKKOOL REGINA			0:35:12	NJ	1	 
240	1616	BELJAEV ALEKSANDR		EESTI ENERGIA	0:35:14	M45	15	 
241	1445	KOROLJOVA ARINA			0:35:15	N	24	 
242	1282	SEPP VEIKO	Eneli-x OÜ		0:35:16	M	82	 
243	1398	HENDRICKSON ASHLEY	University of Virginia		0:35:24	NN	4	 
244	1419	PORIKIS KLAVS	Enefit		0:35:25	M	83	 
245	1476	LJAPUNOV ANDREI	DinoCarrier AS		0:35:25	M	84	 
246	1479	FEDOROVA EKATERINA	G4S Eesti AS		0:35:25	N	25	 
247	1272	KOPPEL LIIA			0:35:27	N45	1	 
248	1072	MAURER RAIM		SK Aaspere	0:35:27	MJ	11	 
249	1842	LÜMAT ALO			0:35:28	M	85	 
250	1551	MINTšENKOV ARTUR			0:35:28	MJ	12	 
251	1639	OJAMAA EDIT		TLÜ	0:35:29	NN	5	 
252	1201	SAPJOROV IGOR	Eesti Energia Tehnoloogiatööst		0:35:30	M40	16	 
253	1530	VALLNER KATRE		FB JOOKSMINE	0:35:32	N	26	 
254	1846	RAUDSEPP PAUL			0:35:32	M	86	 
255	1761	KERSTEN JEVGENIJA			0:35:34	N	27	 
256	1155	AHU MARGIT			0:35:34	N	28	 
257	1216	KOšELEV VLADISLAV		KJK"Kalev" Sillamäe	0:35:37	PB	26	 
258	1220	JÜRIÖÖ JAAN			0:35:38	M45	16	 
259	1043	VOOREMÄE LAURA			0:35:38	TA	3	 
260	1250	SINELNIKOV ALEKSEI	Narva karjäär	Kaevandused spordiklubi	0:35:40	M60	5	 
261	1347	LAURIK AIVI			0:35:41	N	29	 
262	1494	ISTSENKO SERGEI		JK Start	0:35:41	M50	15	 
263	1773	KRASNOV VALENTIN			0:35:42	PA	8	 
264	1229	PETROV PJOTR	Eesti Energia Kaevandused AS		0:35:43	M55	4	 
265	1741	SULEV JANEK	Empower AS		0:35:45	M40	17	 
266	1554	JUROVSKI DMITRI			0:35:48	M	87	 
267	1475	MUSTONEN ENAR			0:35:48	PA	9	 
268	1467	VASSILJEV ALEKSEI	Eesti Energia		0:35:50	M	88	 
269	1627	NIIDUMAA ANDRUS	Elektrilevi		0:35:53	M	89	 
270	1469	OJA FELIKS			0:35:54	M65	1	 
271	1524	KOIDU KRISTEL	Eesti Energia		0:35:54	N	30	 
272	1497	POMERANTS RIINA	Keskkonnaamet		0:35:54	N45	2	 
273	1341	JUHKOV INDREK			0:35:55	PB	27	 
274	1358	KÕLLO KERSTI			0:35:58	N	31	 
275	1550	BACHMANN AGO	EE Kaevandused	EE Kaevanduse Spordiklubi	0:35:59	M40	18	 
276	1760	GOLUBÕHH OLEG			0:36:01	M40	19	 
277	1171	MIGDALSKI LEV		Narva SK FIRN	0:36:03	M70	1	 
278	1765	MELL KARL			0:36:05	PB	28	 
279	1042	VOOREMÄE LINDA			0:36:06	N45	3	 
280	1204	BÕSTROV ALEKSANDR			0:36:08	M	90	 
281	1665	TÕNNISON LEA			0:36:08	NJ	2	 
282	1414	METSA ERKKI			0:36:09	M	91	 
283	1149	NIINEPUU MERILY			0:36:11	N	32	 
284	1455	KRIISK KERSTI			0:36:19	N	33	 
285	1625	ERIKSON JAN			0:36:21	M	92	 
286	1474	VÄÄRTNÕU KATRIN			0:36:22	N	34	 
287	1186	TUNGAL MARE	SEB		0:36:23	N45	4	 
288	1785	PAESALU AARNE			0:36:24	M40	20	 
289	1170	KULDMAA MAIT	Eesti Energia AS		0:36:26	M40	21	 
290	1153	VAHTER KAJA			0:36:28	N	35	 
291	1191	PETUHHOV ANTON			0:36:30	MJ	13	 
292	1045	VOOREMÄE GUNNAR			0:36:31	M45	17	 
293	1374	UNGERSON HENDRIK			0:36:31	M	93	 
294	1468	TIGANE TRIIN			0:36:32	NN	6	 
295	1754	TÕITOJA AVE			0:36:32	N	36	 
296	1490	SIDORENKO ILJA		KJK Sillamäe Kalev	0:36:32	PB	29	 
297	1483	PILV AIRIKA			0:36:33	N	37	 
298	1752	KONKS LIIA		Eesti Energia SK	0:36:33	N	38	 
299	1516	RÕUK OLLE			0:36:42	M	94	 
300	1784	TSISTJAKOV IGOR			0:36:42	M	95	 
301	1353	KIIVER KATARINA			0:36:43	NJ	3	 
302	1755	RÄIM VEIKO	Eesti Energia	Eesti Energia Spordiklubi	0:36:44	M	96	 
303	1683	VAARMANN VEIKO	Ajaleht Narva		0:36:45	M	97	 
304	1080	KAASIK INNAR	Eesti Energia	Eesti Energia Spordiklubi	0:36:52	M	98	 
305	1203	SIMSON VALERI			0:36:55	M	99	 
306	1539	PALS ANNE			0:36:57	N60	2	 
307	1176	VAINOMETS KRISTEL			0:36:57	N	39	 
308	1500	PARGI AVE-KATRI		Iluuisuklubi Gliss	0:37:01	N	40	 
309	1624	MIHKELSON MARTTI	Eesti Energia		0:37:02	M40	22	 
310	1481	KALJOLA ULJAS			0:37:02	M45	18	 
311	1075	RIIVES AIRE			0:37:02	N40	4	 
312	1584	UTSAL LIINA			0:37:03	N	41	 
313	1529	POLLISINSKI KIRKE		Shark	0:37:03	TB	11	 
314	1532	UIBOAID AIRI	Eesti Pank		0:37:04	N	42	 
315	1285	JÕEMETS KRISTI		Team 30+	0:37:04	N	43	 
316	1460	ALLIKMÄE AINAR	EE Õlitööstus AS		0:37:05	M	100	 
317	1332	RASTVOROV KRISTIN			0:37:06	TB	12	 
318	1237	AINELO HELEN			0:37:07	N	44	 
319	1202	AKSJONOV PJOTR			0:37:08	M60	6	 
320	1574	MELEšTšENKO NADEžDA			0:37:09	N	45	 
321	1298	TERAS ANUMARI			0:37:10	NN	7	 
322	1428	RIIK MARVEL			0:37:10	MN	20	 
323	1190	PISMENNÕI DMITRI			0:37:10	MJ	14	 
324	1797	PULVER MARGUS			0:37:11	M40	23	 
325	1536	ROOMA JÜRMO		Alutaguse Suusaklubi	0:37:12	PB	30	 
326	1857	HANSEN MIKK			0:37:13	M	101	 
327	1672	KAUTLENBACH GERT			0:37:15	M	102	 
328	1626	VAKS INDREK			0:37:15	M	103	 
329	1339	TALISAINEN TÕNU	Eesti Energia		0:37:16	M	104	 
330	1207	MÖLLER MARGOT			0:37:21	NN	8	 
331	1770	MAIBERG DANIIL			0:37:21	PB	31	 
332	1845	TÕNNE RAIVO			0:37:22	M40	24	 
333	1434	SIRENDI MERIKE	Eesti Energia Kaevandused		0:37:24	N	46	 
334	1212	ANISSIMOV TIMOFEI			0:37:25	M	105	 
335	1651	PATUNE EVA	DADA		0:37:26	N	47	 
336	1125	LINSI MERILIN			0:37:28	TA	4	 
337	1247	ORAS MANGO	EESTI ENERGIA AS		0:37:28	M	106	 
338	1297	TÕEMETS RAINER		Raineri Jooksuklubi	0:37:32	M	107	 
339	1138	TOPS LAINE		Püssi SK	0:37:33	N45	5	 
340	1774	BOGDANOV SERGEI			0:37:34	M	108	 
341	1180	RÄTSEP ANGELA			0:37:35	N45	6	 
342	1411	MARGAT TARMO			0:37:37	M	109	 
343	1181	TINT DIANA	EAS		0:37:37	N	48	 
344	1223	BACHMANN IVO			0:37:39	M	110	 
345	1054	ALAOTS MAIE	L/A \\\"Kungla\\\" Rakvere		0:37:43	N45	7	 
346	1167	POMERANTS KAREL			0:37:43	M	111	 
347	1037	TAMM MARIKA	KATARIINA KÜLALISTEMAJA		0:37:48	N45	8	 
348	1420	DRUžIšTšEVA IRINA			0:37:48	N	49	 
349	1336	PARBO MARGE		Sparta	0:37:50	N40	5	 
350	1079	LAVROVSKI ALEKSEI		SK Narva FIRN	0:37:51	M70	2	 
351	1444	SAZONOVA NATALJA			0:37:52	N	50	 
352	1792	KÄRNER KRISTJAN			0:37:52	M	112	 
353	1327	JURGELANE MADARA	Enefit		0:37:54	N	51	 
354	1540	NIGLAS MARIETHE-PIRET		Alutaguse Suusaklubi	0:37:56	TA	5	 
355	1310	TEEDLA KÄTLIN			0:37:56	NJ	4	 
356	1268	ROOSILEHT GREETA			0:38:00	TA	6	 
357	1345	TALALAEV HELEN			0:38:00	N	52	 
358	1520	KUUSIK KATRE			0:38:00	N	53	 
359	1269	ROOSILEHT KRISTIINA			0:38:01	NJ	5	 
360	1491	VOLT KERTTU			0:38:02	NN	9	 
361	1281	VASAR KERLI			0:38:09	N	54	 
362	1687	TREIER RAIN	MTÜ SEB Heategevusfond		0:38:11	MJ	15	 
363	1636	SEIN TANEL			0:38:13	M	113	 
364	1459	KÄGU KAIDO			0:38:13	M40	25	 
365	1603	LUGIMA MERIL			0:38:13	NN	10	 
366	1798	KAASIK KAIRIT			0:38:15	N40	6	 
367	1020	ŠIRAI IGOR		Äkke	0:38:19	PB	32	 
368	1372	KASTE MERIKE	Kanepi vald	Kanepi-1	0:38:22	N45	9	 
369	1436	LUUNJA GERLI			0:38:23	NJ	6	 
370	1252	VÕSU TOIVO	T-FARMID OÜ		0:38:28	M60	7	 
371	1208	FREIBERG KADRI-ANN			0:38:29	TB	13	 
372	1136	TINT MEELIS		Kaevanduste SK	0:38:29	M	114	 
373	1342	HANG KAIJA			0:38:29	N	55	 
374	1401	GRAF KATERINA	University of Maryland		0:38:32	NN	11	 
375	1402	SANDERSON COURTNEY	University of Maryland		0:38:32	NN	12	 
376	1315	KAUR KASPAR	Swedbank	Hansa Spordiklubi	0:38:39	M	115	 
377	1131	MÕNISTE TIINA			0:38:40	N	56	 
378	1050	KALLE NADEŽDA		SK \"Mitš\"	0:38:40	N45	10	 
379	1470	TAMMISTE TARMO	Narva Linnavalitsus		0:38:41	M50	16	 
380	1334	KATTAI ALAR		Sebe AS	0:38:42	M50	17	 
381	1486	KULL KRISTEL			0:38:47	N	57	 
382	1855	LOBIN ALEKSEI			0:38:48	M	116	 
383	1403	PÄRT KALLE	Põhjarannik		0:38:50	M45	19	 
384	1563	MAJOROV MARCUS		JOKA	0:38:58	PB	33	 
385	1319	TAMM MARI-LIIS			0:38:58	TA	7	 
386	1772	PAVLOVA VIOLINA			0:39:00	TB	14	 
387	1121	SHILKIN VJATSESLAV	Narva Elektrijaamad		0:39:01	M40	26	 
388	1200	JÄRVETAR KAIRI			0:39:03	N	58	 
389	1183	IKKO VLADIMIR	as ecomatic		0:39:04	M60	8	 
390	1522	TARS ERGO	Eesti Energia	EE spordiklubi	0:39:06	M	117	 
391	1242	MARCINKEVICZ ROBIN	Kaimar Grupp	Sparta	0:39:06	PB	34	 
392	1587	IVASK VARMO		Ambla SK	0:39:06	PB	35	 
393	1165	RANDOJA RENDA			0:39:07	N40	7	 
394	1248	PRIIMÄGI ANTTI	Paigaldusmeister OÜ		0:39:08	M40	27	 
395	1380	UIBO MIHKEL			0:39:09	M	118	 
396	1379	KARU KATRIN	Elektrilevi OÜ		0:39:09	N	59	 
397	1511	KASESALU MERLIN			0:39:11	TB	15	 
398	1463	TIHONOV OLEG			0:39:11	M70	3	 
399	1660	ARGOS STEN	Eesti Energia	Eesti Energia Soprdiklubi	0:39:16	M	119	 
400	1777	SIIBAK MERLE			0:39:17	N	60	 
401	1619	SARAP MIRJA		Eesti Haigekassa	0:39:17	N50	2	 
402	1620	SALVAN TIIVI		Eesti Haigekassa	0:39:18	N40	8	 
403	1599	ÕUNAP MOONIKA	Saku	Saku Õlletehase Spordiklubi	0:39:19	N	61	 
404	1501	BACHMANN JUHAN	EE Kaevandused	EE Kaevandused spordiklubi	0:39:25	M65	2	 
405	1439	OJASALU JAANIKA			0:39:26	N	62	 
406	1776	BERENDSON KARLI			0:39:26	M40	28	 
407	1435	KOZLOVA MARGARITA		KJK Kalev Sillamäe	0:39:31	TA	8	 
408	1322	HEIN LAURI			0:39:34	M40	29	 
409	1410	LEPASILD INGRIT	Eesti Haigekassa		0:39:35	N45	11	 
410	1288	KUHI KRISTI			0:39:38	TB	16	 
411	1854	KUZNETSOV OLEG			0:39:39	M	120	 
412	1291	MARTIN KELLY			0:39:39	TA	9	 
413	1290	KUHI KATRI			0:39:39	TB	17	 
414	1070	MAKAROVA NATALJA		KEVEK	0:39:41	N45	12	 
415	1471	POZNAHIRKO SVETLANA			0:39:41	N45	13	 
416	1086	MERIVÄLJA MOONIKA			0:39:42	N	63	 
417	1512	KIRSIMÄE KATRIN			0:39:42	N40	9	 
418	1513	TASUJA VALEV			0:39:42	M40	30	 
419	1354	KAASIK JUTA		NELSON	0:39:43	N40	10	 
420	1082	ERS AKSEL		Narva EJ SK	0:39:47	M45	20	 
421	1571	TRUVE JAANIKA			0:39:48	N40	11	 
422	1496	LEBEDEV DMITRI			0:39:48	MJ	16	 
423	1091	KRILLO KAROLYN		Might just do it	0:39:49	N	64	 
424	1302	KOLK MARILIIS			0:39:51	TA	10	 
425	1029	MERISTE MEHIS			0:39:55	M45	21	 
426	1709	VEBER KATRIN		Mäetaguse SK	0:39:57	N	65	 
427	1094	NOKKUR KADRI		SK RÕÕSA	0:40:00	NN	13	 
428	1044	VOOREMÄE VILJAR			0:40:01	MN	21	 
429	1570	MAALMA KADRE		Alutaguse Suusaklubi	0:40:01	N40	12	 
430	1562	MAJOROV MARINA			0:40:02	N40	13	 
431	1232	VOOREMÄE ÜLARI			0:40:04	M	121	 
432	1294	JAHTMAA RAILI			0:40:05	N	66	 
433	1300	TAMMISTE TARMO	Ida prefektuur		0:40:06	M	122	 
434	1632	NURMIK JUANA		BC Star	0:40:09	TB	18	 
435	1549	SOMELAR KELLI			0:40:13	NN	14	 
436	1329	LIIV JANE-LIINA			0:40:13	N	67	 
437	1762	VEERMÄE JOEL			0:40:15	M	123	 
438	1514	KOKK LIISI			0:40:15	N	68	 
439	1067	SAMRA TIINA			0:40:16	N40	14	 
440	1135	TINT KRISTI		Kaevanduste SK	0:40:16	N	69	 
441	1453	HAUS AVE	Eesti Energia	Eesti Energia Spordiklubi	0:40:16	N40	15	 
442	1527	TAEL KADRI			0:40:17	N	70	 
443	1340	AITMAN HANNELY			0:40:17	N	71	 
444	1175	ALAJAAN AIRE			0:40:21	N	72	 
445	1074	KUUS RAILI			0:40:22	N40	16	 
446	1779	SEREMETOVA JULIA			0:40:24	NN	15	 
447	1691	PALGNÕMM MAI LIIS	Tartu Ülikooli Narva kolledž		0:40:24	N	73	 
448	1456	DOLGOVSKAJA KRISTINA			0:40:25	NN	16	 
449	1649	ARON ALLAR			0:40:26	M	124	 
450	1677	KÕLLAMAA TIINA			0:40:28	N40	17	 
451	1182	ANNI MERLE	AS Eesti Energia	Eesti Energia SK	0:40:28	N	74	 
452	1768	SIINER TRIIN			0:40:28	N40	18	 
453	1033	ROHTMA MERILIN			0:40:30	N	75	 
454	1557	LAURIMAA MAI			0:40:31	N	76	 
455	1586	NÕMMISTE SIIM			0:40:31	PB	36	 
456	1610	VAKS KRISTI	Eesti Energia		0:40:32	N	77	 
457	1559	LAURIMAA MÄRTEN		ATO SK	0:40:32	PB	37	 
458	1063	ARNA ANU			0:40:33	N	78	 
459	1692	PUUSALU MARI-LIIS	JALAJÄLG AS		0:40:34	N	79	 
460	1778	RUZANOV GUNNAR			0:40:35	M40	31	 
461	1351	KRAUN MIIA			0:40:38	TA	11	 
462	1638	TALLERMAN IVAR		Alutaguse malev	0:40:38	M	125	 
463	1843	LEINBOCK TAMBET			0:40:38	M40	32	 
464	1118	AGAFONOVA ANNA			0:40:41	N	80	 
465	1552	ÕUNAPUU UNO			0:40:42	M55	5	 
466	1556	SINIRAND ANNELI			0:40:42	N40	19	 
467	1618	LEISNER LIIS			0:40:46	N	81	 
468	1289	LEIBUR EPP	Sisekaitseakadeemia		0:40:50	N55	3	 
469	1794	JÄRVA MATTI			0:40:50	M65	3	 
470	1407	SCHÜLE DELEN	Põhjarannik		0:40:52	TB	19	 
471	1406	TSUPSMAN SVETLANA	Põhjarannik		0:40:53	N	82	 
472	1498	POMERANTS MARKO		IRL	0:40:54	M45	22	 
473	1747	MOTZKUS HARALD			0:40:55	M50	18	 
474	1060	JOHANNES LAINE	MAKSU-JA TOLLIAMET	MTA Spordiklubi	0:40:58	N45	14	 
475	1667	UIBOAID MARIA	Tallinna Prantsuse Lütseum		0:40:58	PB	38	 
476	1742	LEISALU RAVEL			0:41:03	PB	39	 
477	1442	LUTS KERSTI		Lopetijutad	0:41:04	N	83	 
478	1663	KEBA ANDRES	BestEnergy OÜ		0:41:05	M	126	 
479	1159	BOBKOV NIKOLAY	Eesti Energia AS		0:41:06	M60	9	 
480	1055	TINNURI LIINA	L/A "Kungla" Rakvere		0:41:08	N45	15	 
481	1142	KOšARINSKI DENISS			0:41:10	M	127	 
482	1101	ALAVER LY	Eesti Energia		0:41:10	N40	20	 
483	1743	VÄLJAOTS AGNE			0:41:11	N	84	 
484	1714	DOBOLINA TATJANA			0:41:15	N	85	 
485	1417	PISKUNOV VLADIMIR			0:41:15	M55	6	 
486	1590	KAASIK SILLE	SEB		0:41:18	N40	21	 
487	1525	ROOSIPUU TRISTAN			0:41:28	PB	40	 
488	1317	ROOSIPUU NELE			0:41:30	N	86	 
489	1745	MÜLLERSON TIINU-MARII			0:41:32	TB	20	 
490	1415	REISS MARGE			0:41:37	N	87	 
491	1492	REMNEV ANDREY	NEJ	Eesti Energia spordiklubi	0:41:39	M	128	 
492	1128	MÄLLO RAINER			0:41:39	M	129	 
493	1308	SEPP EVELIN			0:41:40	N	88	 
494	1152	VAHTER MAIE			0:41:40	N60	3	 
495	1515	KOKK KÄRT			0:41:42	TB	21	 
496	1674	TABUNOVA KATSIARYNA			0:41:43	N	89	 
497	1546	LOBACHEVA ELENA			0:41:43	N65	2	 
498	1265	KUHI MARKO	Rakvere Reaalgümnaasium		0:41:45	PB	41	 
499	1400	BRADY JENNIFER	University of Maryland		0:41:46	NN	17	 
500	1382	ZIELINSKI NICHOLAS	US Armed Forces		0:41:47	M40	33	 
501	1164	OLISSOV MAKSIM			0:41:48	M	130	 
502	1426	JÄRVPÕLD TIINA		EESTI ENERGIA SPORDIKLUBI	0:41:48	N40	22	 
503	1251	VÕSU ANNA MARIA	Merko Ehitus Eesti		0:41:49	N	90	 
504	1844	AKSJONOV EDUARD			0:41:50	M	131	 
505	1736	PIVOVAR IGOR			0:41:50	M	132	 
506	1735	PIVOVAR GRIGORI			0:41:51	M	133	 
507	1734	MÄGAR INGE			0:41:56	N	91	 
508	1748	HANSEN KRISTEL			0:41:58	N	92	 
509	1480	HAABOJA HEIKI	Kopakutt		0:41:59	M40	34	 
510	1542	KRILOVS ÜLLI			0:42:00	N50	3	 
511	1166	MARKO NELLI			0:42:02	N	93	 
512	1427	JÄRVPÕLD TEELE			0:42:03	NN	18	 
513	1233	PEETRIMÄGI SIGRE			0:42:06	N	94	 
514	1311	KANN MARGE			0:42:07	NN	19	 
515	1053	TORIM ENELA	Ida-Tallinna Keskhaigla		0:42:08	N	95	 
516	1698	SHNAYDER OLGA	Äkke		0:42:09	N	96	 
517	1450	BELOUS LOLA	SA JÕGEVA HAIGLA		0:42:12	N45	16	 
518	1449	PETROVA INNA	SA JÕGEVA HAIGLA		0:42:12	N45	17	 
519	1078	ZAVADSKIS MARGARITA	Eesti Energia AS	Eesti Energia Spordiklubi	0:42:12	N45	18	 
520	1296	OLU KERTU		Raineri Jooksuklubi	0:42:13	N	97	 
521	1295	PUIDAK KRISTA		Raineri Jooksuklubi	0:42:14	N	98	 
522	1695	VSIVTSEV JEVGENI	Äkke		0:42:17	M60	10	 
523	1696	VSIVTSEVA JELENA	Äkke		0:42:17	N60	4	 
524	1320	HEIN KERTTU	Politsei-ja Piirivalveamet		0:42:21	N	99	 
525	1533	MINTSHENKOV ANDREI			0:42:22	PB	42	 
526	1211	ŠEREMETA DARJA			0:42:24	N	100	 
527	1523	PIRN MIRJAM		Tartu Suusaklubi	0:42:27	TB	22	 
528	1330	ILMJÄRV MAGNUS	TLÜ Ajaloo Instituut		0:42:27	M50	19	 
529	1724	BARANOV VLASS		Energija Poksi Klubi	0:42:29	PB	43	 
530	1343	PILDER DINA	Alexela Sillamäe AS	Sillamäe Kalev	0:42:29	N	101	 
531	1096	SEMPELSON EDA			0:42:34	N40	23	 
532	1720	DANILOV VLADISLAV			0:42:36	PB	44	 
533	1222	SIREL LISETTE			0:42:39	TB	23	 
534	1093	SAARNIIT SILVIA	ADINOL		0:42:40	N55	4	 
535	1657	REINFELDT TÕNU	Elektrilevi	Eesti Energia Spordiklubi	0:42:41	M	134	 
536	1606	TAMM ÜLLE	Eesti Energia		0:42:45	N	102	 
537	1727	PAIS ROBERT			0:42:48	PB	45	 
538	1509	SEPPERN ENN			0:42:49	M	135	 
539	1576	TÕNISSON KRISTJAN			0:42:52	M	136	 
540	1048	LAINVOO LINDA			0:43:03	N	103	 
541	1717	VAHER INDREK			0:43:04	M40	35	 
542	1254	UMBAED PIRET			0:43:06	N40	24	 
543	1787	MJATŠINA NATALJA			0:43:07	N	104	 
544	1117	TINN AARE			0:43:11	M50	20	 
545	1658	MÄHKÜLL KATRE		Eesti Energia Spordiklubi	0:43:11	N	105	 
546	1021	ŠAHIN ALEKSEI	Eesti Energia		0:43:17	M50	21	 
547	1304	TAHLFELDT KERSTI			0:43:19	N50	4	 
548	1575	TÕNISSON MATTIAS			0:43:19	PB	46	 
549	1669	PEENSALU TARVO	Eesti Energia		0:43:20	M	137	 
550	1126	LIPS KRISTEL			0:43:25	N	106	 
551	1271	KOPPEL HELE			0:43:26	TB	24	 
552	1283	ZIMMERMANN TIIU			0:43:28	N45	19	 
553	1671	KOTSENKOV VLADIMIR		START	0:43:30	M60	11	 
554	1172	TALI GRISTEL	Eesti Energia AS	Eesti Energia SK	0:43:31	N	107	 
555	1369	LUTS MERIKE	Kanepi vald	Kanepi-1	0:43:32	N55	5	 
556	1505	MEDIJAINEN LUULE			0:43:34	N50	5	 
557	1154	VAHTRA MAILA	Eesti Energia		0:43:42	N	108	 
558	1749	SHELEHHOVA TATJANA			0:43:45	N50	6	 
559	1451	PÕLDES ANGEELIKA	SA JÕGEVA HAIGLA		0:43:50	N40	25	 
560	1577	TÕNISSON INGA			0:43:51	N	109	 
561	1676	VIHERPUU RIHARD		TriSmile / Viimsi Veeklubi	0:43:52	PB	47	 
562	1275	KUšKIS KERTI			0:43:54	N	110	 
563	1545	NÕMME ESTER			0:43:59	N	111	 
564	1767	JÕGI KARIN			0:44:01	N	112	 
565	1226	LEHESTIK MERILIN			0:44:04	N	113	 
566	1003	DMITRIJEVA ILONA		Äkke	0:44:04	TB	25	 
567	1301	MALM REGIINA		Tartu SS Kalev	0:44:05	TB	26	 
568	1249	PRIIMÄGI JAANIKA			0:44:05	TA	12	 
569	1418	NARUSKI GERTTU	SA Tartu Ülikooli Kliinikum		0:44:11	N	114	 
570	1548	PÕLD TOOMAS	EE Kaevandused AS	Kaevanduste Spordiklubi	0:44:12	M45	23	 
571	1324	NOKKUR ARNO			0:44:15	PB	48	 
572	1140	TOPS KAIRIT		Püssi SK	0:44:15	NJ	7	 
573	1139	TOPS KÄTLIN		Püssi SK	0:44:16	TA	13	 
574	1068	LUZANOVA MARTA		Äkke	0:44:18	TB	27	 
575	1104	MITT KÜLLI			0:44:19	N45	20	 
576	1331	VICHTERPAL TANEL	Eesti Energia		0:44:21	M	138	 
577	1084	KÜTTIS KADRI			0:44:23	N	115	 
578	1150	HALLINGU SIMONE			0:44:25	TB	28	 
579	1591	TAMM TIIT			0:44:27	M50	22	 
580	1245	VÄITS LIINA			0:44:30	N	116	 
581	1447	LUIK KAJA	SA JÕGEVA HAIGLA		0:44:36	N	117	 
582	1371	TAREND EDA	Kanepi vald	Kanepi-1	0:44:37	N45	21	 
583	1100	KASK KATI			0:44:38	N	118	 
584	1518	SKOROBOGATOVA IRINA			0:44:38	N	119	 
585	1292	HEIN MARIE HELENE			0:44:48	TA	14	 
586	1746	LAINESTE MAIRIT		Vanamõisa Suusaklubi MTÜ	0:45:03	N	120	 
587	1219	KASS MARE			0:45:17	N55	6	 
588	1047	LAINVOO KERSTI	Erdike Tekstiil OÜ		0:45:19	N50	7	 
589	1261	MALM VERONIKA	SA Juht-ja Abikoerte kool		0:45:25	N50	8	 
590	1489	HILPUS MARGIT			0:45:29	N45	22	 
591	1357	SARAPUU MARIKA			0:45:31	N	121	 
592	1612	MEIUS ERKKI			0:45:34	M	139	 
593	1105	EENSALU LEILA	VKG		0:45:37	N50	9	 
594	1368	PAUMETS TIINA	Kanepi vald	Kanepi-1	0:45:42	N55	7	 
595	1214	LOPSIK LEA		Eesti Energia Spordiklubi	0:45:42	N	122	 
596	1680	VOLKOVA NATALJA	Ajaleht Narva		0:45:43	NN	20	 
597	1344	JUHKOV MARIS			0:45:46	NN	21	 
598	1412	VAHER ANDREAS TRISTAN			0:45:47	PB	49	 
599	1408	KÄMÄRÄ MATTI	Põhjarannik		0:45:49	M40	36	 
600	1596	KADÕROVA VALERIA			0:45:50	N	123	 
601	1210	NÕMMISTE MARIS			0:45:56	TB	29	 
602	1083	ERS PILLE			0:46:01	N45	23	 
603	1594	TRIKKANT ANNI			0:46:03	N	124	 
604	1725	RÄÄBIS AIN			0:46:08	M40	37	 
605	1193	KIRS JAANIKA			0:46:09	N	125	 
606	1188	OREL HELEN	Jõhvi Gümnaasium	Jõhvi Spordikool	0:46:11	TB	30	 
607	1664	ASPER ANGELIKA		Jooksuinglid	0:46:13	N	126	 
608	1404	APS PEETER	Põhjarannik		0:46:20	M	140	 
609	1255	RAAP REELE			0:46:24	TB	31	 
610	1224	FREIBERG ANNA-KARIN			0:46:25	TA	15	 
611	1221	SIREL KRISTEL-LIIS			0:46:27	TA	16	 
612	1312	KRUBERG CAROLINE			0:46:28	TB	32	 
613	1602	BACHMANN ENN	Eesti Energia		0:46:28	M65	4	 
614	1443	SAZONOV ANDREI			0:46:30	M	141	 
615	1253	ARMAS JELENA	Eesti Energia	EE Spordikluubi	0:46:35	N50	10	 
616	1558	LEPPIK KÄTLIN			0:46:37	NN	22	 
617	1107	PEEP TIINA			0:46:43	N75	1	 
618	1356	KONOVALOV DMITRI			0:46:45	M40	38	 
619	1352	KRUBERG ANNELI			0:46:46	N40	26	 
620	1791	SINIORG MELIKO			0:46:46	M	142	 
621	1589	KÄPP MARGIT			0:46:51	N	127	 
622	1018	POPOVA NATALJA	Narva Elektrijaamad		0:46:53	N45	24	 
623	1059	MOROZOVA VERA		JK OPTIMIST	0:46:57	N70	1	 
624	1856	DRUZHNITSEVA ELENA			0:47:07	N	128	 
625	1782	LAZAREVA NADEZDA			0:47:14	N	129	 
626	1323	RÕUK EVELIN			0:47:15	N	130	 
627	1623	PÕDER MARET			0:47:27	N45	25	 
628	1688	MIHEJEV ALEKSANDR	MTÜ SEB Heategevusfond		0:47:32	MJ	17	 
629	1113	LILLEOJA HEGNE			0:47:34	TB	33	 
630	1686	LOGINOVA NIKOLAI	Ajaleht Narva		0:47:34	N45	26	 
631	1678	LOGINOVA OLGA	Ajaleht Narva		0:47:34	N45	27	 
632	1114	KROON DAISY			0:47:36	N45	28	 
633	1662	TOOMEMÄGI GEA	BestEnergy OÜ		0:47:41	N	131	 
634	1088	TELLING ALO			0:48:04	M	143	 
635	1628	ADAMSON-NIIDUMAA TRIINU			0:48:12	N	132	 
636	1036	STEINFELD REIN			0:48:26	M60	12	 
637	1263	KUHI INGE	Rakvere Linnavalitsus		0:48:32	N40	27	 
638	1416	OINUS LII		Mäksa Spordiklubi	0:48:33	NN	23	 
639	1314	RUZANOVA DAIANA			0:48:44	NN	24	 
640	1218	SIREL PIRET			0:48:46	N	133	 
641	1588	JUHKAM RAUL	Kodukandi Sport MTÜ		0:48:52	M	144	 
642	1645	KALDMA SANDRA		TLÜ	0:48:57	NJ	8	 
643	1640	KALDMA MIRJAM		TLÜ	0:49:03	NN	25	 
644	1087	TELLING SIIRI			0:49:12	N50	11	 
645	1697	KARPENKO GLEB	Äkke		0:49:19	PB	50	 
646	1493	LIN KUN-TAI			0:49:22	M	145	 
647	1026	TOONEKURG KADRIN			0:49:29	N	135	 
648	1027	JÄRVELA MARJU			0:49:29	N	134	 
649	1728	KASAK MELISSA			0:49:30	TA	17	 
650	1721	AKULITš LJUBOV			0:49:35	N40	28	 
651	1506	RULJOVA DARJA	Geoplan Eesti OÜ		0:49:39	N	136	 
652	1438	LEIBENAU GERLY			0:49:42	N	137	 
653	1103	UIBO LEIDA	Eesti Energia AS	Eesti Energia SK	0:49:45	N55	8	 
654	1192	SULEV MARGE			0:49:53	N	138	 
655	1685	HAZIJEVA MARINA	Ajaleht Narva		0:49:59	N45	29	 
656	1684	LOGINOVA TATJANA	Ajaleht Narva		0:50:07	N50	12	 
657	1723	AKULITš INNA			0:50:14	TB	34	 
658	1796	ŠULEIKO GEORGI			0:50:15	M70	4	 
659	1011	BORISOV VLADIMIR			0:50:21	M55	7	 
660	1111	RÜNTÜ SILVIA			0:50:28	N55	9	 
661	1740	KAIDALOV ALEKSANDR	Eesti Energia Õlitööstus AS		0:51:07	PB	51	 
662	1081	ROOS RIINA			0:51:31	N	139	 
663	1564	PRUUL TUULI			0:51:49	N	140	 
664	1461	VÄLMAN KÄTHI			0:51:58	N	141	 
665	1795	PUUSEPP ANDRES			0:51:58	M60	13	 
666	1148	HANNOV KATRIN			0:52:09	N50	13	 
667	1786	KANNUS ALARI			0:52:18	M40	39	 
668	1030	KLEBERG KÄTLIN			0:52:27	N	142	 
669	1367	TAGEL PIIA	Kanepi vald	Kanepi-1	0:52:32	N50	14	 
670	1366	MEESAK VAIKE	Kanepi vald	Kanepi-1	0:52:32	N55	10	 
671	1370	KALLAS ÜLLE	Kanepi vald	Kanepi-1	0:52:33	N50	15	 
672	1722	AKULITš KRISTIINA			0:52:58	TA	18	 
673	1409	PÕLD ILONA	Eesti Haigekassa		0:53:04	N	143	 
674	1209	NÕMMISTE KAREL			0:53:09	PB	52	 
675	1421	JÕGIS AGNE			0:53:19	NN	26	 
676	1472	JAANISK SIIRI			0:53:30	N	144	 
677	1022	ŠAHIN JEGOR			0:53:40	PB	53	 
678	1521	DOLGOVSKAJA INNA			0:53:45	N	145	 
679	1019	POPOVA MARIA	Eesti Energia AS		0:53:54	N	146	 
680	1799	KANAJEV GENNADI			0:54:09	M75	1	 
681	1173	PÕLLU LIIDIA			0:54:25	N55	11	 
682	1052	LUKIN VJATSESLAV	USS Security Eesti AS	ÄKKE	0:54:26	M50	23	 
683	1580	VIILIPUS SIIRI			0:54:45	N	147	 
684	1350	MIHHEJEV IGOR		aseri sk	0:55:07	PA	10	 
685	1010	BOTŠTARJOVA ALINA		Äkke	0:55:26	TB	35	 
686	1706	VASSILJEV KIRILL			0:55:26	PB	54	 
687	1213	LOPSIK KATRIN		Eesti Energia Spordiklubi	0:55:35	N	148	 
688	1448	MEOS MARIKA	SA JÕGEVA HAIGLA		0:55:44	N	149	 
689	1499	VÄLJAOTS ANNIKA			0:55:56	N45	30	 
690	1122	MACUTKEVICIENE ONA			0:56:03	N	150	 
691	1604	LAUR KAISA			0:56:13	NN	27	 
692	1675	VIHERPUU JOHANNA		TriSmile / Viimsi Veeklubi	0:57:20	TB	36	 
693	1194	PRUUL TAISI			0:57:27	N	151	 
694	1452	BABJAK PETRO	SA JÕGEVA HAIGLA		0:57:32	M45	24	 
695	1230	HINDREA LILY			0:57:44	N50	16	 
696	1231	HINDREA AHTO			0:57:44	M50	24	 
697	1116	ELVET MALLE		ArcticSport Club Tartu	0:59:15	N60	5	 
698	1143	PETERSON BRIT			1:00:43	N	152	 
699	1144	RÄTSEP TRIIN			1:00:43	N	153	 
700	1073	KAASIK REGINA		SK Aaspere	1:00:55	N	154	 
701	1071	KUUSKLA PRIIT		SK Aaspere	1:00:55	M	146	 
702	1017	IVANOVA LJUDMILA		NEJ Spordiklubi	1:01:32	N65	3	 
703	1110	KURU JOHANNA-MARIA			1:02:35	N40	29	 
704	1109	KURU KERSTI			1:02:36	N50	17	 
705	1286	MAISVÄLI MAILA	SA TÜ Kliinikum		1:03:17	N45	31	 
706	1256	UIBO REET			1:04:38	N55	12	 
707	1464	MAAKAAR HELEN	Kohtla Nõmme PK		1:04:45	N	155	 
708	1679	GUNAZOV VITALI	Ajaleht Narva		1:04:49	MN	22	 
709	1605	KALAMEES RAIVO			1:07:28	M50	25	 
710	1257	SUUR MICHELLE			1:07:37	TB	37	 
711	1528	MAIBERG CHRISTINE			1:07:58	N	156	 
712	1258	SUUR MARIELLE			1:10:13	TB	38	 
713	1405	FJODOROV ALEKSEI	Põhjarannik		1:15:26	M	147	 
714	1689	MÄEKALLAS SILVER	MTÜ SEB Heategevusfond		1:29:27	PA	11	 
715	1001	VARTS RIINA				N50		 
716	1006	ŠUJEV MIHHAIL				M55		 
717	1012	ULJEV ANDREI		NEJ Spordiklubi		PA		 
718	1013	KILK KAJA		EE Spordiklubi		N		 
719	1014	RAID NADEŽDA		NEJ Spordiklubi		N40		 
720	1015	KOVAL VALENTINA		NEJ Spordiklubi		N50		 
721	1016	BORODENKO INNO	Viking Line			M40		 
722	1023	ARUJÕE LIIS		Suusahullud		N		 
723	1024	PRIBÕLOVSKI STANISLAV		Äkke		M		 
724	1025	VASSILENKO ILLAR		HyperMediocrity		M		 
725	1031	RÜÜTLE KRISTIINA				NJ		 
726	1032	KAPTEIN KATRE				NJ		 
727	1049	VESKI LEELO				N55		 
728	1056	ANDREJEVA NADEŽDA				N		 
729	1057	SALMIJANOV DENISS		SK Silboxing		PB		 
730	1062	RANNU MARILI				N		 
731	1064	ŠTRIK-OTT MARI-LIIS				N		 
732	1085	TREUFELD OLEV	Sentura OÜ			M55		 
733	1089	PILLE KATRI		Might just do it		N		 
734	1098	ROHDE RONALD				M		 
735	1112	AUJÄRV MAIE				N50		 
736	1115	KAUNISSAAR TERJE	KJK Vike			NN		 
737	1119	REIMANN KANNI				NN		 
738	1123	SHILKIN ALEKSEI				PB		 
739	1129	KUKK MERLIN				N		 
740	1133	SPRENGK ROBERT		Eesti Energia SK		M		 
741	1137	LAND LIINA				N		 
742	1141	LUTS EGE				N		 
743	1146	KOšELEV VJATšESLAV	Eesti Energia Kaevandused	KJK Kalev Sillamäe		M40		 
744	1151	TREIER KAI				N40		 
745	1156	BYSTROV VLADIMIR	Eesti Energia Narva Elektrijaa			M55		 
746	1157	KALJUSTE HELGI				N65		 
747	1158	DEMISHIN DANIIL				PA		 
748	1168	SAPRÕKINA ZINAIDA				N		 
749	1174	FILIPPOV MAKSIM		MITŠ		M		 
750	1185	MARAND MONIKA				N		 
751	1205	AIGRO JAANA				N		 
752	1217	MÄTIK MARIT	Eesti Energia			N		 
753	1234	PAESALU AARNE				M40		 
754	1239	VEEDLER SIRJE				N50		 
755	1240	NÕUKAS KAIRI				N		 
756	1243	KALAKAUSKAS IGOR	TTRK			M45		 
757	1259	KESAMAA MAI				N		 
758	1260	SUUR MARIANNE				TB		 
759	1262	GULJAKINA ANASTASIA				TA		 
760	1273	KARLOVSKI FELIKS				M		 
761	1274	KARLOVSKAJA OLGA				N		 
762	1284	TEE EDUARD				M		 
763	1287	SELGAL MIHKEL	Swedbank			M		 
764	1306	SEPP ERGE				N		 
765	1316	KUUSIK ANDRUS				M		 
766	1318	SILM GERLI				N		 
767	1321	SEPA ROBERT				PB		 
768	1325	PEETS KADI				N		 
769	1328	BETHERS JANIS	Enefit			M		 
770	1333	HÄRM EVE		Raineri Jooksuklubi		N		 
771	1335	LVOV SERGEI		NPK		M50		 
772	1348	RATšUGIN VLADLEN		aseri sk		PA		 
773	1349	NOVIKOV SERGEI		aseri sk		PB		 
774	1355	KOPPEL TOIVO				M50		 
775	1360	GORBATSOV SERGEI	olitoostus as			M		 
776	1361	SOLOVJOV IVAN		Narva Vikingid		PB		 
777	1362	SOLOVJOV ANDREI		Narva Vikingid		M45		 
778	1363	LAEVIK ARVO				M65		 
779	1422	BURKALOV ALEKSEI				M40		 
780	1424	UUSMA ANDRES	MKM			M45		 
781	1429	SIKK JANEK				M		 
782	1430	SIKK ERIK				PA		 
783	1431	KEKIšIV MAKSIM				PB		 
784	1432	IVANOV TIINA	RAKVERE HAIGLA			N		 
785	1433	IVANOV VERONICA	RAKVERE REAALGÜMNAASIUM			TB		 
786	1440	PANITSEV SERGEI	vitarsis			M50		 
787	1454	NESTEROV NIKOLAY	Eesti energia	Narva elektrijaamade spordiklu		M55		 
788	1462	PIHLAP MANUELA	Silikaat Grupp			N		 
789	1466	VOLZHANKIN PAVEL	Elektrilevi OÜ Automaatika	EE SK		M		 
790	1473	PIRK STANISLAV	SA IVEK			M		 
791	1502	KOLLI MADIS				MJ		 
792	1543	VELLERIND AVELI	Tartu Ülikool	Tuldav Lohe		NN		 
793	1547	VOLOSHIN ALEKSEI		FIRN		M		 
794	1555	KOSK KAIA		Rapla Korvpallikool		N		 
795	1561	STALLMEISTER ARGO	ITK Inseneribüroo			M		 
796	1568	VELBA HELENA		TriSmile		N		 
797	1579	KARLÕšEVA ALJONA		MTÜ CD24h		N		 
798	1585	PANITSEV MIHHAIL				PB		 
799	1593	TREIAL REET	JELD-WEN Eesti AS			N50		 
800	1595	KADÕROVA ALINA				NJ		 
801	1600	SABRE DORIS	Arctic Sport Club	SK Los Toros		N		 
802	1601	SUSSEN KRISTO	Saku	Saku Õlletehase Spordiklubi		M		 
803	1611	LAZAREVA NADEZDA	AS Astri-Narva			N		 
804	1613	NOOL ERKI		ISAMAA JA RESPUBLICA LIIT		M40		 
805	1621	PRAAKLI STEFI	BIGBANK AS			N		 
806	1622	JATSA ANNI				N		 
807	1641	ROOSIMÄGI HEIDY		TLÜ		NN		 
808	1642	HELSTEIN MARI		TLÜ		N		 
809	1656	KRIKS REIN		Eesti Raudtee Spordiklubi MTÜ		M60		 
810	1670	RANDOJA TEELE				N		 
811	1681	JEROHHIN ALEKSEI	Ajaleht Narva			M		 
812	1682	SHEGUROVA TATJANA	Ajaleht Narva			N		 
813	1693	KIISLA AET	Tartu Ülikooli Narva kolledž			N		 
814	1707	NIKIFOROV VLADIMIR	Domus Kinnisvara			M		 
815	1730	MAIBERG DANIIL	Eesti Energia			PB		 
816	1737	AHTMA AVELY	Eesti Energia AS			N		 
817	1750	TSERJOMUSKINA OLGA				N		 
818	1789	IZOTOVA LARISSA				N		 
819	1841	KOSARINSKI DENISS				M		 
