Koht	Nkoht	Nr	Nimi	Klubi_Kool_Linn_Firma	Aeg	Vkl	Koht_Vkl
1		1	MUKUNGA IBRAHIM	- -TÜ SPORDIKLUBI-	0:41:08.4	M21	1
2		2	NURME TIIDREK	- -TÜ SPORDIKLUBI-	0:41:50.1	M21	2
3		5	FOSTI ROMAN	- -STAMINA ARCOTRANSPORT TIIM-	0:42:21.1	M21	3
4		3	KIVISTIK KAUR	TARTU MK- -TARTU KALEV-	0:43:29.2	M21	4
5		12	VULLA ELAR	SAKSI KÜLA- --KESKKONNAAMET	0:43:51.3	M21	5
6		35	ARISTOV DMITRI	---	0:44:28.8	M18	1
7		24	LEIN ANDRUS	VINNI- -RAKVERE KJK 'VIKE'/ÖÖJOOKS ADIDAS TIIM-	0:44:34.9	M35	1
8		8	KOŠELEV VJATSĚSLAV	SILLAMÄE- -KJK'KALEV' SILLAMÄE-	0:45:08.3	M45	1
9		13	KALLASTE JAANUS	- -STAMINA ARCOTRANSPORT TIIM-	0:45:16.7	M21	6
10		16	LEHISMETS PRIIT	- -STAMINA ARCOTRANSPORT TIIM-	0:45:28.5	M21	7
11		230	KAIS ÜLARI	- --	0:45:45.5	M21	8
12		15	PAAP HASSO	- -TÜ SPORDIKLUBI-	0:46:04.4	M21	9
13		17	VIIGIPUU KAREL	ELVA- TÜ-ELVA SUUSAKLUBI-	0:46:11.2	M21	10
14		1071	SOO ALLAR	TARTU- --	0:46:18.2	M21	11
15		756	SÆTHA MORTEN	GAUPEN- -SWIX-	0:46:35.8	M21	12
16		521	MÄE KARL	PÄRNU- TALLINNA TEHNIKAÜLIKOOL-SK ALTIUS-	0:47:26.8	M18	2
17		18	UTAR URMAS	KÜLITSE- --	0:47:28.7	M45	2
18	1	42	PATJUK JEKATERINA	- -TÜ SPORDIKLUBI-	0:47:41.2	N21	1
19		654	PUUSTUS ANTI	TARTUMAA- -VÕNNU SPORDIKLUBI-	0:47:52.0	M21	13
20		19	VEILBERG AGO	TAMSALU- -TAMSALU-	0:48:37.2	M45	3
21		27	TIPPI BERT	KOERU- -TARTU ÜLIKOOLI AKADEEMILINE SPORIKLUBI-	0:48:46.9	M21	14
22		26	REINART HARDO	KOERU- --	0:48:54.7	M21	15
23		9	TARM TOOMAS	- --	0:49:08.0	M45	4
24		1011	VOOLAID RAIMOND	RAASIKU- TALLINNA ÜHISGÜMNAASIUM-SPORTKESKUS.EE-	0:49:13.6	M18	3
25		922	TÄRNO INDREK	LAAGRI- -SCHNELLI-	0:49:20.5	M35	2
26	2	46	LUIK LILY	TARTU- -TÜASK-	0:49:26.5	N21	2
27		53	AASMÄE MEELIS	PAISTU V- --	0:49:45.3	M35	3
28		821	SULEV VEIKO	TALLINN- --	0:49:49.7	M21	16
29		464	LÄÄN CHRISTJAN	JÄNEDA- -FB JOOKSMINE-	0:49:57.1	M35	4
30		768	SAVASTVER ALAR	TALLINN- -STAMINA SK-	0:50:13.2	M35	5
31		185	JAASKA ALLAN-PEETER	TALLINN- -VSKICLUB-	0:50:17.6	M35	6
32		78	ALLASE OLAVI	TÜRI-KJK JÄRVALA-SÄREVERE LASTEAED KUREPESA --	0:50:32.4	M18	4
33		151	HANG TAUNO	- --	0:50:35.2	M35	7
34		119	ELLER VILLU	TALLINN- --	0:50:38.8	M21	17
35		139	GORSHENIN ROMAN	TALLINN- --	0:50:44.6	M21	18
36		894	TORIM ENNO	VASTEMÕISA KÜLA- -VAK STAIER-	0:50:45.2	M35	8
37		334	KRUUSAMÄGI UKU	KOSE- --	0:51:00.8	M18	5
38		354	KUUSALU ASKO	TISKRE- --	0:51:04.0	M35	9
39		605	PARIS OLAV	VILJANDI- -VAK STAIER-	0:51:10.8	M21	19
40		977	VELBA HEIKI	- --	0:51:14.1	M21	20
41		961	VALTER MARKO	TALLINN- -SK JOOKSUPARTNER-	0:51:16.6	M35	10
42		467	MAI JANAR	MUSTJALA VALD, SELGASE KÜL- --REVAL STONE	0:51:25.2	M21	21
43	3	48	ANDREJEVA OLGA	- -STAMINA ARCOTRANSPORT TIIM-	0:51:31.2	N21	3
44		510	MUMM INDREK	MURASTE KÜLA- --	0:51:44.2	M45	5
45		685	RANDMÄE KERMO	SUURE-JAANI- -VILJANDI SÕUDEKLUBI-	0:51:47.0	M16	1
46		124	ENNO KRISTJAN	TALLINN- -ELION-	0:51:50.8	M35	11
47		286	KINDEL HANNO	TALLINN- -FB JOOKSMINE-	0:51:56.5	M45	6
48		602	PALM MART	TALLINN- --BALTIC BOLT AS	0:52:07.0	M21	22
49		866	TIIKSAAR AARO	LOO- --	0:52:09.3	M35	12
50		482	MEDAR MARTI	TALLINN- -KK VIIMSI-	0:52:11.4	M16	2
51		471	MAISTE TARMO	TALLINN- --PROGE	0:52:21.0	M35	13
52		867	TIISLÄR KAIDO	TALLINN- --DIDRIKSONS1913	0:52:23.3	M35	14
53		28	SALLA MAREK	TÜRI- EMÜ-TÜRI JÕUD-	0:52:25.0	M21	23
54		952	VALDMAA LAURI	VÄÄNA-JÕESUU- --	0:52:26.0	M21	24
55		678	RAJANDO KRISTJAN	TALLINN- --DIDRIKSONS1913	0:52:27.2	M35	15
56		522	MÄE MEHIS	PÄRNU LINN- --ÜHINENUD AJALEHED AS	0:52:34.9	M21	25
57		854	TAVITS GAABRIEL	TARTU- -WEEKEND WARRIORS II-	0:52:35.7	M35	16
58		552	NOŠKA MARGUS	SÄREVERE- --	0:53:08.4	M21	26
59	4	41	TALTS EVELIN	TALLLINN- -STAMINA ARCOTRANSPORT TIIM-	0:53:09.0	N35	1
60		872	TILGA KAJAR	PUKA- --	0:53:09.9	M45	7
61		405	LEEMET MAIT	KÄRU ALEVIK- -KÄRU SPARTA-	0:53:13.5	M21	27
62		314	KOOP KALLE	KILINGI-NÕMME- -SK SAARDE-	0:53:15.5	M45	8
63		608	PART SIIM	ALBU- -ALBU-	0:53:24.0	M18	6
64		965	VARES KRISTJAN	RAE VALD- -VAK STAIER-	0:53:28.4	M21	28
65		123	ENN LAURI	TALLINN- --	0:53:35.5	M21	29
66		387	LAIMETS JAANUS	PÄRNU- -SK TERVIS-	0:53:41.0	M35	17
67		623	PIIR JÜRGEN	PAIDE- --	0:53:43.5	M21	30
68		196	JUUS AIVAR	PEETRI ALEV- -21CC TRIATLONIKLUBI-	0:53:44.7	M35	18
69		1070	BÕTŠKOV MIHHAIL	TALLINN- --	0:53:47.0	M21	31
70		282	KIBUSPUU TIIT	TARTUMAA- -VAK STAIER-	0:53:50.8	M45	9
71		530	MÄNNIK AHTI	PAIDE VALD- --	0:53:51.7	M21	32
72		633	POLL CRIS	KADRINA- -ESTONIAN ULTRARUNNERS TEAM-OÜ HAKA PLAST	0:53:55.3	M21	33
73		789	SIHT JÜRI	VILJANDI- -VAK STAIER-	0:54:21.7	M45	10
74		619	PIHLAK LAURI	VIIMSI- --LD SOUND OÜ	0:54:46.9	M21	34
75		543	NAGEL KARL-GUSTAV	AASPERE- -SK AASPERE-	0:54:49.5	M18	7
76	5	918	TÕNNE GRETE	- -EMU SPORDIKLUBI-	0:54:52.2	N21	4
77		835	TALU PRIIT	PÄRNU- --	0:54:52.7	M35	19
78		565	NÕMM MARDEN	TALLINN- --	0:54:54.7	M21	35
79		1028	ÕUN JAAN	KURESSAARE- -FB JOOKSMINE-	0:54:57.1	M21	36
80		350	KUZNETSOV MADIS	TALLINN- --EI OLE KLUBI	0:55:01.9	M35	20
81	6	980	VEREVMÄGI KRISTIINA	TALLINN- -FB JOOKSMINE-	0:55:03.7	N21	5
82		847	TAMMEMÄE JOOSEP	VILJANDI- -VILJANDI SUUSAKLUBI-	0:55:14.4	M21	37
83		721	RIKS RANDO	AASPERE- -SK AASPERE-	0:55:17.2	M18	8
84		112	DUBROVSKI JAN	PEETRI- --	0:55:17.7	M21	38
85		68	AIRIK RAIN	KEILA- -TRISMILE-	0:55:24.8	M35	21
86		544	NAGEL RAINER	TALLINN- --	0:55:28.3	M21	39
87		939	VAHESAAR TAURI-VILJAR	TARTUMAA- --	0:55:29.3	M18	9
88		363	KUUSKLA PRIIT	- -SK AASPERE-	0:55:34.2	M21	40
89		72	ALAMETS ÜLARI	TALLINN- --	0:55:36.3	M45	11
90		83	ALTMETS HEIMAR	OETI KÜLA- TALLINNA MAJANDUSKOOL--	0:55:39.2	M21	41
91		542	NAGEL GEORG-HARALD	- -SK AASPERE-	0:55:41.8	M16	3
92		287	KINGO GUNNAR	TALLINN- --	0:55:51.6	M21	42
93		401	LAURING KARRE	TALLINN- -FB JOOKSMINE-	0:55:58.2	M45	12
94		56	AAVE MARIUS	TARTU- --	0:55:58.7	M21	43
95		916	TÕNISMÄE MAREK	TALLINN- -VANAMÕISA SUUSAKLUBI-	0:56:00.2	M35	22
96		945	VAHTRA MÄRT	PATIKA- --	0:56:00.6	M35	23
97		702	REILJAN RAUL	- --	0:56:00.6	M21	44
98		216	JÜRJEN LAURI	PATIKA- -JOOKSUPARTNER SK-	0:56:10.3	M21	45
99		92	ANTON ARVI	TARTU- -PÕHJAKOTKAS VILJANDI-	0:56:10.7	M21	46
100		345	KUKK RAIDO	TARTU- -LOPETIJUKUD-KAUR TRADE OÜ	0:56:12.3	M35	24
101		238	KALJUMÄE SIIM	TALLINN- -TTÜ TANTSUANSAMBEL KULJUS-ARHITEKTRUM OÜ	0:56:14.2	M21	47
102		371	KÄREMA AGO	TALLINN- -ASICS TEAM 2013-	0:56:14.7	M35	25
103		374	KÖSTER SILVER	PÄRNU- --	0:56:16.2	M21	48
104		938	VAHESAAR HEIGO-ELMAR	TARTUMAA- --	0:56:16.9	M18	10
105		331	KRIMM RAIDO	TALLINN- -JK JALGPALLIHAIGLA-	0:56:23.1	M21	49
106		732	ROOSNUPP PRIIT	TALLINN- --	0:56:27.5	M35	26
107		974	VEEROOS ERKI	TALLINN- --	0:56:27.5	M35	27
108		54	AASTE HANNO	TALLINN- --	0:56:31.3	M21	50
109		808	SION AIVO	PAIDE- --	0:56:37.7	M45	13
110		243	KALS JAAK	TARTU- -LOPETIJUKUD-	0:56:39.1	M35	28
111		765	SARNIK TAVO	TÜRI- --	0:56:48.7	M21	51
112		470	MAISTE MARGUS	TALLINN- -PROGE-	0:56:49.6	M35	29
113		272	KASU RAIGO	LIHULA-JÄRVAMAA KUTSEHARIDUSKESKUS --	0:56:52.6	M18	11
114		270	KASK VILLU	- -SK AASPERE-	0:56:54.7	M35	30
115		147	HAAS MART	TALLINN- --	0:57:07.9	M21	52
116		927	UIBUKANT ANDREI	TALLINN- --	0:57:33.1	M21	53
117		1035	AARNA KASPAR	KOSE- --	0:57:45.2	M21	54
118		684	RANDMÄE HEIKI	SUURE-JAANI- --VALGE VN	0:57:45.8	M35	31
119		1041	ÄRM URMAS	--TÜRI VALLAVALITSUS-	0:57:54.8	M45	14
120		393	LASS RISTO	KILINGI-NÕMME- -SK SAARDE-	0:57:59.8	M35	32
121		168	HUMMAL ERKKI	LUIGE ALEVIK- -SPARTA-	0:58:02.2	M35	33
122		430	LILLAK AIMUR	PAIDE- KÕRGEM SÕJAKOOL--	0:58:02.8	M21	55
123		1024	VÜRMER SILVER	TALLINN- -FB JOOKSMINE-	0:58:04.3	M21	56
124		140	GRAUEN PETERI	ARAVETE- --	0:58:05.0	M35	34
125		281	KESPERI INDREK	TARTU- --	0:58:06.3	M21	57
126	7	937	VAHER ANNIKA	KURESSAARE- -SJK SARMA-	0:58:06.7	N35	2
127		118	EINBERG GERY	TALLINN- --GECC KONSULTATSIOONID OÜ	0:58:14.0	M35	35
128		477	MARTINSON RAIDO	TALLINN- --	0:58:15.2	M21	58
129		549	NIKKOLO RAGNAR	PAIDE LINN- --VIKING WINDOW AS	0:58:21.4	M35	36
130		995	VIITMANN JAAK	PAIDE- -EMA SUL JOOKSEB PAIDEST-TÜRILE OÜ-	0:58:24.2	M21	59
131		662	PÕLDSAAR PAUL	JÄRVA JAANI- --	0:58:24.3	M35	37
132		1063	AVILA TAURI	KOERU VALD- --	0:58:29.4	M21	60
133		1066	RATNIK EINAR	TÜRI- --	0:58:30.8	M21	61
134		169	HÄMÄLÄINEN KEIO	TALLINN- -JOOKSUPARTNER-	0:58:32.8	M21	62
135		415	LEISALU TANEL	- --	0:58:34.2	M21	63
136		699	REIGO ERKO	TALLINN- --	0:58:35.6	M35	38
137		360	KUUSK JAANUS	VILIVERE- --	0:58:40.6	M21	64
138		554	NUKA INNAR	AESPA- --	0:58:44.0	M35	39
139		330	KRILOVS RINGO	TALLINN- --	0:58:48.1	M21	65
140		954	VALGE ANDER OTT	MAARDU- LOO KESKKOOL--	0:58:48.6	M14	1
141		673	RAAP ILMAR	KADRINA- -MEIE-	0:58:50.9	M35	40
142		953	VALGE ALLAR	MAARDU- LOO KESKKOOL--	0:58:52.9	M16	4
143		853	TATRIK IVO	KIILI- -21CC TRIATLONIKLUBI-	0:58:58.1	M35	41
144		846	TAMMELEHT MIHKEL	TAPA VALD- --	0:58:59.1	M35	42
145		663	PÕLGAST PRIIT	TARTU- --	0:59:01.3	M35	43
146		838	TAMERI TARVI	TÜRI- --	0:59:01.5	M21	66
147		971	VEEREMAA MATHJAS	TAMSALU- -KAITSEVÄGI-	0:59:05.5	M18	12
148		539	MÜÜR MAIK	TARTU- --	0:59:12.4	M21	67
149		337	KUHI PEETER	RAKVERE- --	0:59:12.9	M35	44
150		878	TOHVER TARMO	JÕHVI- -KAEVANDUSTE SPORDIKLUBI-	0:59:22.0	M35	45
151		315	KOOSER ARTHUR	VIIMSI- AUDENTESE SPORDIGÜMNAASIUM-CFC-	0:59:22.3	M16	5
152		770	SEEPÕLD RAIN	TALLINN- -DREAMRUNNIN-	0:59:24.2	M21	68
153		162	HELLERMA ANDRES	TALLINN- -LIINA KLUBI :)-MARSH KINDLUSTUSMAAKLER AS	0:59:25.4	M21	69
154	8	865	TIBAR MARION	TALLINN- --	0:59:26.7	N21	6
155		536	MÜNT AINAR	ROOSNA-ALLIKU- --ROOSNA-ALLIKU PAKIAUTO	0:59:28.2	M21	70
156		175	IGNATENKO IGOR	AUDRU VALD- -SK SAARDE-	0:59:29.0	M35	46
157	9	958	VALK MARET	SINALEPA- --SÄDE	0:59:29.4	N21	7
158		580	OLLEP JANEK	PAIKUSE- -SK SAARDE-	0:59:33.2	M35	47
159		152	HANGA KAROL	VARDJA- KOSE GÜMNASIUM-KOSE SPORDIKOOL-	0:59:33.3	M13	1
160	10	800	SILD KERSTI	- -EMU SPORDIKLUBI-	0:59:49.0	N21	8
161		990	VIIDERMETS MAIKEL	-PAIDE GÜMNAASIUM --	0:59:49.7	M16	6
162		584	ORGUSAAR MÄRT	TALLINN- --	0:59:52.6	M45	15
163		890	TOOMING MARKO	TÜRI LINN- --	0:59:54.3	M21	71
164		616	PETERSON KRISTJAN	TALLINN- --	0:59:54.5	M21	72
165		591	PAANE RISTO	PÄRNU- --	0:59:54.8	M21	73
166		1029	ÕUN LAAS	TALLINN- --	1:00:03.8	M21	74
167		70	ALA TAIMAR	TALLINN- --KESKKONNAAMET	1:00:04.6	M21	75
168		752	SAAR HEIGO	RAE VALD- --	1:00:04.7	M35	48
169		597	PAJU KAIDO	TÜRI- --EDELARAUDTEE	1:00:05.1	M45	16
170	11	512	MURU MERIKE	HARJUMAA- -JOOKSUPARTNER-	1:00:06.1	N45	1
171		324	KRASS REIMO	PAIDE- --	1:00:07.4	M21	76
172		691	RAUDSEPP RAIVO	TÜRI- --	1:00:08.2	M45	17
173		197	JÕELEHT JAAGO	TALLINN- --	1:00:11.8	M35	49
174	12	341	KUKK KAIDI KEIR	PÄRNU- -JÕULU-	1:00:13.0	N18	1
175		450	LUBI VALLO-PEEDU	PÄRNU- -SAMOTAR-	1:00:13.9	M45	18
176		161	HEINSALU RAUL	KEILA- -ALBE TEAM-	1:00:16.8	M35	50
177		517	MUULI EERIK	TARTUMAA, LUUNJA VALD, SAVIKOJA KÜLA- TARTU ÜLIKOOL--	1:00:17.0	M18	13
178		163	HILLEP EINAR	TALLINN- -JUSTIITSMINISTEERIUM-	1:00:20.1	M35	51
179		153	HANGA KNUT	VARDJA- --	1:00:22.6	M35	52
180		338	KUHI TÕNU	RAKVERE- --	1:00:24.8	M35	53
181	13	380	LAASMA MEELIKA	RAPLA- --	1:00:27.3	N35	3
182		426	LIIN URMAS	JÄRVAMAA- --	1:00:28.5	M35	54
183	14	802	SILLANURM LY	TALLINN- -FB JOOKSMINE-	1:00:29.8	N35	4
184		269	KASK TÕNNO	KADRINA- --HAKA PLAST OÜ	1:00:37.5	M21	77
185		356	KUUSIK ANDRUS	RÄNI KÜLA- --	1:00:37.6	M21	78
186	15	44	BERNAT GALINA	TALLLINN- -STAMINA SK-	1:00:37.6	N55	1
187		862	TEMPEL MARKO	HAABNEEME- --	1:00:39.9	M21	79
188		724	ROHESALU OLIVER	UDEVA KÜLA-KOERU KESKKOOL --	1:00:39.9	M16	7
189		279	KESK LEHO	TALLINN- --LENNUSADAM	1:00:44.8	M35	55
190		407	LEESMÄE JÜRI	PÄRNU- -OK WEST-	1:00:46.2	M65	1
191		600	PAJUPUU JANNO	TALLINN- --	1:00:48.1	M21	80
192		813	SOOMRE RANDO	TÜRI- --	1:00:49.8	M35	56
193		1016	VÕIP RAIVO	NARVA- --	1:00:51.6	M45	19
194		389	LAJA LEHO	TALLINN- -JOOKSUPARTNER-	1:00:54.3	M35	57
195		95	AOLAID MARTEN	TABASALU- AUDENTESE ERAKOOL-NÕMME SPORDIKLUBI-	1:00:57.4	M14	2
196		837	TALVIK MIKK	TALLINN- --	1:00:58.5	M21	81
197	16	1032	ÖÖPIK KAIRIN	TÜRI- --	1:00:58.7	N21	9
198		676	RAIEND URMO	- -STAMINA SK-	1:01:05.3	M45	20
199		256	KARJUS KAIDO	TALLINN- -SPARTA-ARTMAN RACING	1:01:20.2	M35	58
200	17	214	JÜRISAAR MERILIN	AEGVIIDU- TALLINNA ÜHISGÜMNAASIUM--	1:01:21.6	N13	1
201		213	JÜRISAAR MEELIS	AEGVIIDU- --	1:01:21.8	M35	59
202		827	ŠUMANOV TIIT	VINNI- --	1:01:22.6	M45	21
203		513	MUSTING AKSEL	TALLINN- --	1:01:23.9	M45	22
204		703	REIM RICHARD	TALLINN- -SHABBA-	1:01:32.5	M21	82
205	18	114	EHRLICH IMBI	PAIDE LINN- --TAIG OÜ	1:01:33.2	N45	2
206		873	TILK TAAVI	TALLINN- --	1:01:34.7	M21	83
207		448	LOPSIK PRIIT	VIIMSI- -HANSA SK-	1:01:35.7	M21	84
208		245	KAMS KRISTO	JÄRVA-PAIDE GÜMNAASIUM --	1:01:36.8	M16	8
209		488	MELL KARL	KANGRU KÜLA, KIILI VALD- KIILI GÜMNAASIUM-21CC-	1:01:37.5	M13	2
210		150	HALLIMÄE RAIN	SAUE LINN- --	1:01:40.0	M55	1
211		76	ALEKASK PRIIT	TALLINN- --	1:01:41.4	M21	85
212		637	POST MARGO	PÄRNU- --	1:01:47.4	M35	60
213		446	LOOD KASPAR	RAKVERE- --	1:01:52.7	M21	86
214		100	AVANESOV ANDREY	JÕHVI- -KAEVANDUSTE SPORDIKLUBI-EESTI ENERGIA AS	1:01:53.9	M45	23
215		454	LUKKATS ANDRES	TUULNA- --	1:01:58.4	M35	61
216	19	490	MERENÄKK MARGARETE	TARTU- -FB JOOKSMINE-	1:01:59.4	N21	10
217		201	JÕGI TARMO	TALLINN- -SK MERIMETSA-	1:02:00.2	M21	87
218	20	532	MÄRSS LY	PANGA- --SÄDE	1:02:05.7	N35	5
219		240	KALJUVEE KRISTO	TALLINN- --	1:02:07.3	M21	88
220	21	978	VELBA HILLEVI	JÕHVI- --	1:02:09.1	N35	6
221		115	EIER TEET	VÄNDRA- --	1:02:09.2	M21	89
222		690	RAUDSEPP JAN	TÜRI- -EESTI SPORTLANE-OÜ TÜRI VESI	1:02:10.0	M35	62
223	22	43	IDAVAIN TIINA	KAGAVERE KÜLA- -SK METSASÕBRAD-RMK	1:02:10.1	N55	2
224		871	TIKVA INDREK	KEILA- -ALBE TEAM-	1:02:12.4	M35	63
225		550	NISLONI RAINER	TARTU- --	1:02:14.6	M21	90
226		463	LÄNS INDREK	TALLINN- --	1:02:17.1	M35	64
227	23	489	MELL RELIKA	KANGRU KÜLA, KIILI VALD- --PWC	1:02:17.9	N35	7
228		806	SIMSON MARGUS	TALLINN- --	1:02:18.1	M35	65
229		850	TAMMISTO PÄÄRN	KEILA- --ENSTO	1:02:19.5	M21	91
230		370	KÄNGSEPP RAIDO	LÄÄNEMAA- --MRA	1:02:20.5	M21	92
231		1056	GLUHHOVTSENKO MAKSIM	TALLINN- --	1:02:21.5	M35	66
232		1020	VÄLJAOTS KAIN	TALLINN- --	1:02:23.8	M35	67
233		484	MEIDLA ARVI	ABJA-PALUOJA- --	1:02:24.9	M55	2
234		166	HIOVÄIN KERTO	LAUGU- --	1:02:26.5	M21	93
235		851	TAPO MEELIS	PAIDE- --	1:02:26.6	M21	94
236		460	LÕHMUS INDREK	TARTU- --AS EF RAND & TUULBERG	1:02:29.6	M45	24
237		406	LEESMANN JARGO	PÄRNU- --	1:02:30.6	M21	95
238		933	UUSJÄRV MART	PAIDE- --	1:02:31.8	M21	96
239		757	SAKKEUS JÜRI	HARJUMAA- -SAKISPORT-	1:02:32.4	M55	3
240		141	GRIGORJEV SERGEY	JÕHVI- -EESTI ENERGIA KAEVANDUSED-	1:02:33.4	M45	25
241		754	SAAR PEEDU	TARTU- --	1:02:33.6	M21	97
242		129	ERRAPART ROMAN	TALLINN- --IP KÕNEKESKUSTE OÜ	1:02:34.0	M21	98
243		154	HANNI KALJU	TALLINN- --	1:02:35.3	M35	68
244		1033	ÖÖPIK KRISTJAN	- --	1:02:35.5	M21	99
245		546	NIGU VILLEM	TARTU- --	1:02:36.2	M21	100
246		109	BUŠIN PEEP	ELVA- --	1:02:36.3	M21	101
247	24	1015	VULLA ELA	TAPA- --	1:02:36.8	N21	11
248	25	968	VASSILJEV RIINU	ÜLENURME- -KLUBI: FB JOOKSMINE-	1:02:40.4	N21	12
249		606	PARK TÕNU	TALLINN- --	1:02:41.2	M45	26
250		1080	ORAV MARKO	VILJANDI- --	1:02:47.1	M35	69
251	26	928	UNDRITS AIRI	TÕRVANDI, ÜLENURME VALD- --	1:02:49.1	N21	13
252	27	911	TULP TIIA	HÄRGLA - --	1:02:52.5	N45	3
253		729	ROOSILEHT JAANUS	TÜRI VALD-RETLA KOOL --	1:02:54.5	M45	27
254	28	558	NURK KRISTIINA	TALLINN- --	1:02:54.9	N35	8
255		156	HANSEN RAIN	TALLINN- --	1:02:56.6	M21	102
256		62	AHTIJAINEN RIHO	RAPLA- --	1:02:58.3	M21	103
257		929	UNT TAAVI	VÄÄTSA VALD- --METSÄWOOD EESTI AS	1:03:01.6	M21	104
258		997	VILGO RIIVO	PEETRI ALEVIK- --	1:03:03.2	M21	105
259	29	617	PETERSON TRIIN	TALLINN- --	1:03:06.2	N35	9
260		820	SULEND HERKI	- --	1:03:07.9	M35	70
261		195	JUNS TANEL	TALLINN- --	1:03:10.5	M21	106
262	30	172	HÄRMA ELIIS	PAIDE LINN-PAIDE ÜHISGÜMNAASIUM --	1:03:10.8	N16	1
263		714	RENNIT LEHO	TALLINN- -ALBE TEAM-	1:03:14.4	M45	28
264		966	VASARIK AARNE	SAUE- --	1:03:16.9	M35	71
265		257	KARRO MARIO	MUSTIVERE- --	1:03:27.5	M21	107
266		671	PÄRNOJA ÜLARI	KEILA- --	1:03:36.0	M21	108
267		94	AOLAID ARDI	TABASALU- --	1:03:36.8	M35	72
268		848	TAMMIK ANDRE	-PAIDE GÜMNAASIUM --	1:03:37.0	M18	14
269		116	EILAT TAAVI	TARTU- --ERR	1:03:37.1	M21	109
270		1057	TAMM HALLAR	RAPLA- --	1:03:40.3	M21	110
271		310	KOMAROV PEETER	TALLINN- --	1:03:41.6	M35	73
272		290	KIRSIPUU AVO	VITI KÜLA HARKU VALD- -KIRSS-	1:03:42.2	M45	29
273	31	206	JÄNESE MARIA	TALLINN- --	1:03:42.2	N21	14
274		291	KIRSIPUU RIHO	VITI KÜLA HARKU VALD- NÕMME GÜMNAASIUM-LÄÄNEMAA KJK-	1:03:43.9	M16	9
275		377	LAANMETS JÜRI	TALLINN- --	1:03:44.9	M55	4
276		424	LIEBENAU RAUL	VALGA- --	1:03:45.4	M21	111
277	32	461	LÕHMUS MARGIT	VALGA- --	1:03:46.9	N35	10
278	33	242	KALK KATRE	TALLINN- --AUDIT PARTNER	1:03:48.4	N21	15
279		247	KANARBIK MARTIN	JÄRVA-JAANI ALEV- TARTU ÜLIKOOL--	1:03:49.7	M21	112
280		421	LEPISTE SANDER	PAIDE- --	1:03:49.7	M35	74
281		1036	LUIK ALAR	- --	1:03:50.4	M21	113
282	34	503	MIKK SILJA	SÜRGAVERE- --	1:03:55.5	N45	4
283	35	960	VALTER JÄRVI	TALLINN- --	1:03:57.7	N55	3
284		858	TEEORG URMAS	HAABNEEME, VIIMSI- --	1:04:01.2	M45	30
285		449	LORVI URMAS	TALLINN- --	1:04:01.6	M45	31
286		255	KARJUS ANDY	VÕRU- -OK VÕRU-	1:04:02.4	M45	32
287	36	316	KOOSKORA TRIINU	TARTU- --	1:04:07.0	N21	16
288		668	PÄRN TAAVI	LÄHTE- --	1:04:07.0	M21	114
289		420	LEPIK RAINER	RAPLA VALD- --	1:04:08.9	M21	115
290		1060	MAND MARTIN	PÄRNU- --	1:04:10.4	M21	116
291		248	KANE REIN	LOKSA- --LOKSA RSK	1:04:10.9	M65	2
292		86	ANDRES ANTON	TALLINN- --	1:04:12.7	M35	75
293		436	LIMMER AILAR	TALLINN- --	1:04:16.8	M45	33
294		252	KARDAKOV ALEKSANDR	KEHRA- --	1:04:18.7	M55	5
295		249	KANGUR ANDO	HAABNEEME- -LIEBHERR.COM-EM-SERV	1:04:24.4	M35	76
296		237	KALDVEE RIVO	TALLINN- --	1:04:29.7	M21	117
297	37	343	KUKK KATRIN	TAPA- --	1:04:36.6	N35	11
298		435	LILLO EINAR	TALLINN- -PIRITA JK RELIIKVIA-	1:04:46.3	M35	77
299		455	LUTS HARRY	JÄRVA-JAANI VALD- --	1:04:48.0	M45	34
300		672	PÄRNPUU ELVIS	KEILA- --	1:04:54.0	M21	118
301		782	SEPPAR ELVIS	TALLINN- -FB JOOKSMINE-	1:05:00.0	M35	78
302		355	KUUSIK ANDO	TALLINN- -KARATEKLUBI TIIGER-	1:05:01.7	M35	79
303		184	JAANSON ALEKSANDER	TALLINN- --	1:05:03.8	M55	6
304		651	PUUSALU ARWED	TALLINN- --ELRATO	1:05:05.2	M55	7
305		833	TAIDUR KRISTJAN	PEETRIMÕISA KÜLA- -STAIER-	1:05:08.1	M35	80
306		273	KAUR KASPAR	TALLINN- -HANSA SPORDIKLUBI-SWEDBANK	1:05:14.0	M21	119
307		612	PEETRIMÄGI SIIM	TALLINN- --	1:05:28.0	M21	120
308		644	PULK LENNART	PÄRNU LINN- --ÜHINENUD AJALEHED AS	1:05:29.6	M35	81
309		125	ENTAL MADIS	TALLINN- --	1:05:31.6	M21	121
310		235	KALDA KRISTJAN	VÄLGITA- --	1:05:31.7	M21	122
311		625	PIIROJA PRIIT	JÄRVA-JAANIEESTI-JÄRVA-JAANI GÜMNAASIUM --	1:05:32.0	M16	10
312		845	TAMMELA ANDRIS	PÄRNU LINN- --ÜHINENUD AJALEHED AS	1:05:40.1	M35	82
313		767	SAU TAUNO	RAPLA- --	1:05:43.0	M21	123
314		826	ŠEVEREV ARGO	TALLINN- --NATURAL EHITUS OÜ	1:05:44.6	M35	83
315		284	KIMMEL LAURI	TARTU- --	1:05:45.5	M21	124
316		902	TROPP RAIMO	TALLINN- -SK MERIMETSA-	1:05:49.4	M21	125
317		917	TÕNISSON TAMBET	MÄERANNA- --	1:05:52.2	M35	84
318		743	RUUL SANDER	TÜRI VALD- --ICEFIRE OÜ	1:05:55.9	M21	126
319		538	MÜÜR JANAR	PAIDE- --	1:05:56.7	M35	85
320		907	TŠEREDNIK ANDREI	TALLINN- --	1:06:00.1	M21	127
321		134	GILL MIHKEL	TILA KÜLA- --	1:06:00.1	M21	128
322		90	ANNISTE ALLAN	TÜRI VALD- --AS ATKO TRANS	1:06:04.6	M45	35
323		133	GILL JAKOB	TILA KÜLA- HUGO TREFFNERI GÜMNAASIUM--	1:06:08.8	M18	15
324		483	MEHINE MARTIN	LUIGE- TTÜ--TPT	1:06:10.6	M21	129
325		551	NOKKUR LEMBIT	HARJU- --	1:06:12.6	M45	36
326	38	809	SISAS RUTA	VÕRU- --	1:06:13.9	N21	17
327		223	KAASIK MAGNUS	ANNIKVERE KÜLA- --	1:06:13.9	M45	37
328	39	502	MEY TEA	TARTUMAA- --	1:06:19.2	N35	12
329		567	NÕMME KERT-ROBERT	TALLINN- --	1:06:19.3	M35	86
330		553	NUGA AHTI	RAPLAMAA- --	1:06:23.1	M21	130
331		385	LAIDOJA AIN	VIIMSI VALD- -KYLVANDU SPORDIKLUBI-	1:06:23.9	M45	38
332	40	299	KIVISAAR AGNE	TALLIN- --	1:06:24.9	N35	13
333		734	ROSS TAAVI	KEILA- --	1:06:31.0	M21	131
334		131	FILIPPOV ARTJOM	TALLINN- --	1:06:31.0	M21	132
335		603	PALOSON MIREK	JÜRI- --	1:06:31.8	M21	133
336		412	LEIER TÕNIS	PURILA- -RAPLAMAA RATTAKLUBI KOMO-	1:06:35.4	M55	8
337		861	TELLING JUHAN	TALLINN- -JK HERMES-	1:06:37.9	M45	39
338	41	104	BELJANTSEVA JELENA	TARTU- --TARTU ÜLIKOOL	1:06:38.8	N21	18
339	42	357	KUUSIK KERLI	TALLINN- TALLINNA NÕMME PÕHIKOOL-21CC-	1:06:42.6	N13	2
340	43	69	AITMAN HANNELY	JÜRI- --	1:06:43.4	N21	19
341		174	IBIS MARGUS	EESTI VABARIIK- --	1:06:43.6	M45	40
342		361	KUUSK KARLE	PÄRNU- --	1:06:48.2	M35	87
343		416	LELLSAAR MIKK	TÜRI- -DIATLEEDID-	1:06:50.9	M21	134
344		1050	VAINJÄRV HILLAR	TALLINN- --	1:06:52.1	M55	9
345		541	NAEL PAAVO	SAKU- --SÜKK	1:06:52.6	M35	88
346	44	956	VALGE KERLI	TALLINN- -JOOKSUPARTNER-	1:06:52.9	N21	20
347		594	PAAVEL ARGO	PAPSAARE KÜLA, AUDRU VALD- PÄRNUMAA KUTSEHARIDUSKESKUS--	1:06:54.6	M21	135
348		473	MANDRIKS JAAN	TALLINN- --POLITSEI- JA PIIRIVALVEAMET	1:06:57.0	M21	136
349		274	KEELMANN KALLO	KIILI ALEV- --	1:07:02.2	M21	137
350		899	TREIER AARE	SAUE VALD- --	1:07:03.6	M21	138
351		494	MERIVÄLJA MARGUS	RAE VALD, 75312- --	1:07:03.7	M35	89
352		566	NÕMM MEELIS	JÜRI- -JOOKSUPARTNER-	1:07:03.7	M35	90
353		7	PIRKSAAR MARGUS	- -TARTU ÜLIKOOLI AKADEEMILINE SPORIKLUBI-	1:07:03.8	M35	91
354		312	KOOKLA EERO	TALLINN- -JOOKSUPARTNER-	1:07:03.9	M35	92
355		75	ALBERT AUGUST	- --	1:07:05.0	M45	41
356	45	970	VEERE KAIRI	TALLINN- --	1:07:06.1	N35	14
357		515	MUTS MEELIS	VILJANDI LINN- --ÜHINENUD AJALEHED AS	1:07:06.3	M35	93
358		1044	PÄRTMA ENN	HARJUMAA- --	1:07:12.2	M55	10
359		1019	VÄLJAOTS ERKI	LUUNJA VALD- --	1:07:12.2	M21	139
360		592	PAAP KIMMO	TALLINN- --	1:07:12.3	M21	140
361		683	RANDMERE AHTI	ALBU KÜLA- -VARGAMÄE-	1:07:13.4	M35	94
362		253	KARIALID UKO	TÜRI-TÜRI ÜHISGÜMNAASIUM --	1:07:13.7	M21	141
363		816	SOOSALU ARMIN	KIILI ALEV- --PILVEPROJEKT OÜ	1:07:17.8	M21	142
364		107	BOMBUL ANDRUS	SILLAOTSA- --	1:07:20.0	M21	143
365		138	GLASE TAAGO	JÄRAVERE KÜLA- VILJANDI ÜHENDATUD KUTSEKESKKOOL-SK IMAVERE FORSS-	1:07:20.9	M21	144
366		179	IVANOV MAREK	HARKU VALD- --	1:07:21.0	M35	95
367		301	KIVISELG ALLAN	TALLINN- --	1:07:21.3	M35	96
368		358	KUUSIK KRISTJAN	TALLINN- --	1:07:23.6	M21	145
369	46	199	JÕEMETS KAJA	JÕHVI- --	1:07:24.2	N45	5
370		720	RIKKINEN TARMO	TALLINN- --SWECO	1:07:30.0	M35	97
371		307	KOKLA MADIS	TALLINN- --	1:07:35.2	M45	42
372	47	967	VASK ANNALIISA	PÄRNU- PÄRNU SÜTEVAKA HUMANITAARGÜMNAASIUM-JOOKSUPARTNER-	1:07:35.4	N13	3
373		210	JÄRVE EINAR	TALLINN- -JK HERMES-	1:07:38.3	M45	43
374		569	NÕMMIK MARTIN	KIILI ALEV- --	1:07:46.1	M35	98
375		963	VARB TAAVI	KATA KÜLA, KOSE VALD- -MARU KARUD-	1:07:48.9	M35	99
376	48	636	PORKVELI MARGE	JÕGISOO- --	1:07:52.1	N21	21
377		696	REBANE URMAS	TALLINN- -SK JOOKSUPARTNER-	1:07:55.2	M35	100
378	49	349	KURS MARILIIS	KOHTLA-NÕMME- -RAKVERE KOLLEDŽ-	1:08:03.5	N35	15
379	50	335	KRUUSE KATRE	NÕO- --	1:08:05.2	N21	22
380		534	MÖLDER IVO	TÜRI- -TÜRI RATTAKLUBI-	1:08:06.4	M35	101
381		51	AAS RAIGO	SURJU VALD- --	1:08:06.5	M21	146
382		241	KALJUVEER EINAR	TALLINN- --	1:08:12.5	M21	147
383		262	KARUSSAAR KAIDO	TALLINN- --	1:08:17.6	M45	44
384		204	JÕUMEES KARL	UULU KÜLA- -SUKL JÕULU-	1:08:18.5	M18	16
385		267	KASK OLIVER	PÄRNU- -SUKL JÕULU-	1:08:18.6	M18	17
386	51	1001	VIRONMÄKI JOHANNA	TALLINN- -SUOMETTARET-TUOKKO OÜ	1:08:19.1	N45	6
387		785	SIBUL ARNO	TALLINN- --	1:08:22.0	M21	148
388		102	BARANOV ALEKSANDR	TALLINN- -START-	1:08:24.1	M55	11
389		418	LEPASEPP RANNO	AMBLA-ARAVETE KESKKOOL --	1:08:29.6	M18	18
390		568	NÕMMIK KRISTIAN	KLOOGARANNA- --	1:08:30.7	M21	149
391		529	MÄND LAURI	NABALA KÜLA- --	1:08:31.1	M21	150
392	52	578	OJASTU MARII	TARTU- --	1:08:31.8	N21	23
393		1008	VOOL NEEME	PAIDE- --	1:08:38.7	M35	102
394		427	LIIRA ULVAR	TALLINN- --	1:08:42.9	M35	103
395		170	HÄMÄLÄINEN MATTI	HAMINA- --	1:08:43.4	M55	12
396	53	336	KRUUSMANN GEIDI	VÄIKE-MAARJA- VÄIKE-MAARJA GÜMNAASIUM-8R-	1:08:44.4	N21	24
397	54	346	KULDPÄRG ENE	PAIDE LINN- --JÄRVA TARBIJATE ÜHISTU	1:08:44.7	N35	16
398	55	886	TOMP MAIGI	VILJANDI- --	1:08:48.0	N21	25
399		750	SAAMANN GERT	TÜRI- --	1:08:49.0	M45	45
400	56	413	LEIF MAIVE	TÜRI- --	1:08:49.0	N45	7
401		442	LOBJAKAS WILJAR	TALLINN- --	1:08:49.8	M16	11
402		158	HEIN LAURI	TARTU- --	1:08:51.2	M21	151
403	57	136	GLADÕSHEVA GALINA	JÕHVI- --	1:08:52.0	N45	8
404		411	LEHTPUU ERKI	TALLINN- --	1:08:55.3	M21	152
405		909	TUBLI PEETER	ÄÄSMÄE- -OK KOOPERAATOR-	1:08:56.1	M21	153
406		660	PÕLDOJA ARGO	TALLINN- --	1:08:56.8	M21	154
407		232	KALA TAAVI	ÄÄSMÄE- --	1:08:56.9	M21	155
408	58	614	PELLENEN EVELIN	TARTU- --	1:08:58.3	N35	17
409	59	376	LAAGER RAIN	SÕMERU VALD- --OÜ MAILER	1:09:01.1	N21	26
410		365	KÕIV KASPAR	RAPLA- --	1:09:01.9	M21	156
411		63	AHTIJAINEN RISTO	RAPLA- --	1:09:09.3	M21	157
412		903	TROPP SVEN	HAAPSALU- --	1:09:18.2	M21	158
413		438	LIPP LAURI	- --	1:09:18.4	M45	46
414		226	KAHAR KAIDO	TALLINN- --	1:09:19.3	M35	104
415		719	RIKBERG ANTS	VÄIKE-MAARJA- --SISEKAITSEAKADEEMIA	1:09:21.2	M55	13
416	60	786	SIBUL MAIVE	PAIDE VALD- --TAIG OÜ	1:09:21.7	N35	18
417		145	HAAPSAL GUNNAR	LAAGRI- --	1:09:21.8	M35	105
418		408	LEHISMETS JAAN	PÄRNUMAA- --	1:09:24.8	M21	159
419		741	RUUL MATI	TALLINN- --	1:09:24.9	M45	47
420		793	SIILIVASK ARGO	KÄRAVETE KÜLA- --	1:09:28.2	M21	160
421		384	LAI MARGUS	JÜRI- --	1:09:31.1	M35	106
422		485	MEIER RAIVO	ASSAKU- -JK HERMES-	1:09:36.4	M65	3
423	61	730	ROOSIMÄGI JANA	KOOSALAANE KÜLA- --	1:09:36.7	N21	27
424		686	RANDMÄE MARGUS	TALLINN- -PÄRNU KAHE SILLA KLUBI-	1:09:37.3	M21	161
425	62	209	JÄRVALT RENNA	VIIMSI- --SÜKK	1:09:37.4	N35	19
426		964	VARBLAS EVERT	KOSE VALD- --	1:09:40.4	M55	14
427		860	TELGMA TENO	TALLINN- --	1:09:41.5	M21	162
428		103	BAUMVERK MÄRT	TALLINN- --	1:09:43.5	M35	107
429		85	ALTMETS VALEV	OETI KÜLA- --	1:09:44.4	M45	48
430		774	SELGE AARE	KARINU- --	1:09:46.3	M45	49
431		1064	ERM ERICH	TALLINN- --	1:09:49.9	M21	163
432		55	AATONEN MARKO	TALLINN- --	1:09:55.1	M18	19
433	63	874	TILVIS AIJA	KALAJOKI- --KALAJOKI	1:09:57.8	N45	9
434		1003	VOLKE HARRY	ARUKÜLA- --	1:10:00.6	M35	108
435		910	TULP KRISTJAN	TALLINN- -SLACKER RUNNING-	1:10:00.6	M21	164
436		692	REBANE HEIKI	TALLINN- --	1:10:00.6	M21	165
437		589	PAABEL VILJAR	- --VESKISILLA	1:10:05.6	M16	12
438		1009	VOOLAID CHRISTOPHER	PAIDE-PAIDE GÜMNAASIUM --	1:10:06.4	M16	13
439		844	TAMME RAIDO	JÕHVI- -JÕHVI MOTOKLUBI-	1:10:06.6	M21	166
440		1010	VOOLAID GEIR SAMUEL	PAIDE-PAIDE GÜMNAASIUM --	1:10:06.6	M14	3
441		101	BAKLER HENRY	RAKVERE- --	1:10:08.9	M21	167
442		187	JAKOBI RANNE	TALLINN- --	1:10:10.7	M45	50
443		930	URB JAANUS	TÄNASSILMA KÜLA, SAKU VALD- --	1:10:11.7	M21	168
444	64	271	KASPER KÄTLIN	TALLINN- --TALLINNA LASTEAED MUDILA	1:10:13.5	N35	20
445		311	KOMPUS ANDRUS	KAMBJA VALD- -EESTI WORLDLOPPETI KLUBI-	1:10:20.1	M55	15
446		304	KLAUS VALDEK	PAIDE- --	1:10:24.3	M35	109
447	65	715	RENNIT TRIIN	TALLINN- -ALBE TEAM-	1:10:24.5	N14	1
448	66	325	KRAUSE KARIT	TALLINN- --	1:10:26.6	N21	28
449		122	ENDRIKS HENDRIK	PAIDE- -PUNAMUST-	1:10:34.9	M21	169
450		687	RANG HENDRICK	TALLINN- --	1:10:39.0	M21	170
451		493	MERIVOO MADIS	TALLINN- --	1:10:39.6	M55	16
452	67	244	KALVIK KAIRE	TALLINN- --MARSH	1:10:45.3	N21	29
453		942	VAHT IVAR	- -SK AASPERE-	1:10:46.6	M21	171
454	68	926	UDUSAAR AET	TALLINN- -TALLINNA TULISED ILVESED-	1:10:47.2	N21	30
455	69	327	KREITSBERG KRISTI	VÕRU LINN- --VÕRU TARBIJATE ÜHISTU	1:10:48.8	N35	21
456		1082	OTT KRISTJAN JAAK	TÜRI- --	1:10:50.9	M18	20
457	70	456	LUTS HEIKI	TALLINN- --FROSTFX & ANSAMBEL KRUUV	1:10:53.1	N21	31
458		84	ALTMETS MIKK	TADE KÜLA- --	1:10:57.1	M35	110
459		143	GRÖÖN JANAR	VILJANDI- --	1:10:57.7	M21	172
460		447	LOPSIK ANDREI	KOHTLA-JÄRVE- -EESTI ENERGIA SPORDIKLUBI-	1:11:03.1	M55	17
461		173	HÄRMA TARMO	KUKU KÜLA- --	1:11:03.5	M35	111
462	71	659	PÕLDMAA EGLE	PAIDE- TALLINNA ÜLIKOOLI PEDAGOOGILINE SEMINAR--	1:11:03.7	N21	32
463	72	221	KAASIK HANNA-BRITA	ANNIKVERE KÜLA- PÕLTSAMAA ÜG-SAAREPEEDI SK-	1:11:07.1	N14	2
464		459	LUUS ARVO	TALLINN- --	1:11:11.6	M65	4
465		439	LIPPA INDREK	ARDU- --	1:11:13.2	M35	112
466		635	POPELL JANEK	TALLINN- --MTÜ SPORDISELTS	1:11:14.2	M35	113
467		572	NÕMMISTE SULEV	ÜLENURME- -SUUSAHULLUD-	1:11:16.3	M35	114
468		571	NÕMMISTE KALEV	SIMUNA- --	1:11:16.4	M35	115
469		547	NIIT JAAK	TALLINN- --	1:11:21.2	M45	51
470		598	PAJULA AIN	KAIU- --	1:11:23.4	M45	52
471	73	462	LÕHMUS SILJA	TARTU- --	1:11:24.1	N45	10
472	74	159	HEINAM ELELA	SINDI- --	1:11:26.4	N35	22
473		824	SÖÖRD PRIIT	PAIDE- --	1:11:27.4	M35	116
474		278	KERGE SIIM	-PAIDE GÜMNAASIUM --	1:11:27.7	M16	14
475	75	769	SCHVEDE JELENA	PAIDE- --	1:11:30.1	N35	23
476		251	KAPP RIHO	PAIDE- --	1:11:30.4	M65	5
477	76	128	ERNITS INGRIT	JÕGEVA- --	1:11:31.5	N45	11
478	77	207	JÄRMUT LIILIA	IMAVERE-IMAVERE PÕHIKOOL --	1:11:34.9	N14	3
479	78	171	HÄRM KERSTI	HAABNEEME- --	1:11:37.8	N21	33
480	79	305	KLEEMEIER MARIELLE	PAIDE LINN-PAIDE GÜMNAASIUM --	1:11:38.9	N16	2
481		931	URB ÜLO	TALLINN- -JOOKSEN KOOS SINUGA-	1:11:39.1	M55	18
482	80	906	TRUVE ELIZABETH	VIIMSI- --	1:11:40.4	N16	3
483		444	LOHU MATI	TALLINN- --	1:11:44.6	M35	117
484		601	PALL TÕNU	TÜRI- --	1:11:44.8	M45	53
485		993	VIILVEER MIHKEL	VÕSU- --OPUS ONLINE	1:11:45.0	M21	173
486		712	REISMAN ROBERT	PAIDE- --	1:11:45.8	M21	174
487		641	PRITSIK MAREK	RAKVERE- --	1:11:46.1	M21	175
488	81	1002	VOLENS MARET	TALLINN- -SPARTA-KPME	1:11:47.7	N35	24
489		1073	SISASK AIMAR	VÕRU- --	1:11:48.7	M21	176
490		1074	JALLAI RIIVO	TALLINN- --	1:11:48.8	M21	177
491		505	MOKS INDREK	VILJANDI- --	1:11:49.5	M21	178
492		799	SILD ERLEND	TALLINN- --	1:11:52.3	M35	118
493	82	93	ANTONS MAILI	ARAVETE-ARAVETE KESKKOOL -JÄRVA MALEV, NAISKODUKAITSE KOERU JSK-	1:11:52.8	N35	25
494		186	JAESKI AIVAR	RAE VALD- --ELV	1:11:55.7	M45	54
495		831	TAGEL ILMAR	PÕLVA- -TRISMILE/PÕLVA-MTA	1:11:56.8	M65	6
496	83	773	SELBERG KÜLLY	PÄRNU- -2 SILLA KLUBI JOOKSUSÕBRAD-	1:11:57.6	N35	26
497		822	SUSI DENIS	PAIDE LINN-PAIDE ÜHISGÜMNAASIUM --	1:11:58.4	M16	15
498		431	LILLEMETS KALLE	VILJANDI- --	1:11:58.8	M45	55
499	84	432	LILLEMETS KELINA	VILJANDI- VILJANDI KESKLINNA KOOL -VAK STAIER-	1:12:06.8	N14	4
500		575	OJALILL RAIMOND	KOSE-UUEMÕISA- --	1:12:07.6	M35	119
501		881	TOMAST JANEK	AUDRU VALD- --	1:12:08.5	M35	120
502		736	RUMM MARKO	- --	1:12:09.2	M21	179
503		189	JANSEN KRISTJAN	HAASLAVA VALD - --	1:12:09.8	M21	180
504		167	HORDO KASPAR	PAIDE VALD- KOSE GÜMNAASIUM-MIX TEAM-	1:12:10.6	M16	16
505		986	VEST MARKO	ROOSNA-ALLIKU- --	1:12:12.3	M18	21
506		780	SEPP HENN	VILJANDI- -TSK JOOSU-	1:12:15.0	M65	7
507		268	KASK PEEP	ANIJA VALD- --	1:12:16.3	M35	121
508		545	NEPPER PELLE	TALLINN- -SPORDISELTS KAIDO-NIGHTCLUB PRIVILEGE	1:12:16.9	M35	122
509		935	VAAB ENNO	PAIDE- --	1:12:17.3	M35	123
510	85	982	VESKIMÄE AIRE	TALLINN- --	1:12:19.0	N21	34
511	86	364	KUUSKMÄE MAIBRITT	PÄRNU- -KAHE SILLA KLUBI JOOKSUSÕBRAD-	1:12:20.4	N21	35
512		1062	KUNGUS AHTO	PÕLTSAMAA- --	1:12:20.5	M35	124
513	87	379	LAASMA KERSTIN	RAPLA- RAPLA ÜHISGÜMNAASIUM--	1:12:23.5	N18	2
514		142	GROSS NEEME	TÜRI- -TÜRI SUKELDUJAD!-	1:12:24.6	M35	125
515		466	MAASIK ALARI	TALLINN- --	1:12:25.7	M35	126
516	88	564	NÕMM KÜLLI	JÜRI- --	1:12:25.9	N35	27
517		300	KIVISAAR TÕNIS	TALLINN- --	1:12:28.1	M21	181
518	89	1076	SILD MARITE	PAIDE-PAIDE GÜMNAASIUM --	1:12:29.3	N16	4
519		680	RANDLA ERIK	TARTU- --	1:12:37.6	M21	182
520		445	LOHU VEIKO	TALLINN- --	1:12:37.6	M35	127
521		991	VIIL INDREK	TARTU- --	1:12:40.8	M21	183
522		559	NURKLIK RAUNO	PAIDE- --	1:12:44.2	M18	22
523		985	VEST ARE	ROOSNA-ALLIKU- --ROOSNA-ALLIKU PAKIAUTO	1:12:45.4	M35	128
524	90	1079	MERE HELEN	TALLINN- --	1:12:47.3	N21	36
525		1012	VOOLAID VELLO	RAASIKU- --	1:12:48.6	M45	56
526	91	791	SIIBAK KRISTI	VILJANDI- --	1:12:51.3	N35	28
527	92	321	KOTKAS SIGNE	PAIDE VALD-PAIDE VALLA LASTEAED-KOOL --	1:12:53.5	N21	37
528	93	367	KÕLL KRISTI	TALLINN- --	1:12:57.3	N21	38
529		313	KOOLMA EGERT	RAPLA LINN- --	1:12:57.3	M21	184
530	94	883	TOMINGAS TRIIN	TAPA- --	1:12:57.4	N21	39
531		188	JAMMER ÜLO	KOERU ALEVIK- -KOERU SPORDIKLUBI-	1:13:03.7	M65	8
532	95	681	RANDLANE KERLY	TALLINN- --	1:13:05.1	N35	29
533		648	PUU JAANEK	TALLINN- -JK JALGPALLIHAIGLA-	1:13:07.3	M35	129
534		60	ADLER KARL	JÄRVA-PAIDE GÜMNAASIUM --	1:13:09.9	M16	17
535		664	PÄHKLAMÄE VIKTOR	HELME VALD- --	1:13:11.7	M35	130
536		913	TURBA ARVO	PÕLVA- --	1:13:11.8	M35	131
537		1067	PAUL AIVAR	TALLINN- --	1:13:12.9	M35	132
538		52	AASMA ALO	PAIDE- --PAIDE LINNAVALITSUS	1:13:16.2	M21	185
539		537	MÜNTER BRUNO	ILMANDU- --	1:13:18.7	M55	19
540	96	718	RIIS TIIA	KOERU- --	1:13:19.5	N35	30
541		165	HIOB PRIIT	VILJANDI- -VAK STAIER-	1:13:21.5	M35	133
542		1059	REMEK MARGUS	RAKVERE- --	1:13:24.5	M21	186
543		755	SAAREND MATI	VIRU-NIGULA- --	1:13:25.1	M55	20
544		441	LOBJAKAS VELJO	TALLINN- --	1:13:26.0	M35	134
545	97	383	LAHE RIINA	ALLIKU- --	1:13:26.4	N35	31
546		306	KLOREN MARKO	RAPLA LINN- --	1:13:26.5	M35	135
547		688	RAUDSAAR TAAVI	TALLINN- --	1:13:27.7	M21	187
548		399	LAURI MARTEN	RAKVERE- --	1:13:31.9	M21	188
549		480	MAUER TIIT	TARTU- --	1:13:35.0	M45	57
550		113	EENSOO KAAREL	PAIDE VALD-TÜRI ÜHISGÜMNAASIUM --	1:13:35.2	M16	18
551	98	182	JAAKSON KAJA	PÄRNU- - KAHE SILLA KLUBI JOOKSUSÕBRAD-	1:13:36.1	N35	32
552	99	317	KOPLIMÄGI MARIKA	TARTU- --	1:13:38.4	N35	33
553		178	INGERMA PEETER	JÜRI- --	1:13:40.0	M35	136
554	100	792	SIIBAK MERLE	VILJANDI- --	1:13:40.0	N21	40
555		657	PÕDER TARMO	PÄRNU- --	1:13:40.3	M35	137
556	101	582	OOLMETS KATRIN	TALLINN- --	1:13:42.1	N21	41
557		381	LAASMÄE KARL-LOUIS	PÄRNU- -KAHE SILLA KLUBI JOOKSUSÕBRAD-	1:13:47.1	M16	19
558	102	777	SELJAK KATRIN	TALLINN- --	1:13:49.3	N35	34
559		475	MARRANDI RAIN	KEILA LINN- -RULLUISUKLUBI 8R-	1:13:50.8	M21	189
560		509	MUINASTE RAIMO	PÄRNU- --RADEMAR	1:13:51.7	M21	190
561		836	TALUMETS TOOMAS	TALLINN- --	1:13:52.1	M21	191
562	103	492	MERIMAA PIRET	TALLINN- -MYFITNESS-NORSTAT INTERNATIONAL OÜ	1:13:53.0	N35	35
563		275	KEERMA JAAN	ROOSNA- ALLIKU- --	1:14:00.5	M45	58
564	104	716	RETS PILLE	TALLINN- --	1:14:01.1	N21	42
565	105	751	SAAR ANNELY	SAKU- -SAKU ÕLLETEHASE SK-	1:14:03.1	N35	36
566	106	88	ANDRESSON TRIIN	PRINGI- -SK JOOKSUPARTNER-	1:14:09.9	N21	43
567		378	LAANSOO VIRGO	HARKU VALD, VÄÄNA-JÕESUU KÜLA- --ARCO VARA	1:14:13.5	M35	138
568	107	73	ALAOTS MAIE	RAKVERE- --	1:14:14.8	N45	12
569	108	1053	GLUHHOVTSENKO LIIS	TALLINN- --	1:14:16.2	N21	44
570	109	595	PAI SIRLE	TABASALU- -SPARTA-	1:14:17.0	N35	37
571	110	518	MÕNISTE TIINA	PÜHALEPA VALD- --	1:14:20.7	N21	45
572		725	ROHTMA VALDEK	TARTUMAA- -FB JOOKSMINE-	1:14:25.8	M35	139
573	111	352	KUUDER ARGE	TALLINN- -SPARTA-	1:14:29.0	N35	38
574		638	PRANTSUS VILJO	VÕHMA LINN- -SK VÕHMA-	1:14:30.9	M35	140
575	112	934	UUSTALU SVETLANA	HABAJA- --	1:14:31.3	N21	46
576	113	180	IVANOVA ALLA	TALLINN- --	1:14:31.4	N35	39
577		77	ALLA JOEL	- --	1:14:31.4	M35	141
578	114	1077	TIKK KAILI	TALLINN- --	1:14:31.7	N21	47
579	115	497	METS MARI	TARTU- --	1:14:35.1	N21	48
580	116	164	HINT MIINA	TARTU- --	1:14:38.3	N21	49
581		656	PÕDER PRIIT	SAUE LINN- -SK METSASÕBRAD-	1:14:38.9	M21	192
582		763	SAPP JAAN	PAIDE VALD- --SA PAIDE SPORDI- JA TERVISEKESKUS	1:14:40.9	M35	142
583	117	332	KRULL ANNE	TARTU- --	1:14:41.9	N35	40
584		369	KÄGU KAIDO	HARKUJÄRVE- --	1:14:43.4	M45	59
585	118	705	REIMANN MARIE	KOIGI- --	1:14:47.3	N21	50
586	119	106	BOLTOVSKY MAIA	TARTU- --	1:14:49.4	N35	41
587	120	58	ADAMSON LIANE	TALLINN- --	1:14:51.1	N21	51
588	121	998	VILLEMSON KRISTA	TALLINN- --	1:14:54.5	N35	42
589		1023	VÖÖRMANN FRANK	PAIDE LINN-PAIDE GÜMNAASIUM --	1:14:58.0	M14	4
590		398	LAURAND SANDRI	JÜRI- --	1:14:59.9	M21	193
591		498	METSA ERKKI	ÜLENURME- --	1:15:00.6	M35	143
592	122	1043	ODRAS EHTEL	PAIDE---	1:15:02.3	N21	52
593		877	TOBBI TARVO	TALLINN- -XS/NUTRILITE-	1:15:04.2	M21	194
594		458	LUUG VEIKO	TARTU- --	1:15:07.1	M35	144
595		1047	LAI IVAR	TALLINN- --	1:15:08.7	M45	60
596	123	1037	PUKS KRISTA	PÄRNU--SPORTLAND EESTI AS-	1:15:09.0	N21	53
597		818	SUISLEPP PEETER	KUREPALU KÜLA HAASLAVA VALD- --EAS	1:15:12.8	M35	145
598		108	BONDARENKO TARAS	TALLINN- --	1:15:15.0	M21	195
599	124	478	MATTIISEN TIINA	PAPSAARE- --	1:15:17.1	N45	13
600		1027	ÕLGE JAANUS	PAIDE VALD-PAIDE GÜMNAASIUM --	1:15:17.5	M35	146
601		984	VESKIOJA RAIVO	JÄRVA-MADISE KÜLA- --	1:15:19.3	M35	147
602		863	TEREŠTŠENKOV ALEKSEI	TALLINN- -U-KLUBI-TOP CONNECT OÜ	1:15:20.5	M45	61
603		368	KÕRS KARL-REIMOND	RAPLA- RÜG-RAPLA KORVPALLIKOOL-	1:15:23.3	M13	3
604	125	403	LAVRINENKO KAIRE	TÜRI- --TALLINK DUTY FREE AS	1:15:23.9	N21	54
605		709	REINULA HENDRIK	JÄNEDA- TAPA GÜMNAASIUM--	1:15:25.1	M16	20
606	126	670	PÄRNA TRIIN	TÜRI- --	1:15:28.3	N21	55
607	127	200	JÕESSAR KRISTA	SAKU VALD- --	1:15:28.4	N35	43
608	128	319	KOROL BRIGITA	PAIDE- --	1:15:39.5	N35	44
609		587	OSBEK KRISTJAN	PÄRNU- --	1:15:41.6	M21	196
610		486	MEITUS RAIVO	JÕGEVA- --	1:15:48.5	M45	62
611		265	KASEMETSA KASPAR	KOIGI V.-PAIDE GÜMNAASIUM --	1:15:56.7	M18	23
612		328	KRILLO ENAR	ELVA- --	1:16:00.4	M35	148
613	129	472	MAISTE ÜLLE	TALLINN- --	1:16:00.7	N35	45
614		495	MESJATSEV KEVIN	TÜRI-TÜRI PÕHIKOOL --	1:16:03.0	M14	5
615		1030	ÕUNAPUU UNO	RAKVERE- -ÕUNAPUU-	1:16:03.9	M55	21
616		887	TOMSON GERT	TALLINN- -ELIONI SPORDIKLUBI-MTÜ ELIONI SPORDIKLUBI	1:16:04.1	M21	197
617	130	428	LIIV ÜLLE	RAKVERE- --	1:16:08.9	N35	46
618		1048	SÕRMUS MARIO	PAIDE- --	1:16:09.0	M21	198
619		1052	PIISNER ERGO	PAIDE- --	1:16:09.5	M21	199
620	131	148	HAAV ÜLLE	TARTU- --	1:16:12.4	N45	14
621	132	453	LUKJANOV SILVI	PAIDE LINN- --ÜHINENUD AJALEHED AS	1:16:16.4	N45	15
622		1042	MÄE MEELIS	TORI-PÄRNU TÄISKASVANUTE GÜMNAASIUM--	1:16:18.3	M21	200
623	133	706	REIMANN REET	SIPA- --	1:16:19.2	N35	47
624	134	65	AIDLA ANNELI	PÄRNU- --MOLLER AUTO PÄRNU OÜ	1:16:20.4	N35	48
625		693	REBANE JANNO	PÄRNU- --	1:16:20.5	M21	201
626	135	440	LIPPUS HEDDA	TALLINN- --	1:16:23.3	N21	56
627	136	609	PATUNE EVA	- --	1:16:25.6	N21	57
628	137	394	LASSI ANNELI	PAIDE LINN- --VIKING WINDOW AS	1:16:27.6	N35	49
629	138	642	PRUUL KATRI	PÄRNU- --PÄRNU LINNAVALITSUS	1:16:28.9	N21	58
630	139	329	KRILLO KAROLYN	TARTU- -MIGHT JUST DO IT-	1:16:30.6	N21	59
631	140	1018	VÄLISTE KADI	MAARDU- --	1:16:31.6	N21	60
632		897	TRALLMANN TAUNO	TALLINN- -JOOKSUPARTNER-	1:16:31.7	M35	149
633	141	599	PAJULA HEIVI	KAIU- --	1:16:34.3	N35	50
634		157	HANSSCHMIDT NEEME	PÕLTSAMAA- --	1:16:36.7	M45	63
635		297	KIVI RAIMO	OTEPÄÄ- --	1:16:39.1	M21	202
636	142	624	PIIRMAA ELO	LAAGRI- --	1:16:43.6	N35	51
637		758	SALONG SULEV	KURESSAARE- -JK SARMA-	1:16:48.3	M55	22
638	143	132	GERASSIMOVA ANASTASIA	TALLINN- --	1:16:50.3	N21	61
639		593	PAAPSI SIIM	PAIDE-PAIDE GÜMNAASIUM --	1:16:52.3	M18	24
640		79	ALLIK SIGMAR	JÄRVA-PAIDE GÜMNAASIUM --	1:16:52.9	M16	21
641	144	208	JÄRV TIIU	TARTU- --	1:16:54.4	N45	16
642	145	936	VAABEL KIRSTI	TALLINN- -SPARTA SPORDISELTS-SEESAM INSURANCE AS	1:16:57.1	N35	52
643	146	875	TINNURI LIINA	RAKVERE- --	1:16:59.7	N45	17
644	147	728	ROOPÄRG MARIKA	TALLINN- --	1:17:01.3	N45	18
645		135	GILL PAUL	TILA KÜLA- --	1:17:04.0	M35	150
646		1000	VILT ANDRUS	TARTU- --	1:17:05.2	M21	203
647		98	AUG MARKO	TALLINN- --TEVAL ELEKTROONIKA OÜ	1:17:11.3	M35	151
648	148	788	SIEMANN PIPI-LIIS	TÜRI LINN- -TÜRI SUKELDUJAD-TÜRI VALD	1:17:12.4	N35	53
649		422	LEPP ARE	- --	1:17:14.5	M35	152
650	149	386	LAIDOJA REET	VIIMSI VALD- -KYLVANDU SPORDIKLUBI-	1:17:20.1	N35	54
651		560	NURKLIK RIVO	PAIDE- --	1:17:21.3	M21	204
652	150	395	LASSI KARIN	PAIDE LINN- --VIKING WINDOW AS	1:17:29.1	N18	3
653		227	KAIO MARTIN	JÄNEDA- NÕO REAALGÜMNAASIUM--	1:17:33.3	M18	25
654		527	MÄGI INDREK	TALLINN- --	1:17:34.9	M35	153
655		645	PULLER RANDO	PÄRNU- --	1:17:36.6	M35	154
656		457	LUTS TOOMAS	TALLINN- --EHITISTE VIIMISTLUS OÜ	1:17:38.1	M45	64
657	151	146	HAAPSAL KAIDI	LAAGRI- --	1:17:40.8	N21	62
658		669	PÄRNA RANEL	TALLINN- TALLINNA SAKSA GÜMNAASIUM--	1:17:43.0	M16	22
659		727	ROOG RAIDO	TARTU- --	1:17:44.5	M21	205
660		738	RUZANOV GUNNAR	TALLINN- --SÜKK	1:17:49.1	M45	65
661		976	VEHLMANN JAAN	TALLINN- -JK HERMES-	1:17:53.7	M65	9
662		679	RAMMO SIIM	LAUPA- --	1:17:57.0	M35	155
663	152	66	AINELO HELEN	KÄRDLA- --	1:17:58.5	N21	63
664	153	776	SELISTE INNA	JOOTME- --	1:17:59.4	N35	55
665	154	711	REISEL ASTA	VÄNDRA- --	1:18:05.6	N45	19
666		590	PAALPERE SANDER	PAIDE LINN-PAIDE GÜMNAASIUM --JÄRVA TARBIJATE ÜHISTU	1:18:06.9	M16	23
667	155	919	TÕNNE VIRVE	PÕLTSAMAA- -TALLINNA LENNUJAAMA SK-	1:18:08.6	N35	56
668		804	SIMSON JANAR	TALLINN- --	1:18:09.9	M21	206
669	156	194	JUKNAITE IVI	PAIDE- -PUNAMUST-	1:18:15.5	N35	57
670	157	772	SEIRE PILLE	KAREDA VALD- --VIKING WINDOW AS	1:18:16.7	N35	58
671	158	105	BERNHARDT MAIE	- --	1:18:16.8	N45	20
672		723	ROGENBAUM RIIMO	PAIDE LINN-PAIDE GÜMNAASIUM --	1:18:18.2	M18	26
673	159	353	KUUS MAILA	TARTU- --	1:18:21.6	N35	59
674	160	487	MELESTSENKO NADEZDA	TALLINN- --	1:18:29.5	N21	64
675	161	499	METSALU ELE	HELSINKI- --	1:18:31.0	N21	65
676	162	222	KAASIK KAIRIT	TALLINN- --	1:18:32.9	N35	60
677		1058	SAAVAN RAIDO	JÄRVAMAA- --	1:18:32.9	M35	156
678		896	TORNIK HEIGO	PAIDE LINN-PAIDE GÜMNAASIUM --	1:18:32.9	M13	4
679		285	KIMMEL MADIS	PAIDE- --	1:18:34.1	M21	207
680	163	333	KRUUSAMÄGI KATRIN	KOSE-UUEMÕISA- --	1:18:34.3	N21	66
681		410	LEHTOJA URMAS	RIISIPERE- --	1:18:37.5	M45	66
682		1021	VÄRSI FRED	TARTU- TARTU ÜLIKOOL--	1:18:41.0	M21	208
683	164	1007	VOOGNE TIINA	TALLINN- EWK--	1:18:46.2	N35	61
684		653	PUUSEPP MÄRT	- --SÜKK	1:18:48.4	M21	209
685	165	652	PUUSALU MARI-LIIS	KOHTLA-NÕMME VALD- --SÜKK	1:18:48.4	N21	67
686	166	220	KAASIK BRITA	TARTU- --	1:18:49.5	N21	68
687	167	828	ZIRK GRETE	TALLINN- --	1:18:52.7	N21	69
688	168	707	REINFELD PIRET	PAIDE- --PAIDE LINNAVALITSUS	1:18:53.5	N35	62
689	169	469	MAIDLE MONIKA	PAIKUSE- --	1:18:54.3	N21	70
690	170	400	LAURIMAA MAI	RAPLA- --	1:18:56.8	N35	63
691	171	326	KREEN SAALE	TALLINN- --	1:19:01.4	N21	71
692	172	778	SELTER PILLE	IMAVERE- --	1:19:04.1	N35	64
693		701	REILJAN INGO	TÜRI-TÜRI PÕHIKOOL --	1:19:05.1	M13	5
694		613	PELAPSON RAIN	PÜRKSI-AHULA LASTEAED-ALGKOOL --	1:19:07.8	M21	210
695		948	VAKS TOOMAS	PAIDE- --	1:19:07.8	M21	211
696		283	KIIMAN KAURI	TALLINN- --NORDECON AS	1:19:07.9	M21	212
697		581	OLT ANDRUS	TALLINN-PAIDE GÜMNAASIUM --	1:19:07.9	M21	213
698	173	193	JUHANSON RELIKA	KRIILEVÄLJA KÜLA, PAIDE VALD- --	1:19:11.8	N35	65
699	174	923	TÄÄR KARIN	TARTU- --	1:19:13.6	N21	72
700		555	NUKKE ENDRIK	REOPALU- --	1:19:13.7	M16	24
701	175	74	ALATARE GERTRUD	PAIDE-PAIDE ÜHISGÜMNAASIUM --	1:19:20.9	N18	4
702	176	506	MONIKA LEHTMETS	PÄRNU- -PÄRNU KAHE SILLA KLUBI-	1:19:21.0	N21	73
703	177	987	VETEMÄE LAGLE	TALLINN- --	1:19:29.4	N21	74
704	178	404	LEEDU LY	TALLINN- --	1:19:33.3	N35	66
705	179	726	ROHUSTE REELIKA	RAPLA- --	1:19:36.0	N21	75
706		29	LILLEOJA LAUR	TALLINN- --	1:19:38.9	M21	214
707		298	KIVILAAN AIN	VILJANDI LINN- --ÜHINENUD AJALEHED AS	1:19:40.1	M35	157
708	180	1017	VÄLBA KERTTU	KRIILEVÄLJA KÜLA, PAIDE VALD- --	1:19:40.8	N21	76
709		308	KOLLA PAUL	SAAREPEEDI- -TSK JOOSU-	1:19:41.3	M55	23
710		137	GLASE MARGUS	PAIDE - --STAABI- JA SIDEPATALJON	1:19:44.6	M45	67
711	181	891	TOOMINGAS AVE	VIIMSI- --	1:19:46.0	N35	67
712		425	LIIGAND ANTS	RAMSI- --	1:19:51.4	M45	68
713		649	PUULMANN ERIC	SAUE- --SVEA FINANCE	1:19:55.3	M21	215
714		1065	SALMAR AVO	PÄRNU- --	1:20:00.1	M65	10
715		528	MÄGIN JAAN	VILJANDI- --	1:20:02.8	M45	69
716	182	749	RÜÜTEL SIGRID	- --MTÜ EESTI POSTI SPORDIKLUBI	1:20:04.9	N21	77
717	183	646	PULST KADRI	TALLINN- --	1:20:08.1	N21	78
718	184	604	PARBO MARGE	TALLINN- -SPARTA-	1:20:10.4	N35	68
719		855	TEAS LARS	KIIU- --	1:20:12.9	M35	158
720		803	SIMILÄ LARI	HELSINKI- --	1:20:16.0	M21	216
721		1061	SILBERG MATTI	ELVA- --	1:20:18.0	M55	24
722		666	PÄRI INDREK	TALLINN- --	1:20:20.2	M35	159
723	185	1005	VOLMERSON LIINA	- --	1:20:20.9	N21	79
724		96	ARUTYUNYAN DAVID	TARTU- --	1:20:25.0	M21	217
725	186	525	MÄESEPP HELI	VILIVERE- -SPARTA-	1:20:27.5	N21	80
726		218	KAAS RAUL	TALLINN- --	1:20:27.7	M35	160
727		829	ŽURAVSKI SERGEI	PAIDE- --	1:20:57.0	M35	161
728		622	PIILBERG URMAS	VIIMSI- --	1:20:57.2	M35	162
729		67	AINSOO MEELIS	AARNA KÜLA PÕLVA VALD- --	1:21:02.7	M35	163
730	187	753	SAAR MARJAN	TALLINN- --	1:21:03.7	N35	69
731	188	722	RINNE RIINA	PÕLVA- --	1:21:06.5	N21	81
732	189	127	ERM EVELIINE	VÕRU MAAKOND- --	1:21:17.6	N35	70
733	190	225	KADASTIK VERONIKA	PÕLVA VALD- -LÕUNA POLITSEI SPORDIKLUBI-	1:21:17.6	N21	82
734		946	VAIKSAAR VIDRIK	LELLE ALEVIK- --	1:21:23.9	M21	218
735	191	925	TÜRN TRIINU	HELSINKI- --	1:21:24.1	N21	83
736	192	402	LAURITS LIIS	- --MTÜ EESTI POSTI SPORDIKLUBI	1:21:27.5	N21	84
737		849	TAMMISTE ALLAN	LAAGRI- --	1:21:30.5	M35	164
738		322	KOTSENKOV VLADIMIR	TALLINN- -JK START-	1:21:49.6	M55	25
739		474	MARCINKEVICZ JÜRI	HARJUMAA- -SPARTA-	1:21:56.8	M45	70
740	193	183	JAANI PILLE	- --	1:21:57.8	N35	71
741	194	434	LILLENTHAL JAANIKA	PAIDE- --	1:22:02.8	N35	72
742	195	650	PUULMANN MARI-LIISU	TALLINN- --SVEA FINANTSEERIMINE OÜ	1:22:10.2	N21	85
743		733	ROOTS ANTO	TARTU- --	1:22:11.5	M35	165
744		61	AESMA MADIS	PAIDE- --	1:22:14.0	M21	219
745	196	277	KELDO MARGIT	NÕO- --	1:22:16.3	N35	73
746		1046	KAALEP SIIM	TALLINN- --	1:22:16.4	M35	166
747		579	OLDE KRISTJAN	TALLINN- --VIDEOB OÜ	1:22:18.5	M21	220
748	197	717	RIDALA RIINA	ARDU- --	1:22:21.7	N35	74
749		621	PIILBAUM JANNO	TALLINN- --	1:22:29.7	M35	167
750	198	710	REINULA SIRJE	JÄNEDA- --	1:22:41.3	N45	21
751	199	563	NURMIS PILLE	TALLINN- --	1:22:48.4	N45	22
752	200	805	SIMSON MARET	PAIDE- --	1:22:50.1	N35	75
753		870	TIKK MIHKEL	TALLINN- --	1:22:50.9	M21	221
754		548	NIITSOO JAAN	TALLINN- -RAPLAMAA TUBLID MARATOONARID-TALLINNA TEHNIKAÜLIKOOL	1:22:51.8	M21	222
755		57	ADAMBERG ANTI	TÜRI- TARTU KUTSEHARIDUSKESKUS--	1:22:56.9	M16	25
756		519	MÕTTUS ERKO-HENDRIK	TÜRI-TÜRI PÕHIKOOL --	1:22:57.4	M13	6
757		607	PARROL SILVER	TALLINN- --	1:23:06.6	M45	71
758	201	959	VALLNER KATRE	TALLINN- -FB JOOKSMINE-	1:23:06.9	N35	76
759	202	739	RUUL KAIE	TALLINN- --	1:23:09.9	N21	86
760		573	NÕULIK MARTIN	-PAIDE GÜMNAASIUM --	1:23:16.0	M16	26
761	203	951	VALDMAA HILLE	TALLINN- --	1:23:16.8	N55	4
762	204	658	PÕDRA SIGRID	IISAKU- --	1:23:18.6	N21	87
763		202	JÕGIS MARKO	TÄHTVERE VALD- --AS REOLA GAAS	1:23:27.9	M21	223
764	205	373	KÄÄRST LIINA	KAMBJA VALD- --AS REOLA GAAS	1:23:28.0	N21	88
765	206	629	PILT SIIRI	TARTU- --	1:23:34.5	N35	77
766	207	840	TAMM ANNE-LIIS	TARTU- TARTU ÜLIKOOL--	1:23:34.7	N21	89
767	208	742	RUUL RITI	TALLINN- -HANSA SPORDIKLUBI-	1:23:38.4	N21	90
768	209	744	RUUL SIGRID	LOKUTA KÜLA- --	1:23:38.5	N21	91
769		1004	VOLKE RICHARD	ARUKÜLA- --	1:23:40.9	M14	6
770		801	SILDNIK MARK DANIEL	TALLINN- TALLINNA NÕMME GÜMNAASIUM-NÕMME KERGEJÕUSTIKUKLUBI-	1:23:41.8	M13	7
771		1068	BAYREKDAR ABDELRAHMAN	TALLINN- --	1:23:45.9	M21	224
772		698	REI OLEV	VIISU KÜLA- TALLINNA TEHNIKAKÕRGKOOL--	1:23:51.4	M21	225
773		888	TOOMEJÕE JÜRI	TALLINN- --	1:23:56.3	M55	26
774	210	263	KASELA LIINA	HAAPSALU- --	1:24:06.0	N21	92
775	211	823	SUUR MAICHL	PÕLVA- --	1:24:06.0	N35	78
776	212	423	LESNER SANDRA	TALLINN- --	1:24:06.4	N21	93
777	213	630	PINGE KATRIN	RAE KÜLA, RAE VALD- --	1:24:15.8	N35	79
778		979	VELIN JAN	KOIGI V.-PAIDE GÜMNAASIUM --	1:24:21.2	M16	27
779	214	260	KARU LAURA	LAAGRI ALEVIK- --TAMREX	1:24:22.5	N21	94
780	215	655	PÕDER KAIRE	SÄÄRE- --	1:24:25.6	N35	80
781		771	SEEPÕLD RICHARD	PAIDELINN/JÄRVAMAA-JÄRVAMAA KUTSEHARIDUSKESKUS --	1:24:30.1	M18	27
782	216	318	KOPPEL KRISTA	TALLINN- --	1:24:33.3	N21	95
783	217	289	KIRSIMÄGI SILVA	TÜRI ALLIKU KÜLA- --	1:24:40.2	N35	81
784	218	1051	JÕGI MARIELLE	TALLINN-TALLINNA ÜLIKOOL--	1:24:41.9	N21	96
785		647	PUŠKARJOV PEETER	AAVIKU KÜLA - --	1:24:42.2	M45	72
786		261	KARU REIN	JÕGEVA ALEVIK, JÕGEVA VALD- --	1:24:42.2	M21	226
787	219	1072	RÄPO ANNELIIS	TALLINN- --	1:24:47.2	N21	97
788	220	320	KOSSINKOVA KRISTINA	TARTU- --	1:24:57.0	N21	98
789	221	1069	LOOTUS GERLY	TALLINN- --	1:24:58.7	N35	82
790	222	905	TRUSKA EGLE	MÜÜSLERI KÜLA- TARTU ÜLIKOOL--	1:25:03.4	N21	99
791		577	OJASAAR ARGO	TALLINN- --	1:25:07.0	M35	168
792	223	912	TUNGAL MARE	MUSTLA- --SEB	1:25:07.8	N45	23
793	224	50	AAS JANNE	TALLINN- -NORDEA PANK-	1:25:07.8	N21	100
794		900	TROMM PATRICK	JÄRVA-PAIDE GÜMNAASIUM --	1:25:09.6	M16	28
795	225	940	VAHI KRISTI	TALLINN- --	1:25:17.6	N21	101
796		508	MOVKO OLEG	TALIINN- --	1:25:20.6	M21	227
797	226	479	MATVEJEVA VASSILINA	TALLINN- --TALLINK GRUPP AS	1:25:20.7	N21	102
798		181	IVASK TARMO	KÕRVEKÜLA- --	1:25:29.9	M21	228
799		443	LODI SILVER	TALLINN- --	1:25:35.1	M21	229
800		620	PIHLAK TAIVO	AMBLA-ARAVETE KESKKOOL --	1:25:42.6	M18	28
801	227	540	NAABER MERILI	TARTU- -FB JOOKSMINE-	1:25:42.7	N21	103
802	228	250	KANN KADRI	TALLINN- --	1:25:43.4	N21	104
803	229	795	SIIMSOO EVELY	TÜRI-TÜRI PÕHIKOOL --	1:25:45.3	N35	83
804		949	VALANG VEIKKO	TÜRI LINN- --	1:25:54.3	M21	230
805		1081	KÄRNER PRIIT	TÜRI- --	1:25:54.4	M21	231
806	230	859	TEIDLA KELLY	TALLINN- TALLINNA 21.KOOL--	1:25:56.4	N16	5
807	231	397	LAUR INGA	TÜRI- --	1:26:12.2	N35	84
808	232	1022	VÄÄRTNÕU KATRIN	KADRINA VALD- --	1:26:18.1	N21	105
809	233	704	REIMANN KERTU	SIPA- --	1:26:27.4	N21	106
810	234	388	LAINVOO LINDA	TALLINN- --	1:26:32.5	N21	107
811	235	437	LINDJÄRV ELIZABETH	PAIDE-PAIDE GÜMNAASIUM --	1:26:36.6	N13	4
812	236	983	VESKIMÄE RIINA	PÄRNU- -SPORDIÜRITUSTE KORRALDAMISE KLUBI-	1:26:37.7	N21	108
813	237	615	PERSITSKI HELLE	JÄNEDA- --	1:26:37.8	N45	24
814		920	TÕÕTSU MARKO	KABALA KÜLA- --	1:26:42.9	M21	232
815		80	ALLIKSAAR VALDEKO	VASTEMÕISA VALD, KOBRUVERE KÜLA- --	1:26:50.4	M65	11
816		994	VIISITAM ANTS	TAPA VALD- --	1:26:52.0	M65	12
817	238	504	MIKSON MARI	PAIDE-PAIDE GÜMNAASIUM --	1:27:08.0	N16	6
818	239	697	REEDLA KARIN	TALLINN- --CKE KINNISVARA	1:27:13.9	N21	109
819	240	348	KURG KRISTIINA	TARTU- --	1:27:17.1	N21	110
820	241	677	RAJANDO EMMA ROBERTA	TALLINN- JAKOB WESTHOLMI GÜMNAASIUM--	1:27:30.4	N13	5
821	242	451	LUKAS KELLI	PAIDE LINN-PAIDE GÜMNAASIUM --	1:27:36.7	N18	5
822	243	1075	KORNER KATRIN	TARTU- --	1:27:37.4	N21	111
823	244	675	RAHULAAN KAIDI	PAIDE- PAIDE TÄISKASVANUTE KESKKOOL--	1:27:38.0	N21	112
824	245	557	NURK KATRIN	TALLINN- --	1:27:39.4	N35	85
825	246	219	KAASIK AIGI	PAIDE- --	1:27:41.6	N35	86
826		783	SEPPEL AARNE	TALLINN- --RIIGI INFOSÜSTEEMI AMET	1:27:43.4	M35	169
827		880	TOLL HUGO	TALLINN- --GEOSOFT OÜ	1:27:44.0	M35	170
828	247	585	ORO ULVI	PAIDE- --	1:28:15.1	N35	87
829		224	KADAI TANEL	LAEKVERE VALD- -SK METSASÕBRAD-	1:28:15.2	M35	171
830	248	1078	OJA MARITE	PAIDE-TARTU TERVISHOIU KÕRGKOOL--	1:28:20.5	N21	113
831		1031	ÄMARIK RENE	- --AS KUMA	1:28:25.6	M18	29
832		895	TORNIK ERGO	PAIDE LINN-PAIDE GÜMNAASIUM --	1:28:31.5	M18	30
833	249	516	MUTS MERLIN	VILJANDI LINN- --ÜHINENUD AJALEHED AS	1:28:34.6	N45	25
834	250	417	LEPA TRIIN	PÄRNU LINN- --ÜHINENUD AJALEHED AS	1:28:34.7	N35	88
835	251	1045	KOSKARU NELE-RIIN	HARJUMAA- --	1:28:41.6	N21	114
836	252	708	REINSALU PIRET	TÜRI LINN, TÜRI VALD- --PINDI KINNISVARA	1:28:42.4	N35	89
837		759	SAMUEL TANEL	TALLINN- --PPA	1:28:44.2	M35	172
838	253	491	MERILO RENNE	VÄÄNA-JÕESUU- -JOOKSUPARTNER-CKE KINNISVARA	1:29:04.2	N21	115
839	254	203	JÕGISTE JAANIKA	TALLINN- --	1:29:05.4	N45	26
840	255	884	TOMMULA MARI-LIIS	ALBU-ARAVETE KESKKOOL --	1:29:27.5	N18	6
841	256	882	TOMAST RIINA	PAPSAARE K, AUDRU VALD- --	1:29:45.1	N35	90
842	257	740	RUUL LIISI	SAUE- -EESTI PANGA SK-	1:29:49.1	N21	116
843	258	713	RELVIK MAARJA	SUURPEA KÜLA- --	1:30:07.3	N21	117
844		737	RUSSAK AKO	PAIDE LINN-PAIDE GÜMNAASIUM --	1:30:43.3	M13	8
845		832	TAHIRA ALEXANDRE	SAO PAULO- -EBS DIGGIN-	1:31:03.3	M35	173
846	259	596	PAIMRE KERLI	KÄRU ALEVIK- --	1:31:12.3	N21	118
847	260	190	JATSA ANNI	TALLINN- --	1:31:56.9	N21	119
848	261	391	LARVEN KARIN	PAIDE- --	1:31:59.9	N21	120
849		843	TAMM TIIT	SÕMERU- --ARU GRUPP AS	1:32:01.2	M45	73
850		914	TURRO ANDRES	JÄRVEKÜLA- --	1:32:09.6	M35	174
851		535	MÜNZER SILVER	VÄÄTSA VALD-PAIDE GÜMNAASIUM --	1:32:23.4	M13	9
852	262	1013	VREIMANN LIINA	TÜRI- --	1:32:35.3	N21	121
853	263	1014	VREIMANN TUULI	TÜRI- --	1:32:35.3	N21	122
854	264	761	SANGLA KARIN	- --	1:32:42.9	N35	91
855	265	177	ILVES MARJU	TALLINN- --	1:32:45.2	N35	92
856	266	392	LARVEN TUULI	TÜRI- TARTU TERVISHOIU KÕRGKOOL--	1:32:51.7	N21	123
857	267	944	VAHTRA KATRE	TALLINN- --MTÜ EESTI POSTI SPORDIKLUBI	1:33:06.3	N21	124
858		904	TRUSKA AARE	- --AS KUMA	1:33:07.9	M21	233
859		762	SANGLA MATIS	- --	1:33:15.3	M21	234
860	268	217	KAAL LIISI	TALLINN- --	1:33:20.5	N35	93
861		191	JOA OLEV	TALLINN- --	1:33:28.9	M65	13
862	269	784	SEPPING LEENI	TARTU- --	1:33:33.6	N21	125
863	270	618	PIHLAK JEKATERINA	PAIDE- --	1:33:46.3	N35	94
864	271	468	MAIDLE ESTE	SINDI- --	1:34:32.6	N55	5
865		825	SÜLD SILVER	RAE VALD- --	1:38:45.4	M21	235
866	272	748	RÄÄK ERET	TALLINN- --NORDEA BANK	1:38:45.5	N21	126
867	273	764	SARGANOVA EVELIN	PAIDE- --	1:40:20.6	N21	127
868		839	TAMJÄRV MARTIN	PAIDE LINN-PAIDE ÜHISGÜMNAASIUM --	1:41:25.2	M13	10
869		869	TIISLÄR KARL RASMUS	KOHILA- JAKOB WESTHOLMI GÜMNAASIUM--	1:41:47.7	M13	11
870	274	45	TEEVÄLI LEILI	TARTU- -EKVA-	1:43:30.7	N65	1
871		868	TIISLÄR KARL RAMSES	KOHILA- JAKOB WESTHOLMI GÜMNAASIUM--	1:47:25.5	M13	12
872		1049	PUUSEPP ANDRES	TALLINN- --	1:48:16.6	M55	27
873		524	MÄENURM URMAS	VÄÄTSA-VÄÄTSA PÕHIKOOL --	1:48:16.6	M55	28
874		4	MARKOV ALEKSEI	- -TÜ SPORDIKLUBI-		M21	
875		6	VALLIMÄE VILJAR	TARTU- -SPORTKESKUS.EE-		M21	
876		10	TŠEREPANNIKOV SERGEI	- -STAMINA ARCOTRANSPORT TIIM-		M21	
877		11	SUBI RIVO	VILJANDI- -VAK STAIER-		M35	
878		14	KOSELEV DENIS	- -TÜ SPORDIKLUBI-		M21	
879		20	SASMIN KAUPO	SAKU- -SPORTKESKUS.EE-		M21	
880		21	REINSALU KRISTO	TALLINN- -STAMINA ARCOTRANSPORT TIIM-		M35	
881		23	ERALA RANNO	TALLINN- --		M35	
882		25	MENT RIHO	TALLINN- -FB JOOKSMINE-		M45	
883		47	LUIK LEILA	- -TARTU ÜLIKOOLI AKADEEMILINE SPORIKLUBI-		N21	
884		49	AARNA KASPAR	KOSE- --		M21	
885		59	ADAMSON MARIS	VAO KÜLA- --		N21	
886		64	AHU MARGIT	KUREMÄE- --		N21	
887		71	ALAJAAN AIRE	TÕRVANDI- --FAZER EESTI AS		N21	
888		81	ALT TARMO	PAIDE LINN- --		M45	
889		82	ALTKÜLA HELEN	TALLINN- --GRANT THORNTON RIMESS OÜ		N21	
890		87	ANDRESSON MART	TARTU- -TÜASK-		M21	
891		89	ANNILO MIHKEL	TALLINN- --		M21	
892		91	ANSPER AVE	TARTU- -TARTU VALLA SPORDIKOOL-		N18	
893		97	ASTOR ANDO	ÜLENURME- --AS REOLA GAAS		M35	
894		99	AUNPU KEN	TALLINN- --		M45	
895		110	DIANOV ARTUR	TALLINN- --AS REOLA GAAS		M21	
896		111	DOBOLINA TATJANA	TALLINN- --		N21	
897		117	EINASTO MART	TARTU- --		M35	
898		120	ELLRAM LAURI	IMAVERE- -PAIDE LINNAMEESKOND-		M21	
899		121	EMMUS SANDER	TÜRI-TÜRI PÕHIKOOL --		M13	
900		126	ERLENHEIM KARL	KEILA- --		M21	
901		130	ESPERK TAAVI	TALLINN- --SÜKK		M21	
902		144	GUSSEV RAIN	LOKSA- --		M21	
903		149	HALLA DIANA	VIIMSI VALD- GAG-LEKSI44-		N18	
904		155	HANNUS HEDI	- --		N35	
905		160	HEINARU JANNE	KOHILA- -SPORDIÜRITUSTE KORRALDAMISE KLUBI-		N21	
906		176	ILVES ELIN	TARTU- --		N45	
907		192	JOONASSON RAUL	TARTU- --		M35	
908		198	JÕEMETS AIVO	RAKVERE- -TEAM30+-		M35	
909		205	JÄME ANNALIISA	LAIUSE- --		N21	
910		211	JÜRGENSON ERIKA	TALLINN- -21CC TRIATLONIKLUBI-		N35	
911		212	JÜRIADO JUHAN	TALLINN- --		M21	
912		215	JÜRISSON JOHANNES	JÄRVA-PAIDE GÜMNAASIUM --		M16	
913		228	KAIRITE INNA	RANNAMÕISA KÜLA, HARKU VALD- --		N21	
914		229	KAIRITE INNA	HARJUMAA- --		N21	
915		231	KALA KATRIN	PAIDE- --		N35	
916		233	KALAJAS HANNA	TARTU LINN- TARTU ÜLIKOOL--		N21	
917		234	KALDA KRISTER	TALLINN- --		M35	
918		236	KALDA RUTH	- -TÜ SPORDIKLUBI-		N45	
919		239	KALJUVEE JANNO	TALLINN- -JOOKSUPARTNER-		M35	
920		246	KAMS UKU	AASPERE- -SK AASPERE-		M18	
921		254	KARIN PEETER	ELVA- --		M21	
922		258	KARU KARMO	TÜRI-TÜRI PÕHIKOOL --		M13	
923		259	KARU KRISTINA	PAIDE LINN-PAIDE ÜHISGÜMNAASIUM --		N18	
924		264	KASELA TAAVI	TALLINN- -ERAVÕISTLEJA-		M21	
925		266	KASESALU KRISTA	PÄRNU- --		N35	
926		276	KEIV INVER	TALLINN- -JOOKSUPARTNER-		M21	
927		280	KESKKÜLA KAROL	HAABNEEME- --		M35	
928		288	KIRPU PEETER	TALLINN- --TALLINN		M55	
929		292	KIRSPUU KARMO	SAKU- --		M21	
930		293	KIRSPUU RISTO	TALLINN- --		M21	
931		294	KIRSS IAN MIKAEL	TALLINN- --		M21	
932		295	KISAND MARTIN-LEO	TARTU- --		M21	
933		296	KIZANT KAIDO	TALLINN- --		M35	
934		302	KIVISTIK ELERI	TARTU- -KLUBI: FB JOOKSMINE-		N21	
935		303	KLAOS SANDER	TALLINN- -NORDEA SPORDIKLUBI-		M21	
936		309	KOLLOM SANDER	- --		M35	
937		323	KRAAV HENDRIK	PAIDE-PAIDE ÜHISGÜMNAASIUM --		M14	
938		339	KUKK AALO	TALLINN- -EESTI PANGA SK-		M55	
939		340	KUKK AIME	TALLINN- --		N65	
940		342	KUKK KASPAR	JÕGEVA- -SK KEREMEISTER-		M21	
941		344	KUKK MEELIS	PÄRNU- -JÕULU-		M45	
942		347	KUMMER MARI	KOHILA- -SPORDIÜRITUSTE KORRALDAMISE KLUBI-		N21	
943		351	KUTTI KULDAR	HARJUMAA- --		M35	
944		359	KUUSIK MAIE	TALLINN- -LILLEPALLID/JOOKSUPARTNER-		N35	
945		362	KUUSK KRISTJAN	KOSE/VARDJA- --		M21	
946		366	KÕIV SIGNE	HAABNEEME ALEVIK, VIIMSI- --E BUTIIK		N21	
947		372	KÄRPUK ANDRUS	PÄRNU- --		M45	
948		375	KÖÖP KADRI	HARKU VALD- --		N35	
949		382	LAASU ARNOLD	PÄRNU- -SK SAARDE-		M45	
950		390	LAND LIINA	TARTU VALD- -SKAUT-		N21	
951		396	LAUER KRISTI	KEHRA- --		N35	
952		409	LEHTLA REIGO	TALLINN- -LSF PT-		M35	
953		414	LEISALU SIIM	HARJUMAA- --		M21	
954		419	LEPIK MAREK	TARTU- --		M35	
955		429	LIIVRAND EERO	TALLINN- --		M45	
956		433	LILLEMÄGI INDREK	PÕLVA- --		M21	
957		452	LUKIN VAHUR	SAKU- -LEKSI 44-		M21	
958		465	LÜKK MERLYN	TALLINN- --		N21	
959		476	MARRANDI VILJO	TÜRI VALD- --		M21	
960		481	MAURER RAIM	VIHULA VALD- -SK AASPERE-		M18	
961		496	METS MADIS	TALLINN- -TOILA-		M21	
962		500	METSAOTS TÕNIS	TARTU- --		M21	
963		501	METSNIK JAANUS	PAIKUSE ALEV- -ELIONI SPORDIKLUBI-		M21	
964		507	MOONEY TRISTAN	TALLINN- -ELUJOOKS-		M16	
965		511	MUMM JAANUS	TALLINN- --AS REOLA GAAS		M35	
966		514	MUSTONEN MAREK	PÄRNU- --		M35	
967		520	MÕTTUS OLAV	IMAVERE- --		M21	
968		523	MÄEKÜLA HEIKI	TALLINN- -ELIONI SK-		M21	
969		526	MÄGI ENN	- -STAMINA SK-		M45	
970		531	MÄNNIK AURIKA	TALLINN- --		N21	
971		533	MÄTAS EGLE	TARTU- -TÜASK-		N21	
972		556	NUMMERT ANDRUS	LAULASMAA- --		M35	
973		561	NURMBERG AIGAR	TALLINN- --		M21	
974		562	NURMELA RENNO	VILJANDI- -TARVASTU-ROCMAR GRUPP		M45	
975		570	NÕMMIK RAIVO	TALLINN- -SPORDIÜRITUSTE KORRALDAMISE KLUBI-		M35	
976		574	OAGO REINO	TALLINN- --		M21	
977		576	OJAMAA EDIT	TALLINN- --		N21	
978		583	ORGMETS KATI	VANTAA- --		N21	
979		586	ORULA SILJA	TARTU- --		N21	
980		588	OTT ARDO	KOERU VALD- --VIKING WINDOW AS		M13	
981		610	PAULUS SILJA	KEILA- -ELUJOOKS-		N21	
982		611	PAUMVERK TARVO	TALLINN- --VIKING WINDOW AS		M35	
983		626	PIIRSALU AIVO	KOERU- --		M21	
984		627	PILDER KAUPO	HARJUMAA- -SS MARATHON-		M21	
985		628	PILLI MOONIKA	RAKVERE- --		N21	
986		631	PIRN ANNE	TARTUMAA- --		N35	
987		632	POLDING GRETE	RAPLA- --		N35	
988		634	POPELL JANEK	TALLINN- -SPORDISELTS-MTÜ SPORDISELTS		M35	
989		639	PRIIMÄGI STEN	TÜRI VALD-LAUPA PÕHIKOOL --		M13	
990		640	PRIKS HANNO	OTEPÄÄ- -VAK STAIER-		M45	
991		643	PUIESTIK PEEP	VÄNDRA- --		M35	
992		661	PÕLDOJA MIHKEL	TALLINN- --		M21	
993		665	PÄLL ERKI	TARTU- --		M21	
994		667	PÄRN PIRET	ÜLENURME VALD- --		N21	
995		674	RAHI INDREK	TALLINN- --		M45	
996		682	RANDMAA KATRI	TALLINN- --		N35	
997		689	RAUDSEPP HELDI	ROOBUKA- --POLITSEI- JA PIIRIVALVEAMET		N21	
998		694	REBANE RAILI	TALLINN- --		N21	
999		695	REBANE RAIT	TALLINN- --		M21	
1000		700	REIGO MARI-LIISA	TALLINN- --		N21	
1001		731	ROOSIPUU NELE	ÜLENURME- --		N21	
1002		735	ROUHIJAINEN MADIS	KEILA-JOA- -JOOKSURIIDED.EE-ROHI & SASI OÜ		M21	
1003		745	RÄBOKON TARVO	TALLINN- --		M21	
1004		746	RÄBOVÕITRA CÄTLIN	SAKU VALD- --		N21	
1005		747	RÄTSEPSO MIRJA	VILJANDI- --		N21	
1006		760	SANDERMAT KALEV	TÜRI- --		M55	
1007		766	SATSI ÜLLAR	TALLINN- --		M21	
1008		775	SELGEVEER KRISTEL	VÄIKE-MAARJA- --		N21	
1009		779	SEMPELSON SVEN	PÄRNU- --		M35	
1010		781	SEPP KERTTU	TALLINN- TARTU ÜLIKOOL--		N21	
1011		787	SIEMANN ALAR	TÜRI LINN- -TÜRI SUKELDUJAD-JKHK		M35	
1012		790	SIIAK INDREK	- --		M35	
1013		794	SIIM ANDRES	PÄRNU- -SK SAARDE-		M35	
1014		796	SIKK ERIK	ARUKÜLA- --		M35	
1015		797	SIKK MIINA	LAAGRI ALEVIK- --		N21	
1016		798	SIKKA TOIVO	TARTU- --		M45	
1017		807	SIMSON PRIIT	TALLINN- -ELVA JOOKSUSARI-		M35	
1018		810	SNITSARENKO TARASS	MAARDU- -EESTI PANGA SK-		M21	
1019		811	SOIDLA KADI	TARTU- --		N21	
1020		812	SOO HANNES	TALLINN- --WILO TEAM		M35	
1021		814	SOOMRE TEET	TARTU- --		M35	
1022		815	SOOSAAR KRISTINA	VÄNDRA VALD- --		N21	
1023		817	STALLMEISTER ARGO	TALLINN- --ITK INSENERIBÜROO		M21	
1024		819	SUITS EDA	HARJUMAA- --		N21	
1025		830	TAAL ASKO	KAREDA VALD- --VIKING WINDOW AS		M18	
1026		834	TALU ANU	PÄRNU- -WESTLINE TEAM-		N45	
1027		841	TAMM INDREK	HAABNEEME- --		M21	
1028		842	TAMM SIIRI	KASEMETSA KÜLA- --HARVIKER OÜ		N35	
1029		852	TASA TÕNIS	TARTU- --		M21	
1030		856	TEDER ERKI	JÕGEVA- --		M35	
1031		857	TEDREMA ANNI	HARJUMAA- --		N21	
1032		864	TEREŠTŠENKOVA LAADA	TALLINN- SIKUPILLI KOOL-LNSK KREŠTŠATIK-		N14	
1033		876	TIPP ARGO	PAIDE- --		M21	
1034		879	TOLK TRIINU	TALLINN- -EAS-		N21	
1035		885	TOMP AHTI	TALLINN- --		M21	
1036		889	TOOMESOO LAURA	PÄRNUMAA- -PÄRNU KAHE SILLA KLUBI-		N21	
1037		892	TOOMINGAS JAAN	SAUE- --		M35	
1038		893	TOOMINGAS TERJE	SAUE- -SK STAMINA-		N21	
1039		898	TREFFNER KADRI	KROOTUSE- -KÕLLESTE SPORDIKLUBI-		N21	
1040		901	TROOST ANDRE	TÜRI VALD-LAUPA PÕHIKOOL --		M13	
1041		908	TUBALKAIN MARGUS	- -STAMINA SK-		M45	
1042		915	TUUR TAAVI	TARTU- --		M21	
1043		921	TÄHT STELLA	TALLINN- --SÜKK		N21	
1044		924	TÜRKSON ARNE	TARTU- -SUUSAHULLUD-		M45	
1045		932	URVA URMAS	KERNU- -STAMINA-ISB		M35	
1046		941	VAHKAL KAIDO	TARTU- -FB JOOKSMINE-		M35	
1047		943	VAHTER MART	KABALA- --		M21	
1048		947	VAINOS MARGO	KABALA KÜLA-KABALA PÕHIKOOL --STORA ENSO		M21	
1049		950	VALDMAA ANTS	TALLINN- --		M65	
1050		955	VALGE GÄTLY	VÕRU- --		N21	
1051		957	VALK JAANUS	VÄIKE-MAARJA ALEVIK- --		M21	
1052		962	VANNAS TARMO	TALLINN- --		M21	
1053		969	VEELMA MARJU	KOERU VALD- --VIKING WINDOW AS		N21	
1054		972	VEEREMÄE ÜLLE	TALLINN- --		N21	
1055		973	VEERMÄE JOEL	TALLINN- --SÜKK		M35	
1056		975	VEERPALU GERT	TALLINN- --KREDEX KREDIIDIKINDLUSTUS AS		M35	
1057		981	VESIALLIK STEN	TALLINN- --		M21	
1058		988	VETEVOOG KAIDO	TALLINN- --		M35	
1059		989	VIHERPUU HANNES	HAABNEEME- --		M35	
1060		992	VIILIPUS MART	ELVA- --		M21	
1061		996	VIKAT JARMO	KEHRA- --		M16	
1062		999	VILMRE HENRI	JÄRVA-PAIDE GÜMNAASIUM --		M16	
1063		1006	VOLT LIIVI	TALLINN- --		N21	
1064		1025	ÕIGLANE JAAN	VÄNDRA- --		M45	
1065		1026	ÕIGLANE TERJE	VÄNDRA- --		N45	
1066		1034	ÜÜRIKE HANS	TALLINN- --		M21	
1067		1038	SMIRNOV DMITRY	TALLINN--SPORTLAND EESTI AS-		M21	
1068		1039	RASPEL RASMUS	TALLINN--SPORTLAND EESTI AS-		M21	
1069		1040	VÕRNO MERSIN	TALLINN--SPORTLAND EESTI AS-		M21	
1070		1054	ANTONS EVE	TALLINN- --		N35	
1071		1055	TELLING URMAS	TALLINN- --		M45	