Koht	Nr	Nimi	Firma	Klubi	Aeg	Vkl	Vkl_koht	 
1	270	ÕIGLANE JAN	Metsajuku OÜ		0:22:17	MN	1	 
2	187	KOšELEV DENISS		TÜ ASK	0:23:33	M	1	 
3	67	SALININ ANTON		KJK Kalev Sillamäe	0:24:27	MJ	1	 
4	856	PATJUK JEKATERINA		TÜASK	0:25:01	N	1	 
5	643	KRAAS ANDREAS			0:25:12	M	2	 
6	190	KOSKINEN MARKO		ÄKKE	0:25:41	PA	1	 
7	921	MIASNIKOV JURII			0:25:49	M45	1	 
8	774	ŠALKAUSKAS DENISS		VISA	0:25:51	PA	2	 
9	946	TIIKSAAR AARO			0:26:28	M	3	 
10	963	BLINOV ANDREI			0:26:37	M	4	 
11	953	AGAPOV VIKTOR			0:26:47	M40	1	 
12	359	SOBOLEV JURI			0:26:59	M45	2	 
13	804	ARNAUD XAVIER	Alstom FR		0:27:11	M	5	 
14	855	POLL CRIS	Haka Plast OÜ	Estonian Ultrarunners	0:27:15	M	6	 
15	98	BULINA JULIA		KJK"Kalev" Sillamäe	0:27:17	N	2	 
16	71	AGEEV IGOR			0:27:49	M	7	 
17	689	TOOM KARL			0:27:58	PA	3	 
18	952	NEIMAR RAUL			0:28:01	M	8	 
19	96	BOROVKOV PAVEL	Eesti Energia		0:28:03	M	9	 
20	409	VASSILJEV ALEKSANDR	EE Kaevandused	Kaevanduste Spordiklubi	0:28:04	M50	1	 
21	647	MAASIK LAURA		Nõmme KJK	0:28:50	NN	1	 
22	204	PAVLJUK ALEKSANDER		KJK "Kalev" Sillamäe	0:29:02	PA	4	 
23	325	ŠADRIN ALEKSEI	Eesti Energia		0:29:09	M	10	 
24	100	DMITRI VORONIN	eesti energia	kaevandiste spordiklub	0:29:11	M40	2	 
25	368	SUSLOV MIHHAIL	EE Kaevandused	Kaevanduste Spordiklubi	0:29:14	PA	5	 
26	542	KULBAS OLIVER			0:29:15	M	11	 
27	552	DUBOV MANFRED			0:29:16	M	12	 
28	971	FEDOROV TARAS			0:29:20	M40	3	 
29	788	PIISKOPPEL TAANIEL	Kirde KRK Pioneeripataljon		0:29:20	MJ	2	 
30	969	KOTISOV PAVEL			0:29:25	MJ	3	 
31	899	PERE RENE	Saku Õlletehase AS	Saku Õlletehase spordiklubi	0:29:28	M50	2	 
32	582	VSIVTSEV MART		Äkke	0:29:36	PA	6	 
33	713	KARLÕšEVA ALJONA		CD24h	0:29:37	N	3	 
34	83	ANDREJEV ILJA			0:29:39	M	13	 
35	955	ROBERT JIMMY			0:29:44	M	14	 
36	719	MÕTTUS TANEL	Eesti Energia Võrguehitus	OK Võru	0:29:45	M	15	 
37	916	KOSTETSKLY SERGEY			0:29:45	M	16	 
38	894	KHRAMKOV NIKITA			0:29:53	PA	7	 
39	219	LEIBENAU MATIS	Elektrilevi OÜ	Eesti Energia Spordiklubi	0:30:00	M	17	 
40	813	DONNELLY KYLE	USA Armee		0:30:13	MN	2	 
41	794	KIVI LIINA		SK Jooksupartner	0:30:13	N	4	 
42	550	VISSEL HENDRIK	EE Võrguehitus AS		0:30:16	M	18	 
43	917	KHRENNIKOVA OLGA			0:30:17	N	5	 
44	861	VOLOSSATOV ILJA		KJK "Kalev" Sillamäe	0:30:23	PA	8	 
45	806	OVTSHINIKOVA KSENIA			0:30:30	N	6	 
46	792	VESKIMETS ANDRI	Kirde KRK Pioneeripataljon		0:30:34	MN	3	 
47	299	PRIBÕLOVSKAJA KSENIA		ÄKKE	0:30:34	PB	1	 
48	962	DIBOV ARTUR			0:30:39	MN	4	 
49	569	KOLOTÕGIN VLADIMIR			0:30:47	M	19	 
50	660	ÕIGLANE JANEK		Audentes	0:30:55	MJ	4	 
51	189	KOSKINEN KRISTJAN		ÄKKE	0:30:56	MJ	5	 
52	44	KRIISK EDGAR	Eesti Energia Võrguehitus AS	Eesti Energia Spordiklubi	0:30:56	M	20	 
53	594	DMITRIJEV ANDREI		Äkke	0:31:02	M45	3	 
54	968	BONDAREV ARTEM			0:31:05	M	21	 
55	498	KIVIMAA HERLET			0:31:10	M	22	 
56	394	TSÕGANOVA ELIZAVETA		ÄKKE	0:31:12	PB	2	 
57	387	TIKVA PIRET			0:31:14	N	7	 
58	818	MCCONACHIE PATRICK	USA Armee		0:31:17	MN	5	 
59	333	SAVTšENKO KSENIA		KJK"Kalev" Sillamäe	0:31:18		1	 
60	168	KARULA KEITH			0:31:19	MJ	6	 
61	682	SKRABUTENAS DENISS			0:31:20	PA	9	 
62	123	HÕBEJÕGI TIIT	Elektrilevi OÜ	Eesti Energia Spordiklubi	0:31:20	M	23	 
63	364	SURAZAKOVA IRINA			0:31:23	NN	2	 
64	620	TUNJOVA GEORGI			0:31:32	PA	10	 
65	851	KALA TIINA			0:31:32	N	8	 
66	787	LAUR LEO	Kirde KRK Suurtükiväepataljon		0:31:34	PA	11	 
67	453	BOGOMOLOV VITALI	Elektrilevi OÜ	Eesti Energia spordiklubi	0:31:37	M	24	 
68	490	MÜÜDLA HELIN		Alutaguse SK	0:31:38	PB	3	 
69	384	TIHANE JAANIS			0:31:45	M	25	 
70	732	KITS OLIVAR	Kirde KRK Staap		0:31:47	M40	4	 
71	171	KASKA MARKO			0:31:48	M	26	 
72	45	PÕLLU AIVAR	Eesti Energia Võrguehitus AS	Eesti Energia Spordiklubi	0:31:51	M	27	 
73	58	VOLOSHIN JEVGENI		FIRN	0:31:51	M60	1	 
74	970	FEDOROVA EKATERINA			0:31:54	N	9	 
75	777	NAEL PAUL		SK Schnelli	0:31:55	MJ	7	 
76	731	KAMENSKI ANDREI			0:31:57	M	28	 
77	275	ÖÖPIK KRISTJAN			0:31:57	M	29	 
78	523	VÕLEGZANIN VLADIMIR	eesti energia rftvandus		0:31:57	M55	1	 
79	651	ALLIK MIRJAM			0:31:58	N	10	 
80	342	SHURÕGIN ALEKSANDR	EE Kaevandused	Kaevanduste Spordiklubi	0:32:01	M40	5	 
81	398	UMRIHHIN VJATSESLAV		Eesti Energia	0:32:03	M50	3	 
82	208	LAANEOTS LIVIAN		WWII	0:32:03	N40	1	 
83	965	LOGINOV VJATSESLAV			0:32:06	M	30	 
84	358	SKATšKO DMITRI			0:32:07	M	31	 
85	801	KULIKOV DANIIL			0:32:09	MJ	8	 
86	717	MIKK SILJA			0:32:10	N45	1	 
87	46	LESHIHHIN ROMAN	OU Rik-Suur	Narva Extrem	0:32:14	M40	6	 
88	501	LEPIKULT TOOMAS	IT Kolledž	Elioni Spordiklubi	0:32:15	M50	4	 
89	692	LUUK ELE	Kohtla-Nõmme Vallavolikogu		0:32:17	N	11	 
90	422	VIRKUS KARMEL			0:32:17	PB	4	 
91	823	STAPANOWICH BETHANY	USA Armee		0:32:19	NN	3	 
92	184	KORDMAA HENRY			0:32:25	M	32	 
93	6	LAINVOO KERSTI	Erdike Tekstiil OÜ		0:32:26	N50	1	 
94	497	HEINSAAR ANTS			0:32:28	M	33	 
95	59	ERIK ALLAR			0:32:32	MJ	9	 
96	225	LEPP VEIKO			0:32:33	M	34	 
97	54	TšUDAJEV VLADIMIR	Trükikoda Koit		0:32:37	M	35	 
98	924	NISLONI PRIIT			0:32:37	M	36	 
99	710	ERS HEIGO			0:32:38	MJ	10	 
100	706	STOLFAT ARTUR			0:32:39	MN	6	 
101	380	TANK EERIK		Väike-Maarja ÕK	0:32:49	MJ	11	 
102	197	KRUSHATINA ANNA		SK Energia	0:32:51		2	 
103	956	PIHEL MICHEL			0:32:53	M	37	 
104	404	VALANG ANN		KSK Alem	0:32:56	N	12	 
105	318	RILLO MARTI	Eesti Energia		0:33:02	M	38	 
106	401	VAHEMAA OLEV	Aatrium Sisustuskaubamaja nr.1	Aatruium	0:33:02	M	39	 
107	258	MÕISTUS MERLIN			0:33:02	N	13	 
108	704	METSAORG BEATRICE		Maria jooksuklubi	0:33:05		3	 
109	141	JEFIMOV DANIEL			0:33:05	MJ	12	 
110	419	VIKMAN IVAN	Elektrilevi	EE Spordiklubi	0:33:05	M	40	 
111	852	LUHALAID VEIKKO	Vaivara Vallavolikogu		0:33:09	M40	7	 
112	65	SERGEJEV ROMAN	ee kaevandus estonia		0:33:10	M	41	 
113	753	NUGIS TARMO	TK-Team AS		0:33:12	M45	4	 
114	278	ÕUNAP URMAS			0:33:14	M45	5	 
115	687	OJALA RAIN			0:33:14	M40	8	 
116	562	PANTELEJEV MAKSIM	GT Corporation SE		0:33:15	M	42	 
117	849	BOLOTINA ALINA			0:33:18	PB	5	 
118	733	LOSSEV VLADIMIR		CLASSIC RIDERS	0:33:20	M	43	 
119	630	FETISOV STANISLAV	OÜ PMTK RAHU	Tennisekludi FARTUNA	0:33:22	M50	5	 
120	838	AVILA ANDER	DDB Eesti		0:33:22	M	44	 
121	242	MAMEDOVA SAINA		KJK"Kalev" Sillamäe	0:33:23	PB	6	 
122	853	PEEL RAUNO	Saku Õlletehase AS	Saku Õlletehase spordiklubi	0:33:24	M	45	 
123	977	BAHHAJEV DENISS			0:33:25	M	46	 
124	819	MURPHY JAMES	USA Armee		0:33:30	MN	7	 
125	911	NOOL ERKI			0:33:30	M40	9	 
126	793	KAIGAS EINAR		SK Jooksupartner	0:33:39	M	47	 
127	95	BOITSOV VADIM	Eesti Merevägi		0:33:40	MN	8	 
128	170	KASKA HARDY		Loo Jalgpalliklubi	0:33:43	PA	12	 
129	786	LAAS GERT	Kirde KRK Suurtükiväepataljon		0:33:49	PA	13	 
130	381	TEESALU LEMBIT		Mikitamäe Aironmään Klubi	0:33:50	M	48	 
131	175	KODOTšIGOV PAVEL	TÜ Narva Kolledž	MyFitness	0:33:52	M	49	 
132	880	PASSMANN BERND-KRISTOF			0:33:54	MJ	13	 
133	711	HOžAILOV BORISS	Eesti Merevägi		0:33:54	M	50	 
134	4	TIIKSAAR AARO		5XA	0:33:57	M	51	 
135	590	SUBBOTIN DANIL		Äkke	0:33:58	PA	14	 
136	674	VASSILJEV ALEKSEY			0:33:58	M	52	 
137	795	LUIDE SILJA		SK Jooksupartner	0:34:02	N	14	 
138	821	ROSS JOSEPH	USA Armee		0:34:02	MN	9	 
139	816	MARTIN PHILLIP	USA Armee		0:34:02	MN	10	 
140	11	KLEIMANN TARMO	Astri-Narva AS		0:34:06	M	53	 
141	412	VERTJAKOV ARTUR	Eesti Energia		0:34:09	M	54	 
142	360	SOKOLOV JEVGENI		Firn	0:34:11	M70	1	 
143	883	TROFIMOV JURI			0:34:12	M	55	 
144	685	SAAR LIISI		SK Jooksupartner	0:34:12	N	15	 
145	303	PUUSEPP ANDRA	Tallinna Nõmme Põhikool		0:34:18	N40	2	 
146	951	PROKOFJEV MIKHAIL			0:34:19	M40	10	 
147	260	MUIZNIEKS SERGEI	Saros EST		0:34:21	M	56	 
148	462	HÜTT TAURI	EestiEnergia Tehnoloogiatööst.		0:34:23	M	57	 
149	966	KÄRNER KRISTJAN			0:34:28	M	58	 
150	833	RAIDMA ROLAND		Jõhvi spordikool	0:34:28	PA	15	 
151	783	TUISK KRISTIN	Saku Õlletehase AS	Saku Õlletehase spordiklubi	0:34:29	N	16	 
152	316	RIIVES MARILIN		Tartu Kalev	0:34:30	PB	7	 
153	317	RIIVES MARTIN		Tartu Kalev	0:34:30	PA	16	 
154	291	POMERANTS KAREL			0:34:31	M	59	 
155	340	METS MAIKEN	Elektrilevi	EE SK	0:34:32	N	17	 
156	615	KASAK RIHO		KAITSELIIDU VIRU MALEV	0:34:33	M55	2	 
157	499	ENN KAIRI		Elioni SK	0:34:34	N	18	 
158	296	PRATKUNAS ANTON	Tartu Ülikooli Narva kolledž		0:34:36	M	60	 
159	891	KIVISELG ALLAN			0:34:39	M	61	 
160	560	TASANE RAIN			0:34:42	PA	17	 
161	954	PÄRK SIIM			0:34:42	MN	11	 
162	305	RANDOJA MATI			0:34:43	M60	2	 
163	306	RANDOJA TOOMAS			0:34:43	M	62	 
164	973	BOGDANOV SERGEI			0:34:44	M	63	 
165	177	KÕIVIK ELARI		Tartu MyFitness	0:34:44	PA	18	 
166	467	MÄRTSON EVELIN	AS Ida-Tallinna Keskhaigla	Spordiklubi	0:34:45	N	19	 
167	252	MIHHAILOV EDUARD	Eesti Energia Narva Elektrijaa		0:34:48	M40	11	 
168	17	MÄNDLA MARE			0:34:48	N45	2	 
169	290	POLJAKOVA NADEŽDA		FIRN	0:34:49	N65	1	 
170	782	TEMPER RAIDO	Saku Õlletehase AS	Saku Õlletehase spordiklubi	0:34:51	M	64	 
171	362	STSENOV GLEB	ZeroTurnaround		0:34:52	M	65	 
172	425	VÕHMAR KRISTI			0:34:52	N	20	 
173	762	ŠALAJEV ALEKSANDR			0:34:56	M50	6	 
174	949	PANTSEV SERGEI			0:34:57	M50	7	 
175	135	JAKOVLEVA OLGA	FIE Olga Jakovleva	SK Narva FIRN	0:35:00	N55	1	 
176	521	TEETLOK ANDREI			0:35:05	MN	12	 
177	781	SAAR ANNELY	Saku Õlletehase AS	Saku Õlletehase spordiklubi	0:35:06	N	21	 
178	770	KLEIMANN RANDO	Astri-Narva AS		0:35:08	PA	19	 
179	846	KURILOV RICHARD			0:35:09	PA	20	 
180	97	BOTŠTARJOVA ALINA		Äkke	0:35:10	PB	8	 
181	572	NESTEROV ANDREY	EE töötaja	NEJ spordiklubi	0:35:11	M50	8	 
182	676	VALGE LILIAN			0:35:11		4	 
183	654	NESTEROV NIKITA	EE KAASLANE		0:35:14	MN	13	 
184	828	YAKABE CLAIRE	USA Armee		0:35:16	NN	4	 
185	232	LOPATKIN ALEKSANDR			0:35:21	M60	3	 
186	339	ŠEREMETOVA JULIA			0:35:22	N	22	 
187	79	ALLA JOEL	Ida prefektuur	Virumaa Politsei SS	0:35:23	M40	12	 
188	185	KORITS KAIMAR	Elektrilevi	Eesti Energia	0:35:24	M	66	 
189	511	MAISTE JANAR	Põltsamaa Ühisgümnaasium		0:35:26	PA	21	 
190	149	JÜRIÖÖ JAAN	Eesti Energia		0:35:27	M45	6	 
191	797	METS ANNIKA		SK Jooksupartner	0:35:30	N	23	 
192	790	VEE OTT	Kirde KRK Suurtükiväepataljon		0:35:31	MN	14	 
193	128	IRVES MERILIIN		Ekstreempark	0:35:33		5	 
194	483	GRIDIN DMITRY		Azimut	0:35:33	M40	13	 
195	126	IAGUDINA ALJONA		ÄKKE	0:35:34	N	24	 
196	925	RUZANOV GUNNAR		SÜKK	0:35:36	M	67	 
197	400	UUSTALU AVE		Alutaguse SUKL	0:35:37	NJ	1	 
198	284	PAVLOVA VIOLINA		ÄKKE	0:35:39	PB	9	 
199	1	RÄIM VEIKO	Eesti Energia	Eesti Energia Spordiklubi	0:35:39	M	68	 
200	63	VELBA TAIMI			0:35:40	N	25	 
201	308	RAUD SIGRID	Samres AB		0:35:41	N	26	 
202	738	VADI ERIK			0:35:45	PA	22	 
203	748	MAIMISTOVA DIANA			0:35:48	N	27	 
204	683	SARAPUU MARIO			0:35:48	M	69	 
205	769	TODOSENKO ARTURS			0:35:49	PA	23	 
206	972	KULITSKAJA ALEKSANDRA			0:35:50		6	 
207	164	KARJA ARTJOM	Eesti Energia		0:35:51	M	70	 
208	413	VICHTERPAL TANEL	Eesti Energia		0:35:51	M	71	 
209	869	TAMME RAIDO		Jõhvi motoklubi	0:35:52	M	72	 
210	132	IZOTOV MIRON	Larossa Grupp OU		0:35:59	PA	24	 
211	461	BONDARENKO MARIA	Eesti Energia		0:35:59	N	28	 
212	763	SMORODIN MAKSIM			0:36:00	MJ	14	 
213	848	LEOSTE DIANA			0:36:01	N	29	 
214	259	MÕISTUS ROBERT KLEN			0:36:02	PA	25	 
215	751	NIGLAS MARIETHE-PIRET		Alutaguse SK	0:36:03		7	 
216	474	TURKIN VIKTOR	Hansa Law Offices		0:36:05	M45	7	 
217	726	TSIRP TANEL		JK Narva Trans	0:36:06	PA	26	 
218	481	TINKUS ANDRES		Kahe Silla Klubi	0:36:07	M	73	 
219	825	STEINDLER PAUL	USA Armee		0:36:07	MN	15	 
220	583	VSIVTSEV VJATŠESLAV		Äkke	0:36:08	M40	14	 
221	589	VSIVTSEV IVAR		Äkke	0:36:08	PA	27	 
222	428	YURLOV SERGEY		Eesti Energia	0:36:12	M45	8	 
223	169	KARULA KERT			0:36:17	M	74	 
224	466	LEES ÕNNE	Eesti Energia AS	Eesti Energia SK	0:36:18	N40	3	 
225	88	BARANNIKOV JEGOR			0:36:20	MJ	15	 
226	892	KOPPEL ARON		Euronics	0:36:22	PA	28	 
227	874	KATCHURA MARGARITA	Ramirent Baltic AS		0:36:22	N	30	 
228	519	SOOTS VEIKO			0:36:25	M	75	 
229	289	PIHEL AIMI	Maksu-ja Tolliamet	MTA SK	0:36:28	N60	1	 
230	927	KASK VILLU			0:36:32	M40	15	 
231	666	VEERMÄE JOEL			0:36:34	M	76	 
232	110	GOLUBÕHH OLEG	Kiviõli Keemiatööstuse OÜ		0:36:36	M45	9	 
233	798	PALU AVE		SK Jooksupartner	0:36:37	N40	4	 
234	826	TANZOLA ALEXANDRA	USA Armee		0:36:37	NN	5	 
235	61	SARV REEMET			0:36:37	M	77	 
236	840	KOMISSAROV GLEB			0:36:38	PA	29	 
237	93	BELJAJEV ALEKSANDR	NEXAM Industried OÜ		0:36:41	M45	10	 
238	817	MCCLUSKEY KEVIN	USA Armee		0:36:42	M	78	 
239	7	PILDEN BERIT	TTÜ		0:36:44	N	31	 
240	800	PETROV PJOTR	Eesti Energia		0:36:45	M55	3	 
241	89	BARANNIKOV SERGEI	EE Kaevandused Narva Karjäär	sportklub Eesti Energia	0:36:45	M50	9	 
242	487	KULLE ANDRES			0:36:45	M45	11	 
243	53	SOOSAAR KARL-RASMUS			0:36:46	MN	16	 
244	310	REHTLA RENNO	Elektest OÜ		0:36:47	M	79	 
245	264	NIIDUMAA ANDRUS	Elektrilevi		0:36:51	M	80	 
246	618	TAMMEPÕLD RONALD			0:36:52	M	81	 
247	729	VENE MEIGO			0:36:54	M	82	 
248	976	KOPÕLOV VLADIMIR			0:36:55	MN	17	 
249	407	VALLIMÄE KSTINA			0:36:56	N	32	 
250	802	PUU-KLAUREN AIVAR			0:36:57	M45	12	 
251	746	LEISALU RAVEL			0:36:58	PA	30	 
252	926	SALA SIXTEN		TRADEPLUS GROUP OÜ	0:36:59	M	83	 
253	34	LAURITS LIIS	Eesti Posti Spordiklubi		0:36:59	N	33	 
254	274	OOLMETS KATRIN			0:37:02	N	34	 
255	603	IVANKIV ANDREI	EE KAEVANDUSED		0:37:06	M	84	 
256	584	VSIVTSEVA JELENA		Äkke	0:37:06	N40	5	 
257	267	NOOLE ANDRES			0:37:06	M45	13	 
258	403	VAINURA TIIT	MAKSU-JA TOLLIAMET	MTA SK	0:37:10	M	85	 
259	337	SELGEVEER KRISTEL			0:37:11	N	35	 
260	507	HOLM JANAR		Spordiselts Kaido	0:37:11	M	86	 
261	679	TAMMERIK SYLVIA			0:37:12	NN	6	 
262	655	NIIDUMAA ANNI			0:37:13	N	36	 
263	771	VAKS ANDREAS			0:37:16	MN	18	 
264	277	OREL HELGER	Jõhvi Gümnaasium	RSK Jõhvikas	0:37:16	PA	31	 
265	614	POLMA TÕNU	Eesti Energia		0:37:16	M40	16	 
266	605	KOVALTšUK ARSENI			0:37:17	PA	32	 
267	653	NÄREP ERKI			0:37:21	M	87	 
268	463	JAKOVLEV GENNADI	Eesti Energia		0:37:22	M60	4	 
269	779	PAJU MAREK	Saku Õlletehase AS	Saku Õlletehase spordiklubi	0:37:24	M	88	 
270	320	ROOMA IVAR		Alutaguse SK	0:37:24	M50	10	 
271	351	ŠIRAI IVAN		ÄKKE	0:37:26	PA	33	 
272	715	LAEVIK ARVO			0:37:27	M65	1	 
273	118	HÄMÄLÄINEN KATRIN			0:37:28	N	37	 
274	915	KIM ELIZAVETA			0:37:34	N	38	 
275	690	VILDEK KELLY		Männikumägi	0:37:34	PB	10	 
276	931	BOROVKIN MIHHAIL			0:37:37	M	89	 
277	215	LAURIMAA MAI			0:37:38	N	39	 
278	608	LEBEDEVA MARIA			0:37:40		8	 
279	16	PUGATšEV KARIN			0:37:43	N	40	 
280	26	MÄLLO EIKE			0:37:44	N	41	 
281	621	PATUNE EVA	Dada AD		0:37:45	N	42	 
282	60	ERIK OLARI			0:37:47	M45	14	 
283	90	BARGAN SERGEI			0:37:48	M	90	 
284	19	VIDEL NATALJA	EESTI ENERGIA	MyFitness Narva	0:37:50	N	43	 
285	752	NÕMMISTE SIIM			0:37:52	PA	34	 
286	837	PARVE KAISA			0:37:52	N	44	 
287	196	KRULL FRIEDRICH			0:37:54	PA	35	 
288	756	PERTMAN ARLES			0:37:55	M	91	 
289	72	AHU MARGIT			0:38:00	N	45	 
290	959	MÄGI KATRE			0:38:00	N	46	 
291	958	KIVI RAUL			0:38:00	M	92	 
292	315	RIIVES AIRE			0:38:03	N40	6	 
293	691	KIVARI ANDRUS	Saint-Gobain Glass Estonia SE		0:38:03	M	93	 
294	75	AKSJONOV PJOTR	eett	FIRN	0:38:03	M65	2	 
295	606	KOZLOVA MARGARITA	EE kaaslane	KJK Kalev Sillamae	0:38:03		9	 
296	416	VIIKLAID ERGE			0:38:04	N45	3	 
297	610	LUHAÄÄR REET			0:38:07	N60	2	 
298	592	KARPENKO SERGEI		Äkke	0:38:08	M40	17	 
299	548	TAMM TIIA		Ida- Tallinna Keskhaigla SK	0:38:10	N	47	 
300	201	KULDMAA MAIT	Eesti Energia AS		0:38:10	M40	18	 
301	834	SALONG SULEV			0:38:11	M55	4	 
302	619	TIHHONOV OLEG		Sillamäe KJK Kalev	0:38:12	M70	2	 
303	741	ASMER ANDRUS	EESTI ENERGIA KAEVANDUS		0:38:12	M	94	 
304	847	GRIšIN SERGEI	Eesti Energia Võrguehitus AS		0:38:14	M	95	 
305	867	VOOREMÄE LINDA		Paide-Türi Rahvajooks	0:38:16	N45	4	 
306	707	ALLMAA KETLIN		Türi Jõud	0:38:17	N	48	 
307	759	RÄTSEP ANGELA			0:38:18	N45	5	 
308	250	MIGDALSKI LEV			0:38:21	M70	3	 
309	547	SINELNIKOV ALEKSEI	EE töötaja	MTÜ Kaevanduste Spordiklubi	0:38:29	M60	5	 
310	718	MJATSINA NATALJA		"Be active" meeskond	0:38:29	N	49	 
311	873	LISSOVSKI JEVGENI		Äkke	0:38:31	M	96	 
312	870	YURLOVA DARIA		Äkke	0:38:31	NN	7	 
313	160	KANGRO KALEV		Eesti AGA Spordiklubi	0:38:32	M45	15	 
314	820	RODRIGUEZ BRENDA	USA Armee		0:38:32	NN	8	 
315	30	ANSIP MARTA			0:38:32		10	 
316	625	BÕSTROV ALEKSANDR			0:38:34	M	97	 
317	369	SUSLOV VJATSHESLAV	EE Kaevandused	Kaevanduste Spordiklubi	0:38:36	M40	19	 
318	399	UUSNA AIN		Jõulu	0:38:38	M75	1	 
319	221	LEINBOCK JUSS		Alutaguse malev	0:38:41	PA	36	 
320	124	HOZJAINOVA MARIA			0:38:42	N	50	 
321	492	KALAMEES RAIVO			0:38:43	M50	11	 
322	312	REMMELG KIMBERLY	Eesti Energia		0:38:45	N	51	 
323	538	VAARMANN VEIKO	Ajaleht Narva		0:38:45	M	98	 
324	888	LELL ALARI	Jalajälg AS		0:38:47	M	99	 
325	159	KANARBIK LAURI	TTK		0:38:50	MN	19	 
326	686	MIHKELSON SILVER			0:38:50	M	100	 
327	633	KLESHCH IGOR			0:38:50	M	101	 
328	297	PRETSKAILO OLEG	Eesti Energia AS		0:38:52	M	102	 
329	496	RAAMAT RENNA			0:38:57	N40	7	 
330	844	MOROZOV EDGAR			0:38:58	MJ	16	 
331	650	MESJATSEV KEVIN			0:38:58	PA	37	 
332	402	VAHTER KAJA			0:38:59	N40	8	 
333	213	LAURIK AIVI			0:38:59	N40	9	 
334	745	KRUUSMAA KAIDI		Sparta	0:39:00	N	52	 
335	293	POMERANTS RIINA	Keskkonnaamet		0:39:01	N45	6	 
336	780	RAIDMETS KRISTINE	Saku Õlletehase AS	Saku Õlletehase spordiklubi	0:39:02	N	53	 
337	471	PARGI AVE-KATRI		IK Gliss	0:39:04	N	54	 
338	784	GUSSEV KIRILL			0:39:04	MJ	17	 
339	791	VEEREMAA HELINA	Kirde KRK		0:39:08	N	55	 
340	529	PONOMAREV IGOR			0:39:08	M	103	 
341	900	MIRONOV TIMOFEY		SIGN	0:39:12	M	104	 
342	198	KUHI ERKI	Rakvere Reaalgümnaasium		0:39:14	PA	38	 
343	207	LAANEOTS AIKI		TARTU SUUSAKLUBI	0:39:14		11	 
344	933	SIMSON JANAR			0:39:17	M	105	 
345	555	PUUSALU MARI-LIIS	Jalajälg AS		0:39:23	N	56	 
346	41	SAUL RAIMO			0:39:23	M	106	 
347	411	VENDLA ANNE			0:39:27	N	57	 
348	15	ZAKHODYAEV DMITRY			0:39:32	M	107	 
349	661	PAJU JANE	Molycorp Silmet AS		0:39:32	N	58	 
350	703	FROHBÖSE LISA			0:39:32	PB	11	 
351	335	SAZONOVA NATALJA	Eesti Energia		0:39:33	N	59	 
352	302	PULST KADRI			0:39:34	N	60	 
353	268	NOVIKOV SERGEI	EE Kaevandused	Kaevanduste Spordiklubi	0:39:36	M50	12	 
354	234	LUKS KÜLLIKI		U-KLUBI	0:39:37	N40	10	 
355	737	SAARON RAILI			0:39:41	N	61	 
356	140	JATSKIV OKSANA			0:39:50	N	62	 
357	671	VESKI TOIVO			0:39:53	M50	13	 
358	570	LINDAM TIINA			0:39:55	NN	9	 
359	328	SAKKOOL REGINA			0:39:57	NN	10	 
360	764	SOJONE ANDRUS			0:39:58	M40	20	 
361	218	LAVROVSKI ALEKSEI		SK Narva FIRN	0:39:58	M70	4	 
362	386	TIINAS KADY	Ida prefektuur	Virumaa Politsei SS	0:39:58	N	63	 
363	377	TALANTSEV LEONID	NEJ	Nej SK	0:40:01	M40	21	 
364	831	ROOTS TÕNIS			0:40:03	M	108	 
365	107	FLOREN KRISTEL		KF Suusaklubi	0:40:05	N	64	 
366	735	PRAAKEL ELINA			0:40:05	N	65	 
367	233	LUIK MERJE			0:40:06	N45	7	 
368	25	BEDRIT MARIA			0:40:06	N40	11	 
369	191	KOSSINKOVA KRISTINA		Kahe silla klubi jooksusõbrad	0:40:06	N	66	 
370	601	EERO JANAR			0:40:07	M	109	 
371	901	LAUR ARVO	Ramirent Baltic AS		0:40:07	M45	16	 
372	216	LAURIMAA MÄRTEN			0:40:09	PA	39	 
373	214	LAURIMAA ANDRUS			0:40:09	M40	22	 
374	298	PRIBOBVSKAJA JEKATERINA		AKKE	0:40:12	N	67	 
375	423	VIRšILAITE JULIA	Kersti Võlu Koolituskeskus		0:40:14	N	68	 
376	922	MATVEEV SERGEY			0:40:14	M	110	 
377	551	ŽUžLOVA KATRIN			0:40:15	NJ	2	 
378	104	ERS AKSEL	Narva Elektrijaamad		0:40:15	M45	17	 
379	452	KUKEMELK EPP-MARE	Eesti Ajalehed/Delfi		0:40:17	N	69	 
380	944	KAASIK INNAR			0:40:22	M	111	 
381	193	KRILOVS ÜLLI			0:40:24	N50	2	 
382	451	SCHÜLE DELEN		Põhjarannik	0:40:31	PB	12	 
383	261	MUMM KADRI			0:40:35	N40	12	 
384	876	JALAKAS TÕNU			0:40:38	M	112	 
385	975	PUNG HEIDI			0:40:38	N40	13	 
386	134	JAKOBSON ÜLLE			0:40:39	N45	8	 
387	928	VALLISTE RAGMAR			0:40:42	PA	40	 
388	865	VENE SIIRI		Paide-Türi Rahvajooks	0:40:43	N	70	 
389	652	MUMM HENRY-OLIVER			0:40:43	MN	20	 
390	875	KALBUS SIRLI			0:40:44	N	71	 
391	180	KOLIN HANNA			0:40:44	N	72	 
392	574	REINAS SVETLANA			0:40:45	N	73	 
393	227	LIIVA MERLIN			0:40:45	N	74	 
394	664	PIKKOR HEIGO			0:40:48	MJ	18	 
395	269	NURMIS LIIS			0:40:50	NN	11	 
396	353	SIREL LISETTE	Eesti Energia		0:40:51	PB	13	 
397	805	AVIKSON MARI-LIIS			0:40:52	N	75	 
398	200	KUHI KATRI			0:40:53	PB	14	 
399	292	POMERANTS MARKO	Riigikogu	IRL	0:40:56	M45	18	 
400	815	HAWLEY CASSANDRA	USA Armee		0:40:56	NN	12	 
401	723	RASK PILLE			0:40:56	N50	3	 
402	760	ROGOTOVSKI DENIS	Nordea Finance Estonia AS		0:40:59	M	113	 
403	919	MAKAROV MIHHAIL			0:40:59	M60	6	 
404	255	MIHKELSON OLEV			0:41:00	M45	19	 
405	866	VOOREMÄE GUNNAR		Paide-Türi Rahvajooks	0:41:07	M50	14	 
406	347	TAMMISTE TARMO	Narva Linnavalitsus		0:41:07	M50	15	 
407	431	ZAZÕKIN JEVGENI	EE Kaevandused	Kaevanduste Spordiklubi	0:41:07	M	114	 
408	543	LUUNJA GERLI			0:41:09	NN	13	 
409	950	NIINEPUU MERILY			0:41:10	N	76	 
410	148	JÜRGENS KATRIN	Terve Pere Apteek OÜ		0:41:10	N	77	 
411	772	VAKS MARILIIS			0:41:11	N	78	 
412	684	SAMUEL TANEL			0:41:15	M	115	 
413	448	TSIREL ANU	Jääaja Keskus		0:41:16	N40	14	 
414	444	METS KAUPO	Jääaja Keskus		0:41:16	M	116	 
415	155	KALLASTE EIVI			0:41:18	N40	15	 
416	814	GILLERAN THOMAS	USA Armee		0:41:18	M45	20	 
417	914	VORONIN DENIS			0:41:25	M	117	 
418	742	KASEORG ELLE			0:41:26	N45	9	 
419	273	OLISSOV MAKSIM	Eesti Energia		0:41:29	M	118	 
420	350	SIRAI IGOR		ÄKKE	0:41:30	PA	41	 
421	5	LAINVOO LINDA			0:41:31	N	79	 
422	226	LIIVA ANU			0:41:32	N50	4	 
423	716	LEPIK SANDRA			0:41:32	PB	15	 
424	500	BELOUS LOLA			0:41:33	N45	10	 
425	209	LAAS VELLO			0:41:34	M45	21	 
426	906	KORITS KRISTIAN			0:41:35	M	119	 
427	458	KUUSK KATI	EE töötaja		0:41:37	N45	11	 
428	120	HÄRK ENELI			0:41:38	N	80	 
429	518	SINIORG MELIKO	EE Elektrilevi		0:41:39	M	120	 
430	616	TAMM KATRE-LIIS	Sonda Vallavalitsus		0:41:40	N	81	 
431	125	HUMMAL RASMUS			0:41:42	PA	42	 
432	27	IKKO VLADIMIR			0:41:43	M60	7	 
433	502	LOORITS ANNIKA	Eesti Energia AS	Eesti Energia SK	0:41:46	N	82	 
434	750	MÜLLERSON TIINU-MARII			0:41:47	PB	16	 
435	363	SUITS EDA			0:41:49	N	83	 
436	322	ROOMA JÜRMO		Alutaguse SK	0:41:50	PA	43	 
437	881	SURSU VAIMAR	Eesti energia		0:41:51	M	121	 
438	884	HALLIK TIIU		KJK Visa	0:41:51	PB	17	 
439	222	LEINBOCK TAMBET		Alutaguse malev	0:41:54	M40	23	 
440	877	HEINSOO INGA		Euronics Team	0:41:56	N40	16	 
441	724	TRÄÄDER RUTH			0:41:58	N	84	 
442	564	PRIIMÄGI ANTTI	Paigaldusmeister OÜ		0:42:01	M40	24	 
443	700	VIPRE HELENA	keskkonnaamet (Taimar Ala)		0:42:04	N	85	 
444	111	GRINTŠAK ANDREI	EE Kaevandused	Kaevanduste Spordiklubi	0:42:05	M	122	 
445	887	SAUEAUK MIRJAM			0:42:05	N	86	 
446	859	RÜÜTEL RASMUS			0:42:10	PA	44	 
447	835	LILLOJA KADI			0:42:10	N	87	 
448	145	JÕGI MARIELLE		TALLINNA ÜLIKOOL	0:42:11	NN	14	 
449	388	TINN AARE			0:42:12	M50	16	 
450	672	VESKI LIA			0:42:14	N50	5	 
451	80	ALLIKAS MARI			0:42:14	PB	18	 
452	117	HALLIK ELIS		Narva Fama Myfitness	0:42:14	NJ	3	 
453	161	KANGRO MAIRIS			0:42:15	N40	17	 
454	163	KANSI KRISTER			0:42:16	PA	45	 
455	331	SAPJOROV IGOR	Eesti Energia Tehnologiatööstu		0:42:16	M40	25	 
456	728	VELLERIND AVELI	Tartu Ülikool	Tuldav Lohe	0:42:17	NN	15	 
457	811	MILK MARIKA	Sportland Eesti AS		0:42:17	N	88	 
458	390	TINT KRISTI			0:42:17	N	89	 
459	391	TINT MEELIS			0:42:18	M40	26	 
460	307	RATASSEPP MADE	Eesti Taimekasvatuse Instituut		0:42:18	N	90	 
461	964	PLOOMPUU PRIIT			0:42:20	M	123	 
462	920	SEVER ERIK			0:42:20	PA	46	 
463	206	LÄÄN LAURA		Aegviidu SK	0:42:22	PB	19	 
464	77	ALAOTS MAIE			0:42:23	N45	12	 
465	850	HAIDLA KARIIN	Eesti Energia		0:42:24	NJ	4	 
466	871	LOPUHHIN KATRIN		Äkke	0:42:26	N	91	 
467	76	ALAJAAN AIRE	Fazer Eesti AS		0:42:27	N	92	 
468	839	PAE MAARJA			0:42:28	N	93	 
469	832	PALK IMBI			0:42:31	N45	13	 
470	102	MERISTE MEHIS	ATI Profiil OÜ		0:42:31	M45	22	 
471	435	BOROVKOVA JELENA			0:42:31	N	94	 
472	20	TIITSAAR DAJANA	Eesti Energia	Eesti Energia Spordiklubi	0:42:32	N	95	 
473	455	LÜNEKUND KÄTLIN			0:42:40	N	96	 
474	479	PAAS KÄTHLIN	Eesti Energia	EE SK	0:42:41	N	97	 
475	272	OLENIN ALEKSEI		ÄKKE	0:42:42	PA	47	 
476	415	VIHRINA KSENIA			0:42:48	N	98	 
477	434	ZUPSMANN PIRET			0:42:50	N40	18	 
478	138	JÄRVET TRIINA			0:42:52	PB	20	 
479	907	EERIK HELI	AS OG Elektra		0:42:54	N40	19	 
480	556	EENSALU REIN	REG		0:42:55	M55	5	 
481	598	BOBKOV NIKOLAY			0:42:55	M55	6	 
482	314	RIDAMÄE MARJU			0:42:57	N	99	 
483	9	LOOS INDREK-MAREK			0:42:57	M40	27	 
484	49	KOTSENKOV VLADIMIR		START	0:42:58	M60	8	 
485	383	TEREBILOVA DARIA			0:42:59	N	100	 
486	520	TALUR KAIRI			0:43:00	N	101	 
487	447	RAUDKIVI REELIKA	Jääaja Keskus		0:43:01	N	102	 
488	393	TRUVE JAANIKA			0:43:02	N40	20	 
489	313	RESIK KERLY			0:43:03	N	103	 
490	319	ROHUSTE REELIKA			0:43:03	N	104	 
491	229	LINDPERE MIRJAM	Eesti Energia		0:43:03	N	105	 
492	868	SOLYANIK RUSLAN		PYL	0:43:06	M45	23	 
493	503	AKSALU ANDRES	FESTO		0:43:11	M	124	 
494	480	ALTPERE RIINA		Pärnu Kahe Silla Klubi	0:43:12	N	106	 
495	21	PERSITSKI HELLE	Helpras OÜ		0:43:12	N45	14	 
496	808	KÜTT KELLY	Sportland Eesti AS		0:43:16	NJ	5	 
497	186	KOšARINSKI DENISS			0:43:16	M	125	 
498	827	WEBB KATRINA	USA Armee		0:43:16	NN	16	 
499	812	TERAS ANUMARI	Sportland Eesti AS		0:43:17	NN	17	 
500	101	DRUžIšTšEVA IRINA			0:43:18	N	107	 
501	860	VEBER KATRIN			0:43:22	N	108	 
502	640	KOPPEL EMMA ANNI	Tallinna Reaalkool	SK Shark	0:43:22	PB	21	 
503	773	VALLAS REELIKA			0:43:23	NJ	6	 
504	188	KOšELEVA SVETLANA		KJK"Kalev" Sillamäe	0:43:24	N40	21	 
505	641	KOPPEL KALLE	Wihuri AS	Saue Spartak	0:43:25	M45	24	 
506	611	ÕUNAS EIKE	Sonda Vallavalitsus		0:43:27	N	109	 
507	945	JOLKIN ALEKSEI			0:43:28	M	126	 
508	475	VAHTER MAIE			0:43:28	N60	3	 
509	680	SUIK VILLU		Eesti Energia spordiklubi	0:43:34	M55	7	 
510	702	LUKAS MAARJA			0:43:36	N	110	 
511	85	BACHMANN IVO			0:43:37	M	127	 
512	544	MÄNNIK KATRIN			0:43:41	N	111	 
513	708	ASPER ANGELIKA		Jooksuinglid	0:43:45	N	112	 
514	896	SIINER TRIIN		Jooksuinglid	0:43:45	N40	22	 
515	604	KIRILOVA EVELIN	Eesti Energia		0:43:48	N	113	 
516	427	VÕSU SIRLE			0:43:49	N	114	 
517	86	BACHMANN JUHAN	EE Kaevandused	Kaevanduste Spordiklubi	0:43:50	M70	5	 
518	62	KASK KATI			0:43:50	N	115	 
519	116	HALDRE KADRI			0:43:53	N	116	 
520	810	LIND LEIDI	Sportland Eesti AS		0:43:53	N	117	 
521	439	LUTS MERIKE		Kanepi terviseklubi	0:43:54	N55	2	 
522	29	UUSTAL KÄTHLIN			0:43:57	N40	23	 
523	721	PANTELEJEVA OLGA			0:43:58	N40	24	 
524	559	TASANE REIN	EE		0:43:58	M55	8	 
525	52	KALLE NADEžDA		SK MITš	0:43:59	N45	15	 
526	375	TAEL KADRI			0:43:59	N	118	 
527	624	BERKIS LEMME			0:44:00	N	119	 
528	829	GUSTAVSON JANEK	Eesti Energia	Eesti Energia Spordiklubi	0:44:02	M	128	 
529	885	PEDAI ROBIN			0:44:02	PA	48	 
530	563	ZAITSEV ALEKSEI		Ida prefektuur	0:44:04	M	129	 
531	304	RÄITSAK KAROLIINA			0:44:04	N	120	 
532	230	LÕHMUS MAGNUS			0:44:04	M	130	 
533	217	LAUSING LIINA			0:44:06	NJ	7	 
534	908	ELBRECHT EPP			0:44:09	N	121	 
535	311	REISALU HELINA			0:44:09	NJ	8	 
536	485	MININ MAKSIM			0:44:12	PA	49	 
537	247	MEDIJAINEN LUULE			0:44:12	N50	6	 
538	889	SUURHANS KRISTJAN	Eesti Energia	Eesti Energia Spordiklubi	0:44:12	M	131	 
539	886	RÕÕMUSSAAR HELEN			0:44:12	N	122	 
540	634	KAIDALOV ALEKSANDR			0:44:14	PA	50	 
541	882	SALMINA ELZA			0:44:15	NN	18	 
542	457	SÕTSINSKAJA NATALJA	PMTK @Rahu@ OU		0:44:16	N50	7	 
543	373	SUVI TOOMAS			0:44:17	M65	3	 
544	254	MIHJEJEVA MARINA		ÄKKE	0:44:17	PB	22	 
545	354	SIREL MARGUS	Eesti Energia		0:44:22	M40	28	 
546	765	SOJONE JANELY			0:44:22	NJ	9	 
547	597	ARM JAANIKA		Tartu Inline Team	0:44:24	NJ	10	 
548	176	KÕIV SIGNE	E Butiik		0:44:24	N	123	 
549	803	JUHKOV INDREK			0:44:26	PA	51	 
550	64	AUNPU KEN		Rae Koss	0:44:28	M50	17	 
551	978	TAMM TIIT			0:44:32	M50	18	 
552	631	GORLATOVA VEERA		SK Evail-Athletics	0:44:39	N	124	 
553	309	RAZUMEEV ALEXEY			0:44:39	M	132	 
554	344	SILD SOILE			0:44:39	N40	25	 
555	514	SAKS SIRET			0:44:40	N	125	 
556	513	SAKS SILVIA			0:44:40	N	126	 
557	932	JÄRVA MATTI			0:44:41	M65	4	 
558	575	SADAM EEVA			0:44:42	N	127	 
559	757	PIILBERG FRANK		BC STAR	0:44:42	PA	52	 
560	758	PIILBERG URMAS	Altia Eesti		0:44:43	M40	29	 
561	332	SAUL KERTU			0:44:43	N40	26	 
562	31	VAHTRA MAILA	Elektrilevi OÜ		0:44:48	N	128	 
563	68	ADAMSON GERMAN	EE Kaevandused	Kaevanduste Spordiklubi	0:44:49	M40	30	 
564	162	KANSI HELVE			0:44:49	N45	16	 
565	106	FEDULOV AIGAR			0:44:50	M	133	 
566	288	PETERSON BRIT	Addenda		0:44:53	N	129	 
567	893	TAMMESSON ERIK	Festo		0:44:55	M	134	 
568	212	LÄTT TIIA			0:44:56	N55	3	 
569	69	ADAMSON-NIIDUMAA TRIINU	Elektrilevi		0:44:57	N	130	 
570	843	PETERSON LOLITA	Nordea Pank	SportID	0:44:57	N50	8	 
571	657	NÕMMISTE LEIE		SIMUNA SK	0:44:59	N	131	 
572	405	VALDMANN SIGNE			0:45:01	N	132	 
573	38	PUSTOSHNAYA GALINA	Narva Linnavalitsus		0:45:06	N	133	 
574	668	REINBACH NELLA	Eesti Energia		0:45:07	N	134	 
575	92	BEET PRIIT			0:45:08	M	135	 
576	895	TAMMIK SILVER			0:45:10	M	136	 
577	898	KALLIP KRISTI			0:45:10	N	135	 
578	842	VESKI PIRET	Ensto Ensek AS	SportID	0:45:13	N40	27	 
579	122	HEIN MARIE HELENE			0:45:13		12	 
580	240	MALM REGIINA			0:45:13	PB	23	 
581	3	VESKI LEELO			0:45:14	N55	4	 
582	622	ARRAS PIRET			0:45:18	N45	17	 
583	681	SUIK RIIN			0:45:21	N	136	 
584	508	IVANOV ARKADI			0:45:23	M	137	 
585	967	ONTON KAIE			0:45:26	N	137	 
586	464	LAANISTO MARGUS	Eesti Taimekasvatuse Instituut		0:45:28	M	138	 
587	257	MITT KÜLLI	Eesti Energia AS - kaasla	Eesti Energia SK - kaaslane	0:45:28	N45	18	 
588	121	HEIN KERTTU	Ida prefektuur	Virumaa Politsei SS	0:45:29	N	138	 
589	237	MAALMA KADRE		Alutaguse SK	0:45:31	N40	28	 
590	279	PAASMÄE ERKI		SIILITEAM	0:45:31	M	139	 
591	525	ZINOVJEV VALERI			0:45:36	PA	53	 
592	174	KIVISILD ARTAM			0:45:38	PA	54	 
593	324	SAARNIIT SILVIA			0:45:41	N55	5	 
594	890	ILMENSKI SILVER			0:45:44	PA	55	 
595	127	ILMJÄRV MAGNUS	Tallinna Ülikool Ajaloo Isntit		0:45:46	M50	19	 
596	669	VOOGNE HELINA			0:45:50	N	139	 
597	749	MÜLLERSON AIDE			0:45:50	N	140	 
598	701	LUKAS ANNE-LY			0:45:51	N40	29	 
599	152	KAASIK SILLE		JÕHVI RS	0:45:51	N40	30	 
600	450	TSUPSMAN SVETLANA		Põhjarannik	0:45:52	N	141	 
601	845	RÕIGAS LIISU			0:45:53	N	142	 
602	370	SUTT SONJA LIISA		Mustamäe Gümnaasium	0:45:53	PB	24	 
603	509	MACUTKEVICIENE ONA	Eesti Energia		0:45:56	N	143	 
604	644	KAASIK KRET			0:45:56	N	144	 
605	39	EENSALU LEILA	VKG		0:45:58	N55	6	 
606	697	SAAR ANETE	Põltsamaa Felix		0:45:59	PB	25	 
607	179	KOLGA JANA			0:46:05	N	145	 
608	210	LAIDSALU TUULI			0:46:06	N40	31	 
609	376	TÄHTVÄLI MOONIKA			0:46:06	N	146	 
610	585	VSIVTSEV JEVGENI		Äkke	0:46:08	M60	9	 
611	586	VSIVTSEVA JELENA		Äkke	0:46:08	N60	4	 
612	796	MERILO RENNE		SK Jooksupartner	0:46:10	N	147	 
613	147	JOHANNES LAINE	MAKSU-JA TOLLIAMET	MTA SK	0:46:12	N45	19	 
614	635	KAIDALOVA JEVGENIA			0:46:13	N	148	 
615	166	KARPENKO ILJA		NURK	0:46:13	PA	56	 
616	420	VIKSI HEIKO			0:46:14	PA	57	 
617	280	PAESÜLD HELEN		SIILITEAM	0:46:17	N	149	 
618	243	MÄNNIK MAARIKA			0:46:18	N	150	 
619	281	PÄHN MERLE			0:46:18	N40	32	 
620	389	TINNURI LIINA			0:46:20	N45	20	 
621	421	VIKSI LIIS			0:46:21	N	151	 
622	2	KARU LAURA			0:46:29	N	152	 
623	662	PEENSALU TARVO			0:46:31	M	140	 
624	736	SAAR VIRGE			0:46:34	N40	33	 
625	744	KOSUBENKO EVELYN	Lukukoda AS		0:46:39	N40	34	 
626	699	TAMM HEIDI	Põltsamaa Felix		0:46:43	N	153	 
627	930	KAMBERG NATALIA			0:46:47	N40	35	 
628	486	LIIVAR JANELLE	Eesti Energia		0:46:49	N	154	 
629	696	ROOS RIINA	OÜ Cristella VT		0:46:49	N	155	 
630	613	PIKORAINEN MAARJA			0:46:55	N	156	 
631	456	MARKO NELLI			0:46:55	N	157	 
632	568	FILIMONOVA KATRIN			0:46:55	N	158	 
633	612	PIHLAKAS MARKO			0:46:57	M	141	 
634	688	TAHLFELDT KERSTI			0:46:59	N50	9	 
635	488	UMBAED PIRET			0:47:01	N40	36	 
636	677	TRUUVÄÄRT MERILIN			0:47:07	N	159	 
637	637	KÕIVIST TIIA			0:47:08	N45	21	 
638	632	HENDRIKSON ÜLLE			0:47:08	N45	22	 
639	172	KASS MARE	Eesti Energia		0:47:12	N55	7	 
640	182	KONOPLJOVA VIOLETTA		AKKE	0:47:13	PB	26	 
641	203	KUPRIGANOV NIKOLAI		ÄKKE	0:47:15	PA	58	 
642	557	REIN AIGI			0:47:17	M45	25	 
643	554	HILPUS MARGIT			0:47:20	N45	23	 
644	553	LAHT LALLI	Eesti Energia		0:47:21	N50	10	 
645	897	OSA TOM			0:47:21	M	142	 
646	23	MÄLLO RAINER			0:47:22	M40	31	 
647	183	KONOPPEV ANDRES		AKKE	0:47:22	M45	26	 
648	129	IŠTŠENKO SERGEI		JK START	0:47:24	M50	20	 
649	282	PAIS ROBERT			0:47:28	PA	59	 
650	301	PRONOZA OLEG		ÄKKE	0:47:30	PA	60	 
651	727	VELLERIND ANNELI	Via3L	Tuldav Lohe	0:47:33	N45	24	 
652	355	SIREL PIRET	Eesti Energia		0:47:35	N	160	 
653	22	KROLL KÄTLIN	AS RAKVERE HAIGLA		0:47:35	N	161	 
654	768	TEIDLA KELLY			0:47:40		13	 
655	593	DMITRIJEVA ILON		Äkke	0:47:42	PB	27	 
656	830	JAHTMAA RAILI			0:47:44	N	162	 
657	73	AILISTE ANETE			0:47:48		14	 
658	929	ZAHAROVA TATJANA			0:47:49	N	163	 
659	627	EAST EVELY			0:47:50	PB	28	 
660	720	NUTOV MIRJAM	Eesti Energia Võrguehitus		0:47:51	N	164	 
661	722	PETERS MERLE	PALETTI EESTI AS	POINT-S	0:47:53	N40	37	 
662	675	VARIK EVE		Mõisaküla Spordiselts ÜLO	0:47:55	N55	8	 
663	755	PARIK ILME			0:47:59	N50	11	 
664	119	HANKO RAGNE			0:48:00	N	165	 
665	602	HOHLOVA ALEKSANDRA	Narva Haigla		0:48:01	N	166	 
666	105	ERS PILLE	Narva Elektrijaamad		0:48:09	N45	25	 
667	517	SINIORG AGNES			0:48:10	N	167	 
668	220	LEINBOCK ELERIYNE		Hansa Spordiklubi	0:48:10	N	168	 
669	157	KÄMÄRÄ MATTI		SK Põhjarannik	0:48:11	M45	27	 
670	228	LINDMÄE MARIS		SPORDISELTS KAIDO	0:48:11	N	169	 
671	57	RANDOJA RENDA			0:48:20	N40	38	 
672	558	ZAVIZION MARIA	Eesti Media		0:48:24	NN	19	 
673	143	JEVGRAFOVA MARJU			0:48:25	N	170	 
674	460	PILT KERSTIN			0:48:28	N40	39	 
675	754	PALGINÕMM MAI-LIIS	TÜNK		0:48:28	N	171	 
676	484	PEEP TIINA			0:48:31	N55	9	 
677	561	TASANE LUDMILLA			0:48:35	N55	10	 
678	82	ALMISTE HANNA-KRISTHELA		IDA-VIRUMAA SÕBRAD	0:48:38	PB	29	 
679	478	LING MARI-LIIS	Eesti Energia	Eesti Energia Spordiklubi	0:48:39	N	172	 
680	527	EAMETS TRIIN			0:48:44	N	173	 
681	979	MALÕGINA JELENA			0:48:45	PB	30	 
682	841	TSÕGANOV SERGEI			0:48:46	M40	32	 
683	489	RAAP REELE			0:48:53	PB	31	 
684	142	JEMELJANOVA ELINA			0:48:55		15	 
685	199	KUHI INGE	Rakvere Linnavalitsus		0:48:56	N40	40	 
686	246	MATVJEJEV DENIS		ÄKKE	0:48:58	PA	61	 
687	515	ŠILKIN ALEKSEI	Eesti Energia		0:48:58	PA	62	 
688	645	KRÕLOVA MARIA	Advmaker ets oü		0:49:03	N	174	 
689	504	PETROVA INNA			0:49:05	N45	26	 
690	905	SARTANIA NESTAN		meresuu spordiklubi	0:49:06	N	175	 
691	33	JÕGI KARIN	Merko Eesti		0:49:11	N	176	 
692	346	SILM BIRGIT			0:49:19	N	177	 
693	424	VIRTAAL PILLE-RIIN			0:49:23	N	178	 
694	623	ANDERSON SVEN			0:49:30	M45	28	 
695	392	TRIKKANT ANNI			0:49:36	N	179	 
696	879	DAFFE JANE		Euronics Team	0:49:40	N	180	 
697	352	SIREL KRISTEL-LIIS	Eesti Energia		0:49:43		16	 
698	743	KIVARI KATRIN			0:49:46	N40	41	 
699	178	KOLENIK JEKATERINA		AKKE	0:49:47	N	181	 
700	957	MÄSAK LIINA			0:49:51	N	182	 
701	12	MOROZOVA VERA		JK Optimist	0:49:57	N70	1	 
702	948	SALLA TIINA			0:50:00	N	183	 
703	667	REINBACH NELE	Eesti Energia		0:50:03	N	184	 
704	961	JEFIMOV ALEKSANDR			0:50:07	M45	29	 
705	395	UDEVALD TRIIN			0:50:12	N	185	 
706	524	VÕRNO TRIIN			0:50:17	N	186	 
707	32	PÕLD TOOMAS	EE Kaevandused AS	Kaevanduste spordiklubi	0:50:17	M45	30	 
708	410	VAVILOVA KAIJA			0:50:18	N	187	 
709	862	SCHILF GUIDO		Paide-Türi Rahvajooks	0:50:20	PA	63	 
710	648	RANTANEN MARGARITA	EE Õlitööstus AS	EE Spordiklubi	0:50:28	N	188	 
711	285	PEETSALU KETHRIN			0:50:28	N	189	 
712	286	PEETSALU MARTIN			0:50:29	M	143	 
713	156	KALM KATRIN	Eesti Taimekasvatuse Instituut		0:50:35	N40	42	 
714	295	POPOVA NATALJA		NEJ Spordiklubi	0:50:37	N45	27	 
715	714	KASEMETS KETLYN			0:50:48	NJ	11	 
716	113	HAABOJA HEIKI			0:50:49	M40	33	 
717	115	HAABOJA RIINA			0:50:49	N50	12	 
718	114	HAABOJA KEVIN			0:50:50	PA	64	 
719	740	VADI TOIVO			0:50:53	M55	9	 
720	468	NÕMM LIINA		Sparta	0:50:56		17	 
721	656	NÕMMISTE KAREL		SIMUNA SK	0:51:04	PA	65	 
722	658	NÕMMISTE MARIS		SIMUNA SK	0:51:05	PB	32	 
723	494	LILLEOJA HEGNE			0:51:05	PB	33	 
724	437	PAUMETS TIINA		Kanepi terviseklubi	0:51:10	N55	11	 
725	154	KÄGU TAANIEL			0:51:11	PA	66	 
726	326	ŠAHIN ALEKSEI	Eesti Energia		0:51:24	M50	21	 
727	854	PÕDER MARET			0:51:27	N45	28	 
728	567	VAINOMETS KRISTEL			0:51:29	N	190	 
729	571	SUITS BRITT			0:51:32	N	191	 
730	345	ŠILKIN VJATSESLAV	Eesti Energia		0:51:37	M40	34	 
731	473	TAMPUU RITI	Eesti Energia		0:51:40	NN	20	 
732	566	PRIIMÄGI JAANIKA	Paigaldusmeister OÜ		0:51:42		18	 
733	599	EERME KAUPO	Elektrilevi OÜ		0:51:44	M	144	 
734	408	VARIK TIIU	Päästeamet		0:51:48	N	192	 
735	283	PARTEI MARGIT			0:51:52	NN	21	 
736	537	POPOVA KSENIA	Ajaleht Narva		0:51:58	NJ	12	 
737	248	MESJATSEVA SABINA			0:51:59	NN	22	 
738	253	MIHHAILOV EMIL	Eesti Energia Narva Elektrijaa		0:52:04	PA	67	 
739	712	JUHKOV MERLE			0:52:14	N40	43	 
740	709	ELM ARVO			0:52:14	M	145	 
741	42	RAIEND HARDI		Ida-Virumaa Sõbrad!	0:52:14	M50	22	 
742	241	MALM VERONIKA	Sa juht ja abikoerte kool		0:52:15	N50	13	 
743	426	VOLL MARGIT			0:52:17	N	193	 
744	495	KROON DAISY			0:52:18	N45	29	 
745	449	APS PEETER		Põhjarannik	0:52:21	M	146	 
746	776	ROSENFELDT RAIDO			0:52:40	M	147	 
747	493	KROON KRISTEL			0:52:43	N	194	 
748	822	STEINFELD REIN			0:52:50	M65	5	 
749	725	TRUUPOLD MARK	Eesti Energia Võrguehitus AS		0:52:53	MN	21	 
750	858	KÜTT TEA			0:53:02	N	195	 
751	382	TERAS URVE			0:53:02	N45	30	 
752	276	OREL HELEN	Jõhvi Gümnaasium	Jõhvi Spordikool	0:53:02	PB	34	 
753	638	KOLK ALARI			0:53:04	M40	35	 
754	659	NOOR KRISTINA			0:53:05	N40	44	 
755	167	KARU REIN	Eesti Taimekasvatuse Instituut		0:53:16	M	148	 
756	739	VADI KERSTI			0:53:16	N40	45	 
757	646	LIPATOVA DARINA			0:53:20	PB	35	 
758	181	KONOPLJOVA ANZELINA		ÄKKE	0:53:21	PB	36	 
759	231	LOONET TEELEMARI			0:53:21	N	196	 
760	256	MILJOTIN DIMA		ÄKKE	0:53:27	PA	68	 
761	446	PUUSEPP MARIT	Jääaja Keskus		0:53:43	NN	23	 
762	334	SAZONOV ANDREI	Eesti Energia		0:53:51	M	149	 
763	636	KASEORG SILLE	Eesti Energia AS		0:53:52	N40	46	 
764	433	ZUPSMANN MARJU			0:54:04	NJ	13	 
765	766	SOJONE SANDER			0:54:16	PA	69	 
766	338	SEPA ROBERT			0:54:20	PA	70	 
767	137	JAMMER ANNE			0:54:26	N60	5	 
768	396	UIBO LEIDA	Eesti Energia AS	Eesti Energia AS Spordiklubi	0:54:26	N55	12	 
769	251	KRUBERG CAROLINE			0:54:38	PB	37	 
770	626	DOROVATOVSKI KIRILL	Elektrilevi OÜ	EE spordiklubi	0:54:42	M	150	 
771	438	TAGEL PIIA		Kanepi terviseklubi	0:54:43	N50	14	 
772	440	KALLAS ÜLLE		Kanepi terviseklubi	0:54:43	N55	13	 
773	436	MEESAK VAIKE		Kanepi terviseklubi	0:54:43	N55	14	 
774	357	SIRKEL MARIS		SA Tallinna Hambapolikliinik	0:54:46	N40	47	 
775	477	HANSON MERLE	SPORTLAND EESTI AS		0:55:00	N	197	 
776	705	TIISLER TAIMI	EE Võrguehitus	EE Spordiklubi	0:55:06	N50	15	 
777	194	KRUBERG ANNELI			0:55:15	N40	48	 
778	244	MARDI MARIT	Nordea Pank	Nordea Spordiklubi	0:55:21	N	198	 
779	87	BALABANOVA SOFIA		ÄKKE	0:55:27	PB	38	 
780	761	ROHTMA MERILIN			0:56:06	N	199	 
781	609	LEPIKU TRIINU	Eesti Energia AS		0:56:10	N	200	 
782	74	AIT JAANA			0:56:39	N	201	 
783	909	TEDREMA MARGOT	AS OG Elektra		0:56:44	N	202	 
784	146	JÕGIS AGNE			0:56:44	NN	24	 
785	775	BONDARTšUK CHRISTINA	Eesti Energia AS		0:56:46	N	203	 
786	330	SANGLA MIKK			0:56:57	PA	71	 
787	960	JEFIMOV ALEKSANDER			0:57:09	M	151	 
788	300	PRIKLONSKAYA EKATERINA	EE Kaevandused	Kaevanduste Spordiklubi	0:57:12	N50	16	 
789	397	UIBO REET			0:57:30	N55	15	 
790	540	DOLGOVSKAJA INNA			0:57:46	N	204	 
791	600	NIGOL MAARJA	Sportland Eesti AS		0:57:56	N	205	 
792	235	KUUSKLA PRIIT		SK AASPERE	0:58:12	M	152	 
793	151	KAASIK REGINA		SK Aaspere	0:58:12	N	206	 
794	91	BEET MERY			0:58:13	N	207	 
795	94	BERGMANN TEET			0:58:26	M65	6	 
796	639	KOPONEV SERGEI			0:58:28	M45	31	 
797	565	PRIIMÄGI EVE	Paigaldusmeister OÜ		0:58:52	N40	49	 
798	133	IZOTOVA POLINA			0:59:20	PB	39	 
799	139	JAŠINA DIANA		EE Spordiklubi	0:59:29	N	208	 
800	526	ZINOVJEVA JEVGENIA	EE Tehnoloogiatööstus AS		0:59:36	N40	50	 
801	824	LAIKSOO HELLEN			0:59:46	N65	2	 
802	158	KANAJEV GENNADI			1:00:38	M75	2	 
803	918	LJOVKIN ROMAN			1:00:54	M	153	 
804	14	SULG SIGNE			1:00:56	N45	31	 
805	327	ŠAHIN JEGOR	Eesti Energia		1:01:50	PA	72	 
806	476	ZAVJALOV VIKTOR			1:01:53	M75	3	 
807	372	SUUR MICHELLE			1:02:01		19	 
808	546	PÄRNA LOLA MARIA			1:02:41	PB	40	 
809	28	HIPELI RIINA			1:02:43	N65	3	 
810	864	VAKS KRISTIINA		Paide-Türi Rahvajooks	1:03:05	N	209	 
811	863	SCHILF TIIT		Paide-Türi Rahvajooks	1:03:06	PA	73	 
812	530	HAZIJEVA MARINA	Ajaleht Narva		1:03:12	N45	32	 
813	535	LOGINOVA OLGA	Ajaleht Narva		1:03:12	N45	33	 
814	192	KOZLOVA NATALJA			1:03:15	N	210	 
815	536	LOGINOVA TATJANA	Ajaleht Narva		1:03:16	N50	17	 
816	131	IVANOVA LJUDMILA		Narva El. Spordiklubi	1:03:36	N65	4	 
817	642	KOZLOVSKAJA SVETLANA			1:03:39	N	211	 
818	48	POSTNIKOV NIKOLAI		JK START	1:03:48	M75	4	 
819	245	MATVEJEVA TATJANA			1:04:01	N50	18	 
820	103	ELVET MALLE		Artic Sport Tartu	1:07:48	N65	5	 
821	429	YURLOVA ALISA			1:09:29	NN	25	 
822	371	SUUR MARIELLE			1:09:33	PB	41	 
823	512	MAISVÄLI MAILA	SA TÜ Kliinikum		1:09:51	N50	19	 
824	673	VEE MARIO	Eesti Energia		1:10:42	M	154	 
825	195	KRULL ANNAMARIA			1:11:15	PB	42	 
826	153	KÄGU NAATAN KLAUS			1:11:31	PA	74	 
827	294	POPOVA MARIA		NEJ Spordiklubi	1:12:33	N	212	 
828	323	ROOP KATERINA	Eesti Energia		1:14:34	NJ	14	 
829	607	KUZMIN PAVEL			1:19:36	M	155	 
830	617	TAMM ÜLLE			1:25:02	N	213	 
831	414	VIDDER MERLE	Elektrilevi	EE SK	1:40:16	N	214	 
832	8	VIITMAA AIRI	SA Viljandi Haigla			N40		 
833	10	METSALLIK NELE				N		 
834	13	HASS KAJA				N		 
835	18	TÕKS JEKATERINA				N		 
836	24	SAAR JANNE				N40		 
837	35	SALU MERLE	Inut Solution			N		 
838	36	SALU VILJAR	Inut Solution			M		 
839	37	MAAJÄRV REGINA	Inut Solution			N		 
840	40	VOLT LIIS	üliõpilane			NN		 
841	43	MOGLIA PAOLO	Estonian Coffeehouse OÜ			M50		 
842	47	MARCINKEVICZ ROBIN				PA		 
843	50	LINROS LARISSA				N50		 
844	51	PEETERSOO KAIRE				N		 
845	55	OINUS TIIT		Melliste Racing Team		M		 
846	56	GUSSEV RAIN				M		 
847	66	LEPPIK KÄTLIN				N		 
848	70	AGAFONOVA ANNA				N		 
849	78	ALEKSEJEVA NATALJA				N		 
850	81	ALLIKMÄE AINAR				M		 
851	84	BACHMANN AGO	EE Kaevandused	Kaevanduste Spordiklubi		M40		 
852	99	DMITRI RAIHTSAUM	Eesti Energia	Ee Sport klub		M		 
853	108	GOFFERT VALERIA		Audentese SK		PB		 
854	109	GOLÕNSKI JAN				MJ		 
855	112	GUMANENKO RAJA				N45		 
856	130	IUKLOVA ULJANA				PB		 
857	136	JAKOVLEVA POLINA						 
858	144	JÕEMETS KRISTI		Team30+		N		 
859	150	JURLOV SERGEI		ÄKKE		PA		 
860	165	KARNOVITSH VLAD		ÄKKE		PA		 
861	173	KEEL RIINA				N40		 
862	202	KULPINA JELENA		MTÜ Vitatiim		N		 
863	205	LÄÄN CHRISTOPHER		Aegviidu SK		PA		 
864	211	LASS RAILI				N		 
865	223	LEOLA TERJE		TALLINNA ÜLIKOOL		N		 
866	224	LEPIKU NELE				N		 
867	236	LUUD MAIKEN				N		 
868	238	MAGLAFJAEV MIHHAIL		ÄKKE		M60		 
869	239	MAKSIMOVA DARJA		KJK "Kalev" Sillamäe				 
870	249	METSLOV EVELIN		Investement Agency Team				 
871	262	MURU SEIU	OÜ TUPSIK			N		 
872	263	NÄÄB ERIK	Fleming	Talkur		M		 
873	265	NIKIFOROV ALEKSANDR	EE Kaevandused	Kaevanduste Spordiklubi		M		 
874	266	NÕMMSALU LAURA				N		 
875	271	OJA FELIKS				M65		 
876	287	PEHK ENAR				M		 
877	321	ROOMA JONNE		Alutaguse SK				 
878	329	SAMMEL HELE-MAI				N		 
879	336	SEIN KÄTLIN				NN		 
880	341	SHKUBEL IGOR	EE Kaevandused	Kaevanduste Spordiklubi		M50		 
881	343	SIDORENKO ILJA	Eesti Eneergia			PA		 
882	348	SINIMÄE HEDLI				NJ		 
883	349	SINIMÄE MATHIAS		FC JÕHVI LOKOMOTIV		PA		 
884	356	SIRENDI MERIKE	EE Kaevandused	Kaevanduste Spordiklubi		N		 
885	361	STEINBERG SIGNE	Baltika AS			N		 
886	365	SURNOTSEV KIRILL				MN		 
887	366	SURVA KARL KEVIN				PA		 
888	367	SURVA TAIVO	Elektrilevi			M45		 
889	374	TŠUTJEIUK KARINA		ÄKKE		PB		 
890	378	TALI GRISTEL	Eesti Energia	Eesti Energia Spordiklubi		N		 
891	385	TIIKMAA BRITT-MARENA				N		 
892	406	VÄLI AVE				N40		 
893	417	VIJEIVŚEVA JELENA		ÄKKE		N60		 
894	418	VIJEUVŚEV JEVGENI				M60		 
895	430	ZAVADSKIS MARGARITA	Eesti Energia AS	Eesti Energia Spordiklubi		N45		 
896	432	ZOLKINA DARJA				PB		 
897	441	PARKSEPP ANNELI	Jääaja Keskus			N45		 
898	442	PILLIROOG ALARI	Jääaja Keskus			M40		 
899	443	ROOSILEHT BRITTA	Jääaja Keskus			N		 
900	445	VÄLJAOTS ANNIKA				N45		