Koht	Nkoht	Nr	Nimi	Riik	Linn_Maak	Aeg	10km	10km_Koht	21km	21km_Koht	30km	30km_Koht	Vkl	Vkl_koht	 
1		2	Ivar Ivanov	EST	Võru	2:34:27	0:36:18	2	1:17:02	2	1:49:17	1	M21	1	 
2		16	Valdis Nilovs	LAT	Läti	2:38:30	0:36:18	1	1:17:02	1	1:50:29	2	M35	1	 
3		11	Rait Ratasepp	EST	Tartu	2:45:40	0:38:16	4	1:21:01	3	1:56:02	3	M21	2	 
4		162	Rene Mandri	EST	Jõgeva	2:46:32	0:39:58	9	1:22:30	6	1:56:08	4	M21	3	 
5		25	Alar Abram	EST	Harju	2:48:34	0:40:37	13	1:24:36	11	2:00:15	9	M40	1	 
6		24	Jonathan Rosenbrier	GBR	Inglismaa	2:49:10	0:39:58	10	1:23:23	8	1:59:29	6	M21	4	 
7		17	Sander Hannus	EST	Tartu	2:53:46	0:39:59	11	1:23:24	9	2:00:04	7	M21	5	 
8		34	Janar Juhkov	EST	Tallinn	2:55:12	0:38:15	3	1:21:01	4	1:56:31	5	M21	6	 
9		12	Margus Heintalu	EST	Tallinn	2:56:44	0:40:37	14	1:26:12	13	2:03:55	11	M21	7	 
10		26	Andreas Kraas	EST	Tartu	2:57:45	0:39:57	7	1:23:23	7	2:00:05	8	M35	2	 
11		6	Kaspar Songisepp	EST	Tartu	2:57:47	0:42:54	21	1:29:20	17	2:06:56	17	M21	8	 
12		23	Rasmus Pind	EST	Tartu	2:57:54	0:42:56	22	1:29:20	18	2:06:55	15	M21	9	 
13		526	Taavi Tubilis	EST	Tallinn	2:58:03	0:43:02	28	1:29:21	19	2:06:56	16	M21	10	 
14		20	Margus Pirksaar	EST	Tartu	2:58:31	0:43:02	27	1:29:21	20	2:06:55	14	M35	3	 
15		44	Jüri Lember	EST	Tartu	3:02:07	0:43:03	31	1:29:33	29	2:08:05	23	M45	1	 
16	1	158	Mari Boikov	EST	Tallinn	3:03:11	0:43:02	30	1:29:21	21	2:06:57	20	N21	1	 
17		60	Valmar Sisask	EST	Võru	3:03:20	0:43:03	33	1:29:22	23	2:06:57	18	M21	11	 
18		75	Kaido Orgulas	EST	Tallinn	3:03:43	0:43:03	34	1:29:49	30	2:08:20	25	M45	2	 
19		186	Anti Toplaan	EST	Saaremaa	3:04:59	0:43:02	29	1:29:23	24	2:07:55	22	M45	3	 
20		35	Taavi Raudsaar	EST	Rapla	3:05:45	0:45:29	45	1:32:30	39	2:11:31	32	M21	12	 
21		421	Heiko Sepp	EST	Tartu	3:06:11	0:45:47	69	1:35:36	47	2:14:24	41	M21	13	 
22		51	Erkki Etverk	EST	Lääne-Viru	3:08:23	0:44:56	38	1:32:29	36	2:11:30	31	M40	2	 
23		107	Geir Suursild	EST	Pärnu	3:09:18	0:46:28	73	1:35:51	65	2:15:32	44	M20	1	 
24		72	Ants Einsalu	EST	Lääne-Viru	3:10:24	0:44:57	39	1:32:29	37	2:11:31	33	M50	1	 
25		66	Hannes Veide	EST	Tartu	3:10:48	0:39:58	8	1:25:17	12	2:07:03	21	M35	4	 
26	2	57	Annika Vaher	EST	Saaremaa	3:10:53	0:43:02	26	1:30:57	32	2:11:35	35	N40	1	 
27		500	Mihkel Kesvatera	EST	Tallinn	3:11:39	0:44:57	41	1:32:29	35	2:11:29	30	M21	14	 
28		52	Alexey Kuznetsov	RUS	Venemaa	3:11:39	0:45:07	42	1:32:31	40	2:11:31	34	M40	3	 
29		113	Maidu Saar	EST	Tartu	3:12:17	0:45:29	44	1:34:57	44	2:14:24	40	M35	5	 
30		211	Risto Ülem	EST	Saaremaa	3:12:20	0:43:03	32	1:29:25	27	2:10:21	28	M21	15	 
31	3	104	Kärt Kokk	EST	Tartu	3:12:42	0:45:29	46	1:34:58	45	2:15:29	43	N21	2	 
32		14	Peep Joonas	EST	Võru	3:12:45	0:43:02	25	1:29:24	26	2:09:17	26	M45	4	 
33		31	Raido Matson	EST	Tartu	3:12:50	0:41:49	15	1:29:13	15	2:08:12	24	M40	4	 
34		4	Viktor Gromov	RUS	Venemaa	3:12:52	0:38:43	5	1:21:40	5	2:02:33	10	M50	2	 
35		55	Dmitry Parygin	RUS	Venemaa	3:12:58	0:45:47	70	1:35:46	48	2:16:53	49	M35	6	 
36		110	Andreas Veeret	EST	Tartu	3:13:14	0:45:45	55	1:35:48	53	2:16:53	53	M21	16	 
37		37	Timo Suppi	EST	Harju	3:13:23	0:45:46	61	1:35:49	58	2:16:54	55	M35	7	 
38		114	Mikk Medijainen	EST	Tartu	3:13:41	0:45:46	65	1:35:49	60	2:16:26	47	M21	17	 
39		76	Juha Karvonen	FIN	Soome	3:13:43	0:45:13	43	1:35:34	46	2:16:51	48	M50	3	 
40		185	Rait Mererand	EST	Harju	3:13:53	0:45:45	50	1:35:49	57	2:16:53	52	M35	8	 
41		27	Silver Eensaar	EST	Tallinn	3:14:15	0:45:45	52	1:35:48	51	2:16:53	50	M35	9	 
42		117	Ants Isak	EST	Tartu	3:14:50	0:45:45	54	1:35:49	56	2:16:54	57	M21	18	 
43		56	Raigo Rõõmussar	EST	Pärnu	3:15:53	0:45:47	67	1:35:48	49	2:16:54	56	M21	19	 
44		68	Endel Jänes	EST	Jõgeva	3:16:25	0:45:46	66	1:35:48	52	2:16:55	59	M21	20	 
45		33	Andres Kuningas	EST	Harju	3:16:33	0:44:21	37	1:32:48	41	2:14:24	39	M35	10	 
46		36	Dainis Zuburs	LAT	Läti	3:16:41	0:42:26	17	1:31:51	34	2:13:57	38	M40	5	 
47		45	Martin Siimer	EST	Tallinn	3:16:42	0:44:57	40	1:32:30	38	2:12:18	37	M40	6	 
48		92	Aivar Arike	EST	Tartu	3:16:54	0:49:23	120	1:40:54	86	2:21:35	70	M45	5	 
49		541	Ruslan Opritz	EST	Tallinn	3:17:10	0:45:45	60	1:35:48	50	2:16:53	51	M35	11	 
50		505	Sergei Nikolaev	RUS	Venemaa	3:17:26	0:39:57	6	1:23:56	10	2:05:06	12	M40	7	 
51		106	Kristofer Soop	EST	Tartu	3:17:51	0:45:47	68	1:35:51	66	2:16:55	58	M21	21	 
52		111	Peeter Oranen	EST	Jõgeva	3:18:02	0:49:23	118	1:40:58	88	2:22:51	80	M35	12	 
53	4	153	Maris Tamm	EST	Tartu	3:18:46	0:45:42	48	1:36:00	67	2:17:18	65	N21	3	 
54		49	Urmas Kaljurand	EST	Tallinn	3:19:00	0:45:46	62	1:35:49	61	2:17:04	62	M50	4	 
55		226	Alo Sidorov	EST	Tallinn	3:19:28	0:48:30	86	1:40:46	83	2:21:47	72	M21	22	 
56		451	Sander Lepik	EST	Tartu	3:20:42	0:45:46	64	1:35:49	59	2:17:08	63	M21	23	 
57		312	Indrek Reitkam	EST	Tartu	3:20:46	0:46:43	76	1:36:18	68	2:17:16	64	M21	24	 
58		19	Priit Talu	EST	Pärnu	3:20:55	0:49:22	111	1:42:56	114	2:26:45	115	M40	8	 
59		9	Talis Nurk	EST	Tartu	3:21:21	0:45:45	59	1:35:50	63	2:16:54	54	M21	25	 
60		524	Aksel Nõmmela	EST	Tallinn	3:22:49	0:41:49	16	1:29:25	28	2:15:00	42	M20	2	 
61		448	Raivo Luht	FIN	Soome	3:22:57	0:49:26	132	1:40:54	85	2:21:44	71	M50	5	 
62		471	German Terehhov	EST	Ida-Viru	3:23:05	0:42:51	18	1:29:21	22	2:10:07	27	M40	9	 
63		124	Toomas Jõgeva	EST	Harju	3:23:10	0:45:43	49	1:35:49	55	2:17:03	61	M45	6	 
64		139	Arne Türkson	EST	Tartu	3:23:12	0:43:02	23	1:30:35	31	2:12:00	36	M45	7	 
65		132	Kaarel Hauk	EST	Tartu	3:23:16	0:45:30	47	1:34:56	43	2:15:58	45	M21	26	 
66		67	Joona Saluveer	EST	Tallinn	3:23:17	0:49:20	99	1:41:58	92	2:23:40	85	M35	13	 
67		435	Indrek Tikva	EST	Harju	3:23:19	0:49:34	140	1:43:15	132	2:26:30	112	M40	10	 
68		194	Tarvi Uusen	EST	Tartu	3:23:22	0:49:22	113	1:41:22	89	2:22:35	78	M45	8	 
69		50	Meelis Merenäkk	EST	Tartu	3:23:46	0:50:59	160	1:42:55	109	2:26:29	104	M35	14	 
70		475	Kurmo Roosimäe	EST	Tartu	3:23:56	0:49:21	106	1:40:13	81	2:21:54	75	M21	27	 
71		18	Aigar Raja	EST	Pärnu	3:24:11	0:49:21	104	1:43:11	130	2:26:27	95	M21	28	 
72		147	Indrek Kaseorg	EST	Tartu	3:24:13	0:49:24	125	1:42:55	107	2:26:28	103	M45	9	 
73		42	Gaspar Sukk	EST	Tallinn	3:24:34	0:42:51	19	1:31:22	33	2:16:08	46	M35	15	 
74		22	Jiri Tintera	EST	Tartu	3:24:39	0:49:20	94	1:42:55	105	2:26:28	101	M21	29	 
75		144	Aarne Seeba	EST	Tartu	3:25:23	0:49:23	122	1:42:56	111	2:26:29	108	M35	16	 
76		453	Priit Kasemets	EST	Tartu	3:25:24	0:49:20	95	1:40:44	82	2:22:37	79	M21	30	 
77		95	Ergo Meier	EST	Tallinn	3:25:29	0:45:45	53	1:38:30	72	2:21:51	74	M40	11	 
78		90	Sven Kask	EST	Tartu	3:26:10	0:49:22	117	1:42:50	99	2:26:27	96	M21	31	 
79		536	Jurgis Purgailis	LAT	Läti	3:26:14	0:51:09	163	1:43:40	135	2:25:21	91	M35	17	 
80		48	Mart Koppel	EST	Tartu	3:26:24	0:49:20	93	1:42:51	100	2:26:28	102	M40	12	 
81		179	Argo Miller	EST	Tallinn	3:26:26	0:48:39	87	1:42:17	95	2:24:29	88	M21	32	 
82		159	Toomas Gross	EST	Tartu	3:26:26	0:48:47	89	1:40:47	84	2:23:20	84	M40	13	 
83		7	Peeter Murumets	EST	Tartu	3:26:36	0:43:30	36	1:29:24	25	2:11:24	29	M21	33	 
84		496	Argo Ristisaar	EST	Tallinn	3:26:36	0:51:00	161	1:42:37	97	2:25:24	92	M40	14	 
85		516	Ain Kaare		Tartu	3:26:41	0:51:55	178	1:46:03	154	2:27:58	123	M45	10	 
86		105	Martin Parmas	EST	Tartu	3:26:42	0:49:59	143	1:42:54	103	2:26:28	97	M21	34	 
87		100	Meelis Koskaru	EST	Tallinn	3:26:46	0:49:24	126	1:42:57	120	2:26:29	109	M35	18	 
88		91	Ain Uustare	EST	Tartu	3:26:51	0:45:45	51	1:35:49	54	2:19:13	66	M35	19	 
89		530	Sergey Borisov	EST	Ida-Viru	3:26:57	0:45:45	58	1:36:37	69	2:20:52	68	M45	11	 
90		84	Siim Kukk	EST	Tartu	3:27:17	0:49:22	112	1:42:56	112	2:26:29	111	M21	35	 
91		479	Karl Sooväli	EST	Tallinn	3:27:19	0:45:45	56	1:35:50	62	2:16:55	60	M21	36	 
92		54	Kristo Valtin	EST	Võru	3:27:43	0:46:54	78	1:38:39	73	2:22:28	77	M20	3	 
93		220	Hendrik Rull	EST	Tartu	3:27:57	0:49:21	101	1:42:50	98	2:26:29	106	M17	1	 
94		97	Sven Suija	EST	Võru	3:28:01	0:43:30	35	1:34:26	42	2:21:14	69	M21	37	 
95		535	Dario Gasbarra	FIN	Soome	3:28:39	0:47:30	79	1:40:58	87	2:25:37	93	M45	12	 
96		494	Olle Selliov	EST	Tallinn	3:28:51	0:46:14	71	1:37:17	71	2:21:58	76	M35	20	 
97		459	Halmar Heinmets	EST	Tallinn	3:28:55	0:46:40	75	1:36:38	70	2:19:22	67	M21	38	 
98		173	Indrek Kuusk	EST	Tartu	3:29:01	0:49:21	105	1:42:56	116	2:26:28	100	M21	39	 
99		169	Tarvo Treier	EST	Tallinn	3:29:10	0:49:22	110	1:42:55	108	2:26:29	110	M21	40	 
100		197	Andi Linn	EST	Viljandi	3:29:17	0:49:20	92	1:42:55	104	2:26:28	99	M40	15	 
101		330	Tanel Visnapuu	EST	Tartu	3:29:26	0:49:21	107	1:41:57	91	2:24:39	89	M21	41	 
102		411	Veljo Vask	EST	Pärnu	3:29:39	0:49:27	134	1:43:04	128	2:27:56	122	M35	21	 
103		252	Indrek Jürgenstein	EST	Pärnu	3:29:43	0:50:08	152	1:42:58	125	2:27:56	121	M45	13	 
104		218	Martti Raavel	EST	Rapla	3:29:57	0:52:27	193	1:48:20	165	2:31:04	141	M35	22	 
105		416	Juhani Võik	EST	Tartu	3:30:12	0:49:20	96	1:42:57	121	2:26:37	114	M21	42	 
106		467	Kaspar Kukk	EST	Jõgeva	3:30:31	0:51:59	181	1:48:34	175	2:31:34	145	M21	43	 
107		88	Kristo Reitav	EST	Tartu	3:30:40	0:50:43	156	1:44:58	141	2:28:30	129	M21	44	 
108		62	Ander Raud	EST	Tartu	3:30:48	0:49:20	91	1:42:54	102	2:26:28	98	M21	45	 
109		99	Sander Pihlak	EST	Tallinn	3:30:59	0:49:20	97	1:42:57	118	2:26:56	117	M35	23	 
110		116	Indrek Karolin	EST	Põlva	3:31:35	0:49:21	102	1:42:55	106	2:26:29	107	M40	16	 
111		150	Kristjan Juur	EST	Tartu	3:32:01	0:46:49	77	1:38:45	74	2:22:56	83	M21	46	 
112		189	Andre Abner	EST	Harju	3:32:11	0:48:21	84	1:40:06	79	2:24:00	86	M40	17	 
113		498	Tarmo Mill	EST	Harju	3:32:47	0:49:34	141	1:42:07	93	2:25:14	90	M21	47	 
114		103	Erik Jõgi	EST	Harju	3:32:48	0:49:14	90	1:42:07	94	2:25:43	94	M40	18	 
115		420	Mart Maasikrand	EST	Tallinn	3:32:50	0:51:36	170	1:46:55	158	2:31:32	144	M40	19	 
116		306	Heiki Roomet	EST	Tallinn	3:32:52	0:51:57	180	1:46:41	157	2:30:43	139	M35	24	 
117		542	Janno Hollo	EST	Tartu	3:33:07	0:48:21	85	1:39:39	76	2:21:48	73	M40	20	 
118		82	Gery Einberg	EST	Tallinn	3:33:28	0:46:25	72	1:38:51	75	2:24:17	87	M35	25	 
119		208	Risto Luht	FIN	Soome	3:34:31	0:50:05	150	1:44:50	140	2:29:52	135	M21	48	 
120		225	Risto Mitt	EST	Tartu	3:34:38	0:49:21	100	1:42:58	124	2:26:55	116	M35	26	 
121		168	Mikk Põdra	EST	Tartu	3:34:42	0:49:23	121	1:43:04	126	2:26:31	113	M21	49	 
122		93	Ingmar Vutt	EST	Harju	3:35:35	0:49:25	130	1:42:57	122	2:27:49	120	M40	21	 
123		249	Silver Konksi	EST	Tartu	3:35:41	0:49:24	124	1:43:13	131	2:29:46	133	M40	22	 
124		268	Peeter Unt	EST	Tartu	3:36:03	0:45:45	57	1:35:50	64	2:22:56	82	M35	27	 
125		102	Taavi Dovnar	EST	Tartu	3:36:14	0:53:01	200	1:48:47	179	2:33:47	155	M21	50	 
126		142	Kaido Marjak	EST	Tartu	3:36:22	0:49:22	116	1:43:18	133	2:27:24	119	M35	28	 
127		518	Ardo Tiitmaa	EST	Läänemaa	3:36:25	0:49:26	133	1:41:33	90	2:26:29	105	M21	51	 
128		182	Leho Rennit	EST	Tallinn	3:36:27	0:51:36	171	1:48:24	166	2:34:00	157	M50	6	 
129		59	Keio Hämäläinen	EST	Tallinn	3:36:27	0:51:35	169	1:48:25	168	2:33:59	156	M21	52	 
130		171	Marek Mustonen	EST	Pärnu	3:36:55	0:49:22	114	1:42:55	110	2:27:21	118	M40	23	 
131		210	Targo Tennisberg	EST	Tartu	3:37:06	0:51:38	174	1:48:47	178	2:34:54	169	M35	29	 
132		123	Roman Errapart	EST	Tallinn	3:37:24	0:49:24	127	1:42:57	119	2:28:11	124	M21	53	 
133		484	Toomas Linnamägi	EST	Tartu	3:37:26	0:51:23	164	1:45:04	145	2:28:21	126	M21	54	 
134		504	Enno Rohelpuu	EST	Viljandi	3:37:38	0:53:34	222	1:51:44	217	2:38:49	188	M40	24	 
135		151	Ain Kivisild	EST	Tartu	3:38:32	0:49:30	139	1:45:55	152	2:32:36	150	M55	1	 
136		227	Oliver Hannus	EST	Tartu	3:39:19	0:49:59	144	1:42:56	113	2:28:28	127	M21	55	 
137		71	Rein Oder	EST	Tartu	3:39:23	0:50:05	148	1:44:58	142	2:30:21	136	M40	25	 
138		187	Peeter Ilmas	EST	Tartu	3:39:36	0:48:13	81	1:40:07	80	2:22:55	81	M45	14	 
139	5	262	Maija Pupola	LAT	Läti	3:39:45	0:48:41	88	1:43:55	137	2:30:51	140	N40	2	 
140		108	Pjotr Hrushov	EST	Tallinn	3:40:11	0:49:29	136	1:47:19	161	2:36:08	175	M65	1	 
141		338	Morten Vaalma	EST	Tartu	3:40:28	0:52:30	194	1:49:07	184	2:34:44	167	M21	56	 
142		188	Heikki Zeigo	EST	Tartu	3:40:38	0:53:23	207	1:49:26	187	2:33:14	152	M21	57	 
143		61	Indrek Roos	EST	Tartu	3:40:59	0:49:23	119	1:43:04	127	2:28:14	125	M35	30	 
144	6	178	Maris Jaama	EST	Valga	3:41:14	0:51:55	179	1:49:11	186	2:35:41	173	N45	1	 
145		239	Elmo Raudpuu	EST	Tartu	3:41:16	0:51:27	166	1:46:26	156	2:32:04	149	M40	26	 
146		276	Aarne Vasarik	EST	Harju	3:41:50	0:52:06	184	1:48:25	167	2:34:00	159	M35	31	 
147		129	John Innos	EST	Tallinn	3:41:52	0:52:57	198	1:48:47	180	2:34:44	165	M40	27	 
148		86	Olev Peters	EST	Harju	3:42:04	0:55:31	263	1:53:17	239	2:39:46	220	M40	28	 
149		89	Ailar Nirgi	EST	Tallinn	3:42:04	0:55:31	262	1:53:17	240	2:39:46	219	M45	15	 
150		438	Raivis Grivins	LAT	Läti	3:42:07	0:49:47	142	1:44:17	138	2:30:42	138	M21	58	 
151		63	Sander Jaama	EST	Tartu	3:42:26	0:50:43	157	1:48:31	173	2:34:05	161	M21	59	 
152		212	Jüri Speek	EST	Harju	3:42:28	0:52:23	192	1:50:00	190	2:36:43	180	M35	32	 
153		493	Marti Kaljuve	EST	Tallinn	3:42:30	0:49:22	109	1:43:47	136	2:31:36	147	M21	60	 
154		69	Marek Pungar	EST	Tartu	3:42:36	0:51:29	168	1:49:27	188	2:38:02	185	M35	33	 
155		417	Paul Ruubel	EST	Pärnu	3:42:36	0:53:32	215	1:51:44	218	2:39:08	193	M21	61	 
156		256	Indro Dsilna	EST	Tallinn	3:42:47	0:53:34	226	1:51:43	209	2:39:08	192	M35	34	 
157	7	478	Liisa Kull			3:42:47	0:53:34	227	1:51:37	202	2:39:07	190	N21	4	 
158		243	Kaupo Kirikall	EST	Harju	3:42:50	0:53:36	238	1:51:47	227	2:39:11	211	M45	16	 
159		506	Peep Teppo	EST	Tartu	3:42:54	0:53:08	201	1:48:31	171	2:34:44	168	M21	62	 
160		94	Priit Koha	EST	Võru	3:43:06	0:51:00	162	1:48:04	162	2:34:44	166	M35	35	 
161		307	Aleksei Kuligin	EST	Tallinn	3:43:18	0:50:09	153	1:48:08	163	2:39:06	189	M21	63	 
162		247	Madis Leivits	EST	Tartu	3:43:34	0:53:35	231	1:51:45	224	2:39:09	203	M21	64	 
163		181	Heiki Pruul	EST	Harju	3:43:42	0:53:34	221	1:51:43	211	2:39:09	202	M21	65	 
164		440	Jaanus Pettai	EST	Tartu	3:43:42	0:50:02	147	1:45:42	150	2:34:00	160	M21	66	 
165		419	Hektor Uustalo	EST	Harju	3:43:49	0:51:25	165	1:45:51	151	2:31:07	142	M21	67	 
166		98	Ingemar Maasikmäe	EST	Tartu	3:44:11	0:53:25	211	1:51:46	225	2:39:10	207	M21	68	 
167		361	Kristo Tuvi	EST	Valga	3:44:13	0:49:26	131	1:42:56	115	2:29:28	132	M20	4	 
168		230	Erik Jaaniso	EST	Tartu	3:44:19	0:53:34	223	1:51:50	232	2:39:09	200	M21	69	 
169		260	Raiko Maremäe	EST	Tartu	3:44:23	0:53:23	208	1:51:37	201	2:39:09	204	M21	70	 
170	8	285	Kaire Kallak	EST	Tartu	3:44:25	0:53:34	224	1:51:44	219	2:39:24	218	N40	3	 
171		418	Lauri Tõnise	EST	Tallinn	3:44:31	0:50:11	154	1:44:36	139	2:31:49	148	M35	36	 
172		235	Toomas Pärnassalu	EST	Tallinn	3:44:43	0:49:21	103	1:42:54	101	2:28:37	131	M45	17	 
173	9	275	Astrid Asi	EST	Harju	3:44:57	0:54:43	246	1:51:45	222	2:39:10	208	N35	1	 
174	10	261	Kristin Männik	EST	Tartu	3:44:57	0:53:36	235	1:51:43	213	2:39:08	197	N21	5	 
175		198	Meelis Nõmm	EST	Harju	3:45:00	0:53:34	218	1:51:43	207	2:39:07	191	M40	29	 
176		85	Emil Laugal	EST	Harju	3:45:14	0:49:22	115	1:45:31	148	2:33:38	153	M35	37	 
177		221	Madis Kerner	EST	Tartu	3:45:26	0:48:12	80	1:42:24	96	2:29:50	134	M21	71	 
178	11	294	Siiri Pilt	EST	Tartu	3:45:29	0:53:36	234	1:51:44	215	2:39:08	198	N40	4	 
179		269	Priit Mõtsmees	EST	Tartu	3:45:31	0:53:35	232	1:51:44	216	2:39:10	209	M45	18	 
180		238	Kalle Tammjärv	EST	Tartu	3:45:42	0:53:36	237	1:51:47	226	2:39:11	213	M45	19	 
181		468	Hugo Klaos	EST	Tallinn	3:45:42	0:53:36	236	1:51:45	223	2:39:11	210	M35	38	 
182		257	Margus Konnula	EST	Võru	3:45:43	0:53:08	202	1:48:31	172	2:34:00	158	M35	39	 
183		296	Maik Tukk	EST	Tartu	3:46:09	0:49:59	145	1:45:01	144	2:33:38	154	M21	72	 
184		175	Dainis Kaulins	LAT	Läti	3:46:17	0:51:44	176	1:48:51	181	2:36:39	178	M60	1	 
185		80	Toomas Ellervee	EST	Tartu	3:46:40	0:52:01	182	1:48:57	182	2:36:40	179	M50	7	 
186		286	Andrey Vavilov	EST	Tartu	3:46:47	0:52:01	183	1:48:28	170	2:36:18	176	M21	73	 
187		160	Priit Tsirp	EST	Tartu	3:46:49	0:55:21	252	1:54:21	245	2:42:24	231	M21	74	 
188		454	Maido Mäoma	EST	Tartu	3:46:55	0:52:16	189	1:48:32	174	2:34:21	163	M21	75	 
189		214	Ingmar Pärtelpoeg	EST	Tartu	3:47:02	0:53:34	217	1:51:41	203	2:39:09	201	M40	30	 
190		446	Tõnu Rosenberg	EST	Harju	3:47:09	0:53:53	241	1:51:48	230	2:39:11	212	M40	31	 
191	12	310	Marju Villak	EST	Tartu	3:47:14	0:50:43	158	1:48:08	164	2:36:45	181	N21	6	 
192	13	112	Merili Naaber	EST	Tartu	3:47:16	0:51:55	177	1:48:57	183	2:36:39	177	N21	7	 
193		165	Kristjan Tammsaar	EST	Tartu	3:47:30	0:49:20	98	1:45:24	146	2:35:28	170	M21	76	 
194		190	Siim Saidla	EST	Tallinn	3:47:40	0:57:02	291	1:57:23	267	2:46:57	253	M21	77	 
195		183	Raino Lilo	EST	Tartu	3:47:41	0:52:13	186	1:48:40	177	2:35:34	171	M21	78	 
196	14	259	Kätlin Aasmaa	EST	Tartu	3:47:42	0:50:00	146	1:45:30	147	2:34:24	164	N21	8	 
197	15	425	Jaanika Kurgjärv	EST	Tartu	3:47:50	0:53:33	216	1:51:43	206	2:39:08	195	N21	9	 
198	16	152	Marika Koplimägi	EST	Tartu	3:47:51	0:53:30	214	1:51:45	221	2:39:09	205	N40	5	 
199		222	Margus Sepp	EST	Rapla	3:47:52	0:57:11	329	1:58:53	310	2:46:46	252	M45	20	 
200		184	Margus Trees	EST	Valga	3:48:07	0:50:07	151	1:47:12	160	2:35:34	172	M35	40	 
201	17	196	Kaia Lepik	EST	Tallinn	3:48:58	0:52:13	187	1:50:19	194	2:39:11	214	N21	10	 
202	18	340	Eve Härm	EST	Tallinn	3:49:43	0:54:48	250	1:54:18	243	2:42:51	236	N21	11	 
203		319	Martin Kiho	EST	Tallinn	3:49:49	0:55:28	257	1:56:19	260	2:43:47	240	M21	79	 
204	19	482	Ingrida Greivule	LAT	Läti	3:49:51	0:53:34	219	1:51:47	228	2:40:04	223	N40	6	 
205	20	406	Liisi Saar	EST	Saaremaa	3:50:02	0:49:21	108	1:45:58	153	2:35:46	174	N21	12	 
206		131	Siim Siigur	EST	Tartu	3:50:35	0:52:17	190	1:49:11	185	2:36:48	182	M21	80	 
207		240	Indrek Seire	EST	Tallinn	3:51:03	0:56:12	270	1:56:32	262	2:45:33	249	M40	32	 
208		532	Kunnar Kuuder	EST	Tallinn	3:51:17	0:56:35	277	1:55:37	252	2:43:44	239	M35	41	 
209		313	Ando Viispert	EST	Tartu	3:51:27	0:55:45	267	1:55:57	253	2:44:29	244	M35	42	 
210	21	423	Brit Rammul	EST	Harju	3:51:36	0:54:22	243	1:53:05	237	2:42:39	235	N21	13	 
211		472	Martin Roos	EST	Jõgeva	3:51:41	0:53:35	230	1:51:44	220	2:39:08	196	M21	81	 
212	22	224	Evelin Pellenen	EST	Tartu	3:51:41	0:53:13	203	1:50:49	197	2:40:10	224	N35	2	 
213		125	Kaupo Ottas	EST	Tartu	3:51:53	0:55:21	253	1:55:26	251	2:42:24	232	M35	43	 
214		474	Eerik Muuli	EST	Tartu	3:51:55	0:57:06	322	1:57:31	282	2:47:00	266	M20	5	 
215		255	Meelis Atonen	EST	Tallinn	3:52:07	0:57:03	292	1:57:30	270	2:46:59	258	M45	21	 
216		539	Martin Veisman	EST	Tallinn	3:52:16	0:57:04	303	1:56:12	255	2:43:42	238	M21	82	 
217		333	Indrek Ilves	EST	Pärnu	3:52:17	0:55:35	265	1:56:13	256	2:46:59	256	M40	33	 
218	23	267	Anneli Tühis	EST	Tallinn	3:52:24	0:57:04	305	1:57:31	280	2:46:59	257	N35	3	 
219		445	Sander Kelk	EST	Tallinn	3:52:44	0:48:14	82	1:42:57	117	2:28:37	130	M21	83	 
220		450	Mati Põldver	EST	Tartu	3:52:47	0:53:35	233	1:51:52	233	2:39:21	216	M35	44	 
221		157	Kaur Paves	EST	Tartu	3:53:02	0:57:04	309	1:57:32	289	2:47:01	268	M21	84	 
222		499	Marek Lahe	EST	Harju	3:53:07	0:57:03	297	1:57:30	271	2:46:59	255	M21	85	 
223		538	Innar Marmor	EST	Tallinn	3:53:19	0:57:06	321	1:57:31	281	2:47:00	263	M40	34	 
224		77	Alexander Parygin	RUS	Venemaa	3:53:20	0:48:18	83	1:42:58	123	2:31:30	143	M65	2	 
225		447	Aigars Judzis	LAT	Läti	3:53:24	0:53:25	212	1:51:43	212	2:39:12	215	M21	86	 
226		441	Ermo Haas	EST	Tartu	3:53:30	0:56:24	274	1:56:16	259	2:44:29	243	M21	87	 
227		352	Ahti Nuga	EST	Rapla	3:53:36	0:53:17	206	1:51:23	199	2:39:09	199	M21	88	 
228		332	Andres Kiisler	EST	Viljandi	3:54:00	0:53:23	209	1:51:42	204	2:39:21	217	M40	35	 
229		83	Toomas Paas	EST	Tallinn	3:54:18	0:55:49	268	1:57:30	273	2:46:58	254	M35	45	 
230		135	Taavi Visnap	EST	Lääne-Viru	3:54:31	0:57:05	318	1:57:40	299	2:46:59	260	M21	89	 
231		302	Jaanus Kaur	EST	Tallinn	3:54:48	0:56:36	284	1:57:31	287	2:46:59	259	M50	8	 
232		121	Raul Liebenau	EST	Tartu	3:54:55	0:46:30	74	1:39:47	77	2:31:35	146	M21	90	 
233		288	Mart Kelk	EST	Tartu	3:55:04	0:56:34	276	1:56:23	261	2:45:14	247	M21	91	 
234		233	Voldemar Sindonen	EST	Lääne-Viru	3:55:05	0:52:41	195	1:53:10	238	2:42:24	233	M55	2	 
235		414	Gert Ristla	EST	Lääne-Viru	3:55:13	0:53:13	204	1:51:43	214	2:40:46	228	M21	92	 
236		455	Raido Tonts	EST	Tartu	3:55:17	0:57:06	324	1:57:31	285	2:47:01	270	M21	93	 
237		266	Kristjan Timmusk	EST	Tartu	3:55:21	0:53:34	220	1:51:42	205	2:39:08	194	M21	94	 
238	24	359	Kristi Teppo	EST	Tartu	3:55:33	0:56:38	288	1:57:32	295	2:47:01	267	N21	14	 
239		497	Roberts Mencis	EST	Tartu	3:55:40	0:52:59	199	1:51:11	198	2:39:10	206	M35	46	 
240		291	Alo Järve	EST	Tartu	3:56:23	0:57:05	313	1:57:30	272	2:47:00	264	M35	47	 
241		457	Indrek Linnamägi	EST	Tallinn	3:56:57	0:53:38	239	1:51:48	229	2:40:01	221	M21	95	 
242		193	Märt Elmet	EST	Tartu	3:56:59	0:50:53	159	1:48:35	176	2:38:38	186	M45	22	 
243		228	Ain Kivesti	EST	Tartu	3:57:25	0:49:23	123	1:43:26	134	2:34:12	162	M21	96	 
244		405	Aivars Alt	EST	Harju	3:57:57	0:57:04	306	1:57:30	268	2:47:00	262	M21	97	 
245	25	488	Kersti Marmor	EST	Tallinn	3:58:44	0:57:05	319	1:57:31	283	2:47:00	265	N40	7	 
246		164	Lauri Tõnisson	EST	Tartu	3:58:58	0:51:37	173	1:48:26	169	2:36:55	183	M21	98	 
247		533	Tarvo Albri	EST	Pärnu	3:59:11	0:53:35	228	1:52:12	236	2:42:58	237	M21	99	 
248		155	Margus Kangur	EST	Tartu	3:59:25	0:52:20	191	1:50:14	191	2:40:17	226	M35	48	 
249		473	Urmas Urva	EST	Harju	3:59:27	0:57:09	326	1:57:33	296	2:47:21	282	M40	36	 
250		148	Eero Oja	EST	Tartu	3:59:27	0:49:29	137	1:46:22	155	2:37:25	184	M35	49	 
251		204	Rain Vellerind	EST	Harju	3:59:41	0:56:19	273	1:57:48	301	2:46:12	250	M45	23	 
252		357	Andrus Nurmik	EST	Jõgeva	3:59:55	0:57:06	325	1:57:31	279	2:47:03	275	M45	24	 
253		213	Andres Sinisalu	EST	Tallinn	4:00:13	0:57:03	299	1:57:32	294	2:47:01	272	M45	25	 
254		195	Toomas Männasoo	EST	Tallinn	4:00:17	0:54:44	247	1:55:19	250	2:44:58	246	M35	50	 
255		477	Tõnis Pärn	EST	Tartu	4:00:21	0:57:03	298	1:57:48	300	2:47:08	278	M21	100	 
256		317	Erki Lillemägi	EST	Rapla	4:00:31	0:55:22	255	1:58:53	309	2:49:22	291	M40	37	 
257		298	Kuido Kond	EST	Lääne-Viru	4:00:34	0:55:09	251	1:56:15	258	2:47:01	269	M40	38	 
258		439	Kalmar Kurs	EST	Tartu	4:02:13	0:57:04	310	1:57:30	269	2:46:59	261	M40	39	 
259		408	Josep Soler Carbonell	EST	Tallinn	4:02:28	0:55:29	259	1:53:50	241	2:44:16	242	M21	101	 
260	26	143	Eve Jaeski	EST	Tartu	4:02:35	0:53:41	240	1:54:06	242	2:45:31	248	N35	4	 
261		242	Aimar Pärnalaas	EST	Valga	4:04:28	0:53:28	213	1:51:54	234	2:40:21	227	M40	40	 
262		427	Igor Dudich	RUS	Venemaa	4:05:12	0:56:57	290	1:57:19	266	2:47:05	277	M60	2	 
263		46	Kaur Alle	EST	Saaremaa	4:05:16	0:49:25	128	1:50:17	192	2:41:28	229	M21	102	 
264		399	Peter Repkin	EST	Tartu	4:05:43	0:56:35	278	1:57:32	291	2:47:05	276	M40	41	 
265		246	Mihkel Gill	EST	Tartu	4:05:48	0:53:14	205	1:51:43	210	2:57:31	320	M21	103	 
266		529	Rainer Jõesaar	EST	Tallinn	4:06:22	0:52:53	197	1:50:42	196	2:41:41	230	M21	104	 
267		258	Jevgeni Hafizov	EST	Tallinn	4:06:34	0:54:05	242	1:54:27	247	2:47:13	280	M60	3	 
268		413	Tauri Tikk		Tallinn	4:06:39	0:57:05	316	1:57:31	278	2:47:03	274	M21	105	 
269	27	316	Anna-Liisa Pechter	EST	Tartu	4:06:55	0:55:28	258	1:56:33	264	2:49:22	290	N21	15	 
270		283	Henri Haldre	EST	Tallinn	4:07:11	0:56:36	282	1:57:31	284	2:47:02	273	M35	51	 
271		337	Valvo Piilberg	EST	Tartu	4:08:35	1:00:41	362	2:06:39	347	2:59:26	326	M35	52	 
272	28	460	Elise Umb	EST	Pärnu	4:08:52	0:55:35	266	1:56:13	257	2:47:13	281	N21	16	 
273		219	Janno Toomet	EST	Tartu	4:09:01	0:57:06	323	1:57:32	292	2:47:01	271	M21	106	 
274		271	Kalle Lellep	EST	Tartu	4:09:17	0:53:34	225	1:51:43	208	2:40:03	222	M35	53	 
275	29	284	Katrin Gabrel	EST	Tartu	4:09:23	0:57:03	295	1:59:10	313	2:52:15	300	N35	5	 
276		308	Gunnar Zirnask	EST	Tartu	4:09:59	0:56:36	283	1:58:56	311	2:52:02	298	M55	3	 
277		349	Janar Veski	EST	Võru	4:10:17	1:03:48	393	2:12:43	367	3:02:44	341	M21	107	 
278		331	Harald Astok	EST	Tartu	4:10:39	0:55:24	256	1:54:36	249	2:48:59	289	M20	6	 
279		368	Keio Kaljumäe	EST	Valga	4:10:47	0:57:04	312	1:57:34	297	2:48:24	287	M21	108	 
280		489	Jan Jaanson	EST	Harju	4:12:50	0:57:03	293	1:57:30	274	2:47:36	285	M35	54	 
281	30	231	Hedvig Tamman	EST	Tartu	4:12:52	0:57:09	327	2:01:17	320	2:55:31	309	N21	17	 
282		202	Madis Joonsalu	EST	Tartu	4:13:09	1:00:41	363	2:06:26	343	2:59:26	327	M21	109	 
283		491	Jaak Tarien	EST	Tallinn	4:13:09	0:59:00	346	2:07:23	350	2:59:11	325	M35	55	 
284		301	Paul Gill	EST	Tartu	4:13:27	1:02:38	368	2:08:27	354	3:00:32	334	M40	42	 
285	31	282	Maila Kuus	EST	Tartu	4:14:00	0:57:53	338	2:02:37	324	2:57:01	317	N40	8	 
286		154	Renee Praks	EST	Valga	4:14:15	0:56:37	285	1:59:03	312	2:52:48	304	M35	56	 
287		115	Rein Kalle	EST	Põlva	4:14:20	0:51:36	172	1:49:42	189	2:40:16	225	M35	57	 
288	32	503	Kaija Saarepuu	EST	Võru	4:14:22	0:56:36	279	1:57:30	276	2:47:32	284	N21	18	 
289		334	Urmet Hiiekivi	EST	Harju	4:14:39	0:57:28	335	2:02:02	322	2:56:06	310	M45	26	 
290	33	348	Merle Siimann	EST	Tartu	4:14:55	0:59:42	350	2:03:37	336	2:57:04	318	N40	9	 
291	34	318	Hiye Kuuli	EST	Tallinn	4:14:59	0:57:03	294	1:57:31	286	2:50:08	296	N40	10	 
292		141	Elvis Lillevälja	EST	Tartu	4:15:16	0:52:13	185	1:50:19	193	2:44:13	241	M35	58	 
293	35	434	Kärt Radik	EST	Harju	4:15:21	0:59:59	351	2:03:01	327	2:55:15	307	N40	11	 
294		161	Aivar Romet	EST	Tartu	4:15:34	0:52:51	196	1:51:57	235	2:46:41	251	M50	9	 
295	36	303	Marika Roopärg	EST	Tallinn	4:16:14	0:56:47	289	1:59:21	314	2:53:34	305	N45	2	 
296		360	Marko Rundu	EST	Viljandi	4:16:23	0:53:24	210	1:54:27	246	2:49:46	292	M35	59	 
297	37	297	Kristiina Ojamäe	EST	Tartu	4:16:27	0:59:37	349	2:05:56	340	2:59:59	329	N40	12	 
298		270	Urmas Hallik	EST	Pärnu	4:16:28	0:58:35	344	2:03:16	330	2:56:37	313	M35	60	 
299		461	Lauri Kivimeister	EST	Tartu	4:17:04	0:57:05	317	1:57:30	277	2:47:22	283	M21	110	 
300		341	Algis Sepp	EST	Järvamaa	4:17:11	0:56:37	287	1:57:30	275	2:48:52	288	M35	61	 
301		149	Väino Ellamik	EST	Tartu	4:17:40	0:51:27	167	1:47:07	159	2:38:42	187	M40	43	 
302	38	365	Anne Küttim	EST	Tartu	4:17:42	0:56:15	272	2:00:46	316	2:56:12	312	N40	13	 
303		431	Dmitry Stepanov	RUS	Venemaa	4:18:03	0:58:30	343	2:03:35	334	2:56:42	315	M21	111	 
304		346	Ivan Maurakh	RUS	Venemaa	4:18:27	1:00:40	360	2:06:20	342	3:00:19	332	M50	10	 
305		347	Evgeny Trofimov	RUS	Venemaa	4:18:28	1:00:40	359	2:06:33	345	3:00:18	331	M45	27	 
306		433	Peeter Napp	EST	Tartu	4:18:28	1:03:49	395	2:08:26	353	3:00:51	337	M35	62	 
307	39	480	Martina Musalkova	CZE	Tshehhi	4:18:49	0:57:10	328	2:01:12	319	2:55:27	308	N21	19	 
308		248	Sten Üprus	EST	Tartu	4:19:25	0:57:04	308	1:57:32	293	2:50:03	294	M21	112	 
309		380	Raivo Maimre	EST	Tartu	4:19:44	0:59:25	348	2:05:57	341	2:58:15	323	M21	113	 
310		315	David Arutyunyan	EST	Tartu	4:20:01	0:55:55	269	2:01:32	321	2:56:48	316	M21	114	 
311		483	Mikael Kolehmainen	FIN	Soome	4:20:01	0:53:35	229	1:51:49	231	2:44:30	245	M35	63	 
312		502	Kuno Kipper	EST	Tallinn	4:20:03	0:55:31	264	1:58:21	306	2:55:13	306	M55	4	 
313	40	481	Inga Ziedina	LAT	Läti	4:20:41	0:56:30	275	2:03:22	333	3:00:34	335	N40	14	 
314	41	523	Kaie Henno	EST	Tartu	4:20:49	0:57:53	337	2:03:02	328	2:59:27	328	N40	15	 
315		444	Aigar Konsap	EST	Põlva	4:21:17	0:54:42	245	2:00:04	315	2:57:46	322	M40	44	 
316		320	Kaupo Toom	EST	Tartu	4:21:58	0:55:30	260	1:56:09	254	2:47:44	286	M21	115	 
317		422	Rain Marrandi	EST	Harju	4:22:18	0:54:47	249	1:58:09	303	2:52:28	301	M21	116	 
318		245	Rain Jaaksoo	EST	Tartu	4:23:35	1:03:49	394	2:13:06	377	3:10:19	366	M21	117	 
319		328	Martin Herem	EST	Tartu	4:23:42	0:57:16	331	2:07:02	348	3:02:13	340	M40	45	 
320		412	Eero-Margo Neeme	EST	Tartu	4:24:04	0:57:03	296	1:57:35	298	2:56:39	314	M35	64	 
321		229	Raul Villo	EST	Harju	4:24:08	0:57:04	307	1:58:11	304	2:52:29	302	M35	65	 
322		476	Jaanus Viljamaa	EST	Tallinn	4:24:27	1:00:40	358	2:09:56	359	3:06:12	349	M50	11	 
323		281	Fred Üprus	EST	Tartu	4:25:20	0:49:25	129	1:50:36	195	2:50:01	293	M45	28	 
324	42	452	Helle Viitak	EST	Jõgeva	4:25:30	0:57:04	302	2:03:20	331	3:00:25	333	N40	16	 
325		377	Andres Tootsman	EST	Tartu	4:25:32	0:58:29	341	2:03:21	332	3:00:12	330	M50	12	 
326		462	Margus Käär	EST	Tartu	4:25:34	1:03:48	390	2:13:07	387	3:10:21	379	M35	66	 
327		345	Silver Hannus	EST	Tartu	4:26:09	1:03:47	376	2:13:00	371	3:10:19	365	M21	118	 
328	43	366	Karoliina Kägo	EST	Pärnu	4:26:55	1:03:46	370	2:13:08	389	3:10:20	376	N21	20	 
329		367	Erkki Laaneoks	EST	Tartu	4:27:32	0:57:37	336	1:57:31	288	2:52:13	299	M21	119	 
330		485	Veigo Ivanov	EST	Tallinn	4:28:05	1:03:49	399	2:13:09	393	3:10:20	369	M21	120	 
331		388	Mati Filatenko	EST	Tartu	4:28:24	1:03:47	385	2:13:07	384	3:10:20	370	M45	29	 
332		373	Mikhail Samarin	RUS	Venemaa	4:28:44	1:03:48	387	2:13:01	374	3:10:21	380	M40	46	 
333		199	Margus Merivälja	EST	Harju	4:29:01	1:03:47	375	2:13:06	381	3:10:19	361	M35	67	 
334		429	Sergei Matcur	RUS	Venemaa	4:29:01	1:03:49	396	2:13:00	372	3:10:20	373	M45	30	 
335	44	389	Regina Padar	EST	Tartu	4:29:08	0:57:03	301	2:00:49	318	2:58:59	324	N21	21	 
336		350	Jaanus Tammjärv	EST	Tartu	4:29:14	0:57:04	304	1:57:56	302	2:56:08	311	M40	47	 
337	45	322	Tuuli Teeäär	EST	Tallinn	4:29:18	1:01:57	366	2:10:56	361	3:08:49	354	N21	22	 
338	46	470	Tiina Tartes	EST	Tallinn	4:29:32	1:01:35	365	2:08:21	351	3:04:35	346	N40	17	 
339	47	449	Anna-Kati Pahker	EST	Jõgeva	4:29:42	1:03:46	374	2:12:58	369	3:09:46	358	N20	1	 
340		264	Marti Soosaar	EST	Tartu	4:29:42	1:03:46	371	2:12:58	368	3:09:46	357	M35	68	 
341		272	Koit Põldmaa	EST	Lääne-Viru	4:29:58	0:57:05	315	1:57:32	290	2:50:05	295	M21	121	 
342		355	Einari Hipeli	EST	Tallinn	4:30:20	1:03:47	383	2:13:46	399	3:10:22	381	M70	1	 
343		492	Richard Galle	NOR	Norra	4:30:29	0:54:45	248	1:54:30	248	2:51:15	297	M21	122	 
344	48	430	Nina Tarelkina	RUS	Venemaa	4:30:54	1:00:41	364	2:09:02	357	3:05:50	347	N60	1	 
345	49	428	Liubov Bogdanova	RUS	Venemaa	4:30:54	1:03:47	380	2:13:01	373	3:10:02	360	N55	1	 
346	50	495	Katrin Kala			4:31:47	1:03:47	382	2:13:07	386	3:10:20	374	N35	6	 
347	51	537	Evelin Kuris	EST	Saaremaa	4:32:39	1:02:36	367	2:12:09	366	3:09:06	355	N21	23	 
348	52	374	Maichl Suur	EST	Põlva	4:32:48	1:05:42	410	2:15:01	400	3:11:44	387	N35	7	 
349		381	Erik-Voldemar Üprus	EST	Tallinn	4:32:55	1:00:39	357	2:09:56	360	3:06:12	350	M70	2	 
350	53	371	Maive Vill	EST	Valga	4:33:32	0:57:16	332	2:02:37	325	3:06:29	351	N21	24	 
351		293	Markus Murruste	EST	Tallinn	4:34:20	1:03:49	400	2:13:06	379	3:10:20	372	M21	123	 
352		527	Kerri Ulp	EST	Tallinn	4:35:26	0:56:36	280	2:03:36	335	3:10:21	378	M45	31	 
353		304	Sander Kollom	EST	Tartu	4:35:44	0:58:30	342	2:05:27	337	3:03:02	342	M40	48	 
354		343	Allan Riim	EST	Tartu	4:35:46	0:56:37	286	1:58:22	307	2:57:12	319	M20	7	 
355		326	Olev Kroon	EST	Harju	4:36:24	1:00:16	354	2:08:27	355	3:06:55	353	M50	13	 
356		192	Jüri Kiens	EST	Tartu	4:36:58	0:58:27	339	2:05:44	339	3:04:16	343	M50	14	 
357	54	335	Tuuli Kiens	EST	Tartu	4:36:58	0:58:27	340	2:05:44	338	3:04:16	344	N50	1	 
358		305	Heiki Pilm	EST	Valga	4:37:05	1:03:46	372	2:13:06	378	3:10:19	363	M21	124	 
359	55	517	Meeli Laos	EST	Läänemaa	4:37:15	1:03:47	378	2:13:07	388	3:10:20	368	N21	25	 
360		512	Alar Zukker	EST	Tartu	4:37:35	1:02:43	369	2:13:08	390	3:10:19	362	M45	32	 
361		356	Joel Tints	EST	Pärnu	4:37:46	1:00:05	353	2:09:12	358	3:09:11	356	M50	15	 
362		458	Willem Kuningas	EST	Tartu	4:38:33	1:03:48	392	2:12:58	370	3:10:19	364	M21	125	 
363		363	Ragnar Krooni	EST	Järvamaa	4:39:29	1:03:47	381	2:13:07	385	3:10:19	367	M21	126	 
364		156	Martin Kaur	EST	Tartu	4:39:58	1:05:22	408	2:17:35	405	3:16:46	398	M20	8	 
365		525	Niklavs Matusevics	LAT	Läti	4:40:01	0:54:31	244	2:03:10	329	3:06:53	352	M20	9	 
366		362	Kristo Pahla	EST	Tartu	4:41:20	1:05:22	409	2:17:35	404	3:16:46	397	M21	127	 
367		397	Jaanus Altoja	EST	Ida-Viru	4:42:28	1:00:40	361	2:06:26	344	3:05:53	348	M40	49	 
368		292	Oliver Mandre	EST	Tartu	4:42:28	1:03:50	405	2:13:17	398	3:15:25	394	M21	128	 
369	56	385	Marlen Mäesalu	EST	Tartu	4:44:05	1:03:49	397	2:13:02	375	3:10:02	359	N21	26	 
370		336	Kaarel Svätski	EST	Tartu	4:46:13	0:55:22	254	1:54:21	244	2:42:24	234	M21	129	 
371		223	Kaarel Tõruvere	EST	Tartu	4:46:47	0:50:43	155	1:51:29	200	2:57:31	321	M21	130	 
372		201	Ville Pähklamäe	EST	Valga	4:47:14	0:57:05	314	2:02:49	326	3:04:16	345	M20	10	 
373		122	Veiko Karp	EST	Lääne-Viru	4:47:26	0:57:04	311	2:02:24	323	3:00:40	336	M45	33	 
374		386	Tauno Ojasaar	EST	Lääne-Viru	4:47:57	1:03:46	373	2:13:07	382	3:10:23	384	M40	50	 
375	57	369	Kaire Klaus	EST	Võru	4:47:57	1:03:47	379	2:13:06	380	3:12:01	388	N35	8	 
376		531	Joel Jaago	EST	Harju	4:48:10	1:03:48	388	2:13:07	383	3:10:20	375	M35	69	 
377		309	Kalev Müür	EST	Tartu	4:48:48	1:07:52	412	2:19:33	408	3:20:24	404	M35	70	 
378		508	Andrus Sareal	EST	Tartu	4:49:00	1:03:47	384	2:13:09	394	3:10:22	383	M35	71	 
379		509	Ago Viner	EST	Tartu	4:49:00	1:03:48	386	2:13:09	395	3:10:22	382	M40	51	 
380		391	Veiko Vainküla	EST	Harju	4:49:20	1:03:47	377	2:13:05	376	3:13:49	390	M40	52	 
381	58	384	Annika Pang	EST	Võru	4:49:32	0:58:43	345	2:07:16	349	3:11:10	385	N45	3	 
382		191	Rain Jansen	EST	Tartu	4:50:10	0:52:14	188	1:57:04	265	3:01:00	339	M35	72	 
383		265	Toomas Visnap	EST	Valga	4:50:10	0:57:05	320	2:00:47	317	3:01:00	338	M45	34	 
384		215	Bruno Lippur	EST	Jõgeva	4:50:16	0:51:39	175	1:58:20	305	3:10:20	371	M40	53	 
385		424	Silver Soon	EST	Tartu	4:51:30	1:03:50	403	2:13:17	397	3:15:46	395	M21	131	 
386		514	Villu Veel	EST	Saaremaa	4:51:32	0:57:23	334	2:11:32	364	3:14:46	392	M40	54	 
387		250	Matti Silber	EST	Tartu	4:52:14	1:00:30	355	2:11:21	363	3:14:00	391	M60	4	 
388		379	Valmar Vallimäe	EST	Tartu	4:54:43	0:57:03	300	2:11:17	362	3:17:22	400	M35	73	 
389	59	528	Piret Lauk	EST	Tallinn	4:55:04	1:05:21	407	2:15:17	401	3:17:23	401	N20	2	 
390		400	Kalle Kask	EST	Tallinn	4:55:07	1:10:59	415	2:26:11	411	3:26:47	407	M40	55	 
391	60	323	Jane Jaomaa	EST	Tartu	4:55:27	1:00:39	356	2:11:47	365	3:16:16	396	N40	18	 
392		353	Juhan Haldre	EST	Tallinn	4:55:31	1:00:04	352	2:08:49	356	3:11:17	386	M21	132	 
393	61	464	Mari Moora	EST	Tallinn	4:56:06	1:03:50	404	2:13:12	396	3:15:22	393	N21	27	 
394		382	Ülo Luuka	EST	Tartu	4:56:06	1:03:50	402	2:13:08	392	3:10:20	377	M50	16	 
395	62	200	Külli Nõmm	EST	Harju	4:56:06	1:11:00	417	2:26:24	412	3:27:15	408	N40	19	 
396	63	410	Liisi Arm	EST	Tallinn	5:03:17	1:11:01	418	2:26:24	413	3:27:15	409	N21	28	 
397		370	Mart Mikkelsaar	EST	Tartu	5:03:17	1:11:00	416	2:26:53	415	3:27:15	410	M50	17	 
398	64	398	Kadri Raudvere	EST	Tartu	5:03:27	1:03:48	389	2:15:38	402	3:20:24	405	N21	29	 
399		543	Martin Kimmel	EST	Tartu	5:03:58	1:03:52	406	2:13:08	391	3:17:04	399	M21	133	 
400	65	415	Annemari Muru	EST	Tartu	5:05:03	1:03:49	401	2:17:35	406	3:21:36	406	N21	30	 
401	66	507	Leili Teeväli	EST	Tartu	5:08:40	1:07:19	411	2:24:31	410	3:32:33	412	N65	1	 
402		390	Ott Kalavus	EST	Tartu	5:08:51	1:11:01	419	2:26:25	414	3:30:54	411	M21	134	 
403		501	Indrek Jürgenson	EST	Tartu	5:09:54	0:56:36	281	2:06:34	346	3:19:54	403	M35	74	 
404		520	Rein Pärn	EST	Tallinn	5:21:00	1:10:52	414	2:29:39	416	3:37:06	415	M70	3	 
405		432	Viktor Muuli	EST	Tartu	5:25:02	1:11:51	420	2:33:03	417	3:41:14	417	M45	35	 
406		251	Rainis Pugovkin	EST	Tartu	5:30:15	0:57:20	333	2:18:37	407	3:36:03	413	M20	11	 
407		176	Tanel Uudeberg	EST	Lääne-Viru	5:30:30	0:55:30	261	1:58:27	308	3:13:31	389	M21	135	 
408		519	Valdeko Alliksaar	EST	Viljandi	5:41:56	1:19:04	422	2:45:44	418	3:53:54	418	M65	3	 
409		515	Erkki Naaris	EST	Valga	5:48:54	1:03:49	398	2:16:44	403	3:36:20	414	M35	75	 
410	67	463	Maiki Poks	EST	Harju	6:12:37	1:13:56	421	2:53:21	419	4:13:46	419	N35	9	 
411		522	Eino Tolga	EST	Ida-Viru	6:15:30	1:24:37	423	2:57:50	420	4:14:00	420	M75	1	 
412		43	Henno Haava	EST	Tartu		0:43:02	24	1:29:20	16	2:06:11	13	M40		 
413		5	Margus Koor	EST	Võru		0:40:03	12	1:27:52	14	2:06:57	19	M21		 
414		136	Hannes Hagu	EST	Tartu		0:49:29	138	1:43:05	129	2:28:28	128	M35		 
415		128	Kaity-Marin Tiitmaa	EST	Tartu		0:50:05	149	1:44:59	143	2:30:22	137	N21		 
416		437	Märt Prosin	EST	Tallinn		0:45:46	63	1:39:47	78	2:32:53	151	M35		 
417		443	Aivar Veri	EST	Tartu		0:49:27	135	1:45:37	149	2:47:08	279	M45		 
418		540	Ilmar Kaur	EST	Tallinn		0:56:12	271	1:56:32	263	2:52:29	303	M35		 
419		311	Alo Rull	EST	Tartu		0:59:00	347	2:08:24	352	3:17:37	402	M40		 
420		378	Veljo Kimmel	EST	Tartu		1:03:48	391	2:23:57	409	3:37:48	416	M45		 
421		39	Tiit Tali	EST	Tartu		0:42:54	20					M50		 
422		289	Mihkel Manguse	EST	Tartu		0:57:12	330					M21		 
423		364	Kätlin Muuga	EST	Tartu		1:07:52	413					N21		 
424		3	Indrek Teppo	EST	Harju								M35		 
425		8	Ago Saluveer	EST	Harju								M21		 
426		10	Sander Mirme	EST	Tartu								M21		 
427		13	Tarmo Rei	EST	Tallinn								M40		 
428		15	Rainer Kuhi	EST	Hiiumaa								M35		 
429		21	Antti Kempi	EST	Tallinn								M21		 
430		32	Hendrik Lõbu	EST	Ida-Viru								M21		 
431		38	Madis Sildvee	EST	Lääne-Viru								M35		 
432		40	Ats Kask	EST	Viljandi								M21		 
433		41	Arno Aamisepp	EST	Harju								M21		 
434		47	Margus Maiste	EST	Tallinn								M35		 
435		64	Taimar Kallari	EST	Tartu								M40		 
436		65	Ivar Sova	EST	Tartu								M21		 
437		70	Kunnar Vahi	EST	Valga								M40		 
438		73	Gunnar Keernik	EST	Tartu								M40		 
439		74	Märt Sildvee	EST	Lääne-Viru								M35		 
440		78	Aivo Traks	EST	Tallinn								M40		 
441		79	Andrus Pedai	EST	Tallinn								M40		 
442		81	Tõnu Pullerits	EST	Tallinn								M21		 
443		87	Kristjan Karabelnik	EST	Tartu								M21		 
444		96	Rain Hallimäe	EST	Harju								M55		 
445		101	Aare Nurk	EST	Valga								M45		 
446		109	Üllar Kreela	EST	Tartu								M21		 
447		118	Andrus Mäesepp	EST	Tartu								M40		 
448		119	Priit Ailt	EST	Tallinn								M21		 
449		120	Heiki Jääger	EST	Jõgeva								M45		 
450		126	Jaak Kanniste	EST	Pärnu								M50		 
451		127	Martin Metspalu	EST	Tartu								M35		 
452		130	Andrus Salumets	EST	Tartu								M35		 
453		133	Meelis Angerma	EST	Tallinn								M21		 
454		134	Madis Mere	EST	Saaremaa								M40		 
455		137	Urmas Rebane	EST	Tallinn								M40		 
456		138	Kaido Hanni	EST	Harju								M35		 
457		140	Indrek Sauga	EST	Harju								M40		 
458		145	Uku Vernik	EST	Tartu								M20		 
459		146	Lauri Kiivit	EST	Tartu								M35		 
460		163	Margus Jänese	EST	Tallinn								M21		 
461		166	Martin Liira	EST	Tartu								M21		 
462		170	Indrek Männiste	EST	Tallinn								M35		 
463		172	Kristjan Savisikk	EST	Tallinn								M21		 
464		174	Aare Sepp	EST	Rapla								M21		 
465		177	Kert Olle	EST	Tallinn								M21		 
466		180	Ragnar Kulberg	EST	Tartu								M21		 
467		203	Tiit Lepik	EST	Pärnu								M21		 
468		206	Andreas Tooming	EST	Ida-Viru								M35		 
469		207	Karl Taklaja	EST	Tallinn								M40		 
470		209	Vahur Pindma	EST	Tallinn								M45		 
471		216	Urmo Kallakas	EST	Tallinn								M21		 
472		217	Mati Kütt	EST	Tartu								M45		 
473		232	Sulev Nõmmiste	EST	Tartu								M40		 
474		234	Renee Kilk	EST	Tallinn								M21		 
475		236	Rudolf Jeeser	EST	Rapla								M40		 
476		237	Tarmo Uba	EST	Harju								M40		 
477		241	Rene Värk	EST	Tallinn								M35		 
478		244	Nils Pure	EST	Tartu								M40		 
479		253	Janek Trepp	EST	Lääne-Viru								M40		 
480		254	Uku Vilu	EST	Tartu								M40		 
481		263	Peeter Kuznetsov	EST	Tartu								M35		 
482		274	Kalle Kannel	EST	Harju								M35		 
483		277	Peeter Saarep	EST	Valga								M60		 
484		278	Andres Vaarik	EST	Tartu								M21		 
485		279	Aivar Uutar	EST	Harju								M35		 
486		280	Alar Lehesmets	EST	Tartu								M21		 
487		287	Priit Lomp	EST	Valga								M21		 
488		290	Janar Tatomir	EST	Tartu								M21		 
489		295	Bruno Tamm	EST	Harju								M35		 
490		299	Uwe Ottender	EST	Rapla								M45		 
491		300	Raul Andresson	EST	Harju								M45		 
492		314	Ivar Veerus	EST	Tallinn								M45		 
493		321	Enn Altin	EST	Tartu								M40		 
494		324	Lauri Laanoja	EST	Tallinn								M35		 
495		325	Viktor Pähklamäe	EST	Valga								M40		 
496		327	Andrus Volk	EST	Rapla								M45		 
497		329	Arvi Tõnnison	EST	Lääne-Viru								M50		 
498		344	Ain-Ivar Tupp	EST	Harju								M45		 
499		354	Priit Aasma	EST	Tartu								M21		 
500		358	Mati Saarend	EST	Lääne-Viru								M60		 
501		372	Inga-Reet Rätsep	EST	Tartu								N21		 
502		375	Janek Mähar	EST	Tartu								M35		 
503		376	Rain Lelle	EST	Pärnu								M40		 
504		383	Marii-Heleen Asula	EST	Tartu								N21		 
505		387	Raido Türk	EST	Tartu								M21		 
506		392	Erko Eessaar	EST	Tallinn								M21		 
507		393	Andrus Kukk	EST	Jõgeva								M40		 
508		394	Aivar Lagenõmm	EST	Järvamaa								M40		 
509		396	Erki Parri	EST	Tartu								M21		 
510		401	Marleen Mõttus	EST	Tartu								N21		 
511		402	Tambet Aru	EST	Tartu								M20		 
512		403	Taavi Tamm	EST	Harju								M21		 
513		404	Martin Kukk	EST	Tartu								M45		 
514		407	Jaan Lehismets	EST	Pärnu								M21		 
515		409	Alexey Kalinin	RUS	Venemaa								M21		 
516		426	Urmas Volens	EST	Tallinn								M35		 
517		436	Vladimir Posled	RUS	Venemaa								M40		 
518		442	Lauri Kask	EST	Tartu								M45		 
519		465	Erkki Aadli	EST	Harju								M35		 
520		466	Kreete Alasoo	EST	Tartu								N20		 
521		469	Eerik Hanni	EST	Tallinn								M35		 
522		486	Mathjas Veeremaa	EST	Lääne-Viru								M20		 
523		487	Jarko Lilleallik	EST	Lääne-Viru								M21		 
524		490	Juri Karjagin	EST	Tartu								M35		 
525		510	Taivo Krabi	EST	Harju								M45		 
526		511	Peep Toompuu	EST	Tartu								M40		 
527		513	Madis Avi	EST	Tartu								M55		 
528		521	Andre Jõgi	EST	Tallinn								M35		 
529		534	Tauno Toompuu	EST	Lääne-Viru								M21		 