IKoht	N koht	Nr	Nimi	Klubi	Aeg	Kaotus	5 km	Koht	Vkl	Koht	NetoAeg	 
1		174	PRIIT AUS	Stamina Arcotransport jooksutiim	0:45:14.9		0:16:28.1	(7)	M21	(1)	0:45:14.9	 
2		1	SERGEI TŠEREPANNIKOV	Stamina Arcotransport jooksutiim	0:45:20.6	0:00:05.8	0:16:27.4	(5)	M21	(2)	0:45:20.6	 
3		2	PRIIT LEHISMETS	Stamina Arcotransport jooksutiim	0:45:43.2	0:00:28.4	0:16:26.6	(1)	M35	(1)	0:45:43.2	 
4		323	KENNY KIVIKAS	spordielamused.ee	0:45:46.2	0:00:31.3	0:16:27.2	(3)	M21	(3)	0:45:46.2	 
5		870	HEINAR VAINE	VAK Staier	0:45:49.4	0:00:34.6	0:16:27.7	(6)	M21	(4)	0:45:49.2	 
6		4	JAANUS KALLASTE	Stamina Arcotransport jooksutiim	0:45:55.4	0:00:40.5	0:16:27.4	(4)	M21	(5)	0:45:55.4	 
7		875	VILJAR VALLIMÄE	Täppsportlased/ProRunner	0:46:12.8	0:00:58.0	0:16:28.1	(8)	M21	(6)	0:46:12.6	 
8		3	ANDRUS LEIN	Rakvere KJK "ViKe"	0:46:27.0	0:01:12.2	0:16:26.7	(2)	M40	(1)	0:46:26.3	 
9		661	KRISTO REINSALU	Stamina Arcotransport jooksutiim	0:47:19.9	0:02:05.1	0:16:32.5	(9)	M35	(2)	0:47:19.9	 
10		264	SANDER JÜRS	Sportkeskus.ee	0:47:54.7	0:02:39.9	0:16:37.6	(10)	M21	(7)	0:47:54.7	 
11		762	ATS SÕNAJALG	Sparta	0:48:43.9	0:03:29.1	0:16:50.3	(11)	M21	(8)	0:48:43.3	 
12		841	TAAVI TUBILIS	SK AUDENTES	0:48:45.6	0:03:30.8	0:17:21.4	(14)	M21	(9)	0:48:43.8	 
13		598	KAAREL PIIP	Täppsportlased	0:48:52.8	0:03:38.0	0:17:20.0	(13)	M21	(10)	0:48:51.5	 
14		549	MAREK NÕMM	SK Jooksupartner	0:48:57.0	0:03:42.2	0:17:05.5	(12)	M35	(3)	0:48:57.0	 
15		8	MIKK LAUR	KJK Lõunalõvi	0:49:09.7	0:03:54.9	0:17:32.1	(20)	M21	(11)	0:49:08.7	 
16		5	AGO VEILBERG		0:49:25.8	0:04:11.0	0:17:28.6	(16)	M50	(1)	0:49:25.8	 
17		488	TAMBET MASIK	Toggl/SK Kolepaha	0:49:44.5	0:04:29.7	0:17:38.4	(22)	M21	(12)	0:49:42.3	 
18		563	INDREK OTS		0:49:45.5	0:04:30.6	0:17:44.4	(23)	M21	(13)	0:49:44.0	 
19		562	OLARI ORM		0:49:46.8	0:04:32.0	0:17:32.7	(21)	M21	(14)	0:49:45.4	 
20		152	MARK ABNER	Stamina Arcotransport jooksutiim	0:49:47.5	0:04:32.7	0:17:44.5	(24)	M16	(1)	0:49:45.9	 
21		574	OLAV PARIS	VAK Staier	0:49:53.9	0:04:39.1	0:17:49.1	(25)	M35	(4)	0:49:50.9	 
22		493	MARK MENDEL	Stamina Arcotransport jooksutiim	0:50:04.4	0:04:49.6	0:17:25.8	(15)	M21	(15)	0:50:03.1	 
23		853	INDREK TÄRNO		0:50:10.0	0:04:55.1	0:18:02.0	(28)	M40	(2)	0:50:07.8	 
24		9	MARTI MEDAR	Stamina Arcotransport jooksutiim	0:50:16.8	0:05:01.9	0:17:31.5	(18)	M18	(1)	0:50:16.1	 
25		664	TARMO REITSNIK	Stamina SK	0:50:31.4	0:05:16.6	0:18:02.7	(29)	M40	(3)	0:50:29.3	 
26		629	URMAS PÕLDRE	Jüri Gümnaasium	0:50:36.0	0:05:21.1	0:17:49.6	(26)	M40	(4)	0:50:34.9	 
27		14	CHRISTJAN LÄÄN	Täppsportlased	0:50:42.2	0:05:27.4	0:18:06.7	(33)	M40	(5)	0:50:41.1	 
28		151	FRANK ABNER	Stamina	0:50:45.7	0:05:30.9	0:18:13.2	(34)	M18	(2)	0:50:43.0	 
29		883	KRISTJAN VARES	VAK Staier	0:51:08.0	0:05:53.1	0:18:02.8	(31)	M21	(16)	0:51:07.8	 
30		404	LEONID LATSEPOV	Nõmme KJK	0:51:17.8	0:06:03.0	0:17:53.2	(27)	M16	(2)	0:51:06.2	 
31		7	AIN KILK	Eesti Worldloppeti Klubi	0:51:18.8	0:06:04.0	0:17:31.6	(19)	M40	(6)	0:51:18.8	 
32		10	TARMO MAISTE		0:51:19.4	0:06:04.6	0:18:30.6	(44)	M35	(5)	0:51:17.0	 
33		433	TANEL LEVKOI		0:51:25.3	0:06:10.4	0:18:15.6	(37)	M21	(17)	0:51:23.8	 
34		930	ALLAN-PEETER JAASKA	STAMINA SK	0:51:26.8	0:06:12.0	0:18:31.0	(45)	M40	(7)	0:51:26.2	 
35		12	INDREK MUMM	Sparta	0:51:28.5	0:06:13.6	0:18:26.9	(42)	M40	(8)	0:51:27.3	 
36		15	ESKO JÄRVI		0:51:38.6	0:06:23.8	0:18:14.8	(35)	M21	(18)	0:51:35.9	 
37		232	ROMAN HVALÕNSKI	Sidepataljon	0:51:40.5	0:06:25.7	0:18:41.7	(47)	M21	(19)	0:51:40.3	 
38		11	TOOMAS TARM	Sportkeskus.ee	0:51:46.7	0:06:31.9	0:18:25.0	(40)	M40	(9)	0:51:46.7	 
39		937	ALAR RIDAMÄE	SPARTA	0:51:48.6	0:06:33.8	0:18:25.5	(41)	M40	(10)	0:51:46.8	 
40		378	ASKO KUUSALU	Vanamõisa Suusaklubi	0:51:53.7	0:06:38.9	0:18:15.2	(36)	M35	(6)	0:51:51.9	 
41		417	AGU LEHEMAA		0:52:00.5	0:06:45.7	0:18:03.0	(32)	M50	(2)	0:51:58.5	 
42		611	CRIS POLL	Estonian Ultrarunners Team	0:52:02.4	0:06:47.6	0:18:43.5	(49)	M21	(20)	0:51:59.7	 
43		635	RAIVO PÄRNPUU		0:52:08.5	0:06:53.7	0:18:02.8	(30)	M40	(11)	0:52:08.3	 
44		13	ANDRES LAINESTE	Stamina SK	0:52:17.6	0:07:02.7	0:18:35.4	(46)	M40	(12)	0:52:14.5	 
45		993	RAIN SEEPÕLD	TÄPPSPORTLASED	0:52:37.1	0:07:22.3	0:18:45.9	(51)	M21	(21)	0:52:33.3	 
46		245	AHTO JAKSON	Täppsportlased	0:52:43.8	0:07:29.0	0:18:29.6	(43)	M40	(13)	0:52:43.8	 
47		176	KAAREL BARINOV	Sparta	0:52:44.6	0:07:29.8	0:18:42.4	(48)	M21	(22)	0:52:42.3	 
48		16	HANNO KINDEL	Täppsportlased	0:52:47.3	0:07:32.5	0:18:46.6	(52)	M40	(14)	0:52:45.3	 
49		975	KAIT VAHTER		0:52:54.5	0:07:39.6	0:18:50.5	(54)	M35	(7)	0:52:41.4	 
50		763	JANAR SÄKK		0:52:58.1	0:07:43.2	0:19:27.1	(68)	M21	(23)	0:52:45.5	 
51		183	RAIN BÕMBERG	Elioni Spordiklubi	0:52:59.1	0:07:44.3	0:19:11.0	(56)	M21	(24)	0:52:48.8	 
52		285	KRISTOFER ERIK KAMBERG	Meremõisa SK	0:53:11.6	0:07:56.8	0:18:17.2	(38)	M18	(3)	0:53:10.0	 
53	1	773	EVELIN TALTS	Stamina Arcotransport jooksutiim	0:53:27.3	0:08:12.5	0:19:25.0	(64)	N35	(1)	0:53:27.3	 
54		706	MARTIN SAGAJA		0:53:34.4	0:08:19.6	0:18:24.6	(39)	M21	(25)	0:53:32.1	 
55		1000	JANAR JUHKOV	SPARTA	0:53:40.8	0:08:26.0	0:18:45.3	(50)	M21	(26)	0:53:40.8	 
56	2	23	KAISA KUKK	Sparta	0:53:41.6	0:08:26.8	0:19:25.8	(65)	N21	(1)	0:53:41.6	 
57		149	HANNO AASTE		0:53:45.8	0:08:30.9	0:19:12.6	(57)	M21	(27)	0:53:41.6	 
58		356	RAINER KUHI		0:53:49.7	0:08:34.9	0:19:13.7	(58)	M35	(8)	0:53:46.1	 
59		376	AARE KUTSAR	undercovers	0:53:58.6	0:08:43.8	0:19:02.2	(55)	M21	(28)	0:53:55.4	 
60		364	ALEKSANDR KULESHOV	Sparta	0:54:08.2	0:08:53.4	0:19:15.7	(59)	M35	(9)	0:54:06.7	 
61		17	PRIIT KAJARI	Sparta	0:54:09.2	0:08:54.3	0:18:50.0	(53)	M40	(15)	0:54:06.8	 
62		630	PRIIT PÕLGAST		0:54:39.8	0:09:25.0	0:20:00.6	(78)	M35	(10)	0:54:24.6	 
63		927	RISTO ÜLEM		0:54:42.6	0:09:27.8	0:20:05.9	(79)	M21	(29)	0:54:16.6	 
64		25	MART EINASTO	TÜ ASK	0:54:45.2	0:09:30.4	0:19:17.0	(61)	M40	(16)	0:54:43.7	 
65		532	IVO MÜÜRSEPP		0:54:47.8	0:09:33.0	0:19:34.8	(70)	M21	(30)	0:54:30.5	 
66		27	ALAR SAVASTVER	Stamina SK	0:55:04.5	0:09:49.6	0:19:34.2	(69)	M40	(17)	0:55:03.0	 
67		436	SULEV LIHT		0:55:05.4	0:09:50.5	0:19:46.0	(75)	M50	(3)	0:54:48.5	 
68		649	DECTONA RASPEL	Sparta	0:55:17.9	0:10:03.0	0:20:19.5	(89)	M40	(18)	0:54:53.1	 
69		20	AARO TIIKSAAR	5xA	0:55:26.5	0:10:11.6	0:19:20.1	(62)	M35	(11)	0:55:25.6	 
70		233	TARMO HÕBE	Rally Estonia	0:55:33.9	0:10:19.1	0:19:39.7	(71)	M21	(31)	0:55:32.5	 
71		31	RAMON REIMETS		0:55:45.8	0:10:31.0	0:19:26.3	(66)	M21	(32)	0:55:43.6	 
72		38	VILLU KASK	SK Aaspere	0:55:51.8	0:10:36.9	0:20:09.0	(83)	M40	(19)	0:55:48.6	 
73		448	HENRI LIND		0:55:54.5	0:10:39.7	0:20:18.0	(87)	M21	(33)	0:55:41.4	 
74		374	MADIS KUZNETSOV		0:55:55.1	0:10:40.3	0:19:41.4	(74)	M35	(12)	0:55:51.1	 
75		407	TOOMAS LAUR		0:55:57.7	0:10:42.9	0:19:26.8	(67)	M50	(4)	0:55:51.8	 
76		22	ERKKI HUMMAL	Sparta	0:56:04.2	0:10:49.4	0:19:40.4	(72)	M40	(20)	0:56:02.0	 
77		857	TOOMAS UNT	Vemma	0:56:11.8	0:10:57.0	0:20:29.8	(94)	M35	(13)	0:55:57.3	 
78		288	URMAS KANEP	Sportkeskus.ee	0:56:12.3	0:10:57.5	0:19:40.7	(73)	M60	(1)	0:56:09.1	 
79		709	MAREK SALLA	Türi Jõud	0:56:13.4	0:10:58.5	0:20:13.4	(85)	M21	(34)	0:54:56.1	 
80		19	GUNNAR KINGO		0:56:14.9	0:11:00.1	0:20:50.7	(113)	M21	(35)	0:56:07.7	 
81		28	ÜLARI ALAMETS		0:56:19.0	0:11:04.2	0:19:16.9	(60)	M40	(21)	0:56:16.8	 
82		1002	ANDRE ABNER	STAMINA	0:56:20.7	0:11:05.8	0:20:35.7	(102)	M40	(22)	0:56:19.7	 
83		889	ANDREAS VEERET		0:56:26.8	0:11:12.0	0:20:50.4	(111)	M21	(36)	0:56:12.8	 
84		444	AIMUR LILLAK		0:56:33.0	0:11:18.2	0:20:07.4	(80)	M21	(37)	0:56:29.2	 
85		26	INDREK TIKVA	Albe Team	0:56:34.8	0:11:20.0	0:20:35.4	(100)	M40	(23)	0:56:31.2	 
86		310	URMO KESKÜLA	Simuna SK	0:56:36.2	0:11:21.3	0:19:52.7	(77)	M35	(14)	0:56:22.6	 
87		950	SULO SAVOLAINEN		0:56:36.7	0:11:21.9	0:20:33.6	(98)	M21	(38)	0:56:30.8	 
88		686	URMAS RUUS		0:56:41.3	0:11:26.4	0:20:32.3	(97)	M40	(24)	0:56:27.7	 
89		920	KAIN VÄLJAOTS	Viru Tull	0:56:45.4	0:11:30.6	0:19:24.3	(63)	M40	(25)	0:56:43.2	 
90		726	MARTIN SIIMER	LiVal	0:56:48.8	0:11:34.0	0:20:07.8	(81)	M40	(26)	0:56:27.3	 
91		867	RENAT VAFIN	Skype	0:56:52.0	0:11:37.2	0:19:49.8	(76)	M40	(27)	0:56:52.0	 
92		21	KAIDO ORGULAS		0:56:53.2	0:11:38.4	0:20:09.7	(84)	M40	(28)	0:56:49.7	 
93		915	IVO VOLT		0:57:09.5	0:11:54.7	0:20:19.1	(88)	M40	(29)	0:57:07.3	 
94		760	ELION SÕBER		0:57:17.9	0:12:03.1	0:20:51.0	(117)	M21	(39)	0:57:02.8	 
95		24	EERO MÕTTUS	Täppsportlased	0:57:20.6	0:12:05.8	0:20:26.9	(93)	M40	(30)	0:57:18.2	 
96		699	IMRE SAAR	Craft	0:57:23.6	0:12:08.8	0:20:19.8	(90)	M21	(40)	0:57:22.5	 
97		210	ERKKI HALJASTAMM		0:57:24.6	0:12:09.7	0:20:51.7	(120)	M21	(41)	0:57:12.5	 
98	3	800	ANU TEPPO	Sparta	0:57:25.2	0:12:10.4	0:20:40.9	(107)	N21	(2)	0:57:22.0	 
99		505	MAIT MILLER	21CC Triatloniklubi	0:57:26.6	0:12:11.8	0:20:23.3	(91)	M40	(31)	0:57:20.7	 
100		311	EDUARD KIMASK	SK Jooksupartner	0:57:30.6	0:12:15.7	0:20:51.0	(116)	M40	(32)	0:57:28.1	 
101		797	URMAS TELLING		0:57:33.3	0:12:18.5	0:20:40.4	(106)	M50	(5)	0:57:23.2	 
102		676	PRIIT ROOSNUPP		0:57:34.4	0:12:19.5	0:21:00.3	(124)	M40	(33)	0:57:21.3	 
103		698	HEIGO SAAR		0:57:35.4	0:12:20.6	0:20:59.5	(123)	M40	(34)	0:57:21.4	 
104	4	380	MAIE KUUSIK	Lillepallid	0:57:38.3	0:12:23.4	0:20:35.5	(101)	N40	(1)	0:57:34.2	 
105		62	KARL TOOM		0:57:39.3	0:12:24.5	0:21:05.7	(128)	M18	(4)	0:57:37.3	 
106		265	KAIDO KAARLI	Eesti Energia spordiklubi	0:57:41.6	0:12:26.8	0:20:31.1	(96)	M35	(15)	0:57:35.7	 
107		37	PRIIT KINGO	Hansa SK	0:57:50.1	0:12:35.3	0:20:50.9	(115)	M35	(16)	0:57:42.9	 
108		504	INGO MILJAN		0:57:52.6	0:12:37.8	0:20:51.3	(118)	M35	(17)	0:57:39.0	 
109		783	RISTO TAMME	Tallinna Vesi	0:57:53.8	0:12:39.0	0:20:38.4	(104)	M35	(18)	0:57:47.3	 
110		179	SERGEI BESSONOV	ÅF-Automaatika	0:57:59.6	0:12:44.8	0:20:08.3	(82)	M21	(42)	0:57:56.1	 
111		30	AGO KÄREMA	Asics 2014	0:58:02.8	0:12:48.0	0:21:10.3	(139)	M40	(35)	0:58:00.9	 
112	5	743	VIIVI-ANNE SOOTS	Sparta	0:58:05.6	0:12:50.8	0:20:36.3	(103)	N40	(2)	0:58:01.7	 
113		32	ERTI KARES		0:58:05.9	0:12:51.0	0:20:50.5	(112)	M40	(36)	0:57:56.3	 
114		912	MARKO VISSE	Tallinna Vesi	0:58:10.9	0:12:56.1	0:22:03.0	(181)	M21	(43)	0:57:34.5	 
115		34	SANDER PIHLAK		0:58:15.2	0:13:00.4	0:21:08.5	(133)	M35	(19)	0:58:07.5	 
116		824	AIVO TRAKS	Sidepataljon	0:58:29.2	0:13:14.4	0:20:57.4	(122)	M40	(37)	0:58:26.1	 
117		70	MARKO VALTER		0:58:30.2	0:13:15.3	0:21:16.2	(143)	M35	(20)	0:58:26.0	 
118		938	ROBERT KLEN MÕISTUS	SPARTA	0:58:38.3	0:13:23.5	0:21:06.9	(131)	M16	(3)	0:58:38.3	 
119		29	SILVER VÜRMER	Täppsportlased	0:58:45.4	0:13:30.6	0:20:34.8	(99)	M21	(44)	0:58:42.1	 
120		153	AHTO AHVEN		0:58:47.4	0:13:32.6	0:21:09.8	(137)	M21	(45)	0:58:38.7	 
121		274	HARGO KALAUS		0:58:52.0	0:13:37.2	0:21:07.5	(132)	M40	(38)	0:58:47.5	 
122		517	AIGAR MÄESEPP	Swedbank	0:58:52.6	0:13:37.8	0:21:05.0	(126)	M35	(21)	0:58:39.0	 
123	6	41	ELA VULLA		0:58:55.4	0:13:40.6	0:20:49.7	(108)	N35	(2)	0:58:51.4	 
124		319	MAIRO KIRSS		0:58:55.7	0:13:40.9	0:21:21.8	(153)	M21	(46)	0:58:49.7	 
125		951	ERKKI KOPPEL	SPARTA	0:58:56.5	0:13:41.7	0:21:44.6	(166)	M35	(22)	0:58:42.9	 
126		167	ANDERO ARAK		0:58:58.1	0:13:43.3	0:20:40.0	(105)	M21	(47)	0:58:55.4	 
127		640	ILMAR RAAP	meie	0:59:04.7	0:13:49.8	0:21:10.4	(140)	M40	(39)	0:58:48.2	 
128		593	JAN PETRATSKOV	TÄHTVERE	0:59:05.8	0:13:51.0	0:21:13.1	(142)	M21	(48)	0:58:31.7	 
129		902	OTT VIIRMANN		0:59:09.7	0:13:54.8	0:21:17.0	(145)	M21	(49)	0:58:31.5	 
130		220	PEETER HENDRIKSON	Haanja Rattaklubi	0:59:14.1	0:13:59.3	0:21:18.2	(148)	M40	(40)	0:59:02.1	 
131		47	KARL-GUSTAV NAGEL	SK Aaspere	0:59:16.3	0:14:01.5	0:21:54.4	(171)	M21	(50)	0:59:06.2	 
132		302	TÕNNO KASK		0:59:19.1	0:14:04.3	0:20:17.4	(86)	M21	(51)	0:59:17.4	 
133		226	EINAR HILLEP		0:59:20.0	0:14:05.2	0:21:22.6	(154)	M40	(41)	0:59:11.9	 
134	7	269	INNA KAIRITE	Tulepuu	0:59:21.5	0:14:06.7	0:20:51.4	(119)	N21	(3)	0:59:16.3	 
135		218	HALMAR HEINMETS	SK Leksi 44	0:59:30.0	0:14:15.2	0:21:55.1	(173)	M21	(52)	0:58:46.6	 
136		282	URMAS KALJURAND	Stamina SK	0:59:39.0	0:14:24.2	0:21:09.0	(134)	M50	(6)	0:59:33.0	 
137		36	TOOMAS TOOM	Stamina SK	0:59:43.1	0:14:28.3	0:21:05.3	(127)	M50	(7)	0:59:40.3	 
138		387	RAUL KÖSTER	MyFitness Viru	0:59:49.0	0:14:34.2	0:21:06.5	(129)	M40	(42)	0:59:47.0	 
139		147	KAURI AASLAID	HRX AS	0:59:53.8	0:14:38.9	0:21:18.0	(147)	M21	(53)	0:59:50.0	 
140		206	RAIN GUSSEV		0:59:54.7	0:14:39.9	0:21:17.5	(146)	M35	(23)	0:59:42.3	 
141		588	RENÉ PERE		0:59:59.6	0:14:44.8	0:20:30.2	(95)	M50	(8)	0:59:57.1	 
142		148	LAURI AASMANN		1:00:03.7	0:14:48.9	0:21:19.2	(151)	M35	(24)	1:00:00.2	 
143	8	244	ÕNNE-LIINA JAKOBSON		1:00:04.6	0:14:49.8	0:21:18.6	(149)	N21	(4)	0:59:46.8	 
144		502	TANEL METSKÜLA		1:00:05.5	0:14:50.7	0:21:52.7	(170)	M21	(54)	0:59:36.5	 
145		243	EERO JAKOBSON		1:00:08.0	0:14:53.2	0:21:11.1	(141)	M35	(25)	0:59:50.1	 
146	9	321	LIINA KIVI	SK Jooksupartner	1:00:11.1	0:14:56.2	0:21:16.8	(144)	N21	(5)	1:00:06.7	 
147		45	RANDO RIKS	SK Aaspere	1:00:16.9	0:15:02.1	0:21:57.3	(175)	M21	(55)	1:00:06.1	 
148		901	ANDRE VIIRA		1:00:18.5	0:15:03.7	0:21:52.4	(169)	M21	(56)	1:00:05.2	 
149		879	ALVIN VANN		1:00:20.0	0:15:05.2	0:22:16.3	(189)	M35	(26)	0:59:44.8	 
150	10	996	MERILIN VÜRISAAR		1:00:20.2	0:15:05.3	0:20:50.1	(110)	N16	(1)	1:00:17.1	 
151		35	JAAGO JÕELEHT	Hansa SK	1:00:22.5	0:15:07.7	0:21:37.6	(163)	M40	(43)	1:00:17.7	 
152		997	MEELIS JÜRISAAR		1:00:22.7	0:15:07.9	0:20:50.1	(109)	M40	(44)	1:00:19.0	 
153		440	EERO LIIVANDI		1:00:29.7	0:15:14.9	0:22:16.7	(191)	M35	(27)	0:59:57.9	 
154	11	490	KAIRE MATSON	Elujooks	1:00:32.2	0:15:17.4	0:21:06.5	(130)	N21	(6)	1:00:26.3	 
155		213	RAIKO HEIDE	Vanamõisa SK/Saunapunkt	1:00:34.9	0:15:20.1	0:20:25.0	(92)	M21	(57)	1:00:33.5	 
156		672	INGMAR ROOS	Maanteeamet	1:00:35.2	0:15:20.4	0:22:37.3	(212)	M21	(58)	1:00:00.5	 
157		820	MARKO TOOMING		1:00:40.3	0:15:25.5	0:21:57.7	(178)	M21	(59)	1:00:28.8	 
158		791	KASPAR TAUMANN		1:00:42.4	0:15:27.6	0:22:03.8	(182)	M21	(60)	1:00:26.8	 
159		56	GEORG-HARALD NAGEL	SK Aaspere	1:00:47.4	0:15:32.6	0:21:57.6	(177)	M18	(5)	1:00:36.7	 
160	12	39	MERIKE MURU		1:00:48.4	0:15:33.5	0:21:30.6	(158)	N40	(3)	1:00:42.6	 
161		874	SVEN VALLIMÄE		1:00:53.2	0:15:38.4	0:22:43.2	(217)	M40	(45)	1:00:17.0	 
162		49	INDREK MÄGI		1:00:58.7	0:15:43.9	0:21:10.2	(138)	M35	(28)	1:00:56.5	 
163		863	HEKTOR UUSTALO	H Fund	1:01:02.3	0:15:47.5	0:22:22.2	(198)	M21	(61)	1:00:45.1	 
164		410	KARRE LAURING	Täppsportlased	1:01:05.8	0:15:51.0	0:21:26.9	(155)	M50	(9)	1:00:58.9	 
165		846	MAREK TÕNISMÄE	Vanamõisa Suusaklubi	1:01:10.2	0:15:55.4	0:22:45.4	(219)	M35	(29)	1:00:51.0	 
166		43	AVO KIRSIPUU	Kirss spordiklubi	1:01:11.3	0:15:56.5	0:21:09.2	(135)	M40	(46)	1:01:03.0	 
167		503	AIN MIHKELSON	Hansa SK	1:01:11.9	0:15:57.1	0:22:13.3	(187)	M40	(47)	1:00:55.7	 
168		50	TARVO TREIER	www.pay4results.eu	1:01:16.3	0:16:01.5	0:21:55.0	(172)	M21	(62)	1:01:05.6	 
169		42	PAUL PÕLDSAAR	Tulepuu	1:01:16.8	0:16:02.0	0:20:56.1	(121)	M35	(30)	1:01:12.9	 
170		40	ALAR ALAJAAN		1:01:17.7	0:16:02.9	0:21:21.2	(152)	M35	(31)	1:01:13.8	 
171		836	MAREK TRUUMAA	Tallinna Vesi	1:01:18.1	0:16:03.3	0:21:27.1	(156)	M21	(63)	1:01:03.4	 
172		539	KRISTJAN NIINEMAA		1:01:19.2	0:16:04.4	0:23:09.4	(254)	M40	(48)	1:00:37.9	 
173		52	ANDO VIISPERT	Ants Piibu bridžiklubi	1:01:26.0	0:16:11.2	0:22:24.7	(204)	M35	(32)	1:01:17.8	 
174		595	EINAR PIHLAP		1:01:26.3	0:16:11.5	0:22:19.4	(194)	M21	(64)	1:01:16.3	 
175		389	KAAREL KÜMNIK	SK Metsasõbrad	1:01:29.9	0:16:15.1	0:21:57.1	(174)	M21	(65)	1:01:24.0	 
176		313	EDVIN KIN	Eesti Raudtee SK	1:01:30.5	0:16:15.7	0:21:45.3	(167)	M16	(4)	1:01:14.2	 
177		487	RAIDO MARTINSON		1:01:31.0	0:16:16.2	0:21:04.7	(125)	M21	(66)	1:01:17.8	 
178		610	TARMO POHLAK	SK Jooksupartner	1:01:34.6	0:16:19.8	0:21:18.8	(150)	M40	(49)	1:01:28.7	 
179		71	MIHKEL TREES	Nõmme SK	1:01:35.4	0:16:20.6	0:21:39.3	(164)	M16	(5)	1:01:25.6	 
180	13	752	MARILIN SULG	Täppsportlased	1:01:37.3	0:16:22.5	0:21:57.4	(176)	N21	(7)	1:01:33.9	 
181		633	TOOMAS PÄRNASSALU	Täppsportlased	1:01:40.5	0:16:25.6	0:20:50.8	(114)	M40	(50)	1:01:37.7	 
182		193	ERIK ELMANOVITŠ		1:01:44.6	0:16:29.8	0:22:14.5	(188)	M35	(33)	1:01:35.1	 
183		528	MATTIAS MÄNNI	EMT	1:01:44.6	0:16:29.8	0:22:08.1	(185)	M21	(67)	1:01:33.4	 
184		650	MARGUS RATASSEPP		1:01:46.0	0:16:31.2	0:21:35.3	(160)	M40	(51)	1:01:32.6	 
185		952	JANEK VAHTRA		1:01:46.5	0:16:31.6	0:22:00.8	(180)	M40	(52)	1:01:30.0	 
186		101	MARTIN SÕMER		1:01:51.2	0:16:36.3	0:22:53.6	(232)	M35	(34)	1:01:39.3	 
187		222	ANDO HERMSALU		1:01:51.5	0:16:36.7	0:22:04.5	(183)	M35	(35)	1:01:45.5	 
188		54	KRISTJAN PETERSON	Sidepataljon	1:01:52.1	0:16:37.3	0:21:29.9	(157)	M21	(68)	1:01:45.9	 
189		631	RAIT PÕLLENDIK	Nordea Spordiklubi	1:01:53.9	0:16:39.1	0:22:22.9	(200)	M40	(53)	1:01:45.6	 
190		577	PRIIT PARTS		1:01:54.0	0:16:39.2	0:22:23.5	(201)	M35	(36)	1:01:49.2	 
191		718	OLLE SELLIOV		1:02:00.9	0:16:46.1	0:21:50.2	(168)	M40	(54)	1:01:56.5	 
192		305	TANEL KAUS		1:02:07.0	0:16:52.2	0:22:57.1	(237)	M21	(69)	1:01:40.5	 
193		461	AARNE LUUD	Tallinna Vesi	1:02:08.6	0:16:53.8	0:23:22.4	(272)	M40	(55)	1:01:48.7	 
194	14	445	MERLE LILLEORU		1:02:10.6	0:16:55.8	0:21:35.8	(161)	N35	(3)	1:02:04.7	 
195		606	STEN PISANG		1:02:12.8	0:16:57.9	0:21:33.4	(159)	M21	(70)	1:01:54.4	 
196		472	MART MAASIKRAND	EUT	1:02:14.4	0:16:59.6	0:22:18.7	(192)	M40	(56)	1:01:59.1	 
197		51	RAIN RAUN		1:02:15.6	0:17:00.8	0:21:44.1	(165)	M40	(57)	1:02:09.6	 
198		766	ERIK ZAVADSKIS		1:02:18.2	0:17:03.3	0:23:10.9	(257)	M40	(58)	1:01:37.0	 
199		508	MARKO MOOR		1:02:19.3	0:17:04.5	0:22:40.0	(213)	M21	(71)	1:02:03.9	 
200		618	HEIKI PRUUL	Hansa SK	1:02:20.1	0:17:05.2	0:23:28.9	(279)	M35	(37)	1:01:37.6	 
201		189	EIK ELLER	Tallinna Vesi	1:02:22.3	0:17:07.5	0:22:20.0	(195)	M50	(10)	1:02:17.7	 
202	15	972	KITTY KUBO	MARIA JOOKSUKLUBI	1:02:23.5	0:17:08.7	0:22:42.4	(216)	N40	(4)	1:02:11.7	 
203		537	ROLAND NEMETH		1:02:26.6	0:17:11.8	0:22:57.0	(236)	M35	(38)	1:01:53.5	 
204		979	MAREK REITER		1:02:28.0	0:17:13.1	0:22:49.7	(223)	M40	(59)	1:02:11.7	 
205		954	VIRGO LAANDSOO	DOMUS KINNISVARA	1:02:31.2	0:17:16.3	0:22:24.9	(206)	M35	(39)	1:02:09.7	 
206		348	TÕNIS KRISTAL		1:02:32.2	0:17:17.4	0:22:50.8	(225)	M40	(60)	1:02:13.0	 
207		385	KALEV KÄOSAAR	TriSmile	1:02:39.7	0:17:24.9	0:22:42.0	(214)	M40	(61)	1:02:26.2	 
208		53	VAHUR VALDMANN	Elisa SK	1:02:50.2	0:17:35.4	0:22:33.4	(209)	M35	(40)	1:02:41.7	 
209		212	RAIN HANSEN	Tallinna Vesi	1:02:50.2	0:17:35.4	0:23:06.5	(246)	M21	(72)	1:02:36.3	 
210		414	RICHARD LEEMITS		1:02:50.7	0:17:35.9	0:23:01.3	(243)	M40	(62)	1:02:30.0	 
211		55	NEEME PONDER		1:02:51.2	0:17:36.3	0:22:09.4	(186)	M50	(11)	1:02:45.2	 
212		978	KRISTJAN MULD		1:02:55.3	0:17:40.5	0:22:59.7	(241)	M35	(41)	1:02:40.7	 
213	16	550	SIRLI NÕMM		1:02:55.6	0:17:40.7	0:22:53.0	(230)	N35	(4)	1:02:43.5	 
214	17	852	STELLA TÄHT	TallinnStrong	1:02:59.8	0:17:45.0	0:22:51.3	(226)	N21	(8)	1:02:45.6	 
215		932	RAINER TOKKO	SPARTA	1:03:02.2	0:17:47.3	0:24:55.5	(406)	M40	(63)	1:02:43.1	 
216		931	INDREK EPNER	SPARTA	1:03:02.3	0:17:47.5	0:24:55.3	(404)	M40	(64)	1:02:42.8	 
217		33	RAIN LEPIKMÄE	Sidepataljon	1:03:10.1	0:17:55.3	0:22:58.4	(239)	M21	(73)	1:03:06.5	 
218		681	RENNO RUUBEL		1:03:10.5	0:17:55.7	0:23:59.0	(320)	M21	(74)	1:02:58.4	 
219		796	HÄRMO TELLAS		1:03:12.1	0:17:57.3	0:22:34.4	(210)	M40	(65)	1:03:05.0	 
220		358	ILLAR KUKK		1:03:24.8	0:18:09.9	0:22:47.1	(220)	M50	(12)	1:03:08.4	 
221		908	LEHO VIRMA	Swedbank	1:03:27.7	0:18:12.9	0:22:51.7	(228)	M40	(66)	1:03:07.8	 
222		48	RIHO KIRSIPUU	Kirss spordiklubi	1:03:29.9	0:18:15.1	0:21:09.5	(136)	M18	(6)	1:03:28.0	 
223		934	ANDREAS AADLI		1:03:30.9	0:18:16.1	0:22:21.7	(197)	M18	(7)	1:03:13.5	 
224		150	TARMO AAVASTE		1:03:31.6	0:18:16.8	0:21:58.6	(179)	M40	(67)	1:03:28.2	 
225		670	SVEN ROHLIN		1:03:34.3	0:18:19.4	0:22:05.0	(184)	M40	(68)	1:03:28.3	 
226	18	258	MARINA JÄRVE	Sparta	1:03:35.5	0:18:20.7	0:23:14.7	(260)	N40	(5)	1:03:22.6	 
227		177	ERIK BAUMAN		1:03:37.1	0:18:22.2	0:21:36.2	(162)	M21	(75)	1:03:27.9	 
228		974	DANIEL EICHHORN		1:03:38.9	0:18:24.1	0:23:46.2	(298)	M40	(69)	1:02:55.4	 
229	19	44	GALINA BERNAT	Stamina SK	1:03:40.4	0:18:25.6	0:22:47.9	(222)	N50	(1)	1:03:38.6	 
230		482	KEITH MARGUS	Jala	1:03:41.9	0:18:27.0	0:23:06.9	(247)	M21	(76)	1:03:24.3	 
231		518	HOLGER MÄGI		1:03:46.6	0:18:31.7	0:23:16.7	(264)	M40	(70)	1:03:19.1	 
232		573	SILVER PALU	SK TAK	1:03:50.0	0:18:35.2	0:22:52.5	(229)	M35	(42)	1:03:36.9	 
233	20	546	KRISTIINA NURK	Sparta	1:03:50.5	0:18:35.7	0:23:15.6	(262)	N40	(6)	1:03:32.5	 
234		442	LAUR LILIENBERG		1:03:51.1	0:18:36.3	0:23:14.2	(259)	M18	(8)	1:03:44.8	 
235		530	AINAR MÜNT		1:03:55.1	0:18:40.3	0:22:59.2	(240)	M21	(77)	1:03:45.0	 
236		61	RAIN HALLIMÄE		1:03:56.3	0:18:41.5	0:23:00.2	(242)	M50	(13)	1:03:43.9	 
237		589	TARMO PERTEL		1:03:58.4	0:18:43.6	0:23:35.3	(287)	M21	(78)	1:03:44.6	 
238		646	RAIN RANDLEPP		1:04:03.6	0:18:48.8	0:22:20.6	(196)	M21	(79)	1:04:01.6	 
239		58	PRIIT LOPSIK	Hansa SK	1:04:05.1	0:18:50.3	0:23:21.4	(270)	M35	(43)	1:03:59.1	 
240		742	ARMIN SOOSALU	PILVEPROJEKT	1:04:06.8	0:18:52.0	0:24:00.2	(324)	M21	(80)	1:03:35.8	 
241		67	TAIVO LINNAMÄGI	MKM	1:04:10.1	0:18:55.3	0:22:16.4	(190)	M21	(81)	1:04:06.5	 
242		298	SERGEI KARPOVITCH		1:04:11.4	0:18:56.6	0:22:54.7	(233)	M40	(71)	1:04:00.7	 
243		60	VLADIMIR VINOGRADOV	In Focus	1:04:11.5	0:18:56.6	0:22:54.7	(234)	M40	(72)	1:04:02.2	 
244		843	KRISTJAN TUISK		1:04:14.1	0:18:59.2	0:22:47.1	(221)	M21	(82)	1:03:49.8	 
245		933	TIIT TÕNISMÄE		1:04:15.2	0:19:00.4	0:23:02.9	(244)	M40	(73)	1:04:00.7	 
246	21	795	JANA TEIER		1:04:18.4	0:19:03.6	0:23:09.6	(255)	N21	(9)	1:04:12.5	 
247		158	PEETER ALLIK		1:04:19.4	0:19:04.6	0:23:05.3	(245)	M40	(74)	1:04:16.6	 
248		304	JAANUS KAUR		1:04:19.7	0:19:04.9	0:23:44.8	(297)	M50	(14)	1:03:45.2	 
249		738	ARTUR SIRKEL	LATAKKO	1:04:25.1	0:19:10.3	0:22:53.3	(231)	M21	(83)	1:04:03.1	 
250		750	HERKI SULEND		1:04:26.9	0:19:12.1	0:23:28.1	(278)	M35	(44)	1:04:11.1	 
251		551	JANEK OBLIKAS	marathon100.com	1:04:29.4	0:19:14.6	0:23:24.6	(274)	M40	(75)	1:03:57.7	 
252		402	LEHO LAJA	SK Jooksupartner	1:04:30.6	0:19:15.8	0:23:37.8	(289)	M40	(76)	1:04:22.6	 
253		949	ALEKSANDR SAŽENKOV		1:04:30.8	0:19:16.0	0:25:31.6	(441)	M35	(45)	1:03:51.0	 
254		665	LEHO RENNIT	Albe Team	1:04:31.0	0:19:16.1	0:23:39.4	(292)	M50	(15)	1:04:13.4	 
255		278	URMAS KALDMA	Elioni SK	1:04:32.0	0:19:17.1	0:23:08.3	(253)	M40	(77)	1:04:08.4	 
256		483	IVAR MARIPUU	DSV Spordiklubi MTÜ	1:04:39.3	0:19:24.5	0:24:04.6	(337)	M21	(84)	1:04:03.9	 
257		267	EGERT KADARIK		1:04:41.3	0:19:26.5	0:23:48.1	(300)	M18	(9)	1:04:30.1	 
258	22	64	EVELIN MÄRTSON	ITK Spordiklubi	1:04:44.7	0:19:29.9	0:22:24.4	(203)	N21	(10)	1:04:40.3	 
259		281	AIVO KALJUMÄE		1:04:45.7	0:19:30.9	0:23:25.8	(277)	M40	(78)	1:04:28.0	 
260		543	INNAR NUKA		1:04:47.2	0:19:32.4	0:23:38.2	(291)	M35	(46)	1:04:23.8	 
261		331	DZINTAR KLAVAN		1:04:53.0	0:19:38.2	0:23:16.9	(265)	M50	(16)	1:04:38.7	 
262		73	ANDRES UUSMA	MKM	1:04:54.6	0:19:39.7	0:22:43.4	(218)	M40	(79)	1:04:50.8	 
263		224	VILJAR HIIENÕMM	Täppsportlased	1:04:56.7	0:19:41.8	0:22:51.5	(227)	M40	(80)	1:04:38.4	 
264	23	296	EDIT KANNEL		1:04:57.7	0:19:42.9	0:23:31.0	(281)	N35	(5)	1:04:39.5	 
265		75	GERT KELLO	CGI Eesti	1:04:59.2	0:19:44.4	0:23:54.6	(309)	M35	(47)	1:04:49.3	 
266		608	RAIVO PLUMER		1:04:59.8	0:19:45.0	0:23:56.6	(315)	M50	(17)	1:04:39.0	 
267	24	939	MERLIN MÕISTUS	SPARTA	1:05:00.3	0:19:45.5	0:23:15.0	(261)	N21	(11)	1:04:46.1	 
268		778	ANDRUS TAMBOOM		1:05:00.6	0:19:45.8	0:23:50.9	(303)	M40	(81)	1:04:32.7	 
269		793	KASPAR TEDER		1:05:05.1	0:19:50.2	0:23:13.2	(258)	M21	(85)	1:04:51.6	 
270		844	RAIN TUNGER	JK MUST PUUDEL	1:05:05.1	0:19:50.3	0:23:52.6	(306)	M21	(86)	1:04:46.0	 
271		695	ANDRUS RÜÜTELMAA		1:05:08.2	0:19:53.4	0:24:17.8	(358)	M40	(82)	1:05:05.9	 
272		739	LAURI SITS		1:05:08.6	0:19:53.8	0:23:20.3	(269)	M40	(83)	1:04:51.0	 
273		79	TOOMAS LAIMETS		1:05:12.0	0:19:57.2	0:22:56.4	(235)	M50	(18)	1:05:04.8	 
274		880	TAAVI VARB	JK MUST PUUDEL	1:05:19.1	0:20:04.3	0:23:57.2	(317)	M35	(48)	1:04:59.0	 
275		72	EERO KOOKLA	SK Jooksupartner	1:05:19.5	0:20:04.6	0:24:07.3	(342)	M40	(84)	1:04:40.1	 
276		283	MARTI KALJUVE		1:05:20.1	0:20:05.2	0:24:22.9	(364)	M21	(87)	1:04:56.6	 
277		845	URMAS TUVIKENE		1:05:20.9	0:20:06.1	0:24:20.1	(361)	M40	(85)	1:04:46.1	 
278		807	PRIIT TIKKU		1:05:27.2	0:20:12.4	0:23:48.6	(301)	M40	(86)	1:05:12.1	 
279		424	RAIVO LEMBERG		1:05:28.3	0:20:13.5	0:24:52.8	(393)	M35	(49)	1:04:47.6	 
280		829	RAIGO TREIMUT		1:05:30.8	0:20:15.9	0:24:18.3	(359)	M40	(87)	1:05:08.5	 
281		634	TARMO PÄRNASTE	Eesti Pandipakend SK	1:05:32.2	0:20:17.4	0:23:41.6	(295)	M21	(88)	1:05:16.4	 
282		977	VIRGO ARGE	JETOIL AS	1:05:36.7	0:20:21.9	0:23:49.3	(302)	M35	(50)	1:05:21.6	 
283		155	ANDRES ALANGO	Stockmann Spordiklubi	1:05:41.8	0:20:26.9	0:22:18.9	(193)	M21	(89)	1:05:37.7	 
284		749	GASPAR SUKK	TriSmile	1:05:44.1	0:20:29.3	0:26:14.7	(498)	M35	(51)		 
285		336	KAAREL KOITNE		1:05:45.4	0:20:30.6	0:24:01.8	(330)	M21	(90)	1:05:26.7	 
286		169	AARE ARU		1:05:45.5	0:20:30.7	0:22:27.2	(207)	M21	(91)	1:05:39.6	 
287	25	850	ANNELI TÕUGJAS		1:05:46.1	0:20:31.3	0:24:09.4	(345)	N21	(12)	1:05:08.7	 
288		382	KRISTJAN KÕRGESAAR	Lennuliiklusteeninduse AS	1:05:46.8	0:20:31.9	0:24:10.0	(346)	M40	(88)	1:05:32.4	 
289		314	NIKOLAI KIN	Eesti Raudtee SK	1:05:48.9	0:20:34.0	0:22:31.8	(208)	M40	(89)	1:05:32.5	 
290		284	ARTUR KAMBERG	Meremõisa SK	1:05:54.0	0:20:39.2	0:25:17.1	(428)	M21	(92)	1:05:17.7	 
291		190	RAIN ELLER	Swedbank	1:06:00.0	0:20:45.2	0:24:02.5	(331)	M35	(52)	1:05:33.5	 
292	26	547	EVELI NURMEOTS		1:06:01.3	0:20:46.5	0:22:58.0	(238)	N35	(6)	1:05:57.5	 
293	27	76	MARET MÜÜR		1:06:02.0	0:20:47.2	0:24:00.2	(325)	N21	(13)	1:05:51.6	 
294		651	ÜLLAR RAUD		1:06:02.3	0:20:47.5	0:24:00.7	(326)	M21	(93)	1:05:51.6	 
295		326	ALLAN KIVISELG	Sparta	1:06:04.4	0:20:49.6	0:23:55.8	(313)	M35	(53)	1:05:43.1	 
296		68	JÜRI LAANMETS		1:06:06.3	0:20:51.5	0:23:23.2	(273)	M50	(19)	1:05:58.5	 
297		894	STEN VESIALLIK	WÜRTH	1:06:07.6	0:20:52.7	0:24:29.0	(371)	M35	(54)	1:05:37.3	 
298		395	RANNO LAANE		1:06:08.2	0:20:53.4	0:23:57.0	(316)	M21	(94)	1:05:32.5	 
299		59	MAKSIM GLUHHOVTSENKO	KEMIT	1:06:10.0	0:20:55.1	0:23:55.4	(312)	M35	(55)	1:05:59.9	 
300		510	MARGUS MULD		1:06:10.7	0:20:55.9	0:23:21.5	(271)	M35	(56)	1:05:55.5	 
301		217	MIHKEL HEINAPUU		1:06:13.7	0:20:58.9	0:22:23.7	(202)	M21	(95)	1:06:07.8	 
302		276	KRISTER KALDA	Toores Jõud ja Puhas Ilu	1:06:13.9	0:20:59.0	0:23:55.0	(310)	M40	(90)	1:05:47.4	 
303		427	JANO LEPIK	Dünamo	1:06:15.3	0:21:00.5	0:23:32.8	(284)	M40	(91)	1:05:39.1	 
304		361	MARGUS KUKKUR	Eesti Panga SK	1:06:15.6	0:21:00.8	0:23:40.8	(293)	M35	(57)	1:05:45.6	 
305	28	393	KATRIN KÜTT	Nõmme KJK	1:06:16.1	0:21:01.3	0:23:07.1	(248)	N21	(14)	1:05:44.2	 
306		859	MART USIN		1:06:16.3	0:21:01.5	0:23:07.7	(249)	M35	(58)	1:05:59.1	 
307	29	196	MARI ELTERMANN		1:06:17.6	0:21:02.8	0:23:32.2	(283)	N21	(15)	1:06:03.7	 
308		306	RAIMOND KESA	Mikitamäe Aironmään Klubi	1:06:18.2	0:21:03.4	0:23:59.4	(321)	M35	(59)	1:05:56.6	 
309		986	HERKKI KITSING	EMTL	1:06:21.7	0:21:06.9	0:24:13.6	(353)	M21	(96)	1:05:52.2	 
310	30	312	KAIRE KIMSEN		1:06:22.1	0:21:07.2	0:23:08.3	(252)	N35	(7)	1:06:15.8	 
311		66	KASPAR TAMMERT	KV Logistikakeskus	1:06:23.4	0:21:08.5	0:23:19.7	(268)	M21	(97)	1:06:17.4	 
312	31	449	LEA LOHK		1:06:25.8	0:21:11.0	0:23:55.0	(311)	N50	(2)	1:05:59.4	 
313		86	TOOMAS VAKS	Domus Kinnisvara	1:06:27.0	0:21:12.2	0:22:24.8	(205)	M21	(98)	1:06:19.2	 
314		360	HEIKKI KUKKE	Kaera Antsud 2	1:06:27.8	0:21:13.0	0:24:22.8	(363)	M40	(92)	1:06:07.9	 
315		787	VEIKO TARM		1:06:28.2	0:21:13.4	0:23:54.5	(308)	M40	(93)	1:06:07.7	 
316		794	TENNO TEDER		1:06:29.0	0:21:14.2	0:25:07.4	(423)	M21	(99)	1:05:55.8	 
317		721	SIMO SEPP		1:06:29.4	0:21:14.6	0:23:31.9	(282)	M21	(100)	1:06:03.1	 
318	32	512	ANŽELIKA MULLASTE		1:06:31.3	0:21:16.5	0:23:25.5	(276)	N40	(7)	1:06:24.0	 
319		82	MARKO LAIGNA		1:06:31.4	0:21:16.6	0:23:25.4	(275)	M35	(60)	1:06:22.3	 
320		197	VALDUR ENGLAS	Tallinna Vesi	1:06:33.2	0:21:18.4	0:23:48.1	(299)	M21	(101)	1:06:23.8	 
321		486	ALO MARTINSON		1:06:35.0	0:21:20.2	0:24:39.6	(380)	M40	(94)	1:05:54.1	 
322		234	HARDI HÕIMOJA		1:06:39.8	0:21:25.0	0:23:56.1	(314)	M35	(61)	1:06:23.6	 
323		164	ALLAN ANNISTE		1:06:41.3	0:21:26.5	0:24:16.0	(356)	M50	(20)	1:06:17.3	 
324		723	ARGO SEVEREV	Sparta	1:06:43.1	0:21:28.2	0:24:11.7	(350)	M40	(95)	1:06:28.9	 
325		614	HEIKI PRANTS		1:06:45.2	0:21:30.4	0:24:56.4	(407)	M50	(21)	1:06:14.3	 
326	33	973	MARIA METSAORG	MARIA JOOKSUKLUBI	1:06:46.4	0:21:31.6	0:23:41.0	(294)	N21	(16)	1:06:34.9	 
327	34	65	AILI SEMPELSON	Sidepataljon	1:06:47.7	0:21:32.8	0:24:12.7	(352)	N40	(8)	1:06:41.2	 
328		724	MAKSIM SHOTIN	Spordiklubi Kibuvits	1:06:51.3	0:21:36.5	0:24:42.0	(383)	M21	(102)	1:06:28.9	 
329		89	ALEKSANDR BARANOV	Start	1:06:53.8	0:21:39.0	0:22:42.3	(215)	M60	(2)	1:06:47.9	 
330		469	OLIVER LÄTTE		1:06:54.4	0:21:39.6	0:23:54.0	(307)	M21	(103)	1:06:45.2	 
331		419	ANDREAS LEHMANN		1:06:55.3	0:21:40.5	0:23:33.4	(285)	M40	(96)	1:06:38.3	 
332		929	PRIIT KOTLI		1:06:58.9	0:21:44.1	0:24:28.2	(369)	M40	(97)	1:06:34.5	 
333	35	592	TRIIN PETERSON	Sparta	1:06:59.0	0:21:44.2	0:23:51.9	(305)	N40	(9)	1:06:41.1	 
334		531	TARMO MÜÜRISEPP	Tallinna Vesi	1:06:59.5	0:21:44.6	0:23:59.8	(322)	M40	(98)	1:06:22.6	 
335		369	RAIMO KURG	SK Tervis	1:07:00.1	0:21:45.3	0:22:36.0	(211)	M21	(104)	1:06:58.1	 
336	36	744	LIIS SOOÄÄR	Euronics Team	1:07:00.3	0:21:45.5	0:26:23.7	(513)	N21	(17)		 
337	37	625	ANDRA PUUSEPP		1:07:00.4	0:21:45.6	0:24:05.9	(340)	N40	(10)	1:06:43.7	 
338		891	IVO VEIMEN		1:07:00.9	0:21:46.0	0:25:48.5	(457)	M21	(105)	1:06:28.8	 
339	38	748	INGA SUIK	Täppsportlased	1:07:01.1	0:21:46.2	0:24:04.6	(336)	N35	(8)	1:06:57.0	 
340	39	662	KATTRI REINULA		1:07:01.2	0:21:46.3	0:24:51.4	(389)	N40	(11)	1:06:50.0	 
341		814	MEELIS TOLM	Sparta	1:07:10.0	0:21:55.2	0:25:07.2	(422)	M21	(106)	1:06:33.0	 
342		81	MARKO KOLK	Jooksuklubi Sarma	1:07:10.8	0:21:56.0	0:23:34.6	(286)	M40	(99)	1:07:06.0	 
343		758	HERKKI SUURMAN		1:07:12.1	0:21:57.3	0:24:14.8	(355)	M40	(100)	1:06:44.2	 
344		207	INDREK GUTMANN	Vabakutseline	1:07:12.7	0:21:57.8	0:23:58.7	(319)	M35	(62)	1:06:58.4	 
345		985	KALLE TOMINGAS		1:07:13.3	0:21:58.5	0:23:18.9	(266)	M40	(101)	1:06:55.9	 
346		828	JAANUS TREILMANN	IM Arvutid	1:07:13.9	0:21:59.1	0:24:23.0	(365)	M40	(102)	1:06:54.3	 
347		970	MARKO RAHUORG		1:07:14.8	0:21:59.9	0:23:10.4	(256)	M21	(107)	1:07:03.1	 
348	40	238	KERSTI HÄRM		1:07:16.9	0:22:02.1	0:24:01.2	(327)	N21	(18)	1:07:01.8	 
349		965	SEMJON HOTJAKOV	MEREMÕISA SK	1:07:17.5	0:22:02.7	0:25:17.6	(429)	M21	(108)	1:06:40.9	 
350		57	KAUPO MAASING	Hansa SK	1:07:20.5	0:22:05.7	0:22:22.7	(199)	M21	(109)	1:07:14.6	 
351		819	MAREK TOOMING		1:07:22.4	0:22:07.6	0:24:04.8	(338)	M21	(110)	1:07:08.5	 
352		736	VOLDEMAR SINDONEN		1:07:23.0	0:22:08.2	0:25:01.7	(416)	M50	(22)	1:06:59.4	 
353		329	ERKO KIVRO		1:07:23.1	0:22:08.3	0:23:16.6	(263)	M21	(111)	1:07:05.3	 
354		371	RAINER KURIKJAN		1:07:28.1	0:22:13.2	0:24:01.4	(328)	M35	(63)	1:07:07.9	 
355		903	JAAK VIITMANN		1:07:28.1	0:22:13.3	0:24:31.6	(374)	M21	(112)	1:07:11.4	 
356		964	ARCHIBALD KALD		1:07:29.3	0:22:14.5	0:23:44.6	(296)	M21	(113)	1:06:54.6	 
357		775	TOOMAS TALVISTE		1:07:30.3	0:22:15.5	0:23:30.2	(280)	M21	(114)	1:07:11.2	 
358		418	JAAN LEHISMETS		1:07:30.7	0:22:15.9	0:24:50.6	(387)	M21	(115)	1:07:13.1	 
359	41	981	JÄRVI VALTER		1:07:31.6	0:22:16.8	0:24:04.4	(335)	N50	(3)	1:07:25.7	 
360		497	MATIS MERIVEE	adidas	1:07:32.2	0:22:17.4	0:23:51.6	(304)	M21	(116)	1:07:05.9	 
361		564	MAGNUS-MAIT OTS	Big Family	1:07:32.8	0:22:18.0	0:24:41.2	(382)	M40	(103)	1:07:14.9	 
362	42	307	KERTI KESKÜLA		1:07:34.6	0:22:19.8	0:24:52.1	(391)	N21	(19)	1:07:09.5	 
363		401	SILVER LAIV		1:07:36.7	0:22:21.9	0:24:35.5	(378)	M40	(104)	1:07:21.7	 
364		642	JAAN RAIK		1:07:39.1	0:22:24.3	0:24:05.2	(339)	M40	(105)	1:07:05.2	 
365	43	712	MARINA SANG		1:07:42.3	0:22:27.5	0:24:53.8	(397)	N21	(20)	1:07:25.1	 
366		847	TAMBET TÕNISSON		1:07:45.5	0:22:30.7	0:24:58.1	(411)	M35	(64)	1:07:28.7	 
367		553	RAIMOND OJALILL		1:07:49.0	0:22:34.2	0:24:33.4	(375)	M35	(65)	1:07:37.4	 
368		899	INDREK VIIKMAA	Sidepataljon	1:07:51.4	0:22:36.6	0:24:14.8	(354)	M40	(106)	1:07:44.9	 
369		87	AVO REIMETS		1:07:54.4	0:22:39.6	0:23:19.1	(267)	M60	(3)	1:07:51.3	 
370		451	JOOSEP LOOST		1:07:55.2	0:22:40.4	0:24:08.0	(343)	M21	(117)	1:07:36.2	 
371	44	203	MARIS FREUDENTHAL	KV TVJ	1:07:55.2	0:22:40.4	0:24:53.0	(394)	N21	(21)	1:07:41.7	 
372		865	ÜLAR VAADUMÄE		1:07:56.4	0:22:41.6	0:25:31.4	(440)	M35	(66)	1:07:15.5	 
373		324	RAIN KIVIMÄGI		1:07:57.1	0:22:42.3	0:23:08.2	(251)	M21	(118)	1:07:41.8	 
374		523	INDREK MÄLLO	Tallinna Vesi	1:07:59.1	0:22:44.3	0:25:19.6	(431)	M21	(119)	1:07:43.6	 
375		406	VALLO LAUL		1:08:00.7	0:22:45.9	0:24:24.5	(366)	M35	(67)	1:07:37.6	 
376		181	RAIGO BIRNBAUM		1:08:02.7	0:22:47.8	0:24:26.0	(367)	M21	(120)	1:07:34.9	 
377		69	JAANUS URB	CFC Spordiklubi	1:08:08.2	0:22:53.4	0:24:17.0	(357)	M21	(121)	1:07:59.2	 
378		492	VEIKO MELTSAS		1:08:09.9	0:22:55.1	0:23:59.9	(323)	M40	(107)	1:07:55.2	 
379		178	MÄRT BAUMVERK		1:08:11.5	0:22:56.7	0:23:57.9	(318)	M40	(108)	1:08:03.5	 
380		399	MART LAID	Intrac	1:08:13.8	0:22:59.0	0:24:10.9	(348)	M40	(109)	1:08:03.0	 
381		851	MARGUS TÄHEPÕLD	MKM	1:08:15.1	0:23:00.3	0:24:53.9	(398)	M35	(68)	1:07:53.2	 
382		885	TAAVI VASSERMAN	JK MUST PUUDEL	1:08:15.5	0:23:00.7	0:24:34.8	(376)	M35	(69)	1:07:56.0	 
383	45	78	TEA MEY		1:08:16.5	0:23:01.7	0:23:37.2	(288)	N40	(12)	1:08:13.7	 
384		584	ALLAR PEETMAA		1:08:23.5	0:23:08.6	0:24:04.3	(333)	M21	(122)	1:08:08.7	 
385		74	MARGUS TREES	AT Spordiklubi	1:08:24.4	0:23:09.5	0:23:08.0	(250)	M40	(110)	1:08:15.1	 
386		144	ERKKI AADLI	SK Saue Tammed	1:08:28.8	0:23:14.0	0:17:30.2	(17)	M16	(6)	1:08:28.8	 
387		342	OLEG KOSHIK		1:08:31.7	0:23:16.9	0:24:54.9	(402)	M21	(123)	1:08:20.4	 
388	46	992	LIINA SILLUSTE		1:08:32.3	0:23:17.5	0:24:54.4	(400)	N21	(22)	1:08:06.1	 
389		924	OSCAR ÕUN	Maksu- ja Tolliamet	1:08:40.6	0:23:25.8	0:27:05.3	(557)	M21	(124)	1:08:02.9	 
390		624	ARWED PUUSALU	ELRATO	1:08:42.2	0:23:27.4	0:24:03.3	(332)	M50	(23)	1:08:21.3	 
391		980	KAIDO KOKK		1:08:43.3	0:23:28.5	0:25:32.7	(442)	M35	(70)	1:08:01.9	 
392		769	VILLU ZIRNASK	Stamina SK	1:08:45.9	0:23:31.0	0:25:44.5	(449)	M40	(111)	1:08:08.9	 
393		344	TAAVI KOTKAS		1:08:46.3	0:23:31.5	0:25:18.3	(430)	M21	(125)	1:08:09.8	 
394		567	RAINE PAJO	Eesti Energia SK	1:08:51.1	0:23:36.3	0:25:05.8	(420)	M35	(71)	1:08:35.3	 
395	47	838	ELIZABETH TRUVE		1:08:52.7	0:23:37.9	0:24:10.6	(347)	N18	(1)	1:08:37.3	 
396		741	HEIKI SOOME	Lival Sport	1:08:53.6	0:23:38.8	0:25:45.7	(452)	M40	(112)	1:08:25.1	 
397	48	308	LIILIA KESKÜLA		1:08:57.4	0:23:42.6	0:24:51.5	(390)	N50	(4)	1:08:32.6	 
398		270	KAAREL KAIS	Rannahunt	1:09:00.0	0:23:45.2	0:24:37.0	(379)	M40	(113)	1:08:42.9	 
399	49	350	KRISTI KRULL	TallinnStrong	1:09:00.4	0:23:45.6	0:23:38.0	(290)	N21	(23)	1:08:46.2	 
400		666	SANDER RETEL		1:09:01.6	0:23:46.8	0:25:59.6	(473)	M21	(126)	1:08:20.0	 
401		761	AIVAR SÕERD		1:09:04.4	0:23:49.6	0:24:50.8	(388)	M50	(24)	1:08:48.3	 
402		367	ALEKSEI KUNTŠEV		1:09:06.3	0:23:51.5	0:24:54.7	(401)	M21	(127)	1:09:03.3	 
403		770	INDREK ZOLK		1:09:08.1	0:23:53.3	0:26:52.6	(539)	M21	(128)	1:08:26.3	 
404	50	99	MARIKA ROOPÄRG	TriSmile	1:09:08.8	0:23:54.0	0:24:09.3	(344)	N40	(13)	1:09:08.8	 
405	51	105	HELINA PUUORG		1:09:10.0	0:23:55.2	0:24:57.3	(409)	N35	(9)	1:08:58.4	 
406		538	PELLE NEPPER		1:09:11.8	0:23:57.0	0:25:06.5	(421)	M35	(72)	1:08:37.9	 
407		984	HENRIK JOGENBRO	MCLEAN&LANEMAN	1:09:12.1	0:23:57.3	0:25:35.2	(446)	M40	(114)	1:08:38.3	 
408	52	636	VALLI PÄRTEL		1:09:17.4	0:24:02.6	0:26:04.7	(479)	N21	(24)	1:08:42.9	 
409		266	MEELIS KADARBIK	Swedbank	1:09:17.6	0:24:02.7	0:26:19.9	(506)	M21	(129)	1:08:47.7	 
410		185	ANDRUS DANILOV	Sparta	1:09:23.3	0:24:08.5	0:24:55.4	(405)	M40	(115)	1:09:15.1	 
411		923	ANDRO ÕISNURM	Tallinna Vesi	1:09:24.6	0:24:09.8		()	M21	(130)	1:08:43.4	 
412	53	249	ELENA JODSCHE		1:09:25.0	0:24:10.1	0:24:42.6	(384)	N21	(25)	1:09:15.0	 
413		432	KALLE LETT		1:09:28.0	0:24:13.2	0:24:59.1	(413)	M60	(4)	1:09:08.0	 
414		872	VEIKO VALJALA		1:09:29.6	0:24:14.7	0:26:18.9	(503)	M35	(73)	1:08:53.7	 
415	54	884	KAMILA VARVAS		1:09:32.1	0:24:17.2	0:24:57.5	(410)	N40	(14)	1:09:19.2	 
416		83	MARGO ENGEL	Täppsportlased	1:09:36.8	0:24:22.0	0:24:52.3	(392)	M35	(74)	1:09:32.6	 
417	55	501	ANNELI METSAMAA	Eesti AGA Spordiklubi/ FB Jooksmine	1:09:41.3	0:24:26.5	0:25:13.6	(426)	N21	(26)	1:09:16.6	 
418		191	RIHO-RENE ELLERMAA		1:09:46.9	0:24:32.1	0:24:40.8	(381)	M50	(25)	1:09:30.1	 
419		596	MADIS PIIGLI		1:09:49.2	0:24:34.4	0:25:44.8	(450)	M21	(131)	1:09:26.9	 
420		774	KRISTJAN TALU		1:09:55.9	0:24:41.1	0:24:59.5	(414)	M40	(116)	1:09:45.2	 
421		430	TEET LEPPÄNEN		1:09:59.4	0:24:44.6	0:25:56.3	(466)	M21	(132)	1:09:26.3	 
422		641	ARDO RAIDOJA		1:10:05.5	0:24:50.7	0:24:04.4	(334)	M21	(133)	1:09:54.2	 
423		746	JÜRI SPEEK		1:10:06.9	0:24:52.1	0:27:04.0	(552)	M40	(117)	1:09:29.8	 
424		628	ARGO PÕLDOJA		1:10:09.0	0:24:54.2	0:25:30.4	(438)	M21	(134)	1:09:47.9	 
425		439	OLAV LIIVAK		1:10:10.3	0:24:55.5	0:25:27.1	(436)	M60	(5)	1:09:51.1	 
426		545	ERKI NURK		1:10:13.7	0:24:58.9	0:24:58.4	(412)	M40	(118)	1:09:51.6	 
427		620	PERT PUHM		1:10:13.8	0:24:59.0	0:25:04.9	(419)	M21	(135)	1:10:01.4	 
428		335	GUNNAR KOITNE		1:10:14.0	0:24:59.2	0:24:53.5	(395)	M60	(6)	1:10:08.1	 
429	56	798	KATRENA TENNO	adidas	1:10:17.0	0:25:02.2	0:24:07.0	(341)	N21	(27)	1:10:05.9	 
430	57	46	KADI LIIS SAAR	PharmaSwiss / TC2000	1:10:20.4	0:25:05.6	0:25:45.6	(451)	N21	(28)	1:10:12.9	 
431		343	JAAN KOSTJUKOV		1:10:20.6	0:25:05.8	0:25:01.9	(417)	M21	(136)	1:10:01.6	 
432	58	165	MERIKENE ANNUK		1:10:23.1	0:25:08.3	0:24:57.1	(408)	N35	(10)	1:10:13.6	 
433		199	TÕNU ERNITS		1:10:25.5	0:25:10.7	0:26:39.3	(529)	M40	(119)	1:09:55.9	 
434		667	TARMO RIKKINEN	SWECO	1:10:27.8	0:25:13.0	0:25:34.9	(445)	M40	(120)	1:09:54.7	 
435		90	VALEV ALTMETS		1:10:34.2	0:25:19.4	0:24:30.9	(372)	M40	(121)	1:10:28.3	 
436		108	SERGEI ISTSENKO	JK START	1:10:36.7	0:25:21.9	0:25:29.3	(437)	M50	(26)	1:10:30.8	 
437		959	JANNO KUUS		1:10:38.6	0:25:23.8	0:24:01.6	(329)	M40	(122)	1:10:16.1	 
438		92	RIHO JESSE		1:10:42.9	0:25:28.1	0:25:46.0	(453)	M40	(123)	1:10:30.6	 
439		293	AIMAR KANN		1:10:43.7	0:25:28.9	0:26:23.3	(512)	M40	(124)	1:10:17.9	 
440		690	KAUPO RÄNDLA	CGI	1:10:44.2	0:25:29.3	0:27:12.2	(566)	M21	(137)	1:10:09.5	 
441		910	TARMO VISNAPUU		1:10:49.6	0:25:34.8	0:24:27.7	(368)	M35	(75)	1:10:23.7	 
442		145	MARKO AALIK	Mikitamäe Aironmään Klubi	1:10:50.0	0:25:35.1	0:25:49.9	(458)	M35	(76)	1:10:39.1	 
443	59	354	MARIA KRUUSIMAA	Sparta	1:10:50.1	0:25:35.3	0:25:57.4	(469)	N21	(29)	1:10:27.6	 
444		887	ERMO VEELAIN		1:10:56.8	0:25:42.0	0:26:03.4	(477)	M50	(27)	1:10:27.0	 
445	60	255	GERLI JÕEÄÄR		1:11:02.8	0:25:48.0	0:24:19.8	(360)	N21	(30)	1:10:55.7	 
446		235	ANDRES HÄKKINEN		1:11:04.9	0:25:50.1	0:26:09.2	(489)	M60	(7)	1:10:35.3	 
447		833	TÕNIS TRUMMAL		1:11:08.4	0:25:53.6	0:24:35.0	(377)	M21	(138)	1:10:55.4	 
448		198	MADIS ENNUSTE	DSV Spordiklubi MTÜ	1:11:08.7	0:25:53.9	0:24:21.6	(362)	M40	(125)	1:11:01.2	 
449		976	JAAN MÄTTAS	VAK STAIER	1:11:10.0	0:25:55.2	0:25:30.9	(439)	M70	(1)	1:10:54.1	 
450		990	HILLAR VAINJÄRV		1:11:11.8	0:25:56.9	0:26:08.5	(485)	M60	(8)	1:10:39.9	 
451		263	MIHKEL JÜRIMAA		1:11:12.3	0:25:57.5	0:26:12.7	(495)	M21	(139)	1:10:59.0	 
452		88	RAIMOND SAKS	Elioni SK	1:11:13.8	0:25:59.0	0:26:13.1	(496)	M50	(28)	1:11:06.0	 
453		333	MARTIN KOIDU	Insurance Broker Services	1:11:14.0	0:25:59.2	0:26:11.6	(494)	M21	(140)	1:10:29.3	 
454		813	ALLAN TOIM		1:11:15.6	0:26:00.8	0:25:48.1	(455)	M50	(29)	1:10:53.8	 
455		987	JUHO JÄRVA		1:11:16.8	0:26:02.0	0:25:15.2	(427)	M40	(126)	1:10:56.1	 
456	61	788	TIINA TARTES		1:11:19.4	0:26:04.5	0:26:02.3	(476)	N40	(15)	1:11:11.2	 
457		685	SANDER RUUL		1:11:21.7	0:26:06.9	0:25:03.6	(418)	M21	(141)	1:11:14.3	 
458		97	ÜLO URB	CFC Spordiklubi	1:11:22.5	0:26:07.7	0:25:09.0	(424)	M50	(30)	1:11:12.9	 
459	62	571	ANNE-LY PALM	SK Jooksupartner	1:11:22.9	0:26:08.1	0:26:33.2	(519)	N35	(11)	1:10:58.6	 
460		289	IGOR KANGRO		1:11:23.3	0:26:08.4	0:26:00.2	(474)	M35	(77)	1:10:56.1	 
461	63	95	AIMI PIHEL	MTA SK	1:11:26.1	0:26:11.2	0:24:54.3	(399)	N60	(1)	1:11:20.4	 
462		527	RAUL MÄNDLA	Täppsportlased	1:11:32.0	0:26:17.2	0:25:50.1	(459)	M40	(127)	1:10:50.7	 
463		785	MIHKEL TANISSAAR		1:11:35.1	0:26:20.3	0:26:11.3	(492)	M21	(142)	1:11:25.4	 
464		471	KRISTJAN MAASIK	Audentese SK	1:11:37.3	0:26:22.4	0:26:16.3	(500)	M16	(7)	1:10:57.1	 
465	64	509	MEELIKA MUISO		1:11:38.2	0:26:23.4	0:26:23.8	(514)	N35	(12)	1:11:02.3	 
466		94	ANDREI LOPSIK	Eesti Energia spordiklubi	1:11:40.0	0:26:25.1	0:25:26.7	(435)	M50	(31)	1:11:30.8	 
467	65	184	BRIT BÄRENGRUB	LIVIKO	1:11:40.5	0:26:25.7	0:24:54.9	(403)	N21	(31)	1:11:34.3	 
468		194	HEIKI ELMET		1:11:44.6	0:26:29.8	0:24:31.6	(373)	M40	(128)	1:11:34.7	 
469		85	KALLE PALMAR	Piirivalve SKK	1:11:46.6	0:26:31.7	0:24:44.8	(386)	M70	(2)	1:11:36.8	 
470		373	HARDO KUSLAP		1:11:48.6	0:26:33.8	0:24:28.6	(370)	M21	(143)	1:11:29.9	 
471		465	ALEKSANDR LVOV		1:11:49.8	0:26:35.0	0:26:28.6	(517)	M21	(144)	1:11:30.1	 
472	66	745	ZAIRA SOROKINA		1:11:51.9	0:26:37.0	0:26:01.4	(475)	N40	(16)	1:11:18.2	 
473		693	SIIM RÄTSEP	Saku Õlletehase spordiklubi	1:11:53.0	0:26:38.2	0:26:19.3	(505)	M21	(145)	1:11:13.5	 
474		239	RANNAR HÄRMASTE		1:11:53.1	0:26:38.3	0:27:15.8	(568)	M21	(146)	1:11:32.3	 
475		96	RAINE HIRVE		1:11:57.2	0:26:42.3	0:25:21.1	(432)	M21	(147)	1:11:48.5	 
476		106	ALLAN LAHE	Hansa SK	1:12:05.2	0:26:50.4	0:25:26.2	(434)	M40	(129)	1:11:35.0	 
477		259	JÜRI-ANDREAS JÄRVISTE		1:12:05.3	0:26:50.5	0:26:06.7	(482)	M16	(8)	1:11:31.0	 
478		988	JANEK HAUD		1:12:09.3	0:26:54.5	0:26:20.4	(507)	M40	(130)	1:11:48.3	 
479		121	JUHO REINTAM		1:12:12.4	0:26:57.6	0:25:57.7	(471)	M40	(131)	1:12:02.9	 
480		581	MARTIN PEDAI	Euronics Team	1:12:13.8	0:26:59.0	0:24:11.2	(349)	M40	(132)	1:11:37.5	 
481		225	MÄRT HIIETAMM		1:12:15.3	0:27:00.5	0:26:42.5	(532)	M21	(148)	1:11:51.7	 
482		888	MAIKEL VEELAIN		1:12:15.3	0:27:00.5	0:26:03.9	(478)	M21	(149)	1:11:45.9	 
483		460	VELLO LUTS	TriSmile	1:12:15.5	0:27:00.7	0:26:07.3	(484)	M35	(78)	1:11:43.4	 
484		873	ALO VALLIKIVI	Tallinna Vesi	1:12:19.2	0:27:04.4	0:27:02.8	(551)	M35	(79)	1:11:39.2	 
485		657	RENNO REHTLA		1:12:21.2	0:27:06.4	0:25:34.1	(443)	M21	(150)	1:12:14.3	 
486		652	HEIKI REBANE		1:12:22.6	0:27:07.8	0:24:11.9	(351)	M21	(151)	1:12:20.3	 
487	67	597	MIRJAM PIIK		1:12:32.3	0:27:17.5	0:26:11.5	(493)	N35	(13)	1:12:15.3	 
488		669	VALTER RITSO		1:12:39.6	0:27:24.8	0:26:09.1	(488)	M35	(80)	1:12:23.3	 
489		942	AGO VÕHMAR		1:12:49.3	0:27:34.4	0:27:22.0	(579)	M35	(81)	1:12:23.3	 
490		241	VALDO JAHILO	TriSmile	1:12:51.2	0:27:36.3	0:27:04.8	(555)	M40	(133)	1:12:31.9	 
491		806	IVO TIKERPE		1:12:51.6	0:27:36.7	0:26:21.6	(508)	M40	(134)	1:12:25.8	 
492		953	MARGUS SARAPUU		1:12:51.8	0:27:37.0	0:26:37.9	(526)	M40	(135)	1:12:32.9	 
493		84	AILAR LIMMER		1:12:53.6	0:27:38.8	0:25:57.5	(470)	M50	(32)	1:12:44.9	 
494		784	TANEL TANG		1:13:01.5	0:27:46.7	0:26:37.1	(523)	M21	(152)	1:12:27.6	 
495	68	107	KATRIN OOLMETS		1:13:02.0	0:27:47.2	0:25:56.6	(467)	N35	(14)	1:12:54.8	 
496	69	928	ANNELI KOTLI	SPARTA	1:13:02.3	0:27:47.5	0:25:36.9	(447)	N40	(17)	1:12:38.2	 
497		328	TIIT KIVISILD		1:13:03.9	0:27:49.1	0:27:34.8	(595)	M60	(9)	1:12:34.8	 
498		700	REIMO SAAR		1:13:04.6	0:27:49.8	0:25:39.2	(448)	M21	(153)	1:13:00.0	 
499		542	JÜRGO NOONI		1:13:04.7	0:27:49.9	0:26:10.6	(490)	M21	(154)	1:12:34.3	 
500		397	HARDO LAAS	Sparta	1:13:06.9	0:27:52.1	0:26:56.8	(544)	M35	(82)	1:12:30.5	 
501		913	HARRY VOLKE	Tamrex	1:13:08.3	0:27:53.4	0:26:11.3	(491)	M35	(83)	1:12:50.4	 
502	70	109	PILLE SABOLOTNI		1:13:09.1	0:27:54.3	0:25:48.1	(456)	N40	(18)	1:13:03.0	 
503		603	RIIVO PILVIK		1:13:10.5	0:27:55.6	0:26:59.6	(549)	M35	(84)	1:12:44.7	 
504		936	MARTIN NOORVÄLI		1:13:11.4	0:27:56.6	0:27:36.1	(596)	M21	(155)	1:12:30.5	 
505	71	366	ÜLLE KUMMER-LEMAN	ITI	1:13:12.4	0:27:57.5	0:25:58.3	(472)	N50	(5)	1:12:58.4	 
506	72	524	MOONIKA MÄLLO	MKM	1:13:14.6	0:27:59.8	0:26:08.6	(486)	N21	(32)	1:12:59.4	 
507	73	578	VELLI PARTS		1:13:17.1	0:28:02.3	0:25:51.8	(461)	N40	(19)	1:12:52.9	 
508	74	570	MARILIIS PALITS	Prorunner	1:13:19.3	0:28:04.5	0:26:07.2	(483)	N21	(33)	1:12:44.7	 
509		426	IVO LEPASAAR		1:13:20.6	0:28:05.7	0:26:21.8	(509)	M40	(136)	1:12:59.8	 
510		757	KRISTO SUSSEN	Saku Õlletehase spordiklubi	1:13:25.2	0:28:10.4	0:27:06.2	(558)	M21	(156)	1:12:43.5	 
511		339	ALAR KOOT		1:13:25.2	0:28:10.4	0:26:05.8	(480)	M21	(157)	1:13:10.5	 
512	75	621	KRISTIINA PULLERITS		1:13:28.6	0:28:13.8	0:27:19.5	(573)	N21	(34)	1:13:15.4	 
513		301	KAIDO KARUSSAAR		1:13:28.9	0:28:14.1	0:24:43.2	(385)	M40	(137)	1:13:21.4	 
514		582	KARL PEDAK		1:13:29.8	0:28:15.0	0:27:50.7	(611)	M40	(138)	1:12:49.7	 
515	76	127	HELLE VIITAK		1:13:32.8	0:28:17.9	0:25:57.0	(468)	N40	(20)	1:13:26.8	 
516	77	639	LAURA PÜVI	adidas	1:13:34.9	0:28:20.0	0:25:34.8	(444)	N21	(35)	1:13:22.0	 
517		632	JAANUS PÕTTER	TriSmile	1:13:36.5	0:28:21.7	0:26:48.5	(535)	M40	(139)	1:12:53.4	 
518		734	LAURI SINDONEN		1:13:39.2	0:28:24.4	0:25:10.4	(425)	M21	(158)	1:13:14.6	 
519		893	ARNE VESI		1:13:49.0	0:28:34.1	0:22:50.3	(224)	M40	(140)	1:13:35.6	 
520		182	ALEKSANDR BULÕGIN	Euronics Team	1:13:50.4	0:28:35.6	0:28:23.8	(649)	M21	(159)	1:13:15.2	 
521		945	KAIDO ROSIN	SPORDISELTS KAIDO	1:13:50.7	0:28:35.9	0:28:00.2	(626)	M35	(85)	1:13:10.0	 
522	78	420	EDA LEHMANN		1:13:51.1	0:28:36.3	0:26:26.9	(516)	N40	(21)	1:13:34.9	 
523		638	KAUPO PÜVI		1:13:51.4	0:28:36.6	0:26:31.3	(518)	M40	(141)	1:13:28.3	 
524		994	INDREK TAMBERG		1:13:53.8	0:28:39.0	0:26:57.5	(546)	M35	(86)	1:13:33.5	 
525		119	MADIS MARIPUU		1:13:55.8	0:28:40.9	0:26:19.1	(504)	M40	(142)	1:13:43.9	 
526		277	MEELIS KALDA		1:13:59.1	0:28:44.3	0:27:27.1	(583)	M35	(87)	1:13:43.1	 
527		782	BRUNO TAMMARU		1:14:02.4	0:28:47.5	0:27:18.9	(571)	M40	(143)	1:13:45.3	 
528	79	856	KRISTINA UIBO		1:14:02.4	0:28:47.6	0:27:19.3	(572)	N40	(22)	1:13:45.7	 
529		520	MARKO MÄGI		1:14:07.8	0:28:53.0	0:27:19.6	(574)	M40	(144)	1:13:40.3	 
530		116	INDREK PÄRI	DEVLAB	1:14:09.9	0:28:55.1	0:26:45.3	(534)	M35	(88)	1:14:00.1	 
531		170	HARGO ARULAANE		1:14:10.5	0:28:55.7	0:25:55.9	(464)	M40	(145)	1:13:58.5	 
532		162	MARTIN ANDLA		1:14:10.9	0:28:56.1	0:27:37.8	(598)	M21	(160)	1:14:01.3	 
533		810	REIN TILLEMANN		1:14:11.5	0:28:56.7	0:26:44.5	(533)	M40	(146)	1:13:47.7	 
534		789	VEIKO TARVIS		1:14:11.6	0:28:56.8	0:25:56.0	(465)	M40	(147)	1:13:58.1	 
535		345	GERT KOTSAR		1:14:12.5	0:28:57.6	0:26:40.1	(530)	M35	(89)	1:13:52.8	 
536		175	MAIT BALITSKI		1:14:13.0	0:28:58.1	0:25:50.9	(460)	M40	(148)	1:14:02.5	 
537	80	576	JAANIKA PARTS	Elisa SK	1:14:15.3	0:29:00.5	0:27:30.0	(588)	N35	(15)	1:13:49.4	 
538		481	HEIGO MANSBERG		1:14:15.4	0:29:00.5	0:27:29.8	(587)	M40	(149)	1:13:33.9	 
539	81	363	PAULA HELENA KUKLANE		1:14:16.8	0:29:01.9	0:27:28.9	(585)	N16	(2)	1:13:59.5	 
540		337	ANDRUS KOMPUS		1:14:17.4	0:29:02.6	0:27:11.7	(564)	M50	(33)	1:13:52.1	 
541	82	897	KARIN VIGLA		1:14:17.5	0:29:02.7	0:26:37.2	(524)	N40	(23)	1:13:53.3	 
542		956	ANATOLI UMNOV		1:14:20.9	0:29:06.1	0:27:32.5	(593)	M21	(161)	1:13:56.1	 
543		77	OLIVER MANDRE		1:14:24.2	0:29:09.4	0:28:05.8	(631)	M21	(162)	1:14:12.8	 
544	83	716	SILJA SCHEER	Hansa SK	1:14:25.9	0:29:11.1	0:26:17.9	(502)	N35	(16)	1:14:10.4	 
545		720	EEDI SEPP		1:14:26.6	0:29:11.8	0:28:18.4	(644)	M35	(90)	1:13:53.8	 
546		349	KAIDO KROON		1:14:29.6	0:29:14.8	0:27:19.8	(575)	M50	(34)	1:14:05.5	 
547		357	HANNES KUHLBACH		1:14:32.4	0:29:17.6	0:27:38.3	(600)	M40	(150)	1:14:00.9	 
548		904	JAANUS VILJAMAA		1:14:35.3	0:29:20.5	0:27:37.0	(597)	M50	(35)	1:14:04.3	 
549		332	ALEKSANDR KNJAZETSKI		1:14:39.8	0:29:25.0	0:26:57.5	(547)	M21	(163)	1:13:58.6	 
550	84	575	LEMMI PARK		1:14:40.2	0:29:25.4	0:27:20.2	(576)	N35	(17)	1:14:11.3	 
551		294	ANTS KANN		1:14:40.7	0:29:25.9	0:26:51.2	(536)	M35	(91)	1:14:27.9	 
552		320	MEELIS KITSING	MKM	1:14:40.7	0:29:25.9	0:28:29.9	(652)	M40	(151)	1:13:57.1	 
553	85	325	AGNE KIVISAAR		1:14:43.5	0:29:28.7	0:26:09.0	(487)	N35	(18)	1:14:29.1	 
554		271	MART KAJARI	Sparta	1:14:47.2	0:29:32.4	0:29:05.2	(677)	M40	(152)	1:14:03.6	 
555	86	409	AIVI LAURIK		1:14:47.8	0:29:33.0	0:27:39.8	(602)	N40	(24)	1:14:13.4	 
556	87	914	LIINA VOLMERSON	Eesti AGA Spordiklubi	1:14:48.6	0:29:33.7	0:27:11.1	(562)	N21	(36)	1:14:22.4	 
557		327	ANDRES KIVISILD		1:14:49.6	0:29:34.8	0:27:39.2	(601)	M21	(164)	1:14:19.8	 
558		707	JÜRI SAKKEUS	SK Jooksupartner	1:14:51.6	0:29:36.8	0:25:24.2	(433)	M60	(10)	1:14:38.4	 
559		637	ANTTI PÄÄSUKENE		1:14:54.4	0:29:39.6	0:29:03.4	(675)	M21	(165)	1:14:12.7	 
560		114	AIVAR JAESKI		1:15:03.6	0:29:48.8	0:25:47.4	(454)	M40	(153)	1:14:57.0	 
561		732	RAUNO SILLAMAA		1:15:03.8	0:29:49.0	0:26:57.1	(545)	M35	(92)	1:14:37.4	 
562	88	98	LJUDMILLA GETMAN	JK START	1:15:04.2	0:29:49.4	0:26:14.4	(497)	N50	(6)	1:14:58.0	 
563		330	SANDER KLAOS		1:15:06.7	0:29:51.8	0:27:18.0	(570)	M21	(166)	1:14:48.4	 
564		971	JÜRI METSAORG	MARIA JOOKSUKLUBI	1:15:09.6	0:29:54.7	0:25:01.3	(415)	M40	(154)	1:15:03.2	 
565	89	895	KADRI VESKE	JK MUST PUUDEL	1:15:13.6	0:29:58.8	0:27:53.0	(615)	N21	(37)	1:14:38.3	 
566	90	240	ANNE JAANI		1:15:18.0	0:30:03.2	0:27:28.0	(584)	N50	(7)	1:15:06.1	 
567	91	236	KATRIN HÄMÄLÄINEN		1:15:19.8	0:30:04.9	0:27:15.9	(569)	N21	(38)	1:15:08.8	 
568	92	403	MAARJA LAOS		1:15:26.4	0:30:11.6	0:26:57.8	(548)	N21	(39)	1:14:45.4	 
569		93	TOOMAS KRISTIN	Spordiselts MTÜ	1:15:28.5	0:30:13.7	0:27:29.7	(586)	M40	(155)	1:15:18.6	 
570		100	BRUNO MÜNTER	Kiltsi Tööjõureservid	1:15:29.3	0:30:14.5	0:26:22.4	(510)	M50	(36)	1:15:23.4	 
571		171	RAIN ARUMÄE		1:15:31.9	0:30:17.1	0:26:39.2	(528)	M35	(93)	1:15:11.7	 
572	93	122	LIIS MÕTTUS		1:15:33.7	0:30:18.9	0:26:06.2	(481)	N35	(19)	1:15:26.0	 
573		370	ARVI KURIK		1:15:39.0	0:30:24.2	0:24:53.7	(396)	M21	(167)	1:15:26.7	 
574		808	RAUNO TIKS		1:15:44.0	0:30:29.2	0:27:05.2	(556)	M21	(168)	1:15:28.3	 
575		507	ELARI MOKS		1:15:49.4	0:30:34.5	0:26:38.9	(527)	M21	(169)	1:15:34.1	 
576		905	TARMO VILLUM		1:15:49.5	0:30:34.7	0:27:32.1	(591)	M21	(170)	1:15:08.5	 
577		961	JANEK TASK	SK RTK 22.15	1:15:50.1	0:30:35.3	0:27:38.3	(599)	M35	(94)	1:15:18.9	 
578	94	599	PILLE-RIIN PIIRMETS		1:15:53.2	0:30:38.4	0:26:41.6	(531)	N21	(40)	1:15:28.6	 
579	95	110	KARIN JESSE		1:15:53.6	0:30:38.7	0:26:55.7	(542)	N40	(25)	1:15:41.1	 
580	96	102	KRISTA PUKS	Kahe Silla Klubi Jooksusõbrad	1:15:54.6	0:30:39.8	0:26:52.4	(538)	N21	(41)	1:15:43.4	 
581		941	ENN PÄRTMA		1:15:56.6	0:30:41.8	0:27:01.9	(550)	M50	(37)	1:15:38.5	 
582	97	388	MARIE KÜLVIK		1:15:58.6	0:30:43.8	0:25:55.1	(462)	N21	(42)	1:15:54.9	 
583	98	355	KAIDI KRUUSMAA	Sparta	1:15:58.7	0:30:43.9	0:27:45.7	(604)	N21	(43)	1:15:26.9	 
584		890	JOOSEP VEERME	Saku Õlletehase spordiklubi	1:15:58.8	0:30:44.0	0:27:22.4	(581)	M21	(171)	1:15:33.9	 
585	99	297	AVE KARGAJA	JK MUST PUUDEL	1:16:06.8	0:30:51.9	0:27:53.1	(616)	N21	(44)	1:15:31.6	 
586	100	696	ANNELY SAAR	Saku Õlletehase spordiklubi	1:16:07.0	0:30:52.2	0:27:48.4	(607)	N40	(26)	1:15:37.2	 
587		587	AGO PELISAAR	MKM	1:16:08.2	0:30:53.4	0:27:31.7	(590)	M35	(95)	1:15:32.0	 
588	101	803	LIINA TETTERMANN		1:16:09.4	0:30:54.6	0:28:19.0	(645)	N21	(45)	1:15:46.8	 
589	102	842	KRISTIN TUISK	Saku Õlletehase spordiklubi	1:16:11.0	0:30:56.2	0:27:49.1	(608)	N35	(20)	1:15:40.9	 
590		318	ANDREAS KIRSS		1:16:19.0	0:31:04.2	0:27:51.4	(613)	M35	(96)	1:15:51.8	 
591	103	168	KRISTIN ARM	Mikitamäe Aironmään Klubi	1:16:21.4	0:31:06.6	0:26:56.4	(543)	N40	(27)	1:16:11.3	 
592		396	VILJAR LAANES	Jetoil	1:16:25.3	0:31:10.5	0:26:33.2	(520)	M35	(97)	1:16:13.2	 
593	104	525	MARE MÄNDLA		1:16:26.5	0:31:11.7	0:25:55.7	(463)	N40	(28)	1:16:19.8	 
594	105	475	GRETE MAIDLA		1:16:30.6	0:31:15.8	0:27:54.3	(621)	N16	(3)	1:16:09.3	 
595		476	MARGUS MAIDLA	TriSmile	1:16:30.7	0:31:15.9	0:27:53.9	(619)	M40	(156)	1:16:09.3	 
596		386	AUGUST KÄÄRA		1:16:31.7	0:31:16.9	0:26:33.3	(521)	M35	(98)	1:16:16.9	 
597	106	261	MARI-LIIS JÄÄGER	Swedbank	1:16:39.5	0:31:24.7	0:27:53.5	(617)	N35	(21)	1:16:17.3	 
598	107	868	EPP-KARIN VAIKLO	Hansa SK	1:16:46.2	0:31:31.3	0:27:50.7	(610)	N40	(29)	1:16:29.0	 
599	108	275	SIRLI KALBUS		1:16:48.9	0:31:34.0	0:29:16.3	(690)	N21	(46)	1:16:16.2	 
600		205	MARKO GORBAN		1:16:49.7	0:31:34.9	0:29:16.6	(691)	M21	(172)	1:16:16.7	 
601		201	ALEKSANDR ESS		1:16:50.3	0:31:35.5	0:27:32.2	(592)	M21	(173)	1:16:25.6	 
602	109	747	ANETT STUKIS	Saku Õlletehase spordiklubi	1:16:51.6	0:31:36.8	0:26:37.6	(525)	N21	(47)	1:16:28.0	 
603		228	EINARI HIPELI		1:16:57.6	0:31:42.7	0:27:33.3	(594)	M70	(3)	1:16:44.8	 
604	110	242	AGE JAKOBSON		1:17:01.3	0:31:46.5	0:27:55.0	(623)	N21	(48)	1:16:42.8	 
605		540	JAAK NIIT		1:17:02.8	0:31:48.0	0:27:54.8	(622)	M40	(157)	1:16:31.9	 
606		755	LARS SUMBERG		1:17:04.3	0:31:49.5	0:27:58.4	(624)	M40	(158)	1:16:26.8	 
607		381	MIHKEL KÕRBE	Tallinna Vesi	1:17:09.1	0:31:54.3	0:29:11.2	(681)	M21	(174)	1:16:34.8	 
608	111	411	ANNELI LEBERT		1:17:09.9	0:31:55.1	0:27:45.7	(605)	N21	(49)	1:16:37.7	 
609	112	118	KAILI VAINUMAA	LIVIKO	1:17:12.4	0:31:57.6	0:27:11.3	(563)	N40	(30)	1:17:00.6	 
610		192	TÕNIS ELLING		1:17:12.4	0:31:57.6	0:27:10.9	(561)	M40	(159)	1:17:00.4	 
611	113	91	EVELIN PELLENEN		1:17:13.6	0:31:58.8	0:26:15.0	(499)	N35	(22)	1:17:07.7	 
612		753	KUNNAR SULTS		1:17:13.7	0:31:58.8	0:26:17.1	(501)	M50	(38)	1:16:47.2	 
613	114	809	TERJE TILK		1:17:23.6	0:32:08.8	0:28:47.7	(664)	N35	(23)	1:16:52.4	 
614	115	250	KAIRIT JOHANSON	Täppsportlased	1:17:28.5	0:32:13.6	0:26:26.5	(515)	N21	(50)	1:17:18.8	 
615		830	RAIMO TROPP	Elioni Spordiklubi	1:17:30.6	0:32:15.8	0:29:46.1	(710)	M21	(175)	1:16:50.1	 
616		516	JAANUS MÄEKIVI	Viking Window	1:17:31.6	0:32:16.8	0:30:31.4	(742)	M35	(99)	1:17:03.5	 
617		818	PAUL TOOMIK		1:17:32.4	0:32:17.6	0:29:37.9	(704)	M21	(176)	1:16:50.0	 
618		613	JURI PONOMARENKO		1:17:33.4	0:32:18.6	0:28:43.7	(660)	M40	(160)	1:17:04.7	 
619		612	JURA PONOMARENKO		1:17:33.4	0:32:18.6	0:28:44.3	(662)	M18	(10)	1:17:04.7	 
620		464	ARVO LUUS		1:17:39.7	0:32:24.8	0:26:53.6	(540)	M70	(4)	1:17:24.6	 
621		776	INDREK TAMBERG		1:17:46.3	0:32:31.4	0:27:21.3	(578)	M35	(100)	1:17:24.2	 
622		513	MARGO MUZAKKO		1:17:53.3	0:32:38.4	0:29:01.1	(673)	M40	(161)	1:17:20.4	 
623		580	RANDO PAURSON	MKM	1:17:57.8	0:32:43.0	0:30:02.8	(722)	M40	(162)	1:17:17.0	 
624		391	INDREK KÜNNAPAS	Hansa SK	1:18:01.5	0:32:46.7	0:27:59.4	(625)	M35	(101)	1:17:42.8	 
625	116	400	KAARI LAINEVOOL	MTA SK	1:18:02.9	0:32:48.0	0:27:20.5	(577)	N35	(24)	1:17:33.7	 
626	117	123	ELO RÜÜTEL		1:18:09.0	0:32:54.2	0:27:04.4	(553)	N35	(25)	1:18:02.7	 
627		948	VALLO EERIKSON	EESTI ENERGIA SPORIKLUBI	1:18:15.6	0:33:00.8	0:29:11.8	(682)	M40	(163)	1:17:47.5	 
628	118	566	SIRLE PAI	Sparta	1:18:18.7	0:33:03.9	0:27:47.6	(606)	N35	(26)	1:17:52.2	 
629		886	RIGO VATSEL		1:18:19.1	0:33:04.2	0:27:51.0	(612)	M40	(164)	1:17:59.1	 
630	119	437	ÜLLE LIIV		1:18:20.9	0:33:06.1	0:28:06.0	(632)	N40	(31)	1:17:54.7	 
631		446	PRIIT LILLEVÄLI		1:18:33.9	0:33:19.1	0:31:06.0	(763)	M21	(177)	1:18:00.5	 
632		519	MARKO MÄGI	Sparta	1:18:34.8	0:33:19.9	0:28:20.1	(646)	M35	(102)	1:18:02.7	 
633	120	477	ESTHER MALV		1:18:37.3	0:33:22.5	0:30:07.9	(728)	N21	(51)	1:18:03.7	 
634		104	SILVER SOON		1:18:38.2	0:33:23.3	0:28:05.6	(630)	M21	(178)	1:18:26.2	 
635	121	253	JESSIKA JUUDAS	Vemma	1:18:39.2	0:33:24.3	0:29:17.8	(692)	N21	(52)	1:18:10.6	 
636		132	TIIT MAUER		1:18:40.6	0:33:25.8	0:28:12.5	(635)	M40	(165)	1:18:34.6	 
637	122	554	EDIT OJAMAA	MKM	1:18:41.9	0:33:27.1	0:28:08.1	(633)	N21	(53)	1:18:27.3	 
638		962	ERKI KUKK		1:18:47.2	0:33:32.4	0:27:30.8	(589)	M21	(179)	1:18:04.8	 
639	123	115	KATRE VALLNER	Sparta	1:18:48.1	0:33:33.3	0:28:04.8	(627)	N35	(27)	1:18:39.2	 
640		917	GUNNAR VOOREMÄE		1:18:49.6	0:33:34.8	0:27:40.6	(603)	M50	(39)	1:18:36.1	 
641	124	569	KRISTA PALDRE	Tallinna Vesi	1:18:49.6	0:33:34.8	0:29:18.0	(693)	N21	(54)	1:18:12.1	 
642		801	HEIGO TERN		1:18:50.2	0:33:35.4	0:30:32.4	(744)	M40	(166)	1:18:14.1	 
643		765	VALERI ZARIKOV		1:18:52.1	0:33:37.3	0:28:43.8	(661)	M50	(40)	1:18:23.7	 
644	125	353	KATRIN KRUUSAMÄGI		1:18:52.4	0:33:37.6	0:26:51.7	(537)	N21	(55)	1:18:40.1	 
645	126	125	KAIRIT KAASIK		1:18:53.3	0:33:38.5	0:27:52.1	(614)	N50	(8)	1:18:50.7	 
646	127	286	NATALIA KAMBERG	Meremõisa SK	1:18:57.9	0:33:43.1	0:28:42.2	(659)	N40	(32)	1:18:32.5	 
647		535	ELAR NEITO		1:18:59.9	0:33:45.0	0:29:04.1	(676)	M21	(180)	1:18:14.0	 
648		161	MIKK ALTMETS	EMT	1:19:00.1	0:33:45.3	0:28:14.3	(639)	M40	(167)	1:18:47.2	 
649	128	435	MERLE LICHTFELDT		1:19:03.9	0:33:49.1	0:28:36.4	(655)	N40	(33)	1:18:36.0	 
650	129	219	IMBI HELM		1:19:06.6	0:33:51.8	0:28:57.2	(671)	N21	(56)	1:18:26.3	 
651		816	GERT TOMSON		1:19:14.4	0:33:59.5	0:29:45.7	(708)	M21	(181)	1:18:33.6	 
652		656	MARVIN REBMANN	Euronics Team	1:19:18.6	0:34:03.8	0:27:09.9	(560)	M21	(182)	1:19:02.8	 
653		655	ÜLARI REBANE		1:19:21.8	0:34:06.9	0:27:22.2	(580)	M21	(183)	1:19:14.4	 
654		454	MARGO LORVI		1:19:23.2	0:34:08.4	0:27:49.8	(609)	M40	(168)	1:19:00.1	 
655		257	JAANUS JÕGISU		1:19:25.7	0:34:10.9	0:26:55.1	(541)	M21	(184)	1:19:13.2	 
656	130	943	AIRI SOKK-KAHA		1:19:33.6	0:34:18.7	0:30:05.5	(725)	N40	(34)	1:18:51.4	 
657		944	HAMOR KAHA		1:19:33.6	0:34:18.8	0:30:05.7	(726)	M50	(41)	1:18:51.8	 
658		677	GERT ROOST	Sidepataljon	1:19:48.4	0:34:33.6	0:29:46.5	(712)	M70	(5)	1:19:07.6	 
659		499	ERKKI METSA		1:19:48.9	0:34:34.1	0:28:15.8	(640)	M35	(103)	1:19:24.1	 
660	131	341	EVELIN KOSE		1:19:52.4	0:34:37.6	0:28:17.5	(643)	N40	(35)	1:19:33.6	 
661	132	292	LILYDA KANGUR		1:19:59.6	0:34:44.8	0:27:53.8	(618)	N40	(36)	1:19:22.6	 
662		786	JOHANN TARBE		1:19:59.7	0:34:44.9	0:30:25.3	(737)	M35	(104)	1:19:18.9	 
663		120	ANDRES ALAJAAN		1:20:01.4	0:34:46.5	0:27:23.9	(582)	M60	(11)	1:19:56.7	 
664	133	645	KERLY RANDLANE		1:20:03.3	0:34:48.5	0:27:04.7	(554)	N40	(37)	1:19:45.6	 
665	134	675	HANNA ROOSI		1:20:08.5	0:34:53.6	0:29:24.3	(700)	N35	(28)	1:19:37.6	 
666		1001	INDREK VAINO		1:20:11.7	0:34:56.9	0:30:54.8	(754)	M35	(105)	1:19:28.8	 
667	135	455	REET LUHAÄÄR		1:20:15.8	0:35:01.0	0:29:13.8	(686)	N60	(2)	1:19:49.1	 
668		303	PEEDU KASS		1:20:22.0	0:35:07.1	0:30:25.4	(738)	M21	(185)	1:19:40.6	 
669	136	764	TIINA SÄÄLIK		1:20:32.5	0:35:17.6	0:27:54.2	(620)	N40	(38)	1:20:11.2	 
670		316	HARRI KINKAR		1:20:37.3	0:35:22.4	0:29:37.0	(703)	M21	(186)	1:20:17.4	 
671		252	STEN-LAURI JUHTUND		1:20:45.1	0:35:30.3	0:27:09.4	(559)	M21	(187)	1:20:23.9	 
672		559	PRIIT ORASSON		1:20:51.8	0:35:37.0	0:28:50.7	(666)	M40	(169)	1:20:29.2	 
673	137	262	MARIN JÜRGENS	Ensto Ensek	1:20:51.9	0:35:37.1	0:30:32.8	(745)	N21	(57)	1:20:32.1	 
674		383	KAIDO KÄGU		1:20:52.9	0:35:38.0	0:28:28.3	(651)	M40	(170)	1:20:30.3	 
675	138	479	KADRI MALVE		1:20:52.9	0:35:38.1	0:31:05.8	(762)	N21	(58)	1:20:19.6	 
676	139	111	KARMEN LAIKRE	EMT	1:21:04.9	0:35:50.1	0:29:09.4	(678)	N21	(59)	1:20:53.7	 
677		955	AARE SIILBEK		1:21:10.4	0:35:55.6	0:29:02.7	(674)	M60	(12)	1:20:32.7	 
678	140	113	LIIS GLUHHOVTSENKO		1:21:12.2	0:35:57.4	0:28:38.0	(656)	N21	(60)	1:21:01.4	 
679		112	PRIIT PÕDER	KEMIT	1:21:12.2	0:35:57.4	0:28:38.1	(657)	M21	(188)	1:21:01.4	 
680		135	ANTO ROOTS		1:21:17.5	0:36:02.7	0:29:16.0	(689)	M40	(171)	1:20:43.9	 
681		159	AHTO ALTMETS	EMT	1:21:17.6	0:36:02.8	0:28:13.7	(638)	M16	(9)	1:21:04.5	 
682		586	REIGO PEIAL		1:21:19.0	0:36:04.2	0:29:39.5	(706)	M35	(106)	1:20:54.5	 
683	141	231	RAILI HURT		1:21:24.7	0:36:09.9	0:28:04.9	(629)	N21	(61)	1:21:18.7	 
684		688	VALLO RÄHN		1:21:24.7	0:36:09.9	0:28:04.9	(628)	M21	(189)	1:21:20.1	 
685	142	756	AUNE SURVA	Sidepataljon	1:21:29.1	0:36:14.3	0:29:46.5	(711)	N21	(62)	1:20:46.9	 
686		727	MARKO SIKK		1:21:29.5	0:36:14.7	0:30:14.1	(730)	M21	(190)	1:20:43.6	 
687	143	412	LY LEEDU		1:21:34.8	0:36:20.0	0:29:09.6	(679)	N40	(39)	1:21:01.5	 
688		861	LENNO UUSKÜLA		1:21:36.6	0:36:21.7	0:30:45.4	(750)	M35	(107)	1:21:00.2	 
689	144	862	MARI UUSKÜLA		1:21:36.7	0:36:21.8	0:30:45.6	(751)	N21	(63)	1:21:01.2	 
690	145	295	KADRI KANN		1:21:38.3	0:36:23.5	0:29:11.9	(683)	N21	(64)	1:21:02.3	 
691		946	TRISTAN AIK SILD	VIIMSI KK	1:21:41.4	0:36:26.5	0:29:45.8	(709)	M16	(10)	1:21:12.9	 
692		408	MARTEN LAURI		1:21:51.2	0:36:36.4	0:29:18.3	(694)	M21	(191)	1:21:09.5	 
693		717	TÕNU SEIL	adidas	1:21:54.4	0:36:39.6	0:28:54.4	(670)	M35	(108)	1:21:32.0	 
694		881	ERKO VARBLANE	Danske Bank	1:21:57.2	0:36:42.4	0:29:49.6	(713)	M21	(192)	1:21:28.0	 
695	146	458	INGE LUSTI	Saku Õlletehase spordiklubi	1:22:00.8	0:36:46.0	0:29:14.4	(687)	N35	(29)	1:21:30.8	 
696	147	209	LIISI HAAV		1:22:07.6	0:36:52.8	0:29:53.1	(715)	N21	(65)	1:21:57.0	 
697	148	188	RUTH EHANDI	Eesti Raudtee SK	1:22:26.0	0:37:11.2	0:28:24.9	(650)	N40	(40)	1:22:13.4	 
698		390	VALDUR KÜNG	Tallinna Vesi	1:22:26.9	0:37:12.1	0:29:13.5	(685)	M50	(42)	1:22:09.6	 
699	149	967	SALME OJAMETS	VILJANDI	1:22:28.2	0:37:13.4	0:28:38.6	(658)	N50	(9)	1:22:07.0	 
700	150	966	KAJA KARMISTE		1:22:28.2	0:37:13.4	0:29:38.5	(705)	N21	(66)	1:21:47.2	 
701	151	268	KRISTIINA KAHUR	HC Management Consulting	1:22:29.1	0:37:14.2	0:29:29.1	(701)	N40	(41)	1:22:14.6	 
702		815	NEEME TOMING		1:22:30.2	0:37:15.4	0:29:12.0	(684)	M21	(193)	1:22:07.0	 
703		826	REIN TRAUS		1:22:38.3	0:37:23.4	0:30:26.2	(739)	M60	(13)	1:22:07.5	 
704		792	LARS TEAS	Domus Kinnisvara	1:22:41.1	0:37:26.2	0:30:15.3	(732)	M35	(109)	1:22:08.8	 
705	152	290	MERIKE KANGRO	Eratreening.ee	1:22:44.2	0:37:29.4	0:28:12.7	(637)	N21	(67)	1:22:33.7	 
706		431	MARTIN LESSEL		1:22:44.8	0:37:29.9	0:31:07.2	(765)	M21	(194)	1:22:00.4	 
707	153	572	MAIEKE PALM		1:22:51.0	0:37:36.2	0:29:10.2	(680)	N35	(30)	1:22:45.0	 
708		421	JANEK LEHTMETS	Effort Capital	1:22:53.6	0:37:38.8	0:29:22.4	(698)	M35	(110)	1:22:22.5	 
709		607	KAIDO PLOVITS	Elisa Spordiklubi	1:22:54.6	0:37:39.8	0:31:14.8	(771)	M35	(111)	1:22:26.7	 
710	154	823	MARILIIS MIA TOPP	Tallinna Vesi	1:22:54.6	0:37:39.8	0:31:03.2	(757)	N21	(68)	1:22:17.2	 
711	155	334	KRISTEL KOIT	Danske Bank	1:22:56.8	0:37:42.0	0:31:06.5	(764)	N21	(69)	1:22:16.3	 
712	156	365	AET KULL		1:22:59.1	0:37:44.3	0:28:48.3	(665)	N50	(10)	1:22:28.2	 
713		124	HEINI VIILUP		1:23:01.0	0:37:46.2	0:28:12.3	(634)	M60	(14)	1:22:55.0	 
714		671	SANDER ROOL		1:23:01.4	0:37:46.5	0:31:04.6	(760)	M40	(172)	1:22:19.4	 
715	157	166	RIKA ANSO		1:23:01.9	0:37:47.1	0:29:15.0	(688)	N40	(42)	1:22:54.0	 
716	158	291	TRIIN KANGRO	Eesti Energia spordiklubi	1:23:04.4	0:37:49.6	0:29:59.8	(721)	N21	(70)	1:22:55.8	 
717		394	EERO KÜÜRA		1:23:05.1	0:37:50.3	0:33:11.0	(810)	M35	(112)	1:22:27.6	 
718		541	RAIVO NIKIFOROV		1:23:05.3	0:37:50.5	0:28:57.6	(672)	M40	(173)	1:22:22.6	 
719	159	494	TIINA MERISALU	Stamina SK	1:23:06.8	0:37:52.0	0:29:55.6	(717)	N50	(11)	1:22:42.0	 
720	160	133	LOLA BELOUS		1:23:09.3	0:37:54.4	0:28:22.5	(648)	N40	(43)	1:23:00.4	 
721		529	KAIDO MÄTLIK		1:23:09.3	0:37:54.4	0:26:35.3	(522)	M60	(15)	1:23:05.0	 
722	161	473	HELEEN MAIBAK		1:23:09.6	0:37:54.8	0:28:46.1	(663)	N21	(71)	1:23:01.1	 
723	162	804	HELIIS TIITMA		1:23:09.9	0:37:55.1	0:29:56.3	(718)	N21	(72)	1:22:43.2	 
724		468	VIKTOR LÕHMUS	Domus Kinnisvara	1:23:10.6	0:37:55.8	0:30:15.4	(733)	M40	(174)	1:22:37.4	 
725	163	604	ANNE PINK		1:23:15.0	0:38:00.2	0:31:04.2	(759)	N21	(73)	1:22:53.2	 
726	164	405	JELENA LAUDVER		1:23:15.2	0:38:00.4	0:28:16.6	(641)	N21	(74)	1:22:59.3	 
727	165	998	JAANA PÜTSEPP		1:23:18.4	0:38:03.5	0:29:55.5	(716)	N40	(44)	1:22:52.8	 
728	166	187	HELI EERIK		1:23:22.7	0:38:07.9	0:28:30.9	(653)	N40	(45)	1:23:16.4	 
729	167	186	JULIA DANILOV		1:23:33.1	0:38:18.3	0:30:31.7	(743)	N35	(31)	1:23:05.0	 
730	168	840	RUTH TRÄÄDER		1:23:44.1	0:38:29.3	0:30:16.4	(734)	N35	(32)	1:23:16.7	 
731		837	KALEV TRUUSALU		1:23:53.9	0:38:39.1	0:30:21.1	(735)	M35	(113)	1:23:32.7	 
732	169	817	KATRIN TOMSON		1:23:55.8	0:38:41.0	0:30:13.2	(729)	N50	(12)	1:23:23.9	 
733	170	521	TRIIN MÄGI		1:23:57.1	0:38:42.3	0:29:23.3	(699)	N21	(75)	1:23:22.8	 
734	171	601	MARILIN PIKARO		1:24:28.1	0:39:13.3	0:28:52.8	(669)	N21	(76)	1:24:02.1	 
735		602	Rait Pikaro		1:24:28.4	0:39:13.6	0:28:52.8	(668)	M21	(195)	1:24:02.2	 
736	172	126	HELLE PERSITSKI		1:24:42.4	0:39:27.6	0:28:34.7	(654)	N40	(46)	1:24:35.3	 
737	173	117	KATRIN VÄÄRTNÕU		1:24:44.4	0:39:29.6	0:30:06.5	(727)	N21	(77)	1:24:37.9	 
738	174	909	VIRGE VIRUNURM		1:24:47.9	0:39:33.1	0:30:53.1	(753)	N40	(47)	1:24:17.2	 
739		526	MARTIN MÄNDLA	Sidepataljon	1:24:52.6	0:39:37.8	0:28:22.0	(647)	M40	(175)	1:24:20.1	 
740		359	KERSTI KUKK		1:24:55.6	0:39:40.7	0:29:52.2	(714)	M21	(196)	1:24:27.0	 
741		579	GUIDO PAULUS		1:24:57.1	0:39:42.3	0:28:52.6	(667)	M40	(176)	1:24:23.1	 
742		103	UNO MARKSON		1:24:57.6	0:39:42.8	0:26:23.0	(511)	M50	(43)	1:24:48.8	 
743	175	128	MARGIT JAASKA		1:25:02.8	0:39:48.0	0:29:32.6	(702)	N35	(33)	1:24:55.3	 
744	176	821	Ragnar Toomla		1:25:14.4	0:39:59.6	0:29:44.6	(707)	N35	(34)	1:24:51.2	 
745	177	131	INGRID KRUUSMANN		1:25:18.4	0:40:03.5	0:29:19.0	(695)	N40	(48)	1:25:11.4	 
746		827	MIKK TRAVE		1:25:19.3	0:40:04.4	0:32:34.8	(796)	M21	(197)	1:24:37.1	 
747	178	702	EVA-MAI SAARD		1:25:19.3	0:40:04.5	0:32:34.8	(795)	N21	(78)	1:24:36.8	 
748	179	692	KERSTI RÄTSEP		1:25:19.7	0:40:04.8	0:30:49.5	(752)	N21	(79)	1:24:56.5	 
749	180	556	MAAREN OLANDER-DOYLE	SK Mercury	1:25:24.5	0:40:09.6	0:30:33.9	(746)	N35	(35)	1:24:54.0	 
750		351	TAUNO KRULL	Tallinna Vesi	1:25:34.2	0:40:19.4	0:32:13.4	(786)	M21	(198)	1:25:07.6	 
751		522	JAAN MÄGIN		1:25:34.5	0:40:19.7	0:34:14.9	(826)	M40	(177)	1:25:09.5	 
752	181	478	LIINA MALVA		1:25:37.4	0:40:22.6	0:31:14.3	(770)	N21	(80)	1:25:18.8	 
753	182	877	BERIT VALS		1:25:39.2	0:40:24.4	0:29:20.6	(696)	N21	(81)	1:25:17.8	 
754	183	565	GEA OTSA	MKM	1:25:39.8	0:40:25.0	0:31:05.1	(761)	N35	(36)	1:25:12.0	 
755	184	682	KAIE RUUL		1:25:41.2	0:40:26.4	0:31:03.3	(758)	N21	(82)	1:25:12.3	 
756		413	TARMO LEEK		1:25:47.9	0:40:33.1	0:31:19.7	(775)	M50	(44)	1:25:11.6	 
757	185	898	TIINA VIIDIK		1:25:50.9	0:40:36.0	0:30:29.8	(740)	N50	(13)	1:25:20.8	 
758	186	398	EVE LAASI		1:25:54.3	0:40:39.5	0:31:18.2	(773)	N40	(49)	1:25:17.4	 
759	187	995	EIKE SILD-NEEME		1:25:55.1	0:40:40.3	0:32:10.3	(783)	N35	(37)	1:25:09.5	 
760		484	LENNART MARK	EMT	1:25:59.0	0:40:44.2	0:30:14.4	(731)	M35	(114)	1:25:35.0	 
761		216	ROLAND HEIN		1:26:04.0	0:40:49.2	0:32:14.0	(787)	M21	(199)	1:25:22.5	 
762		208	ERMO HAAS	Sidepataljon	1:26:04.1	0:40:49.3	0:32:14.1	(788)	M21	(200)	1:25:22.7	 
763	188	500	AILI METSAMAA		1:26:08.8	0:40:54.0	0:30:34.2	(747)	N50	(14)	1:25:43.2	 
764		963	AIMAR NÕMM	VOLVOTRUCKS.EE	1:26:17.5	0:41:02.6	0:29:57.1	(720)	M35	(115)	1:26:08.6	 
765		317	KUNO KIPPER		1:26:17.5	0:41:02.7	0:30:35.2	(748)	M60	(16)	1:25:36.0	 
766	189	429	KRISTINA LEPP		1:26:22.2	0:41:07.4	0:31:26.7	(777)	N35	(38)	1:25:37.1	 
767	190	834	JANA TRUNINA		1:26:22.9	0:41:08.1	0:32:11.0	(784)	N21	(83)	1:25:40.2	 
768	191	647	MARI RANDMÄE		1:26:38.2	0:41:23.4	0:32:15.4	(791)	N21	(84)	1:25:57.6	 
769	192	134	MARGE PARBO	Sparta	1:26:38.6	0:41:23.8	0:28:17.0	(642)	N40	(50)	1:26:29.6	 
770		137	VLADIMIR KOTSENKOV	JK START	1:26:39.6	0:41:24.8		()	M60	(17)	1:26:33.4	 
771	193	730	SOILE SILD		1:26:43.3	0:41:28.4	0:31:19.1	(774)	N40	(51)	1:26:06.2	 
772	194	583	MARGIT PEEBO	Stamina SK	1:26:45.3	0:41:30.5	0:31:26.6	(776)	N40	(52)	1:26:15.6	 
773		701	ROOMAND SAAR	Domus Kinnisvara	1:26:47.9	0:41:33.0	0:30:05.0	(724)	M50	(45)	1:26:12.7	 
774	195	557	ANNIKA OLE	adidas	1:27:00.1	0:41:45.3	0:30:03.0	(723)	N40	(53)	1:26:54.2	 
775	196	130	KERTTU AARING		1:27:09.5	0:41:54.7	0:28:12.7	(636)	N21	(85)	1:27:03.5	 
776		173	KEN AUNPU		1:27:30.2	0:42:15.4	0:31:12.3	(766)	M50	(46)	1:27:01.0	 
777		673	KRISTJAN ROOS		1:28:12.4	0:42:57.5	0:29:56.8	(719)	M35	(116)	1:27:55.6	 
778	197	822	LEELA TOOMSALU	Tallinna Vesi	1:28:18.7	0:43:03.9	0:31:13.5	(769)	N21	(86)	1:27:55.3	 
779		561	RAINER ORAV		1:28:26.0	0:43:11.2	0:29:20.8	(697)	M35	(117)	1:28:05.7	 
780	198	260	KRISTA JÄRVISTE		1:28:27.2	0:43:12.4	0:31:13.0	(767)	N21	(87)	1:27:52.5	 
781	199	384	MARGE KÄIGE	Sidepataljon	1:28:42.1	0:43:27.3	0:32:14.7	(790)	N21	(88)	1:28:05.0	 
782	200	729	TRIIN SIKKAL		1:28:46.2	0:43:31.4	0:31:33.6	(780)	N21	(89)	1:28:19.3	 
783	201	379	KADRI KUUSIK		1:28:46.5	0:43:31.7	0:31:33.4	(779)	N21	(90)	1:28:19.1	 
784		947	DONALD AIK SILD	MAD	1:29:10.2	0:43:55.4	0:30:42.1	(749)	M40	(178)	1:28:41.4	 
785	202	496	ANNI MERIVEE	adidas	1:29:23.8	0:44:09.0	0:32:42.7	(799)	N21	(91)	1:28:50.9	 
786		876	HANS VALLNER	Tallinna Tehnikaülikool	1:29:25.8	0:44:11.0	0:32:41.9	(798)	M60	(18)	1:28:58.5	 
787	203	911	MARIS VISSE	Tallinna Vesi	1:29:28.5	0:44:13.7	0:31:32.4	(778)	N21	(92)	1:28:44.6	 
788	204	48	JELENA METS		1:29:43.0	1:08:13.2	0:30:55.8	(755)	N40	(54)	1:29:12.5	 
789	205	684	RITI RUUL	Swedbank	1:29:48.6	0:44:33.8	0:31:03.2	(756)	N21	(93)	1:29:19.8	 
790	206	558	KARIN OLESK	Hansa SK	1:29:49.6	0:44:34.8	0:33:09.6	(808)	N21	(94)	1:29:14.5	 
791	207	697	ANU MARIE SAAR		1:29:51.2	0:44:36.4	0:30:24.7	(736)	N40	(55)	1:29:26.8	 
792	208	855	MAILIS UDRAS		1:29:53.6	0:44:38.8	0:31:15.6	(772)	N35	(39)	1:29:33.7	 
793		989	MATTI JÄRVA		1:29:54.7	0:44:39.9	0:32:43.3	(800)	M60	(19)	1:29:11.0	 
794	209	300	TIINA KARU		1:30:38.0	0:45:23.2	0:33:03.3	(805)	N35	(40)	1:30:09.2	 
795		991	ROLAND KARU		1:30:46.2	0:45:31.4	0:33:28.5	(822)	M40	(179)	1:30:04.6	 
796	210	372	LIISI KURVET		1:31:02.4	0:45:47.6	0:32:14.6	(789)	N21	(95)	1:30:17.9	 
797	211	237	KATRIN HÄNNI		1:31:10.3	0:45:55.4	0:35:48.8	(839)	N21	(96)	1:30:32.7	 
798	212	892	KRISTEL VELLING	KALEV	1:31:14.9	0:46:00.1	0:31:13.1	(768)	N40	(56)	1:30:43.9	 
799	213	768	TATIANA ZIRNASK		1:31:17.8	0:46:03.0	0:33:10.4	(809)	N35	(41)	1:30:38.1	 
800	214	866	SIRPA VAAHTOLA		1:31:25.2	0:46:10.4	0:33:08.4	(807)	N50	(15)	1:30:56.9	 
801	215	871	EVI VAINO		1:31:33.1	0:46:18.2	0:32:48.3	(802)	N60	(3)	1:31:03.6	 
802	216	422	EPP LEIBUR		1:31:39.7	0:46:24.9	0:31:56.5	(781)	N60	(4)	1:31:09.9	 
803	217	710	SILLE SAMM		1:32:09.2	0:46:54.4	0:32:29.1	(794)	N35	(42)	1:31:42.5	 
804	218	609	VIKTORIA PODUST		1:32:26.0	0:47:11.2	0:33:08.4	(806)	N21	(97)	1:31:58.4	 
805	219	960	BRITTA KUUS		1:32:28.3	0:47:13.5	0:32:23.2	(793)	N18	(2)	1:32:05.3	 
806	220	999	KLAARIKA ORAV		1:32:30.3	0:47:15.5	0:32:17.1	(792)	N21	(98)	1:31:54.6	 
807		495	MEHIS MERISTE		1:32:57.5	0:47:42.7	0:30:31.0	(741)	M50	(47)	1:32:39.7	 
808	221	659	MARIE REIMANN		1:33:04.9	0:47:50.1	0:27:11.9	(565)	N21	(99)	1:32:45.8	 
809	222	498	MOONIKA MERIVÄLJA	SK Jooksupartner	1:33:15.3	0:48:00.5	0:32:00.7	(782)	N35	(43)	1:32:45.0	 
810	223	958	KADRI EEK		1:33:21.8	0:48:07.0	0:33:11.7	(811)	N21	(100)	1:32:58.7	 
811	224	708	LIIS SAKS		1:33:31.1	0:48:16.3	0:33:13.3	(814)	N21	(101)	1:33:12.6	 
812	225	644	ANNELI RANDER		1:33:40.1	0:48:25.3	0:33:12.5	(812)	N21	(102)	1:32:58.4	 
813	226	425	TERJE LEO		1:34:31.7	0:49:16.9	0:33:24.3	(819)	N40	(57)	1:34:01.0	 
814	227	138	KAJA MULLA	Stamina SK	1:34:57.2	0:49:42.4	0:34:38.1	(828)	N40	(58)	1:34:38.0	 
815	228	172	LIIS ASTOVER		1:35:05.8	0:49:51.0	0:35:14.3	(830)	N21	(103)	1:34:23.7	 
816	229	921	KRISTI VÄRIK	Sparta	1:35:13.4	0:49:58.6	0:33:01.8	(804)	N21	(104)	1:34:39.4	 
817	230	462	INGE LUUK		1:35:13.8	0:49:59.0	0:34:13.4	(825)	N21	(105)	1:34:31.2	 
818	231	555	ANNA OJAP		1:35:17.0	0:50:02.2	0:33:22.7	(817)	N40	(59)	1:34:53.5	 
819	232	849	MARIE TÕNTS	Täppsportlased	1:35:59.8	0:50:45.0	0:33:13.2	(813)	N21	(106)	1:35:33.0	 
820		711	TANEL SAMUEL		1:36:30.6	0:51:15.8	0:33:23.6	(818)	M35	(118)	1:35:58.2	 
821	233	957	ANN-CHRISTINE ALLIK		1:36:31.4	0:51:16.6	0:35:21.1	(836)	N21	(107)	1:35:46.6	 
822	234	812	EVE TOBIAS	TriSmile	1:36:31.6	0:51:16.7	0:33:27.0	(821)	N40	(60)	1:35:50.7	 
823		346	MARKKO KOVIN		1:36:32.4	0:51:17.6	0:33:25.7	(820)	M40	(180)	1:35:44.0	 
824	235	140	ILME PARIK		1:36:44.4	0:51:29.5	0:32:51.2	(803)	N50	(16)	1:36:33.5	 
825	236	246	AVE JANU		1:36:48.9	0:51:34.1	0:35:49.5	(840)	N40	(61)	1:36:08.9	 
826	237	935	GERLY LÕHMUS		1:36:50.2	0:51:35.4	0:33:19.5	(816)	N21	(108)	1:36:17.3	 
827	238	466	KRISTI LÕHMUS		1:36:53.7	0:51:38.9	0:35:14.3	(831)	N21	(109)	1:36:11.7	 
828	239	674	HELENA ROOSAAR		1:37:07.7	0:51:52.9	0:33:30.7	(823)	N21	(110)	1:36:49.1	 
829	240	680	MARINA RUDYK		1:37:17.3	0:52:02.5	0:36:02.7	(842)	N21	(111)	1:36:42.1	 
830	241	771	MAAJA ZOLK		1:38:30.7	0:53:15.9	0:34:49.6	(829)	N60	(5)	1:37:48.8	 
831	242	315	TRIIN KINK		1:39:09.7	0:53:54.9	0:37:20.7	(849)	N35	(44)	1:38:44.5	 
832		511	MATTIAS MULD		1:39:09.9	0:53:55.1	0:37:20.6	(848)	M16	(11)	1:38:44.4	 
833	243	781	SIIRI TAMM		1:39:24.5	0:54:09.6	0:32:36.2	(797)	N35	(45)	1:39:00.7	 
834	244	839	JAANIKA TRUVE		1:39:34.0	0:54:19.2	0:32:45.2	(801)	N40	(62)	1:39:10.4	 
835	245	740	ALLA SOBOLEVA		1:40:04.5	0:54:49.7	0:34:12.0	(824)	N21	(112)	1:39:43.2	 
836	246	450	ANU LOORITS		1:40:08.4	0:54:53.5	0:33:13.6	(815)	N40	(63)	1:39:36.3	 
837	247	799	MARI-ANN TENTER	HP-Sport team	1:40:50.2	0:55:35.4	0:35:15.0	(832)	N35	(46)	1:40:09.0	 
838		869	JAAK VAIKNEMETS		1:41:16.1	0:56:01.3	0:35:18.7	(834)	M35	(119)	1:41:08.7	 
839		322	RAIDO KIVIKANGUR		1:42:06.2	0:56:51.3	0:36:58.8	(846)	M21	(201)	1:41:22.6	 
840	248	811	ANGELA TIMUSK		1:42:07.4	0:56:52.6	0:35:27.8	(837)	N21	(113)	1:42:01.5	 
841	249	703	KRISTA SABBAL	Sparta	1:44:10.8	0:58:56.0	0:37:41.2	(852)	N21	(114)	1:43:37.0	 
842		594	MATTI PIHEL		1:44:11.1	0:58:56.3	0:37:46.0	(853)	M60	(20)	1:43:28.3	 
843	250	338	KADRI KONGA		1:44:12.6	0:58:57.7	0:37:31.2	(850)	N35	(47)	1:43:37.3	 
844	251	377	KADRI-LIIS KUTSER	Swedbank	1:45:01.0	0:59:46.2	0:37:17.6	(847)	N21	(115)	1:44:26.0	 
845	252	204	JULIA GERASSIMOVA		1:45:11.1	0:59:56.3	0:32:11.6	(785)	N21	(116)	1:44:27.9	 
846		694	AIN RÄÄBIS		1:45:57.0	1:00:42.2	0:34:24.3	(827)	M40	(181)	1:45:46.6	 
847	253	491	SIRET MATTEUS	Sidepataljon	1:46:14.8	1:01:00.0	0:36:44.6	(845)	N40	(64)	1:45:38.0	 
848	254	470	INGRID MAASI	Vemma	1:46:50.2	1:01:35.4	0:35:56.7	(841)	N21	(117)	1:46:18.6	 
849	255	728	MAIRI SIKKA		1:48:12.7	1:02:57.9	0:35:17.9	(833)	N21	(118)	1:47:29.5	 
850	256	983	KATRIN LINK		1:48:54.7	1:03:39.8	0:36:16.0	(844)	N35	(48)	1:48:36.6	 
851		248	OLEV JOA		1:50:31.2	1:05:16.4	0:37:40.8	(851)	M70	(6)	1:49:55.3	 
852	257	463	TRIINU LUUK		1:50:54.7	1:05:39.9	0:35:19.9	(835)	N21	(119)	1:50:47.0	 
853	258	906	LIIS-ERLIKEN VINNE		1:51:12.7	1:05:57.9	0:35:37.7	(838)	N21	(120)	1:51:00.0	 
854	259	438	EPP LIIVAK		1:53:26.2	1:08:11.4	0:40:18.6	(855)	N50	(17)	1:52:44.0	 
855		49	MARK METS		1:54:02.2	1:32:32.4	0:43:08.9	(865)	M16	(12)	1:53:30.6	 
856	260	552	GERTRUD OHOV		1:55:01.8	1:09:47.0	0:41:15.8	(856)	N21	(121)	1:54:18.3	 
857	261	918	LINDA VOOREMÄE		1:55:22.6	1:10:07.8	0:41:35.7	(857)	N40	(65)	1:54:36.7	 
858	262	658	ERIKA REIMANN		1:55:46.4	1:10:31.5	0:42:08.0	(859)	N60	(6)	1:55:03.8	 
859		622	TÕNU PULLERITS		1:56:09.6	1:10:54.8	0:38:59.3	(854)	M60	(21)	1:55:56.6	 
860	263	660	NADIA REIMANN		1:57:53.6	1:12:38.8	0:42:08.0	(858)	N21	(122)	1:57:11.0	 
861	264	416	EVE LEETE		1:58:22.2	1:13:07.4	0:42:44.6	(860)	N40	(66)	1:57:36.2	 
862	265	142	LILY HINDREA		2:00:14.4	1:14:59.6	0:42:57.1	(861)	N50	(18)	1:59:27.9	 
863		143	AHTO HINDREA		2:00:14.9	1:15:00.1	0:42:57.2	(862)	M50	(48)	1:59:28.3	 
864		678	TIIT ROSENBERG	TÜ ASK	2:00:25.8	1:15:10.9	0:43:05.2	(863)	M60	(22)	1:59:41.4	 
865	266	214	TERJE HEIDO-ROSENBERG	TÜ ASK	2:00:25.9	1:15:11.1	0:43:05.4	(864)	N50	(19)	1:59:41.8	 
866	267	141	LARISSA MONAHHOVA	Eesti Post SK	2:03:53.1	1:18:38.3	0:44:18.8	(866)	N50	(20)	2:03:45.1	 
867	268	160	KATRIN ALTMETS	Sorainen	2:06:55.2	1:21:40.4	0:44:50.0	(867)	N40	(67)	2:06:08.5	 
868	269	968	SIGNE KORSAR	VILJANDI	2:07:45.5	1:22:30.6	0:45:46.7	(869)	N40	(68)	2:07:03.2	 
869	270	969	KÜLLIKE KIVIPÕLD		2:07:45.9	1:22:31.1	0:45:46.7	(868)	N40	(69)	2:07:03.9	 
870	271	825	SIGNE TRAKS		2:07:46.1	1:22:31.2	0:45:53.5	(870)	N40	(70)	2:07:02.1	 
871	272	280	REGIINA KALJULA	Euronics Team	2:08:15.4	1:23:00.5	0:46:05.0	(872)	N21	(123)	2:07:34.5	 
872	273	802	LAURA TERNO	Euronics Team	2:08:15.4	1:23:00.6	0:46:04.2	(871)	N21	(124)	2:07:34.0	 
873		447	INDREK LILLO				0:27:15.3	(567)	M35	()		 
874		982	INDREK LINK				0:36:08.5	(843)	M35	()		 
875		287	PEETER KAMBERG	Meremõisa SK				()	M40	()		 
876		6	VJATŠESLAV KOŠELEV	KJK Kalev Sillamäe				()	M40	()		 
877		18	SERGEY TASIMOV	SK Mits				()	M40	()		 
878		63	RAUL HEINSALU					()	M40	()		 
879		80	JELENA BELJANTSEVA					()	N21	()		 
880		129	SIGNE SAAR					()	N35	()		 
881		136	SILVER SEPP					()	M40	()		 
882		139	ANASTASSIA SAFONOVA					()	N21	()		 
883		146	KATI AAREN					()	N35	()		 
884		154	ANNELI AIDLA					()	N35	()		 
885		156	RITA ALAS-JÄRV					()	N21	()		 
886		157	INGVAR ALLEKAND	Domus Kinnisvara				()	M35	()		 
887		163	OLGA ANDREJEVA	Stamina Arcotransport jooksutiim				()	N21	()		 
888		180	BIRGIT BIRNBAUM					()	N21	()		 
889		195	ART ELMIK	RIM				()	M35	()		 
890		200	ALGO ESKLA					()	M21	()		 
891		202	LIINA FRANKE					()	N40	()		 
892		211	TIIT HALLAS					()	M21	()		 
893		215	PAAVO HEIL					()	M40	()		 
894		221	EVE HERMAT	Hansa SK				()	N21	()		 
895		223	URSULA HIIEMÄE					()	N35	()		 
896		227	KAJA HINNO	Hansa SK				()	N35	()		 
897		229	JANNO HOLLO	SK Joosu				()	M40	()		 
898		230	PJOTR HRUSHTSHOV					()	M60	()		 
899		247	KRISTIN JESSE					()	N21	()		 
900		251	MARGUS JUHTUND					()	M60	()		 
901		254	MADIS JUURMA	MKM				()	M21	()		 
902		256	ANDRE JÕGI					()	M40	()		 
903		272	ARD-KRISTIAN KAKKO					()	M40	()		 
904		273	KADRI KALAMEES	Hansa SK				()	N21	()		 
905		279	IMRE KALDMAA					()	M40	()		 
906		299	ROLAND KARU	Roland Karu				()	M40	()		 
907		309	SULEV KESKÜLA					()	M40	()		 
908		340	ANDRES KORJUS					()	M60	()		 
909		347	ENE KRINPUS					()	N21	()		 
910		352	PIRET KRUTOB					()	N40	()		 
911		362	MERIKE KUKKUR	Creditreform Eesti OÜ				()	N21	()		 
912		368	DMITRY KURAVKIN	Hansa SK				()	M21	()		 
913		375	PEETER KUZNETSOV	Elisa SK				()	M35	()		 
914		392	KRISTO KÜNNAPAS	Ensto Ensek				()	M21	()		 
915		415	LOVIISA LEES	Nõmme Spordiklubi				()	N18	()		 
916		423	KRISTEL LEIF	Hansa SK				()	N21	()		 
917		428	RAINER LEPIK	Seli Tervisekeskus				()	M21	()		 
918		434	TAAVI LIBE					()	M21	()		 
919		441	ERGO LILIENBERG	Täppsportlased				()	M40	()		 
920		443	RENE LILIENBERG					()	M35	()		 
921		452	ANDO LOOTUS					()	M21	()		 
922		453	GERLY LOOTUS	MKM				()	N35	()		 
923		456	TIIU LUIDE	Vemma				()	N21	()		 
924		457	JOOSEP LUKK					()	M21	()		 
925		459	VAHUR LUTS					()	M50	()		 
926		467	RAUL LÕHMUS					()	M40	()		 
927		474	KALLI MAIBERG	Sidepataljon				()	N35	()		 
928		480	SAINA MAMEDOVA	KJK Kalev Sillamäe				()	N16	()		 
929		485	MAIT MARRAN					()	M40	()		 
930		489	TARVI MATSISELTS	Eesti Raudtee SK				()	M40	()		 
931		506	RAIDO MITT	Sparta				()	M21	()		 
932		514	PRIIT MUUGA					()	M40	()		 
933		515	EERIK MUULI	Tartu Ülikool				()	M21	()		 
934		533	MEELIS NAFTHAL					()	M40	()		 
935		534	JAAN NAPPUS					()	M40	()		 
936		536	Kirill NEITOV					()	M21	()		 
937		544	ANDRUS NUMMERT					()	M35	()		 
938		548	ANDRE NÕMM					()	M40	()		 
939		560	KLARIKA ORAV					()	N21	()		 
940		568	KULDAR PAJULA	JK Jalgpallihaigla				()	M21	()		 
941		585	KADI PEETS					()	N35	()		 
942		590	AIGAR PETERSON					()	M21	()		 
943		591	BRIT PETERSON					()	N21	()		 
944		600	MEELIS PIIRSALU	Sidepataljon				()	M40	()		 
945		605	NATALJA PINNA	adidas				()	N35	()		 
946		615	JELENA PRANTS					()	N40	()		 
947		616	MAREK PRITSIK					()	M21	()		 
948		617	MÄRT PROSIN					()	M35	()		 
949		619	Karin Pugatšev					()	N21	()		 
950		623	IMRE PURRET					()	M21	()		 
951		626	MARIS PUUST	Gliss				()	N21	()		 
952		627	MAIRI PÕDER	KEMIT				()	N40	()		 
953		643	PRIIT RAJAMÄGI					()	M35	()		 
954		648	GITANA RANDVÄLI					()	N21	()		 
955		653	JANNO REBANE					()	M21	()		 
956		654	LAURI REBANE					()	M35	()		 
957		663	ERGO REINVALD	Kaitsevägi				()	M21	()		 
958		668	JAAK RITSO	Nortal				()	M21	()		 
959		679	MAREK ROSS	Tallinna Vesi				()	M21	()		 
960		683	MATI RUUL					()	M50	()		 
961		687	RAIKO RUVEN					()	M35	()		 
962		689	HELERI RÄMMAL	Hansa SK				()	N21	()		 
963		691	HELENA RÄTSEP					()	N21	()		 
964		704	EHA SADRAK					()	N40	()		 
965		705	ERKKI SADRAK	EMT				()	M40	()		 
966		713	TOOMAS SARAPUU					()	M40	()		 
967		714	EIKO SAU					()	M21	()		 
968		715	KSENIA SAVTŠENKO	KJK Kalev Sillamäe				()	N18	()		 
969		719	JOACHIM SEMINCK	Belgia				()	M21	()		 
970		722	HELEN SERGEJEV	Domus Kinnisvara				()	N21	()		 
971		725	ALO SIDOROV					()	M21	()		 
972		731	EIKE SILD-NEEME					()	N35	()		 
973		733	LIINA SILLUSTE					()	N21	()		 
974		735	SIIM SINDONEN					()	M21	()		 
975		737	SIIM SINILAID					()	M21	()		 
976		751	MARIANN SULG	OK Orvand				()	N21	()		 
977		754	RAUL SULU	RIK				()	M21	()		 
978		759	SIGRE SUURVARIK	Sampo SK				()	N35	()		 
979		767	EDITH ZERNASK					()	N35	()		 
980		772	INGA TAAL					()	N40	()		 
981		777	KAIRI TAMBERG					()	N21	()		 
982		779	MERLE TAMM					()	N21	()		 
983		780	REIGO TAMM	Õhuvägi				()	M21	()		 
984		790	AHTO TATTER	Sparta				()	M40	()		 
985		805	MIHKEL TIKERPALU					()	M21	()		 
986		831	KADRI-TRIIN TRUIJA					()	N21	()		 
987		832	KIM TRUIJA	Nõmme Ratta/Suusakool				()	M21	()		 
988		835	ELIZABETH TRUU	C! Lembela				()	N21	()		 
989		848	ARVI TÕNNISON					()	M50	()		 
990		854	ANU-HELJU TÄÄR	MtüJooksuklubi				()	N60	()		 
991		858	URMAS URVA	Stamina SK				()	M40	()		 
992		860	ROMET UUDEKÜLL					()	M21	()		 
993		864	JOONATAN UUSVÄLI					()	M21	()		 
994		878	MARKO VALTER	SK Jooksupartner				()	M35	()		 
995		882	VALLO VARDJA	Sparta				()	M40	()		 
996		896	RIVO VESKI	Tallinna Vesi				()	M21	()		 
997		900	KAIDAR VIIKMAN	Täppsportlased				()	M21	()		 
998		907	HELENE VIPRE					()	N21	()		 
999		916	REET VOLT					()	N21	()		 
1000		919	JAAN VOROBJOV					()	M21	()		 
1001		922	RENÉ VÄRK					()	M35	()		 
1002		925	MOONIKA ÕUNAP	Saku Õlletehase spordiklubi				()	N21	()		 
1003		926	URMAS ÕUNAP					()	M40	()		 
1004		940	HENEK TOMSON	SPARTA				()	M21	()		