Koht	N Koht	Nr	Nimi	Klubi	Aeg	Kaotus	5 km	Koht	10 km	Koht	15 km	Koht	20 km	Koht	Vkl	Vkl_koht
1		1	ROMAN FOSTI	Stamina SK	1:05:29		0:15:10	(2)	0:30:42	(1)	0:46:23	(1)	1:02:04	(1)	M	1
2		3	IBRAHIM MUKUNGA WACHURA		1:07:14	0:01:46	0:15:10	(1)	0:30:53	(2)	0:47:25	(2)	1:03:37	(2)	M	2
3		2	SERGEI TšEREPANNIKOV	Stamina SK	1:08:21	0:02:52	0:15:45	(6)	0:31:55	(6)	0:48:23	(4)	1:04:47	(4)	M	3
4		4	ILJA NIKOLAJEV	SK Jooksupartner	1:08:27	0:02:58	0:15:44	(3)	0:31:55	(3)	0:48:23	(3)	1:04:47	(3)	M	4
5		89	ALEXANDR GORYUNOV	Akademia legkoi atletiki	1:09:01	0:03:33	0:15:45	(5)	0:31:55	(5)	0:48:31	(5)	1:05:20	(5)	M	5
6		11	IVAR IVANOV	Võru KJK Lõunalõvi	1:09:16	0:03:47	0:16:06	(11)	0:32:40	(7)	0:49:24	(8)	1:05:47	(6)	M	6
7		68	YURY VINOGRADOV	Sylvia	1:09:33	0:04:04	0:16:06	(10)	0:32:41	(10)	0:49:24	(7)	1:05:57	(7)	M	7
8		32	RAUNO LAUMETS	Tartu SS Kalev	1:09:40	0:04:11	0:16:05	(7)	0:32:41	(8)	0:49:25	(9)	1:06:06	(8)	M	8
9		24	ANTI PUUSTUS	KJS Sakala	1:10:26	0:04:57	0:16:13	(15)	0:33:00	(12)	0:49:56	(11)		()	M	9
10		6	PRIIT LEHISMETS	Stamina SK	1:10:35	0:05:06	0:16:06	(8)	0:32:41	(9)	0:49:47	(10)	1:06:50	(9)	M	10
11		837	VLADIMIR SOZONOV	Herbalife	1:10:56	0:05:27	0:16:48	(21)	0:33:56	(18)	0:50:49	(15)	1:07:21	(10)	M	11
12		8	ALEKSEI MARKOV	TÜASK	1:11:26	0:05:57	0:16:08	(14)	0:33:09	(15)	0:50:40	(13)	1:07:42	(11)	M	12
13		5	KAUPO SASMIN	Sparta SS	1:11:43	0:06:14	0:16:07	(12)	0:33:08	(13)	0:50:40	(12)	1:07:58	(12)	M	13
14		19	ELAR VULLA	Rakvere KJK ViKe	1:12:05	0:06:37	0:16:08	(13)	0:33:09	(14)	0:50:45	(14)	1:08:17	(13)	M	14
15		31	RALF LIPP	Sportkeskus.ee	1:13:05	0:07:36	0:16:16	(17)	0:33:39	(16)	0:51:15	(16)	1:09:10	(14)	M	15
16		66	ARGO JÕESOO	Sportkeskus.ee	1:13:52	0:08:24	0:16:58	(24)	0:34:37	(23)	0:52:26	(22)	1:09:56	(15)	M	16
17		21	TÕNU LILLELAID	Sparta SS	1:14:00	0:08:32	0:16:20	(18)	0:34:09	(19)	0:52:10	(19)	1:10:05	(17)	M	17
18		26	KAAREL PIIP	Täppsportlased	1:14:04	0:08:35	0:16:58	(25)	0:34:36	(22)	0:52:26	(21)	1:10:05	(16)	M	18
19		17	HARDO REINART	TÜASK	1:14:07	0:08:38	0:16:39	(20)	0:34:12	(20)	0:52:11	(20)	1:10:12	(19)	M	19
20		10	JAANUS KALLASTE	Stamina SK	1:14:18	0:08:49	0:16:16	(16)	0:33:39	(17)	0:51:33	(18)	1:10:11	(18)	M	20
21		7	KRISTO REINSALU	Stamina SK	1:14:38	0:09:09	0:16:58	(22)	0:34:37	(24)	0:52:35	(23)	1:10:41	(20)	M	21
22		57	SANDER HANNUS	42 koma	1:15:01	0:09:32	0:17:37	(30)	0:35:40	(31)	0:53:52	(27)	1:11:20	(22)	M	22
23		23	HEINAR VAINE	VAK Staier	1:15:14	0:09:45	0:16:06	(9)	0:32:41	(11)	0:51:26	(17)	1:11:04	(21)	MN	1
24		9	ANDRUS LEIN	Rakvere KJK ViKe	1:15:48	0:10:19	0:16:58	(23)	0:34:37	(25)	0:52:51	(24)	1:11:44	(23)	M 40	1
25		65	MARTI MEDAR	Stamina SK	1:15:50	0:10:21	0:16:58	(27)	0:35:07	(26)	0:53:09	(26)		()	MJ	1
26		20	INDREK ILUMÄE		1:16:12	0:10:43	0:17:38	(33)	0:35:40	(29)	0:54:05	(30)	1:12:22	(25)	M	23
27		84	AGO VEILBERG	Tamsalu	1:16:14	0:10:45	0:17:36	(29)	0:35:40	(30)	0:53:55	(28)	1:12:17	(24)	M 50	1
28		35	HENEK TOMSON	Sparta SS	1:16:36	0:11:08	0:17:58	(36)	0:35:57	(35)	0:54:25	(34)	1:12:36	(26)	M	24
29		12	KAREL HUSSAR	SK Jooksupartner	1:16:49	0:11:21	0:16:58	(26)	0:35:08	(27)	0:54:10	(31)	1:12:57	(28)	MJ	2
30		112	OLARI ORM		1:16:49	0:11:21	0:17:48	(35)	0:35:55	(34)	0:54:21	(32)	1:12:52	(27)	M	25
31		18	BERT TIPPI	TÜASK	1:17:21	0:11:52	0:17:37	(32)	0:35:42	(33)	0:54:26	(35)	1:13:21	(29)	M	26
32		101	DANIIL STEPTšENKO		1:17:26	0:11:57	0:17:37	(31)	0:35:41	(32)	0:54:23	(33)		()	M	27
33		14	MARK MENDEL	Stamina SK	1:17:32	0:12:04	0:17:36	(28)	0:35:38	(28)	0:54:04	(29)	1:13:29	(30)	MJ	3
34		29	INDREK TÄRNO	SK Schnelli	1:18:14	0:12:45	0:18:14	(41)	0:36:47	(37)	0:55:44	(36)	1:14:14	(31)	M 40	2
35		92	JANAR SÄKK		1:18:20	0:12:51	0:18:33	(56)	0:37:08	(48)	0:55:46	(39)	1:14:21	(32)	M	28
36		30	MATT RAMMO	Sparta SS	1:18:33	0:13:04	0:18:13	(40)	0:36:49	(39)	0:55:44	(37)	1:14:29	(33)	M	29
37		33	ALLAN PEETER JAASKA	Stamina SK	1:19:02	0:13:34	0:18:14	(44)	0:36:49	(40)	0:56:01	(42)	1:14:58	(34)	M 40	3
38		362	PAVEL ALTYSHOV		1:19:04	0:13:35	0:18:17	(48)	0:36:47	(38)	0:55:44	(38)	1:14:59	(35)	M	30
39		87	TARMO MAISTE		1:19:05	0:13:36	0:18:14	(42)	0:36:57	(44)	0:56:00	(40)	1:15:03	(36)	M	31
40		184	PRIIT SIMSON		1:19:17	0:13:48	0:18:19	(50)	0:37:07	(47)	0:56:16	(44)	1:15:14	(37)	M	32
41		16	MIKK LAUR	Võru KJK Lõunalõvi	1:19:24	0:13:56	0:18:13	(37)	0:37:16	(49)	0:56:40	(49)	1:15:18	(38)	M	33
42		88	INDREK MUMM	Sparta	1:19:28	0:13:59	0:18:19	(49)	0:37:18	(52)	0:56:36	(47)		()	M 45	1
43		107	MAIT LEEMET	Treeningpartner	1:19:41	0:14:12	0:18:13	(39)	0:36:53	(41)	0:56:07	(43)	1:15:25	(39)	M	34
44		95	ALAR RIDAMÄE	Sparta	1:19:47	0:14:18	0:18:15	(46)	0:36:58	(45)	0:56:37	(48)	1:15:40	(41)	M 40	4
45	1	28	LILY LUIK	TÜASK	1:19:49	0:14:20	0:18:19	(52)	0:37:18	(51)	0:56:42	(50)		()	N	1
46		86	CHRISTJAN LÄÄN	TÄPPSPORTLASED	1:19:54	0:14:26	0:18:15	(47)	0:36:57	(42)	0:56:00	(41)	1:15:31	(40)	M 40	5
47		36	ANTON SALININ	KJK Kalev Sillamäe	1:19:59	0:14:30	0:17:48	(34)	0:36:46	(36)	0:56:17	(46)	1:15:51	(42)	MJ	4
48		91	MADIS METS		1:20:17	0:14:48	0:18:20	(54)	0:37:18	(54)	0:56:45	(52)	1:16:09	(43)	M	35
49	2	43	EVELIN TALTS	Stamina SK	1:20:33	0:15:04	0:18:20	(53)	0:37:18	(53)	0:56:44	(51)	1:16:16	(44)	N	2
50		149	INDREK OTS		1:20:50	0:15:21	0:19:03	(67)	0:38:26	(66)	0:58:01	(57)	1:16:54	(47)	M	36
51		34	TARMO REITSNIK	Stamina SK	1:21:00	0:15:32	0:18:14	(43)	0:36:59	(46)	0:56:49	(53)	1:16:45	(45)	M 40	6
52		58	AHTO JAKSON	Täppsportlased	1:21:05	0:15:36	0:18:34	(57)	0:37:36	(56)	0:57:14	(55)	1:16:50	(46)	M 40	7
53		100	LAURI ENN		1:21:17	0:15:48	0:18:58	(62)	0:38:25	(64)	0:58:02	(61)	1:17:15	(51)	M	37
54		13	JANAR JUHKOV	Sparta SS	1:21:17	0:15:48	0:18:59	(65)	0:38:25	(63)	0:58:02	(60)	1:17:15	(52)	M	38
55	3	49	KAISA KUKK	Sparta SS	1:21:17	0:15:49	0:18:59	(66)	0:38:24	(59)	0:58:02	(59)	1:17:15	(50)	N	3
56		15	LAURI LUIK	Läänemaa KJK	1:21:18	0:15:50	0:18:14	(45)	0:36:57	(43)	0:56:17	(45)	1:16:56	(48)	M	39
57		72	ENNO TORIM	VAK Staier	1:21:28	0:15:59	0:18:13	(38)	0:37:16	(50)	0:57:11	(54)	1:17:11	(49)	M 40	8
58		840	ALEKSEY BELOVSOV	Silvia	1:21:59	0:16:31	0:19:11	(74)	0:38:39	(70)	0:58:37	(68)	1:17:52	(55)	M 40	9
59		138	LAURI VALDMAA		1:22:03	0:16:34	0:18:57	(60)	0:38:25	(60)	0:58:09	(63)	1:17:46	(54)	M	40
60		567	RAIDO RASPEL	SPARTA	1:22:06	0:16:38	0:18:19	(51)	0:37:32	(55)	0:57:37	(56)	1:17:46	(53)	M 45	2
61		152	KRISTJAN ENNO	Täppsportlased	1:22:15	0:16:46	0:19:03	(68)	0:38:27	(67)	0:58:10	(64)	1:17:58	(56)	M 40	10
62		93	KALLE PALLING		1:22:26	0:16:57	0:18:58	(63)	0:38:25	(61)	0:58:04	(62)	1:18:07	(57)	M	41
63		564	SERGEI NIKOLAEV		1:22:29	0:17:00	0:19:11	(71)	0:38:34	(68)	0:58:15	(65)	1:18:17	(59)	M 40	11
64		760	HENNO HAAVA		1:22:37	0:17:08	0:19:11	(73)	0:38:55	(75)	0:58:59	(71)	1:18:18	(60)	M 40	12
65		79	UKU KRUUSAMÄGI	TÜASK	1:22:47	0:17:18	0:18:23	(55)	0:37:36	(57)	0:58:01	(58)	1:18:16	(58)	MN	2
66		185	RAGNAR KAASIK	Sparta	1:23:07	0:17:38	0:19:12	(80)	0:38:43	(74)	0:58:56	(70)	1:18:55	(62)	M	42
67		81	HANNO KINDEL	Täppsportlased	1:23:16	0:17:47	0:18:57	(61)	0:38:25	(65)	0:58:23	(66)	1:18:50	(61)	M 45	3
68		80	PEEP LEINO		1:23:18	0:17:50	0:19:13	(81)	0:38:56	(76)	0:59:08	(73)	1:19:06	(65)	M	43
69		122	KALVI REIVELT		1:23:21	0:17:52	0:19:10	(69)	0:38:41	(72)	0:58:46	(69)	1:18:57	(63)	M 40	13
70		82	GAABRIEL TAVITS	Weekend Warriors II	1:23:21	0:17:52	0:18:57	(59)	0:38:25	(62)	0:58:36	(67)	1:19:06	(64)	M 40	14
71		110	MART PALM		1:23:45	0:18:16	0:19:12	(77)	0:39:10	(78)	0:59:29	(77)	1:19:25	(66)	M	44
72		173	KAIDO SAAR		1:24:22	0:18:53	0:19:11	(75)	0:38:39	(71)	0:59:00	(72)	1:19:47	(67)	M 45	4
73		128	MARIUS AAVE	RTA Tarbatu	1:24:24	0:18:55	0:19:14	(83)		()	0:59:45	(80)	1:20:13	(68)	M	45
74		189	JOONA SALUVEER	Eesti Posti Spordiklubi	1:24:32	0:19:04	0:19:49	(98)	0:39:57	(87)	1:00:17	(81)	1:20:18	(70)	M	46
75		125	KAAREL BARINOV	Sparta	1:24:35	0:19:06	0:20:10	(113)	0:40:26	(102)	1:00:38	(86)	1:20:27	(74)	M	47
76	4	51	KRISTIINA VEREVMÄGI	Täppsportlased	1:24:39	0:19:10	0:19:14	(82)	0:39:10	(79)	0:59:43	(78)	1:20:16	(69)	N	4
77		665	PEETER MEOS		1:24:42	0:19:13	0:20:20	(125)	0:40:25	(101)	1:00:38	(85)	1:20:29	(75)	M	48
78		103	SULEV LIHT		1:24:42	0:19:13	0:19:11	(72)	0:39:05	(77)	0:59:44	(79)	1:20:21	(71)	M 50	2
79		108	ASKO KUUSALU	Vanamõisa Suusaklubi	1:24:52	0:19:23	0:19:12	(76)	0:38:39	(69)	0:59:28	(76)	1:20:24	(72)	M	49
80		461	URMAS ROHTLA		1:24:55	0:19:26	0:20:20	(126)	0:40:40	(104)	1:00:46	(89)	1:20:34	(76)	M 45	5
81		558	ALEKSANDR KULESHOV	Dresseur MTÜ	1:25:07	0:19:38	0:19:46	(91)	0:39:39	(82)	1:00:18	(82)	1:20:27	(73)	M	50
82		187	KRISTOFER ERIK KAMBERG	Meremõisa SK	1:25:25	0:19:57	0:18:34	(58)	0:38:05	(58)	0:59:12	(74)	1:20:46	(77)	PA	1
83		638	ALEKSANDRS CEPILOVS		1:25:29	0:20:00	0:19:36	(89)	0:39:37	(80)	1:00:26	(83)	1:21:01	(78)	M	51
84		215	ALAR KRAUTMAN	Krautmani Terviseakadeemia	1:25:34	0:20:06	0:19:48	(93)	0:40:09	(89)	1:00:47	(92)	1:21:10	(80)	M 45	6
85		177	TÕNU REINOV		1:25:36	0:20:07	0:19:49	(103)	0:40:10	(94)	1:00:41	(87)	1:21:10	(81)	M 45	7
86		85	JAAN ÕUN	Täppsportlased	1:25:38	0:20:09	0:18:58	(64)	0:38:42	(73)	0:59:19	(75)	1:21:02	(79)	M	52
87		109	JURI SOBOLEV		1:25:53	0:20:24	0:19:12	(79)	0:39:38	(81)	1:00:32	(84)	1:21:26	(82)	M 45	8
88		374	JANNES MÄEOTS		1:25:53	0:20:24	0:21:18	(175)	0:41:47	(134)	1:02:09	(108)	1:21:46	(85)	M	53
89		139	MARGUS MERIVÄLJA		1:26:04	0:20:35	0:19:49	(101)	0:40:12	(97)	1:01:02	(95)	1:21:38	(84)	M	54
90		129	DMITRI NIKOLAJEV		1:26:12	0:20:43	0:19:18	(86)	0:39:50	(84)	1:00:46	(90)	1:21:47	(86)	M 45	9
91		114	TARASS SNITSARENKO	Eesti Panga SK	1:26:18	0:20:50	0:19:58	(108)	0:40:16	(100)	1:01:02	(94)	1:21:50	(87)	M	55
92		317	PRIIT PÕLGAST		1:26:34	0:21:05	0:20:40	(147)	0:41:19	(121)	1:01:57	(107)	1:22:12	(88)	M	56
93		94	SERGEY TASIMOV	SK MITS	1:26:37	0:21:09	0:19:15	(84)	0:39:53	(85)	1:01:00	(93)	1:22:18	(90)	M 40	15
94		211	ERKKI HUMMAL	SPARTA	1:26:38	0:21:10	0:20:11	(115)	0:40:40	(106)	1:01:35	(102)	1:22:19	(93)	M 40	16
95		90	KAIDO ORGULAS		1:26:41	0:21:13	0:19:57	(107)	0:40:40	(105)	1:01:32	(101)	1:22:18	(91)	M 45	10
96		204	ALO KELDER		1:26:43	0:21:15	0:19:49	(100)	0:40:09	(92)	1:01:11	(96)	1:22:13	(89)	M	57
97		708	DMITRI KONDAEV	Äkke	1:26:51	0:21:22	0:20:10	(112)	0:40:09	(91)	1:00:45	(88)	1:21:32	(83)	M	58
98		841	SEMOV SERGEI		1:26:54	0:21:25	0:21:35	(189)	0:42:19	(152)	1:02:40	(117)	1:22:45	(97)	M	59
99		102	JAN DUBROVSKI		1:26:58	0:21:30	0:19:48	(95)	0:40:09	(90)	1:00:47	(91)	1:22:18	(92)	M	60
100		305	MIIKO VAINER	MTA SK	1:27:00	0:21:31	0:20:33	(139)	0:41:23	(122)	1:02:13	(111)	1:22:41	(94)	M	61
101		456	MIKK ORASMAA		1:27:19	0:21:50	0:19:49	(99)	0:40:10	(93)	1:01:21	(97)	1:22:42	(95)	M	62
102		163	MARGUS MAISTE		1:27:20	0:21:51	0:19:49	(102)	0:40:13	(98)	1:01:25	(98)	1:22:44	(96)	M	63
103		462	ANTON SAVITS		1:27:20	0:21:51	0:20:38	(142)	0:42:01	(139)	1:03:03	(122)	1:23:19	(102)	MN	3
104		141	VITALI PETRIŠTŠEV		1:27:23	0:21:54	0:19:57	(106)	0:40:28	(103)	1:01:54	(105)	1:22:58	(98)	M	64
105		578	RIIVO VILGO	Raplamaa Tublid Maratoonarid	1:27:32	0:22:04	0:21:26	(182)	0:42:36	(158)	1:03:18	(132)	1:23:36	(105)	M	65
106		175	PEEP JOONAS		1:27:36	0:22:08	0:19:12	(78)	0:39:41	(83)	1:01:48	(104)	1:23:09	(101)	M 45	11
107		104	URMAS LIIN	TÜASK Fitnessklubi	1:27:46	0:22:18	0:20:11	(117)	0:40:56	(113)	1:01:55	(106)	1:23:04	(100)	M	66
108	5	38	OLGA ANDREJEVA	Stamina SK	1:27:48	0:22:19	0:19:33	(88)	0:40:12	(96)	1:01:32	(100)	1:23:03	(99)	N	5
109		69	INDREK TIKVA	Albe Team	1:27:58	0:22:30	0:20:26	(128)	0:41:03	(114)	1:02:11	(109)	1:23:35	(104)	M 40	17
110	6	60	MAIE KUUSIK		1:28:08	0:22:39	0:20:13	(120)	0:41:04	(116)	1:02:12	(110)	1:23:25	(103)	N 40	1
111		105	AHTI MÄNNIK		1:28:17	0:22:49	0:19:49	(96)	0:40:09	(88)	1:01:32	(99)	1:23:51	(107)	M	67
112		64	URMAS KALJURAND	Stamina SK	1:28:20	0:22:51	0:20:10	(114)	0:41:06	(118)	1:02:18	(112)	1:23:40	(106)	M 50	3
113		575	ALGO ESKLA		1:28:38	0:23:09	0:21:00	(155)	0:42:00	(137)	1:03:06	(124)	1:24:02	(108)	M	68
114	7	830	ANASTASIA ZAKHAROVA		1:28:39	0:23:10	0:20:27	(129)	0:41:28	(124)	1:02:53	(120)	1:24:07	(109)	N	6
115		74	MARK DOROšENKO	SK Mitš	1:28:53	0:23:24	0:19:45	(90)	0:40:45	(109)	1:02:27	(113)	1:24:19	(111)	MJ	5
116	8	39	ANU TEPPO	Sparta SS	1:29:01	0:23:32	0:19:49	(97)	0:40:43	(108)	1:02:35	(115)	1:24:19	(110)	N	7
117		77	ANDRE ABNER	Stamina SK	1:29:05	0:23:36	0:21:09	(159)	0:42:20	(153)	1:03:41	(138)	1:24:38	(117)	M 40	18
118		166	SILVER VÜRMER	Täppsportlased	1:29:05	0:23:36	0:21:10	(162)	0:42:21	(154)	1:03:38	(135)	1:24:33	(113)	M	69
119		798	JIMMY ROBERT	ALSTOM TEAM	1:29:07	0:23:38	0:20:12	(119)	0:41:04	(115)	1:02:53	(119)	1:24:35	(114)	M	70
120	9	50	MARGIT MÄLTER	Sparta SS	1:29:10	0:23:42	0:20:55	(154)	0:42:06	(141)	1:03:39	(136)	1:24:30	(112)	N 40	2
121		191	RENAT VAFIN		1:29:20	0:23:51	0:20:38	(143)	0:41:38	(129)	1:03:17	(131)	1:24:43	(118)	M 40	19
122		115	GUNNAR KINGO		1:29:28	0:24:00		()		()	1:02:35	(114)	1:24:36	(116)	M	71
123		127	PRIIT KUUSKLA	SK Aaspere	1:29:33	0:24:04	0:20:09	(111)	0:41:44	(131)	1:03:15	(129)	1:24:44	(119)	M	72
124		59	ANTS EINSALU	Albe Team	1:29:33	0:24:05	0:19:16	(85)	0:39:56	(86)	1:01:42	(103)	1:24:36	(115)	M 55	1
125		304	EDUARD PUKKONEN	Eesti Energia Spordiklubi	1:29:36	0:24:08	0:20:28	(132)	0:41:31	(126)	1:03:04	(123)	1:24:57	(122)	M 50	4
126		434	RAIVO KÜTT	Harju malev	1:29:39	0:24:10	0:21:20	(178)	0:42:16	(148)	1:03:30	(133)	1:24:55	(121)	M	73
127	10	134	ANNIKA VAHER	JK Sarma	1:29:43	0:24:14	0:20:05	(110)	0:41:08	(120)	1:03:14	(128)		()	N 40	3
128		409	MAIKEL VEELAIN		1:29:48	0:24:19	0:20:36	(141)	0:41:25	(123)	1:02:46	(118)	1:24:53	(120)	M	74
129		156	LAURI PIHLAK		1:29:56	0:24:28	0:20:13	(122)	0:41:31	(127)	1:03:15	(130)	1:25:10	(123)	M	75
130		150	ERKKI EHASALU	Simuna SK	1:30:04	0:24:35	0:20:13	(121)	0:41:06	(117)	1:03:13	(127)	1:25:24	(124)	M	76
131		146	EDUARD KIMASK		1:30:25	0:24:57	0:21:10	(163)	0:42:30	(156)	1:04:23	(147)	1:25:50	(126)	M 40	20
132		136	ANDREI ŠKUBEL		1:30:29	0:25:01	0:19:33	(87)	0:40:15	(99)	1:03:12	(126)	1:25:45	(125)	M	77
133	11	330	SVETLANA NIKITINA	Krasnogvardeets	1:30:37	0:25:09	0:20:46	(151)	0:42:25	(155)	1:04:51	(158)	1:25:58	(128)	N 45	1
134		151	HANNO PRIKS	VAK Staier	1:30:51	0:25:23	0:20:28	(133)	0:41:28	(125)	1:03:40	(137)	1:25:55	(127)	M 50	5
135	12	853	INGA ZALITE		1:30:53	0:25:24	0:20:11	(116)	0:41:45	(132)	1:03:54	(142)	1:26:05	(130)	N	8
136		78	LAURI TANNER	Läänemaa KJK	1:31:07	0:25:38	0:20:24	(127)	0:42:12	(146)	1:04:29	(150)		()	M	78
137		285	ERMO TIKK	Crossfit Tartu	1:31:08	0:25:39	0:20:28	(131)	0:41:42	(130)	1:03:45	(139)	1:26:27	(133)	M	79
138		117	ALEKSANDER TOOTS		1:31:11	0:25:42	0:19:48	(94)	0:40:43	(107)	1:04:34	(152)	1:26:40	(139)	M 45	12
139		267	TANEL JUNS		1:31:12	0:25:43	0:20:35	(140)	0:42:18	(149)	1:04:39	(153)	1:26:41	(141)	M	80
140		350	RAINER NISLONI		1:31:16	0:25:47	0:21:10	(160)	0:42:37	(159)	1:04:25	(149)	1:26:34	(137)	M	81
141		176	ERKI VEEROOS		1:31:18	0:25:49	0:20:54	(153)	0:42:01	(138)	1:03:51	(141)	1:26:18	(131)	M	82
142	13	52	TIINA TROSS	Täppsportlased	1:31:20	0:25:51	0:20:40	(145)	0:42:19	(150)	1:04:32	(151)	1:26:35	(138)	N 45	2
143		181	AHTO EESMÄE	SK Metsasõbrad	1:31:21	0:25:53	0:21:23	(180)	0:42:52	(165)	1:04:57	(160)	1:26:43	(143)	M 40	21
144		201	RISTO PAANE		1:31:21	0:25:53	0:19:50	(104)	0:40:45	(110)	1:02:36	(116)	1:26:02	(129)	M	83
145		116	KARMO KÜBARSEPP	Eesti Energia Spordiklubi	1:31:22	0:25:53	0:19:58	(109)	0:40:56	(112)	1:02:59	(121)	1:26:27	(132)	M	84
146		97	ELION SÕBER		1:31:22	0:25:53	0:20:12	(118)	0:41:08	(119)	1:03:36	(134)	1:26:33	(134)	M	85
147	14	45	EGLE-HELENE ERVIN	Rakvere KJK ViKe	1:31:23	0:25:54	0:20:29	(135)	0:42:06	(142)	1:04:21	(146)	1:26:34	(136)	NN	1
148		144	KARL-GUSTAV NAGEL	SK Aaspere	1:31:27	0:25:58	0:20:29	(134)	0:42:02	(140)	1:04:08	(144)	1:26:33	(135)	MJ	6
149		266	VILLU KASK	SK Aaspere	1:31:33	0:26:04	0:21:01	(156)	0:42:16	(147)	1:04:24	(148)	1:26:41	(140)	M 40	22
150		363	DENIS DEMENKOV		1:31:33	0:26:04	0:22:06	(222)	0:43:53	(195)	1:05:43	(171)	1:27:07	(146)	M	86
151		504	MAIGO MATSALU		1:31:38	0:26:09	0:21:34	(187)	0:43:04	(170)	1:05:03	(163)	1:26:53	(144)	M 50	6
152	15	55	DARINA MAKSIMOVA	KJK Kalev Sillamäe	1:31:46	0:26:18	0:20:52	(152)	0:42:47	(162)	1:05:08	(164)	1:27:12	(147)	NJ	1
153		192	MART KIILAS		1:31:50	0:26:21	0:20:40	(146)	0:42:09	(143)	1:04:03	(143)	1:26:54	(145)	M	87
154		137	ILMAR RAAP	meie	1:31:51	0:26:22	0:19:51	(105)	0:40:46	(111)	1:03:09	(125)	1:26:42	(142)	M 45	13
155		147	KRISTJAN VÄRTON		1:31:54	0:26:26	0:21:11	(167)	0:42:54	(166)	1:05:10	(165)	1:27:12	(148)	M 40	23
156	16	216	MARIS TAMM	TÜ Akadeemiline Spordiklubi	1:31:57	0:26:28	0:20:30	(136)	0:42:11	(144)	1:04:44	(155)	1:27:15	(149)	N	9
157	17	277	MERIKE MURU		1:32:00	0:26:31	0:21:11	(166)	0:42:46	(160)	1:05:03	(162)	1:27:16	(150)	N 45	3
158		368	DMITRY KOKORKO		1:32:15	0:26:46	0:21:14	(174)	0:42:50	(164)	1:05:22	(166)	1:27:21	(152)	M 50	7
159		194	AGO KÄREMA	Asics 2014	1:32:17	0:26:49	0:21:42	(193)	0:43:51	(192)	1:06:09	(180)	1:27:46	(155)	M 45	14
160		855	OLEG BOBÕLJOV		1:32:18	0:26:49	0:20:32	(138)	0:41:47	(133)	1:04:21	(145)	1:27:17	(151)	MN	4
161		237	IVO MÜÜRSEPP		1:32:32	0:27:03	0:21:23	(181)	0:42:59	(168)	1:05:28	(169)	1:27:54	(160)	M	88
162		278	ANTON KALETIN		1:32:32	0:27:03	0:20:17	(124)	0:41:51	(136)	1:04:47	(157)	1:27:37	(153)	M	89
163		190	MARTIN-ERIK BLUMFELDT		1:32:34	0:27:06	0:21:43	(195)	0:43:38	(186)	1:06:03	(177)	1:27:56	(161)	M	90
164		154	MÄRT VAHTRA		1:32:38	0:27:10	0:21:26	(183)	0:43:13	(175)	1:05:49	(174)	1:27:52	(159)	M	91
165	18	857	REELIKA MELL	AS Pricewaterhouse coopers	1:32:41	0:27:13	0:21:27	(185)	0:43:03	(169)	1:05:25	(168)	1:27:48	(157)	N	10
166		342	SERGEY LYZHIN		1:32:42	0:27:13	0:21:32	(186)	0:43:33	(181)	1:05:56	(176)	1:28:06	(162)	M 55	2
167		135	IGOR ŠKUBEL	Eesti Energia Kaevandused	1:32:45	0:27:16	0:20:14	(123)	0:41:47	(135)	1:04:44	(156)	1:27:46	(156)	M 55	3
168		682	ANTS KUUSIK	VAK Staier	1:32:45	0:27:17	0:21:01	(158)	0:42:47	(161)	1:05:23	(167)	1:27:46	(154)	M 65	1
169		124	MART HAAS		1:32:52	0:27:23	0:21:35	(188)	0:43:33	(182)	1:05:43	(172)	1:28:10	(163)	M	92
170		193	RAIDO MARTINSON		1:32:53	0:27:24	0:20:40	(144)	0:42:19	(151)	1:05:01	(161)	1:27:52	(158)	M	93
171		753	ANDRES HELLERMA	Liina Klubi :)	1:32:57	0:27:29	0:21:45	(199)	0:44:08	(203)	1:06:42	(192)	1:28:17	(166)	M	94
172	19	716	MARION TIBAR		1:32:57	0:27:29	0:21:45	(198)	0:44:08	(204)	1:06:43	(194)	1:28:18	(167)	N	11
173		834	OLEG SHABALIN	Sylvia	1:33:03	0:27:34	0:20:42	(149)	0:42:35	(157)	1:06:26	(185)	1:28:24	(170)	M	95
174		170	ALEKSANDR LISSOVSKI		1:33:06	0:27:37	0:21:27	(184)	0:43:10	(172)	1:05:56	(175)	1:28:17	(165)	M	96
175		255	RICHARD LEEMITS		1:33:07	0:27:38	0:21:45	(197)	0:43:41	(187)	1:06:11	(181)	1:28:32	(172)	M 45	15
176		384	KAIN VÄLJAOTS	Viru Tull	1:33:08	0:27:39	0:21:19	(177)	0:43:09	(171)	1:05:41	(170)	1:28:13	(164)	M 40	24
177		295	AINAR VESKUS	KJK sillamae kalev	1:33:11	0:27:42	0:21:46	(204)	0:43:56	(198)	1:06:42	(193)	1:28:40	(173)	M	97
178		819	ANDREW THIN		1:33:12	0:27:43	0:22:36	(243)	0:44:34	(214)	1:06:40	(189)	1:28:31	(171)	M 55	4
179		142	ERGO MEIER		1:33:17	0:27:48	0:20:40	(148)	0:42:12	(145)	1:04:40	(154)	1:28:18	(168)	M 40	25
180		157	MEELIS TAPO		1:33:17	0:27:48	0:21:43	(194)	0:43:34	(184)	1:05:47	(173)	1:28:23	(169)	M	98
181		557	ERKKI HALJASTAMM		1:33:27	0:27:58	0:22:04	(220)	0:44:37	(218)	1:07:03	(203)	1:28:48	(177)	M	99
182		246	SANDER PIHLAK		1:33:29	0:28:00	0:21:10	(164)	0:43:10	(173)	1:06:08	(178)	1:28:42	(174)	M	100
183		261	LAUR SAAR	TC2000	1:33:30	0:28:01	0:21:10	(161)	0:43:22	(179)	1:06:17	(182)	1:28:50	(180)	M 45	16
184		546	HARRY TUUL	harry.tuul@aripaev.ee	1:33:33	0:28:04	0:21:46	(205)	0:43:50	(191)	1:06:30	(187)	1:28:46	(175)	M	101
185		838	LEONID KOKIN	Sylvia	1:33:37	0:28:08	0:22:06	(224)	0:44:37	(217)	1:07:16	(211)	1:28:46	(176)	M	102
186	20	40	KERSTI SILD	EMÜ SK	1:33:40	0:28:11	0:22:03	(219)	0:44:05	(202)	1:06:32	(188)	1:28:48	(179)	N	12
187		268	MARTIN LIIRA		1:33:42	0:28:13	0:21:11	(165)	0:42:47	(163)	1:06:23	(183)	1:28:48	(178)	M	103
188	21	754	TATIANA SVIRIDOVA	Dinamo SPb	1:33:43	0:28:14	0:22:08	(229)	0:44:34	(216)	1:06:44	(196)	1:28:51	(181)	N 50	1
189		197	JAKOB GILL		1:33:57	0:28:29	0:22:25	(237)	0:45:06	(229)	1:07:49	(223)	1:29:21	(184)	MJ	7
190		70	RAUL HEINSALU	Albe Team	1:34:00	0:28:31	0:21:38	(191)	0:43:53	(193)	1:06:29	(186)	1:29:04	(182)	M 45	17
191		524	IVAR HEINOLA		1:34:07	0:28:38	0:22:35	(242)	0:45:06	(228)	1:07:49	(224)	1:29:25	(185)	M	104
192		752	MAIRO KIRSS	SKECHERS GORUN	1:34:08	0:28:39	0:22:27	(239)	0:45:07	(231)	1:07:45	(222)	1:29:33	(188)	M	105
193		783	ANDREI SEMENKOV	Viru JVP	1:34:13	0:28:44	0:21:12	(171)	0:43:42	(188)	1:06:42	(191)	1:29:20	(183)	M	106
194		395	TARVI TAMERI		1:34:15	0:28:46	0:22:24	(235)	0:44:49	(222)	1:07:20	(213)	1:29:48	(190)	M	107
195		280	KARRE LAURING	Täppsportlased	1:34:16	0:28:47	0:21:46	(202)	0:43:50	(190)	1:06:42	(190)	1:29:26	(186)	M 50	8
196	22	331	OLGA ANTONOVA	Krasnogvardeets	1:34:23	0:28:54	0:22:07	(225)	0:44:34	(215)	1:06:53	(198)	1:29:28	(187)	N 55	1
197		206	TOOMAS GROSS		1:34:30	0:29:02	0:22:03	(218)	0:44:29	(212)	1:07:02	(201)	1:29:43	(189)	M 40	26
198		229	DMITRIY HANSKI	Toksovo Ski Team	1:34:40	0:29:11	0:22:48	(275)	0:45:11	(234)	1:07:36	(220)	1:29:53	(191)	M	108
199		796	MIHHAIL BÕTŠKOV	InFocus	1:34:41	0:29:13	0:23:49	(368)	0:47:25	(330)	1:09:16	(245)	1:30:18	(200)	M	109
200		76	IVAN LAVRENTJEV		1:34:46	0:29:18		()		()	1:07:01	(199)	1:30:10	(195)	MN	5
201		132	EIK ELLER		1:34:53	0:29:24	0:21:13	(172)	0:43:53	(194)	1:07:03	(202)	1:29:59	(192)	M 55	5
202		426	KALMER VAAKMANN		1:34:57	0:29:28	0:22:03	(217)	0:44:28	(211)	1:07:02	(200)	1:29:59	(193)	M 40	27
203		663	HANS-KRISTJAN KASK	TÜ Akadeemiline Spordiklubi	1:35:01	0:29:32	0:21:12	(170)	0:43:17	(178)	1:06:46	(197)	1:30:09	(194)	MN	6
204		257	KONSTANTIN ROOT		1:35:03	0:29:35	0:22:36	(244)	0:45:41	(248)	1:08:23	(229)	1:30:29	(202)	M	110
205	23	427	KAIA LEPIK	Täppsportlased	1:35:05	0:29:37	0:21:45	(201)	0:44:02	(199)	1:07:27	(215)	1:30:16	(198)	N	13
206		260	RINGO KRILOVS	Voka	1:35:07	0:29:38	0:21:58	(211)	0:44:04	(200)	1:07:35	(217)	1:30:16	(199)	M	111
207	24	318	MEELIKA LAASMA		1:35:14	0:29:45	0:21:54	(210)	0:44:08	(205)	1:07:11	(209)	1:30:15	(197)	N 40	4
208		270	MEELIS KOSKARU	MTA Spordiklubi	1:35:20	0:29:52	0:22:08	(228)	0:44:41	(219)	1:07:35	(216)	1:30:28	(201)	M	112
209		214	MIHHAIL ZAVIZION		1:35:36	0:30:07	0:21:12	(169)	0:43:42	(189)	1:07:07	(206)	1:30:30	(203)	M 55	6
210		238	IGOR MOROZOV	JK OPTIMIST	1:35:36	0:30:07	0:21:42	(192)	0:43:55	(196)	1:07:06	(205)	1:30:34	(204)	M 45	18
211		846	ALEKSEI PETROV		1:35:40	0:30:11	0:22:08	(227)	0:44:27	(210)	1:07:45	(221)	1:30:55	(210)	M	113
212		831	EVGENII SKALKIN		1:35:44	0:30:16	0:22:50	(283)	0:45:07	(230)	1:08:02	(225)	1:31:01	(211)	M	114
213		808	COLIN CHAPPELL	TEAM AWESOME	1:35:45	0:30:16	0:21:18	(176)	0:42:57	(167)	1:06:25	(184)	1:30:15	(196)	M	115
214		772	LEHO KESK		1:35:45	0:30:16	0:21:46	(203)	0:43:56	(197)	1:07:18	(212)	1:30:47	(206)	M	116
215		232	PRIIT LOPSIK	Hansa SK	1:35:46	0:30:17	0:22:00	(215)	0:44:25	(208)	1:07:36	(219)	1:30:48	(207)	M	117
216		640	ALEKSEI TEREŠTŠENKOV	U-Club	1:35:52	0:30:23	0:21:37	(190)	0:43:28	(180)	1:07:09	(207)	1:30:50	(208)	M 50	9
217	25	42	GALINA BERNAT	Stamina SK	1:35:58	0:30:29	0:22:06	(223)	0:44:52	(223)	1:08:11	(228)	1:31:04	(212)	N 55	2
218	26	44	ELA VULLA	Rakvere KJK ViKe	1:35:58	0:30:30	0:21:01	(157)	0:43:34	(183)	1:07:03	(204)	1:30:54	(209)	N	14
219		811	RENE HAAVRE		1:36:08	0:30:39	0:22:39	(246)	0:45:13	(235)	1:08:37	(234)	1:31:22	(217)	M	118
220		159	DMITRI VASSILJEV		1:36:11	0:30:42	0:21:59	(213)	0:44:08	(206)	1:07:26	(214)	1:31:16	(213)	M	119
221		378	ANDO HERMSALU		1:36:16	0:30:47	0:22:52	(285)	0:45:38	(246)	1:08:31	(232)	1:31:20	(215)	M	120
222		195	INDREK AARNA	EE SK	1:36:19	0:30:50	0:22:21	(234)	0:45:07	(232)	1:08:09	(226)	1:31:21	(216)	M 45	19
223		294	KASPAR AARNA		1:36:23	0:30:55	0:21:11	(168)	0:43:38	(185)	1:07:36	(218)	1:31:17	(214)	M	121
224	27	61	MOONIKA PILLI		1:36:35	0:31:06	0:20:42	(150)	0:43:14	(176)	1:07:13	(210)	1:31:23	(218)	N	15
225		826	MADIS SALUS		1:36:39	0:31:10	0:22:46	(254)	0:45:38	(245)	1:08:31	(231)	1:30:38	(205)	M	122
226		252	INDREK KESPERI		1:36:48	0:31:19	0:21:44	(196)	0:44:04	(201)	1:07:11	(208)	1:31:32	(220)	M	123
227		545	STEN PISANG		1:36:49	0:31:20	0:22:49	(278)	0:46:07	(273)	1:09:37	(250)	1:32:08	(224)	M	124
228		202	RAIDO KRIMM	JK Jalgpallihaigla	1:36:57	0:31:28	0:21:22	(179)	0:43:11	(174)	1:06:08	(179)	1:31:28	(219)	M	125
229		230	EFREMOV YURY	Arktika	1:37:02	0:31:33	0:22:08	(226)	0:44:43	(221)	1:08:24	(230)	1:31:58	(222)	M 55	7
230		529	RAIVO RAUDSEPP		1:37:04	0:31:35	0:23:04	(298)	0:45:47	(250)	1:09:08	(242)	1:32:15	(225)	M 50	10
231		231	TOOMAS VEBER		1:37:07	0:31:38	0:20:31	(137)	0:43:15	(177)	1:06:43	(195)	1:31:43	(221)	M 40	28
232		239	ELVIS SEPPAR	fb jooksmine	1:37:08	0:31:39	0:23:23	(327)	0:46:14	(274)	1:09:28	(249)	1:32:16	(226)	M	126
233		645	EDGAR KRIISK	Eesti Energia Spordiklubi	1:37:08	0:31:39	0:23:20	(319)	0:45:47	(251)	1:09:07	(241)	1:32:06	(223)	M	127
234		406	ARTUR RAUDNA		1:37:09	0:31:40	0:22:48	(272)	0:45:49	(254)	1:09:03	(238)	1:32:40	(230)	M	128
235		459	ARDO VIRKEBAU	Kiviõli Moto- ja Ekstreemspordiklubi MTÜ	1:37:12	0:31:44	0:22:53	(286)	0:45:18	(237)	1:08:56	(236)	1:32:23	(227)	M	129
236		67	MARGUS TUBALKAIN	Stamina SK	1:37:17	0:31:48	0:22:48	(276)	0:46:03	(271)	1:09:43	(257)	1:32:44	(232)	M 45	20
237		164	ROMAN PANOV		1:37:30	0:32:01	0:22:48	(274)	0:46:06	(272)	1:09:45	(261)	1:32:39	(229)	M	130
238		242	RAIT ERMANN		1:37:33	0:32:05	0:22:09	(230)	0:44:58	(225)	1:08:32	(233)	1:32:24	(228)	M	131
239		325	RAIVO VÕIP		1:37:35	0:32:06	0:23:06	(302)	0:46:16	(276)	1:09:39	(252)	1:32:56	(241)	M 45	21
240		323	HEKTOR UUSTALO		1:37:36	0:32:07	0:23:22	(324)	0:46:44	(298)	1:10:21	(275)	1:32:53	(237)	M	132
241		143	HANNES LIIVAK		1:37:37	0:32:09	0:22:47	(269)	0:45:55	(256)	1:09:37	(251)	1:32:49	(234)	M	133
242	28	336	MARINA JäRVE	Sparta	1:37:39	0:32:10	0:22:47	(262)	0:46:01	(261)	1:09:43	(256)	1:32:50	(235)	N 45	4
243		63	URMO RAIEND	Stamina SK	1:37:40	0:32:11	0:22:46	(258)	0:46:01	(264)	1:09:42	(255)	1:32:44	(231)	M 45	22
244		298	RAINER LEPIK		1:37:40	0:32:11	0:23:06	(303)	0:46:20	(283)	1:09:48	(264)	1:32:52	(236)	M	134
245		299	RAIN HALLIMÄE		1:37:54	0:32:25	0:22:41	(248)	0:45:28	(241)	1:09:05	(239)	1:32:46	(233)	M 55	8
246		821	ELVIS JOAKIT		1:38:02	0:32:33	0:22:37	(245)	0:45:32	(242)	1:09:13	(244)	1:32:54	(239)	M	135
247		300	VAHUR LUKIN	Leksi 44	1:38:04	0:32:36	0:23:25	(334)	0:47:18	(320)	1:10:51	(289)	1:33:25	(247)	M	136
248		335	ANDREY ROOP		1:38:07	0:32:38	0:22:47	(264)	0:45:38	(247)	1:09:09	(243)	1:32:56	(240)	M 55	9
249	29	845	KITTY KUBO		1:38:11	0:32:42	0:22:46	(253)	0:45:58	(258)	1:09:46	(262)	1:33:14	(243)	N 40	5
250		303	RIVO OLVET		1:38:16	0:32:48	0:23:40	(354)	0:47:20	(322)	1:10:48	(288)	1:33:45	(255)	MJ	8
251		369	KRISTJAN PETERSON		1:38:22	0:32:53	0:23:36	(344)	0:46:56	(305)	1:10:31	(279)	1:33:32	(249)	M	137
252		792	HANNES NAUR		1:38:28	0:32:59	0:23:21	(320)	0:46:19	(282)	1:09:42	(254)	1:33:23	(245)	M 40	29
253		196	JAANUS TREILMANN		1:38:29	0:33:00	0:22:44	(249)	0:45:20	(238)	1:09:27	(248)	1:33:28	(248)	M 40	30
254		627	ALEKSANDR SAZENKOV		1:38:33	0:33:04	0:23:04	(299)	0:45:08	(233)	1:08:42	(235)	1:33:08	(242)	M	138
255		455	MIKK TALVIK		1:38:33	0:33:05	0:22:47	(265)	0:45:20	(239)	1:09:01	(237)	1:33:17	(244)	M	139
256		795	ROLAND NEMETH		1:38:34	0:33:05	0:23:04	(297)	0:46:28	(292)	1:10:20	(273)	1:33:37	(252)	M	140
257		218	EINAR HILLEP		1:38:34	0:33:05	0:22:47	(267)	0:46:01	(263)	1:09:44	(259)	1:33:23	(246)	N 40	6
258		827	JAANUS VAST		1:38:34	0:33:05	0:22:06	(221)	0:45:21	(240)	1:09:44	(258)	1:33:34	(250)	M	141
259		253	MAIK TUKK	SK Metsasõbrad	1:38:36	0:33:07	0:22:47	(259)	0:46:00	(260)	1:10:22	(276)	1:33:37	(253)	M	142
260	30	53	MERLE MÄNNIK	Täppsportlased	1:38:41	0:33:12	0:23:03	(296)	0:46:15	(275)	1:09:57	(266)	1:33:37	(251)	N 40	7
261		365	EERIK MUULI		1:38:41	0:33:13	0:22:50	(281)	0:45:42	(249)	1:09:47	(263)	1:33:52	(259)	MN	7
262		470	TANEL KAUS		1:38:53	0:33:24	0:23:02	(293)	0:45:52	(255)	1:09:45	(260)	1:33:48	(256)	M	143
263	31	356	KRISTIINA NURK	Sparta	1:38:53	0:33:24	0:23:15	(312)	0:46:19	(281)	1:10:13	(270)	1:33:55	(261)	N 40	8
264		488	MAGOMED MAGOMEDOV	KJK"Kalev" Sillamäe	1:38:56	0:33:27	0:24:02	(381)	0:47:46	(342)	1:11:08	(300)	1:34:06	(262)	M 45	23
265		162	REIN RÄTSEP		1:38:57	0:33:28	0:21:53	(209)	0:44:32	(213)	1:08:09	(227)	1:32:53	(238)	M 45	24
266		691	SIIM ERLENHEIM		1:38:59	0:33:30	0:24:59	(455)	0:49:24	(411)	1:12:05	(333)	1:34:29	(270)	M	144
267		487	AIVAR PÕLLU	Eesti Energia Spordiklubi	1:39:00	0:33:31	0:23:24	(331)	0:46:48	(300)	1:10:13	(271)	1:33:53	(260)	M	145
268	32	525	KLARIKA KUUSK		1:39:02	0:33:33	0:22:40	(247)	0:45:56	(257)	1:09:52	(265)	1:33:51	(258)	N 40	9
269		279	PRIIT PIRKSAAR	skm!	1:39:04	0:33:36	0:21:45	(200)	0:44:42	(220)	1:09:07	(240)	1:33:42	(254)	M	146
270		224	ALEC NYIRI	JK Sarma/Kanada	1:39:12	0:33:43	0:22:00	(216)	0:45:06	(227)	1:09:20	(247)	1:33:49	(257)	M 50	11
271	33	131	KATRE KALK		1:39:12	0:33:43	0:23:13	(307)	0:46:23	(286)	1:10:21	(274)	1:34:07	(263)	N	16
272		364	RANDY OREL	Eesti Energia Spordiklubi	1:39:16	0:33:47	0:23:03	(295)	0:46:26	(290)	1:10:34	(280)	1:34:27	(268)	M 45	25
273		762	ILJA SMIRNOV		1:39:17	0:33:48	0:23:40	(353)	0:47:14	(319)	1:10:41	(283)	1:34:18	(264)	M	147
274		199	MARGUS AUDOVA	Tartu SHK	1:39:18	0:33:49	0:23:12	(306)	0:46:55	(304)	1:10:57	(294)	1:34:18	(266)	M	148
275		133	MAREK LAHE		1:39:20	0:33:52	0:22:47	(270)	0:46:02	(270)	1:10:11	(269)	1:34:18	(265)	M	149
276		259	RAIVO PLUMER		1:39:39	0:34:10	0:22:48	(271)	0:46:24	(289)	1:10:28	(278)	1:34:33	(271)	M 50	12
277		269	MÄRT ORGUSAAR		1:39:43	0:34:14	0:22:48	(273)	0:46:17	(277)	1:10:48	(287)	1:34:47	(274)	M 45	26
278		453	MAGNUS NORDIN		1:39:46	0:34:17	0:23:43	(361)	0:47:07	(314)	1:11:16	(304)	1:34:56	(275)	M 45	27
279	34	812	EVELIN MÄRTSON	Ida-Tallinna Keskhaigla Spordiklubi	1:39:47	0:34:18	0:23:05	(301)	0:46:36	(295)	1:11:13	(301)	1:34:41	(272)	N	17
280		764	RAINO LILO		1:39:48	0:34:19	0:21:47	(208)	0:44:27	(209)	1:09:16	(246)	1:34:20	(267)	M	150
281		634	KARL JÕUMEES	Suusaklubi Jõulu	1:39:51	0:34:23	0:24:23	(422)	0:48:29	(367)	1:12:13	(334)	1:34:43	(273)	MJ	9
282		171	PEETER KUZNETSOV		1:39:55	0:34:27	0:23:30	(337)	0:47:24	(328)	1:11:28	(310)		()	M	151
283		540	TARVO TREIER		1:40:07	0:34:38	0:24:39	(442)	0:49:10	(399)	1:13:06	(349)	1:35:26	(285)	M	152
284	35	251	LY SILLANURM	Täppsportlased MTÜ	1:40:15	0:34:46	0:22:25	(236)	0:45:36	(244)	1:10:10	(268)	1:34:58	(276)	N 40	10
285		352	RANDO RIKS	SK Aaspere	1:40:17	0:34:48	0:21:59	(214)	0:44:11	(207)	1:09:42	(253)	1:34:28	(269)	MN	8
286		510	VLADIMIR LATIN		1:40:17	0:34:48	0:23:59	(378)	0:47:35	(335)	1:11:22	(307)	1:35:05	(278)	M	153
287		172	ROMAN DMITRIJEV	Tartu Ülikooli Narva Kolledž	1:40:19	0:34:50	0:23:59	(379)	0:47:35	(336)	1:11:22	(308)	1:35:05	(279)	M	154
288		416	PEETER KURG		1:40:21	0:34:53	0:22:50	(284)	0:46:37	(297)	1:11:05	(298)	1:35:00	(277)	M	155
289		111	ANDRES ARRO		1:40:22	0:34:53	0:22:12	(233)	0:46:18	(280)	1:11:04	(297)	1:35:15	(281)	M	156
290		680	KALJU HANNI		1:40:23	0:34:54	0:23:24	(333)	0:47:48	(343)	1:11:52	(322)	1:35:26	(286)	M 40	31
291		291	HENRY BAKLER		1:40:23	0:34:54	0:23:23	(325)	0:46:55	(303)	1:11:06	(299)	1:35:22	(283)	M	157
292		517	LENNART PULK		1:40:24	0:34:56	0:22:45	(250)	0:45:58	(259)	1:10:35	(281)	1:35:16	(282)	M 40	32
293	36	46	KERDA TIMMUSK	SK Leksi 44	1:40:26	0:34:57	0:22:34	(240)	0:45:48	(252)	1:10:07	(267)	1:35:07	(280)	NJ	2
294		522	AVO PUUSEPP		1:40:41	0:35:13	0:22:46	(255)	0:46:27	(291)	1:11:18	(305)	1:35:39	(291)	M 40	33
295		687	KASPAR TEDER		1:40:46	0:35:18	0:22:46	(256)	0:46:02	(269)	1:10:23	(277)	1:35:24	(284)	M	158
296		309	STEN VESIALLIK		1:40:49	0:35:20	0:23:39	(350)	0:47:23	(327)	1:11:42	(320)	1:35:47	(295)	M	159
297		407	AIN SAAN		1:40:50	0:35:22	0:23:36	(346)	0:47:00	(308)	1:11:19	(306)	1:35:33	(287)	M 55	10
298		549	KAAREL TRUU		1:40:54	0:35:25	0:23:36	(345)		()	1:12:01	(326)	1:35:56	(298)	M	160
299		158	VAHUR VALDMANN		1:40:56	0:35:27	0:22:12	(232)	0:46:17	(278)	1:11:23	(309)	1:35:53	(296)	M	161
300	37	574	BRIT RAMMUL		1:40:56	0:35:28	0:22:47	(266)	0:46:01	(266)	1:10:48	(285)	1:35:33	(288)	N	18
301		670	LAAS ÕUN		1:40:59	0:35:30	0:23:39	(349)	0:47:09	(318)	1:11:54	(323)	1:36:01	(301)	M	162
302	38	307	HILLEVI VELBA		1:41:01	0:35:32	0:23:04	(300)	0:46:35	(294)	1:11:13	(302)	1:35:39	(290)	N	19
303		334	TARMO KALDAS		1:41:02	0:35:33	0:23:15	(311)	0:46:47	(299)	1:11:15	(303)	1:35:42	(293)	M	163
304		121	RIHO AHTIJAINEN		1:41:05	0:35:36	0:21:13	(173)	0:44:54	(224)	1:10:40	(282)	1:35:46	(294)	M	164
305		804	RAUL UURING		1:41:12	0:35:43	0:24:23	(424)	0:48:09	(355)	1:12:28	(340)	1:36:24	(313)	M	165
306		73	LEHO RENNIT	Albe Team	1:41:14	0:35:45	0:23:31	(339)	0:47:20	(321)	1:12:05	(332)	1:36:14	(308)	M 50	13
307		642	DAVID ARUTYUNYAN	BIM	1:41:17	0:35:48	0:23:48	(366)	0:47:34	(333)	1:12:20	(335)	1:36:14	(309)	M	166
308		264	ANDO MEERBACH		1:41:19	0:35:50	0:22:57	(290)	0:47:09	(317)	1:11:59	(324)	1:36:21	(311)	M	167
309		126	TAAVI KALA		1:41:19	0:35:51	0:23:29	(335)	0:47:03	(311)	1:11:29	(314)		()	M	168
310		249	PEETER TUBLI	OK Koperaator	1:41:19	0:35:51	0:23:29	(336)	0:47:03	(312)	1:11:29	(313)	1:35:56	(297)	M	169
311		390	DZINTAR KLAVAN	hk purikad	1:41:21	0:35:52	0:23:08	(304)	0:46:22	(285)	1:10:47	(284)	1:35:40	(292)	M 50	14
312		480	ANTON ANDRES		1:41:21	0:35:52	0:24:00	(380)	0:48:28	(366)	1:12:43	(345)	1:36:16	(310)	M	170
313		276	JAAK LÄÄNE		1:41:21	0:35:52	0:22:50	(282)	0:46:20	(284)	1:10:57	(295)	1:35:57	(300)	M	171
314	39	628	MARET VOLENS	Sparta	1:41:24	0:35:55	0:23:22	(321)	0:47:03	(310)	1:11:28	(312)	1:35:56	(299)	N 40	11
315	40	539	JEKATERINA PIHLAK		1:41:28	0:35:59	0:23:14	(309)	0:46:59	(307)	1:11:32	(315)	1:36:02	(302)	N 40	12
316	41	240	KAIRE MATSON	Elujooks	1:41:30	0:36:01	0:22:49	(279)	0:46:36	(296)	1:11:39	(319)	1:36:08	(304)	N	20
317		423	HUGO PAULUS		1:41:32	0:36:03	0:23:41	(358)	0:47:24	(329)	1:12:03	(328)	1:36:28	(315)	M 55	11
318	42	333	JÄRVI VALTER		1:41:32	0:36:03	0:22:45	(251)	0:46:01	(262)	1:10:56	(291)	1:36:06	(303)	N 55	3
319	43	465	MARGIT KANNEL	eratreening.ee	1:41:34	0:36:05	0:23:22	(322)	0:47:06	(313)	1:12:00	(325)	1:36:22	(312)	N	21
320		160	TAAVI RÕIVAS		1:41:37	0:36:08	0:22:46	(257)	0:46:01	(265)	1:10:56	(290)	1:36:12	(305)	M	172
321		145	SANDOR LIIVE		1:41:37	0:36:08	0:22:47	(260)	0:46:01	(267)	1:10:56	(292)	1:36:12	(306)	M 40	34
322		165	IVAR VILSON		1:41:38	0:36:09	0:22:47	(263)	0:46:02	(268)	1:10:57	(293)	1:36:12	(307)	M 40	35
323		582	EGERT VIRKUNEN		1:41:40	0:36:12	0:26:14	(542)	0:50:28	(460)	1:13:53	(373)	1:36:50	(320)	MN	9
324		720	FRED VIIDUL		1:41:43	0:36:15	0:24:35	(436)	0:49:03	(394)	1:13:34	(360)	1:36:52	(321)	M	173
325	44	200	SIIRI PILT	TÜ Akadeemiline Spordiklubi	1:41:46	0:36:18	0:23:24	(330)	0:47:22	(326)	1:12:04	(330)	1:36:32	(316)	N 40	13
326		217	KIMMO PAAP	Saku Õlletehase Spordiklubi	1:41:51	0:36:22	0:23:32	(341)	0:47:49	(346)	1:12:39	(344)	1:36:43	(318)	M	174
327		410	KAIDO AASLAID		1:42:04	0:36:35	0:24:10	(398)	0:48:41	(375)	1:12:48	(346)	1:36:53	(322)	M 45	28
328		169	ARNO PROODE		1:42:11	0:36:42	0:22:34	(241)	0:46:52	(301)	1:11:37	(317)	1:36:48	(319)	M 50	15
329		225	ROLAND TARUM		1:42:12	0:36:43	0:22:09	(231)	0:45:04	(226)	1:10:15	(272)	1:36:38	(317)	M	175
330		499	SIIM PEETRIMÄGI		1:42:13	0:36:44	0:24:07	(395)	0:49:00	(389)	1:13:35	(362)	1:37:10	(328)	M	176
331		326	RISTO AHTIJAINEN	RAPLAMAA TUBLID MARATOONARID	1:42:15	0:36:46	0:24:19	(418)	0:48:41	(373)	1:13:29	(358)	1:37:13	(329)	M	177
332	45	569	DAGMAR VLASSOV	Sparta	1:42:15	0:36:46	0:23:38	(348)	0:47:35	(334)	1:12:38	(343)	1:37:00	(324)	N	22
333		850	YURIY SAMOKHIN		1:42:16	0:36:48	0:23:58	(377)	0:47:40	(340)	1:12:22	(337)	1:37:06	(327)	M 50	16
334		167	ERKO REIGO		1:42:26	0:36:57	0:22:55	(287)	0:46:30	(293)	1:11:28	(311)	1:36:58	(323)	M	178
335		631	RAUNO PARTS	FB Jooksmine	1:42:32	0:37:03	0:23:52	(374)	0:48:14	(362)	1:13:17	(353)	1:37:38	(335)	M 40	36
336		353	PRIIT RAUDKIVI		1:42:35	0:37:07	0:25:23	(487)	0:49:32	(419)	1:13:38	(364)	1:37:43	(338)	M	179
337		327	ANDRE LALL	Opus SK	1:42:36	0:37:07	0:23:30	(338)	0:47:21	(325)	1:11:50	(321)	1:37:02	(325)	M	180
338		463	ERMO HAAS		1:42:41	0:37:12	0:23:17	(313)	0:47:21	(323)	1:12:03	(329)	1:37:21	(330)	M	181
339	46	377	JELENA BELJANTSEVA		1:42:43	0:37:14	0:23:23	(328)	0:47:09	(315)	1:12:04	(331)	1:37:04	(326)	N	23
340		418	KRISTJAN SAHTEL		1:42:45	0:37:16	0:23:17	(314)	0:47:49	(344)	1:13:14	(350)	1:37:40	(336)	M	182
341		788	STEN VALDARU	Suurtükiväepataljon	1:42:47	0:37:18	0:24:24	(425)	0:48:04	(352)	1:13:05	(348)	1:37:25	(331)	M	183
342		822	AGO SALUVEER		1:42:47	0:37:19	0:24:03	(383)	0:48:34	(371)	1:13:15	(352)	1:37:40	(337)	M	184
343		346	BJÖRN PUNA		1:42:56	0:37:27	0:23:17	(315)	0:47:49	(345)	1:13:14	(351)	1:37:43	(339)	M	185
344		605	MARKO TUTT		1:42:56	0:37:27	0:23:36	(343)	0:46:59	(306)	1:12:31	(341)	1:37:31	(334)	M	186
345	47	391	MERILI NAABER	Eratreening.ee	1:42:56	0:37:27	0:23:40	(352)	0:47:36	(337)	1:12:37	(342)	1:37:30	(332)	N	24
346		408	EVGENII USTOV		1:43:01	0:37:32	0:24:40	(444)	0:48:09	(357)	1:12:27	(339)	1:37:30	(333)	M	187
347		178	ARVI TÕNNISON		1:43:07	0:37:39	0:21:47	(207)	0:45:13	(236)	1:11:33	(316)	1:37:45	(340)	M 50	17
348		385	TAIMAR ALA		1:43:12	0:37:43	0:24:03	(386)	0:48:34	(370)	1:13:00	(347)	1:37:55	(342)	M	188
349		174	VALMER KOLK		1:43:17	0:37:48	0:21:47	(206)	0:45:34	(243)	1:10:48	(286)	1:36:28	(314)	M 45	29
350		394	ALEKSANDR BARANOV	JK Start	1:43:17	0:37:48	0:22:45	(252)	0:46:23	(288)	1:12:03	(327)	1:37:46	(341)	M 60	1
351		485	PRIIT KAASIK	Jõhvi RS	1:43:17	0:37:49	0:24:59	(457)	0:49:25	(413)	1:14:33	(388)	1:38:34	(349)	M 45	30
352		420	MARKO TOOMING		1:43:29	0:38:00	0:24:05	(392)	0:48:42	(377)	1:13:40	(367)	1:38:22	(346)	M	189
353	48	676	PIIA PUURAID	TÜ Akadeemiline Spordiklubi	1:43:29	0:38:00	0:23:39	(351)	0:47:42	(341)	1:13:28	(357)	1:38:22	(347)	NN	2
354		763	ERIK GAMZEJEV	Põhjarannnik	1:43:32	0:38:03	0:23:23	(326)	0:47:34	(332)	1:12:26	(338)		()	M 45	31
355		606	TOOMAS LAIMETS		1:43:37	0:38:08	0:23:52	(375)	0:48:53	(386)	1:13:48	(369)	1:38:29	(348)	M 50	18
356		421	ANDREY AVANESOV	EESTI ENERGIA SPORDIKLUBI	1:43:45	0:38:16	0:23:41	(356)	0:48:12	(360)	1:13:32	(359)	1:38:19	(345)	M 55	12
357		367	KARL ERLENHEIM		1:43:50	0:38:21	0:24:59	(456)	0:49:24	(410)	1:14:33	(389)	1:39:01	(351)	M	190
358		590	ARNO SIBUL		1:43:50	0:38:22	0:23:13	(308)	0:46:23	(287)	1:11:38	(318)	1:38:18	(344)	M	191
359		244	AKSEL MUSTING		1:43:55	0:38:27	0:22:50	(280)	0:46:53	(302)	1:12:21	(336)	1:38:08	(343)	M 55	13
360		288	INDREK LÄNS		1:43:56	0:38:28	0:24:15	(411)	0:49:21	(408)	1:14:40	(392)		()	M	192
361		694	KONSTANTIN BARSUKOV		1:44:07	0:38:38	0:24:45	(446)	0:49:27	(415)	1:14:22	(381)	1:38:54	(350)	M	193
362		581	DMITRI ZAKHODYAEV		1:44:19	0:38:50	0:25:11	(473)	0:49:25	(414)	1:14:13	(380)	1:39:06	(355)	M	194
363	49	773	NADEZHDA OVCHINNIKOVA	Energia	1:44:23	0:38:55	0:23:41	(355)	0:48:30	(368)	1:13:52	(372)	1:39:04	(353)	N 50	2
364	50	321	KETLIN TAGAMETS		1:44:30	0:39:01	0:24:07	(394)	0:48:26	(365)	1:13:59	(376)	1:39:06	(354)	N	25
365		228	DENIS SHAYDULLIN	Ergo White Nights	1:44:30	0:39:02	0:25:16	(479)	0:50:15	(453)	1:15:30	(416)	1:39:18	(359)	M	195
366	51	376	JOHANNA VIRONMÄKI	Suomettaret	1:44:34	0:39:05	0:23:33	(342)	0:47:50	(347)	1:13:36	(363)	1:39:01	(352)	N 45	5
367		532	RAUNO SAIDLA		1:44:36	0:39:07	0:23:44	(363)	0:48:06	(353)	1:13:34	(361)	1:39:14	(356)	M	196
368		153	MIHKEL GILL		1:44:36	0:39:07	0:20:27	(130)	0:41:36	(128)	1:04:56	(159)	1:35:36	(289)	MN	10
369		492	VEIKO RISTISSAAR	Raplamaa Tublid Maratoonarid	1:44:37	0:39:08	0:24:37	(437)	0:48:56	(388)	1:14:11	(379)	1:39:19	(360)	M	197
370		438	OLAV HOOP	JV nim TASK	1:44:40	0:39:11	0:25:06	(465)	0:49:10	(400)	1:13:58	(375)	1:39:28	(361)	M	198
371		484	JAAN MANDRIKS		1:44:46	0:39:17	0:23:15	(310)	0:47:21	(324)	1:13:27	(356)	1:39:18	(358)	M	199
372		806	MATI LOHU		1:44:48	0:39:19	0:24:53	(450)	0:49:53	(434)	1:15:27	(415)	1:39:37	(364)	M	200
373		598	TEET ENOK	Katevara	1:44:49	0:39:20	0:24:14	(408)	0:49:00	(391)	1:15:01	(402)	1:39:47	(370)	M 40	37
374		803	PRIIT PARTS		1:44:51	0:39:22	0:24:26	(429)	0:49:00	(392)	1:14:00	(377)	1:39:17	(357)	M	201
375	52	344	MERILIN KIVIORG		1:44:57	0:39:29	0:25:14	(476)	0:49:37	(426)	1:14:29	(386)	1:39:28	(362)	N 40	14
376	53	538	JANA TREIER		1:45:01	0:39:32	0:24:40	(443)	0:49:10	(398)	1:14:11	(378)	1:39:43	(367)	N	26
377		624	EINAR JÄRVE	JK	1:45:04	0:39:36	0:25:13	(475)	0:49:37	(425)	1:14:24	(383)	1:39:30	(363)	M 45	32
378		271	EVERT VARBLAS		1:45:16	0:39:47	0:23:57	(376)	0:48:41	(374)	1:14:29	(387)		()	M 55	14
379		212	JÜRI SAAR		1:45:16	0:39:47	0:22:57	(288)	0:47:38	(339)	1:13:43	(368)	1:39:37	(365)	M 40	38
380	54	397	MADLEEN SALA		1:45:24	0:39:55	0:23:18	(317)	0:47:25	(331)	1:13:19	(354)	1:39:47	(369)	N	27
381		755	KUNO KIPPER	Eesti Posti Spordiklubi	1:45:26	0:39:57	0:25:05	(464)	0:49:57	(440)	1:15:23	(410)	1:40:09	(372)	M 60	2
382		843	VASILII KHLUSEVICH	Dinamo SPB	1:45:31	0:40:02	0:25:39	(496)	0:50:55	(469)	1:15:46	(427)	1:40:11	(373)	M 65	2
383		633	HENRIK JOGENBRO		1:45:34	0:40:05	0:25:02	(460)	0:49:18	(403)	1:14:49	(394)	1:40:13	(374)	M 40	39
384	55	747	KERSTI HÄRM	MTÜ Spordiselts	1:45:37	0:40:08	0:24:05	(390)	0:49:00	(390)	1:14:51	(396)	1:40:18	(377)	N	28
385	56	221	INGA SUIK	Täppsportlased	1:45:38	0:40:09	0:24:20	(420)	0:49:35	(423)	1:15:06	(404)	1:40:20	(378)	N	29
386	57	503	ANDRA PUUSEPP		1:45:38	0:40:09	0:24:39	(440)	0:49:21	(407)	1:15:01	(400)	1:40:15	(376)	N 40	15
387		290	OLEV KITVEL		1:45:45	0:40:16	0:24:33	(434)	0:49:38	(427)	1:15:11	(405)	1:40:37	(380)	M 40	40
388		725	AIN AINSAAR		1:45:52	0:40:24	0:24:13	(406)	0:49:00	(393)	1:13:50	(371)	1:39:42	(366)	M 45	33
389		439	MARGUS RANDMÄE	Kahe Silla Klubi	1:45:53	0:40:24	0:24:03	(384)	0:48:42	(376)	1:14:23	(382)	1:40:13	(375)	M	202
390		341	TAURI TALU		1:45:57	0:40:28	0:23:43	(362)	0:48:02	(351)	1:13:40	(366)	1:39:57	(371)	M 40	41
391		281	ARTUR KAMBERG	Meremõisa SK	1:46:03	0:40:34	0:23:01	(292)	0:48:44	(379)	1:15:27	(414)		()	MN	11
392	58	559	ANNELI METSAMAA	Eesti AGA Spordiklubi/ FB Jooksmine	1:46:06	0:40:37	0:24:49	(449)	0:49:18	(404)	1:14:55	(398)	1:40:33	(379)	N	30
393		403	KAIDO KARUSSAAR		1:46:24	0:40:56	0:23:51	(371)	0:48:52	(385)	1:14:53	(397)	1:40:42	(383)	M 45	34
394		263	ÜLARI PÄRNOJA		1:46:28	0:40:59	0:22:47	(268)	0:47:09	(316)	1:13:27	(355)	1:40:41	(381)	M	203
395	59	428	EDIT KANNEL	Norma OK	1:46:31	0:41:02	0:23:42	(359)	0:48:13	(361)	1:14:49	(395)	1:40:41	(382)	N	31
396	60	533	SIRJE KINK		1:46:40	0:41:11	0:23:17	(316)	0:47:51	(349)	1:15:05	(403)	1:41:11	(388)	N 45	6
397		343	TARMO MÜÜRSEPP	Siiliteam :)	1:46:42	0:41:13	0:23:37	(347)	0:48:20	(363)	1:14:39	(391)	1:40:56	(385)	M 40	42
398		311	LAURI ULM		1:46:42	0:41:13	0:23:22	(323)	0:48:06	(354)	1:13:50	(370)	1:40:55	(384)	M	204
399		435	MARKO SIRTSE		1:46:47	0:41:18	0:25:10	(472)	0:51:00	(475)	1:15:41	(422)	1:41:19	(391)	M	205
400		848	SEMJOV HOTJAKOV		1:46:47	0:41:19	0:23:03	(294)	0:48:44	(378)	1:15:27	(413)		()	M	206
401	61	308	MARIN KRANICH		1:46:49	0:41:20	0:24:25	(428)	0:49:46	(428)	1:15:44	(426)	1:41:26	(397)	N	32
402		250	MATI RUUL		1:46:49	0:41:21	0:24:27	(430)	0:49:49	(430)	1:15:47	(428)	1:41:24	(395)	M 50	19
403		498	RAUNO VAIN	Sparta	1:46:49	0:41:21	0:21:58	(212)	0:45:48	(253)	1:11:04	(296)	1:39:45	(368)	M 40	43
404	62	554	KAJA JÕEMETS	Mitš	1:46:50	0:41:21	0:25:03	(462)	0:49:55	(437)	1:15:53	(430)	1:41:24	(394)	N 45	7
405		836	ALEXANDER KUVALDIN		1:46:51	0:41:22	0:24:55	(452)	0:49:33	(420)	1:15:12	(407)	1:41:20	(392)	M 45	35
406		601	HEIKI REBANE	Kroko	1:46:51	0:41:22	0:24:53	(451)	0:50:01	(444)	1:15:43	(425)	1:41:06	(387)	M	207
407		779	SILVER LAIV		1:46:58	0:41:29	0:25:09	(469)	0:50:16	(454)	1:15:54	(432)	1:41:40	(400)	M 45	36
408		715	ARMIN KASK		1:47:02	0:41:33	0:22:47	(261)	0:47:51	(348)	1:14:28	(385)	1:41:04	(386)	M	208
409		183	TÕNIS TOOME		1:47:04	0:41:35	0:24:03	(382)	0:49:15	(402)	1:15:43	(424)	1:41:48	(402)	M 55	15
410		179	KAIDO KARJUS	Sparta	1:47:04	0:41:35	0:23:31	(340)	0:48:12	(359)	1:14:24	(384)	1:41:17	(390)	M 40	44
411		226	VIKTOR TYAGUNOV	Ergo White Nights	1:47:07	0:41:38	0:25:16	(478)	0:50:15	(452)	1:15:30	(417)	1:41:13	(389)	M 50	20
412		506	OLEV VAHEMAA	Kristi	1:47:11	0:41:43	0:23:19	(318)	0:48:21	(364)	1:14:45	(393)	1:41:31	(399)	M 40	45
413		348	RISTO VIIRG	Sparta	1:47:13	0:41:44	0:22:48	(277)	0:47:00	(309)	1:13:39	(365)	1:41:25	(396)	M 40	46
414		205	ERNI KASK		1:47:13	0:41:45	0:25:17	(483)	0:49:33	(421)	1:16:17	(440)	1:42:51	(418)	M	209
415	63	437	TRIIN PETERSON	Sparta	1:47:16	0:41:48	0:24:06	(393)	0:49:05	(396)	1:14:57	(399)	1:41:28	(398)	N 40	16
416		227	ALEKSANDR BELJANTSEV		1:47:20	0:41:51	0:23:23	(329)	0:48:11	(358)	1:14:34	(390)	1:41:20	(393)	M	210
417		746	JANNO KASEMAA		1:47:21	0:41:52	0:23:51	(373)	0:49:30	(418)	1:15:52	(429)	1:41:55	(403)	M	211
418		571	LAURI MÄND	Nabala Kohalikud Koprad	1:47:26	0:41:57	0:26:12	(538)	0:51:25	(486)	1:17:08	(460)	1:41:59	(407)	M	212
419		489	MEELIS SMIRNOV		1:47:28	0:41:59	0:24:03	(387)	0:48:44	(380)	1:15:25	(412)	1:41:55	(404)	M 40	47
420	64	283	MARI HUMMAL		1:47:35	0:42:06	0:23:41	(357)	0:48:48	(383)	1:15:20	(409)	1:41:56	(406)	N	33
421		717	KUIDO ROOBA	MISPO	1:47:39	0:42:10	0:24:13	(405)	0:49:04	(395)	1:15:11	(406)	1:41:56	(405)	M 50	21
422		726	ALEKSEI NIKOLAJENKO		1:47:41	0:42:12	0:24:18	(416)	0:49:36	(424)	1:15:37	(418)	1:41:45	(401)	M	213
423		500	JAAN LEHISMETS		1:47:43	0:42:14	0:25:02	(461)	0:49:58	(441)	1:16:03	(436)	1:42:02	(408)	M	214
424		597	INDREK LIPPA		1:47:45	0:42:17	0:24:15	(412)	0:49:23	(409)	1:15:40	(420)	1:42:09	(412)	M 40	48
425		448	ANDO KANGUR	Liebherr.com	1:47:49	0:42:21	0:25:46	(503)	0:51:23	(484)	1:17:06	(458)	1:42:08	(410)	M 40	49
426		814	KAIDO KAHAR		1:47:50	0:42:21	0:26:32	(561)	0:51:22	(483)	1:17:04	(456)	1:42:09	(411)	M	215
427		119	HALLAR TAMM	Raplamaa tublid maratoonarid	1:47:51	0:42:22	0:23:50	(370)	0:49:20	(406)	1:15:24	(411)	1:42:06	(409)	M	216
428		306	SIIM LAUR	KK Hito	1:47:53	0:42:24	0:26:42	(569)	0:52:23	(508)	1:17:59	(475)	1:42:46	(417)	M	217
429		208	ELARI VETTIK		1:48:04	0:42:35	0:24:05	(389)	0:50:03	(446)	1:16:41	(446)	1:42:41	(416)	M	218
430	65	366	MARIIA POLIAKOVA		1:48:07	0:42:38	0:24:12	(404)	0:48:52	(384)	1:15:01	(401)	1:42:37	(414)	N	34
431		774	RAINE PAJO		1:48:13	0:42:44	0:25:42	(499)	0:51:02	(478)	1:17:15	(462)	1:42:52	(420)	M	219
432	66	436	EVE HÄRM	Raineri jooksuklubi	1:48:17	0:42:48	0:25:16	(480)	0:50:15	(450)	1:15:54	(431)	1:42:33	(413)	N	35
433	67	222	NATALJA SONG		1:48:27	0:42:58	0:25:10	(471)	0:50:15	(451)	1:16:15	(439)	1:42:51	(419)	N	36
434		654	GENNADI JEGOROV		1:48:28	0:43:00	0:24:32	(433)	0:49:33	(422)	1:15:56	(434)	1:42:38	(415)	M 60	3
435		568	PAUL GILL		1:48:35	0:43:06	0:24:03	(385)	0:49:53	(435)	1:17:02	(455)	1:43:06	(421)	M 40	50
436		148	PRIIT HIOB		1:48:39	0:43:10	0:25:03	(463)	0:50:27	(457)	1:16:47	(451)	1:43:11	(423)	M	220
437	68	113	ELENA JODSCHE		1:48:45	0:43:16	0:24:16	(415)	0:50:13	(448)	1:17:01	(454)	1:43:18	(424)	N	37
438		220	MARTIN KÕIVA		1:48:46	0:43:18	0:28:13	(652)	0:54:36	(588)	1:20:06	(509)	1:43:57	(437)	M	221
439		556	ALEKSEI JERMILOV		1:48:47	0:43:18	0:26:42	(570)	0:51:51	(499)	1:17:33	(469)	1:43:38	(433)	M	222
440		751	TÕNIS UUEKÜLA	SKECHERS GORUN	1:48:49	0:43:20	0:26:42	(568)	0:52:23	(507)	1:17:59	(474)	1:43:20	(426)	M	223
441	69	314	LAGLE VETEMÄE	High5	1:48:50	0:43:21	0:25:53	(508)	0:51:26	(488)	1:17:34	(470)	1:43:21	(428)	N	38
442	70	47	ANNE-LY PALM	SK Jooksupartner	1:48:59	0:43:31	0:24:20	(419)	0:49:59	(442)	1:16:50	(453)		()	N	39
443		106	MARTIN PEDAI		1:49:03	0:43:35	0:23:46	(365)	0:49:08	(397)	1:16:12	(438)	1:43:49	(436)	M 40	51
444		313	SERGEY GRIGORJEV	Mitš	1:49:07	0:43:38	0:24:05	(391)	0:48:37	(372)	1:15:54	(433)	1:43:33	(432)	M 50	22
445	71	511	NATALIJA GARANKINA		1:49:11	0:43:42	0:24:13	(407)	0:49:55	(438)	1:16:43	(448)	1:43:20	(427)	N	40
446		629	VALENTIN MIKSON		1:49:17	0:43:49	0:25:26	(491)	0:50:58	(472)	1:17:20	(464)	1:43:45	(435)	M 50	23
447	72	236	LEA LOHK		1:49:21	0:43:52	0:23:42	(360)	0:49:25	(412)	1:16:32	(442)	1:43:30	(430)	N 50	3
448		370	HILLAR VAINJÄRV	EKVA	1:49:22	0:43:53	0:24:10	(402)	0:49:14	(401)	1:15:56	(435)	1:43:11	(422)	M 60	4
449		519	MADIS MERIVOO		1:49:24	0:43:55	0:23:50	(369)	0:48:33	(369)	1:15:19	(408)	1:43:19	(425)	M 55	16
450		650	VLADIMIR PISKUNOV		1:49:30	0:44:01	0:24:47	(448)	0:49:54	(436)	1:16:41	(447)	1:43:32	(431)	M 55	17
451		296	DMITRI LIPATOV		1:49:34	0:44:05	0:25:56	(514)	0:52:22	(506)	1:18:46	(488)	1:44:16	(439)	M 45	37
452		392	KIRILL SMIRNOV		1:49:35	0:44:06	0:25:24	(489)	0:51:17	(481)	1:17:54	(473)	1:44:22	(442)	M	224
453		706	KAAREL KOITNE	Tartu Ülikooli Akadeemiline Spordiklubi	1:49:36	0:44:07	0:26:41	(567)	0:53:01	(527)	1:18:51	(490)	1:44:17	(440)	M	225
454		521	VIKTOR MUULI		1:49:38	0:44:09	0:25:07	(466)	0:52:07	(504)	1:19:43	(504)	1:44:28	(443)	M 45	38
455	73	345	MARE PADU		1:49:39	0:44:10	0:24:10	(399)	0:49:51	(432)	1:16:38	(444)	1:43:42	(434)	N	41
456		349	ROLAND KASELA	Jooksupartner	1:49:39	0:44:10	0:23:49	(367)	0:48:46	(382)	1:15:41	(421)	1:43:25	(429)	M 40	52
457		383	TIIT JÜRIÖÖ		1:49:47	0:44:18	0:25:55	(511)	0:51:37	(492)	1:18:08	(477)	1:44:12	(438)	M 55	18
458		636	EINAR ROSIN		1:50:01	0:44:33	0:25:56	(512)	0:52:00	(502)	1:19:25	(498)	1:44:32	(444)	M	226
459	74	505	ZAIRA SOROKINA		1:50:06	0:44:38	0:26:12	(536)	0:52:03	(503)	1:18:44	(486)	1:44:35	(445)	N 45	8
460		698	ERIK RAAL		1:50:25	0:44:56	0:26:03	(520)	0:52:18	(505)	1:18:11	(479)	1:44:52	(450)	M	227
461	75	451	TEA MEY		1:50:33	0:45:04	0:24:35	(435)	0:50:14	(449)	1:17:18	(463)	1:44:40	(446)	N 40	17
462		727	KALEV KALLEMETS		1:50:38	0:45:09	0:25:01	(458)	0:50:22	(456)	1:16:47	(452)	1:44:50	(448)	M	228
463	76	287	EVE KITVEL		1:50:40	0:45:11	0:24:39	(441)	0:50:27	(458)	1:17:29	(468)	1:44:50	(449)	M 40	53
464	77	486	KRISTI SIIBAK		1:50:41	0:45:12	0:25:35	(495)	0:51:44	(496)	1:18:20	(483)	1:44:59	(453)	N	42
465		273	MÄRT PUUSEPP		1:50:43	0:45:14	0:25:07	(467)	0:50:57	(470)	1:18:12	(480)	1:44:56	(451)	M	229
466	78	731	MARGIT AHU		1:50:47	0:45:18	0:24:15	(413)	0:50:11	(447)	1:17:43	(472)	1:45:04	(454)	N	43
467		402	KASPAR KAUR	Sparta	1:50:47	0:45:18	0:24:37	(438)	0:48:56	(387)	1:15:38	(419)	1:44:48	(447)	M	230
468	79	289	SIGRE PEETRIMÄGI	MTÜ Spordiselts	1:50:50	0:45:22	0:25:49	(504)	0:51:48	(497)	1:18:45	(487)	1:45:13	(457)	N	44
469	80	543	LJUDMILLA GETMAN	JK START	1:51:01	0:45:32	0:25:01	(459)	0:50:50	(468)	1:18:10	(478)	1:45:13	(455)	N 55	4
470		360	KONSTANTIN ASTAPOV		1:51:04	0:45:35	0:24:04	(388)	0:49:27	(416)	1:16:37	(443)	1:45:13	(456)	M	231
471		332	URMAS LORVI		1:51:15	0:45:46	0:25:13	(474)	0:51:01	(477)	1:18:18	(482)	1:45:22	(460)	M 45	39
472		328	MIHHAIL BOROUHHIN		1:51:26	0:45:57	0:24:23	(423)	0:49:19	(405)	1:16:46	(450)	1:45:21	(459)	M	232
473		664	KRISTJAN TULP		1:51:26	0:45:58	0:25:22	(486)	0:51:32	(490)	1:19:26	(499)	1:45:44	(465)	M	233
474		213	STANISLAV ŠTÕKOV		1:51:30	0:46:01	0:25:16	(481)	0:50:46	(466)	1:16:10	(437)	1:44:19	(441)	M	234
475		444	ANDRES MEE	Eesti Energia Spordiklubi	1:51:41	0:46:12	0:23:24	(332)	0:48:09	(356)	1:15:42	(423)	1:45:14	(458)	M 45	40
476		458	RAIVO MEIER	Hermes	1:51:41	0:46:12	0:24:28	(431)	0:49:48	(429)	1:17:27	(466)	1:45:24	(461)	M 65	3
477		120	TAAVI RAUDSAAR	Eesti Panga Spordiklubi	1:51:42	0:46:13	0:25:53	(509)	0:51:26	(487)	1:17:38	(471)	1:45:32	(462)	M	235
478		674	VLADIMIR GRIBKOV		1:51:45	0:46:16	0:24:10	(400)	0:50:02	(445)	1:17:05	(457)	1:45:47	(466)	M 50	24
479		684	RANNE JAKOBI		1:51:45	0:46:16	0:24:41	(445)	0:50:33	(461)	1:18:18	(481)	1:45:58	(467)	M 45	41
480	81	739	TRIINU VISTER	Eesti Energia Spordiklubi	1:51:55	0:46:26	0:24:30	(432)	0:49:52	(433)	1:17:06	(459)	1:45:40	(464)	N	45
481		791	TAAVI PÄRN		1:51:59	0:46:31	0:27:36	(630)	0:54:42	(591)	1:21:37	(544)		()	M	236
482	82	415	LAURA SAAR		1:52:03	0:46:34	0:24:24	(426)	0:50:22	(455)	1:17:28	(467)	1:45:39	(463)	N	46
483		478	RANDO LUHAORG		1:52:21	0:46:53	0:24:10	(401)	0:49:50	(431)	1:16:38	(445)	1:44:57	(452)	MN	12
484		275	PEETER KAMBERG	Meremõisa SK	1:52:22	0:46:53	0:25:31	(494)	0:52:56	(525)	1:19:35	(502)	1:46:41	(471)	M 45	42
485		644	MIHKEL JÜRIMAA		1:52:23	0:46:54	0:26:57	(590)	0:53:44	(558)	1:20:51	(529)	1:46:53	(473)	M	237
486		657	AIVAR RAUDSEPP		1:52:30	0:47:01	0:26:51	(579)	0:53:15	(542)	1:19:59	(507)	1:46:38	(470)	M 55	19
487		724	RAIN UNGA		1:52:31	0:47:02	0:26:56	(586)	0:53:33	(549)	1:20:32	(523)	1:46:58	(474)	M	238
488		728	ALEXANDER TIKHONOV	K+	1:52:43	0:47:15	0:23:44	(364)	0:49:57	(439)	1:17:59	(476)		()	M 40	54
489	83	320	JANA ROOSIMÄGI		1:52:45	0:47:16	0:24:25	(427)	0:50:43	(464)	1:18:32	(484)	1:46:46	(472)	N	47
490		652	TAUNO TANILAS		1:52:45	0:47:16	0:24:56	(453)	0:50:58	(471)	1:18:42	(485)	1:46:38	(469)	M	239
491		399	RAIMO MUINASTE		1:52:47	0:47:18	0:25:53	(510)	0:51:39	(494)	1:19:08	(495)		()	M	240
492	84	380	MARIA GONJAK		1:52:49	0:47:20	0:26:27	(556)	0:52:58	(526)	1:20:14	(516)		()	N	48
493	85	735	MARIN MEHIDE		1:52:52	0:47:23	0:26:21	(550)	0:53:03	(535)	1:20:45	(526)		()	N	49
494		247	RAIDO TAMME	Spordiselts	1:52:52	0:47:23	0:26:21	(549)	0:53:03	(534)	1:20:44	(525)		()	M	241
495	86	620	LIINA VOLMERSON	Eesti AGA Spordiklubi	1:52:53	0:47:24	0:26:18	(546)	0:52:49	(519)	1:20:12	(513)		()	N	50
496		805	KRISTJAN ÖÖPIK		1:52:54	0:47:25	0:27:36	(628)	0:54:42	(592)	1:21:37	(543)		()	M	242
497	87	781	TIINA TARTES		1:52:54	0:47:26	0:26:39	(563)	0:53:25	(547)	1:20:24	(519)		()	N 40	18
498		422	ERMO VEELAIN		1:52:55	0:47:26	0:24:09	(397)	0:49:28	(417)	1:16:44	(449)	1:46:23	(468)	M 50	25
499		580	HARRY VOLKE		1:53:06	0:47:38	0:26:21	(551)	0:53:06	(539)	1:20:13	(514)		()	M	243
500		526	MAREK VIIKLAID		1:53:10	0:47:41	0:28:20	(656)	0:55:52	(630)	1:23:06	(584)	1:47:58	(476)	M	244
501	88	632	ANNIKA VEIMER		1:53:13	0:47:44	0:26:41	(566)	0:52:51	(520)	1:19:56	(506)		()	N 40	19
502	89	513	MAILI PALLAS		1:53:14	0:47:45	0:24:14	(409)	0:50:43	(465)	1:18:46	(489)		()	N	51
503	90	210	MADLI ALLIKMÄE	TallinnStrong	1:53:14	0:47:46	0:26:13	(540)	0:53:02	(533)	1:20:18	(518)		()	N	52
504	91	284	KARIN SANGLA		1:53:15	0:47:46	0:25:09	(468)	0:51:35	(491)	1:19:31	(500)		()	N 40	20
505	92	223	KATREL VIRKUS		1:53:20	0:47:51	0:24:22	(421)	0:50:50	(467)	1:19:07	(494)		()	NN	3
506		413	RAIN LÄÄNE	VPSS	1:53:21	0:47:52	0:25:25	(490)	0:51:24	(485)	1:19:09	(496)		()	M 40	55
507		411	MÄRT BAUMVERK		1:53:30	0:48:01	0:24:11	(403)	0:50:00	(443)	1:17:25	(465)		()	M 40	56
508		600	ALEKSANDR KNJAZETSKI		1:53:34	0:48:05	0:27:49	(638)	0:54:47	(599)	1:22:07	(550)	1:48:25	(479)	M	245
509		483	GEORGI ROMASENKO		1:53:36	0:48:07	0:25:44	(500)	0:52:36	(514)	1:20:09	(510)		()	M	246
510	93	393	KEIDI POSSUL	Prorunner	1:53:38	0:48:09	0:25:44	(501)	0:52:36	(515)	1:20:10	(511)		()	NN	4
511	94	593	KAILI ÕUNAPUU-SEIDELBERG	Õunapuu	1:53:39	0:48:10	0:26:26	(555)	0:53:31	(548)	1:20:54	(531)		()	N	53
512		765	MARGO ENGEL	Täppsportlased	1:53:42	0:48:13	0:26:00	(519)	0:52:31	(511)	1:20:03	(508)		()	M	247
513	95	711	LIIS KILK		1:53:43	0:48:15	0:27:53	(640)	0:55:25	(615)	1:22:29	(563)		()	N	54
514		692	RAIDO TEMPER	Saku Õlletehase Spordiklubi	1:53:53	0:48:24	0:26:59	(594)	0:53:45	(559)	1:21:15	(537)	1:48:26	(480)	M	248
515		588	ANDREI LOPSIK	Eesti Energia Spordiklubi	1:53:58	0:48:29	0:25:27	(492)	0:51:19	(482)	1:19:37	(503)	1:48:05	(477)	M 55	20
516		286	ROBERT MÄLK		1:54:09	0:48:40	0:25:39	(497)	0:52:36	(513)	1:20:14	(515)		()	M 40	57
517		703	ARTJOM JERKVANIA		1:54:13	0:48:45	0:25:56	(513)	0:50:59	(474)	1:17:14	(461)	1:47:01	(475)	MJ	10
518		673	JANNO SALBEN		1:54:21	0:48:52	0:25:21	(485)	0:51:31	(489)	1:19:24	(497)		()	M	249
519	96	430	EVELIN PELLENEN		1:54:26	0:48:57	0:26:08	(524)	0:52:30	(509)	1:20:40	(524)	1:48:35	(481)	N	55
520		705	SERGEI ARSLANOV		1:54:43	0:49:14	0:28:46	(676)	0:55:50	(629)	1:22:18	(560)	1:49:18	(487)	M 40	58
521		412	TARVI KÕPPER	Eesti AGA Spordiklubi MTÜ	1:54:44	0:49:15	0:26:11	(535)	0:52:47	(517)	1:20:12	(512)	1:48:08	(478)	M 40	59
522		757	KRISTJAN KUUSK		1:54:47	0:49:18	0:24:15	(410)	0:50:28	(459)	1:20:30	(521)	1:49:24	(490)	M	250
523		794	ARWED PUUSALU		1:54:48	0:49:19	0:23:00	(291)	0:48:02	(350)	1:16:21	(441)		()	M 55	21
524	97	497	GRETE VAIN		1:54:50	0:49:22	0:26:59	(593)	0:54:47	(600)	1:22:10	(555)	1:49:20	(489)	NJ	3
525		405	JAN AAS		1:54:52	0:49:24	0:28:21	(658)	0:55:10	(608)	1:22:36	(566)	1:49:13	(484)	M 40	60
526	98	496	SIIRI TAMM		1:54:57	0:49:28	0:26:59	(592)	0:54:47	(598)	1:22:10	(554)	1:49:20	(488)	N	56
527	99	693	ANNELY SAAR	Saku Õlletehase Spordiklubi	1:54:58	0:49:29	0:26:11	(534)	0:53:13	(541)	1:21:15	(538)		()	N 40	21
528	100	689	MAIKEN MÄTIK		1:55:02	0:49:33	0:26:00	(518)	0:52:51	(521)	1:20:51	(528)		()	N	57
529	101	802	NINA TARELKINA	dinamo SPb	1:55:02	0:49:33	0:26:54	(582)	0:53:48	(562)	1:21:30	(540)		()	N 65	1
530		789	ANDO MESI	viru JVP	1:55:05	0:49:36	0:28:48	(680)	0:56:08	(636)	1:22:39	(569)	1:49:18	(486)	M 40	61
531		740	ARLES TAAL		1:55:19	0:49:50	0:27:02	(597)	0:53:59	(568)	1:22:08	(551)	1:49:27	(492)	M 40	62
532		315	RANNAR HÄRMASTE		1:55:28	0:49:59	0:26:49	(575)	0:54:07	(570)	1:22:09	(553)		()	M	251
533		182	TARMO TOHVER	Kaevanduste Spordiklubi	1:55:29	0:50:01	0:27:38	(633)	0:55:26	(618)	1:23:27	(591)	1:50:14	(507)	M 40	63
534		479	URMAS TUVIKENE		1:55:31	0:50:02	0:26:50	(577)	0:54:33	(585)	1:22:36	(567)	1:50:06	(504)	M 40	64
535	102	608	MARIE REIMANN		1:55:34	0:50:05	0:27:14	(611)	0:55:11	(610)	1:22:49	(577)	1:49:37	(495)	N	58
536		460	MAREK IVANOV		1:55:36	0:50:07	0:25:52	(507)	0:52:31	(510)	1:19:54	(505)	1:49:10	(483)	M 40	65
537	103	548	INGRIT ERNITS		1:55:39	0:50:10	0:27:06	(604)	0:54:50	(602)	1:22:51	(579)	1:50:03	(499)	N 45	9
538	104	386	LIISA RAHU	TÜ Akadeemiline Spordiklubi	1:55:41	0:50:12	0:26:13	(541)	0:54:22	(582)	1:22:38	(568)		()	NN	5
539	105	324	MAILA KUUS		1:55:43	0:50:14	0:27:06	(603)	0:54:50	(601)	1:22:50	(578)	1:50:05	(503)	N 40	22
540		810	KOMSAT KEO	TEAM AWESOME	1:55:44	0:50:15	0:27:20	(617)	0:54:33	(586)	1:22:59	(582)		()	M	252
541		809	AARON DAVIS	TEAM AWESOME	1:55:45	0:50:16	0:27:00	(596)	0:54:19	(578)	1:21:46	(546)	1:50:16	(509)	M	253
542		646	DMITRI ISSAKOV		1:55:45	0:50:16	0:28:30	(669)	0:56:09	(637)	1:23:16	(589)	1:50:30	(514)	M 40	66
543		338	AIN PAJULA		1:55:50	0:50:22	0:25:52	(506)	0:52:32	(512)	1:20:30	(520)		()	M 45	43
544		704	EDGAR KOLESNIKOV		1:55:51	0:50:22	0:25:56	(515)	0:50:59	(473)	1:19:04	(492)	1:49:39	(496)	MJ	11
545	106	639	KEETE VIIRA		1:55:51	0:50:22	0:27:35	(627)	0:54:37	(589)	1:22:03	(549)		()	N	59
546	107	570	KAIRE KALVIK		1:55:52	0:50:23	0:24:16	(414)	0:50:40	(463)	1:19:06	(493)	1:49:08	(482)	N	60
547		375	PAVEL PIKAT		1:55:54	0:50:25	0:26:41	(565)	0:53:23	(545)	1:20:15	(517)	1:49:16	(485)	M	254
548	108	322	NATALIA CHAPLYGINA		1:56:00	0:50:31	0:26:11	(533)	0:53:05	(537)	1:20:32	(522)	1:50:07	(505)	N	61
549		723	AUGUST KÄÄRA		1:56:04	0:50:35	0:24:18	(417)	0:51:14	(479)	1:19:34	(501)	1:49:37	(494)	M	255
550		667	HARGO ARULAANE		1:56:05	0:50:36	0:26:11	(530)	0:53:02	(532)	1:21:11	(534)	1:50:00	(497)	M	256
551		666	VEIKO TARVIS		1:56:05	0:50:37	0:26:10	(529)	0:53:02	(531)	1:21:11	(533)	1:50:01	(498)	M 40	67
552	109	566	CATHY-LIIS SUURKIVI		1:56:08	0:50:39	0:26:09	(526)	0:53:20	(544)	1:21:48	(547)	1:50:05	(500)	NN	6
553	110	630	KAILI KUUSIK		1:56:11	0:50:42	0:27:30	(623)	0:55:44	(625)	1:23:11	(586)	1:50:21	(511)	N	62
554		168	ÜLO JAMMER	Koeru SK	1:56:11	0:50:42	0:25:59	(517)	0:52:56	(524)	1:21:32	(541)	1:50:05	(502)	M 65	4
555		472	ARKADI ROMASHIN		1:56:15	0:50:46	0:26:29	(560)	0:54:08	(572)	1:21:14	(535)	1:50:55	(517)	PA	2
556		697	CHARNJIT MOUDGIL	MyFitness	1:56:17	0:50:48	0:22:57	(289)	0:48:45	(381)	1:19:01	(491)	1:49:24	(491)	M	257
557	111	282	LILIAN VALGE		1:56:19	0:50:50	0:26:48	(573)	0:54:14	(573)	1:22:44	(576)	1:50:37	(516)	NJ	4
558	112	361	HELEN ALTMETS		1:56:20	0:50:51	0:24:56	(454)	0:51:50	(498)	1:20:50	(527)		()	NN	7
559	113	476	EDA LEHMANN	MyFitness	1:56:20	0:50:52	0:26:13	(539)	0:53:35	(553)	1:22:16	(558)	1:50:14	(508)	N 45	10
560		477	ANDREAS LEHMANN	MyFitness	1:56:20	0:50:52	0:26:12	(537)	0:53:35	(554)	1:22:15	(557)	1:50:13	(506)	M 45	44
561		813	TOOMAS MÄNNASOO		1:56:25	0:50:56	0:24:47	(447)	0:51:40	(495)	1:21:24	(539)	1:50:19	(510)	M 40	68
562	114	475	CAISA-MERILI MÕIK		1:56:33	0:51:04	0:26:46	(572)	0:54:18	(576)	1:22:34	(564)	1:50:31	(515)	N	63
563		481	ALEKSANDR KARDAKOV		1:56:36	0:51:08	0:25:24	(488)	0:51:51	(500)	1:21:07	(532)	1:50:22	(512)	M 55	22
564	115	329	RIINA LAHE		1:56:38	0:51:09	0:26:53	(581)	0:54:00	(569)	1:22:17	(559)	1:50:24	(513)	N 40	23
565		672	RAIMO SELGIS	TÜ Akadeemiline Spordiklubi	1:56:47	0:51:18	0:22:27	(238)	0:46:18	(279)	1:13:57	(374)	1:49:27	(493)	M	258
566	116	248	SVETLANA UUSTALU		1:57:01	0:51:32	0:26:03	(521)	0:52:52	(522)	1:20:52	(530)	1:50:05	(501)	N	64
567		473	NIKLAS ODIN		1:57:02	0:51:34	0:26:07	(523)	0:53:33	(551)	1:22:23	(561)	1:50:55	(518)	M 45	45
568		433	BRUNO MÜNTER	Kiltsi Tööjõureservid	1:57:11	0:51:42	0:26:57	(589)	0:54:20	(580)	1:22:41	(573)	1:50:56	(519)	M 55	23
569		586	ANDRUS NUMMERT		1:57:26	0:51:57	0:26:55	(583)	0:54:16	(574)	1:22:41	(572)	1:51:35	(521)	M	259
570		839	ARTEM VLASOV		1:57:33	0:52:05	0:28:22	(660)	0:57:09	(655)	1:26:13	(634)	1:52:47	(538)	M	260
571		389	MARKO VEST		1:57:35	0:52:07	0:25:44	(502)	0:52:36	(516)	1:21:32	(542)	1:51:38	(522)	MN	13
572	117	56	GALINA LOGVINOVA	KJK Kalev Sillamäe	1:57:36	0:52:08	0:24:09	(396)	0:51:16	(480)	1:21:42	(545)	1:51:55	(526)	NN	8
573		641	MARTIN MÄE		1:57:37	0:52:08	0:28:41	(672)	0:57:05	(654)	1:24:31	(609)	1:52:04	(528)	M	261
574		442	ANTS RIKBERG		1:57:39	0:52:10	0:26:22	(552)	0:53:05	(538)	1:22:08	(552)	1:51:32	(520)	M 60	5
575		832	ROMAN MAEROV		1:57:54	0:52:25	0:26:29	(559)	0:54:31	(584)	1:24:53	(616)	1:52:10	(531)	M	262
576	118	761	ANNI NIIDUMAA		1:57:59	0:52:30	0:26:11	(531)	0:53:01	(529)	1:22:14	(556)	1:51:46	(523)	N	65
577		722	ARTJOM KARJA		1:58:05	0:52:36	0:27:17	(614)	0:55:02	(607)	1:23:14	(588)	1:52:07	(530)	M	263
578		466	VAIDO LAITUS		1:58:05	0:52:36	0:27:09	(607)	0:54:34	(587)	1:22:54	(581)	1:51:51	(525)	M 40	69
579	119	292	TIIA RIIS		1:58:06	0:52:38	0:25:10	(470)	0:52:49	(518)	1:22:40	(571)	1:51:49	(524)	N 45	11
580		130	IGOR DUDICH	Silvia	1:58:10	0:52:41	0:26:52	(580)	0:54:20	(581)	1:22:44	(574)	1:52:04	(529)	M 60	6
581	120	660	KATRIN VÄÄRTNÕU	MTÜ Spordiselts	1:58:13	0:52:44	0:27:19	(615)	0:55:39	(623)	1:24:32	(611)	1:52:14	(534)	N	66
582	121	613	KIRSTI VAABEL	Sparta	1:58:14	0:52:45	0:26:56	(584)	0:54:43	(594)	1:23:36	(595)	1:52:13	(533)	N 40	24
583	122	766	KATRE MÄGI		1:58:25	0:52:56	0:26:39	(564)	0:53:33	(550)	1:22:24	(562)	1:52:12	(532)	N	67
584	123	339	MARILIN RAUDSIK		1:58:31	0:53:02	0:26:28	(557)	0:54:16	(575)	1:23:14	(587)	1:52:31	(536)	N	68
585		854	KRISTJAN VÄLLIK		1:58:32	0:53:03	0:27:42	(636)	0:55:47	(628)	1:24:05	(599)	1:51:56	(527)	M 45	46
586		815	VLADIMIR SAPOZHNIKOV		1:58:38	0:53:09	0:28:07	(644)	0:55:41	(624)	1:23:34	(593)	1:52:38	(537)	M	264
587	124	419	REESI LEPA		1:58:42	0:53:13	0:27:42	(637)	0:55:47	(627)	1:25:06	(623)	1:52:59	(541)	N	69
588	125	515	PILLE SABOLOTNI		1:58:46	0:53:17	0:26:44	(571)	0:53:54	(567)	1:22:53	(580)	1:52:27	(535)	N 45	12
589		659	VAHUR PEEPMAA		1:59:05	0:53:36	0:28:56	(681)	0:57:09	(656)	1:25:03	(621)	1:52:58	(540)	M	265
590		265	MIHHAIL KORASTELJOV		1:59:07	0:53:38	0:25:15	(477)	0:53:37	(555)	1:23:36	(596)	1:53:18	(543)	M 40	70
591		357	MATI SAAREND		1:59:26	0:53:57	0:26:58	(591)	0:54:46	(597)	1:24:38	(613)	1:53:18	(544)	M 60	7
592		243	ILMAR TAGEL	TriSmile/MTA	1:59:31	0:54:02	0:26:22	(554)	0:53:46	(560)	1:22:40	(570)	1:52:53	(539)	M 70	1
593	126	467	ELO RÜÜTEL		1:59:36	0:54:07	0:25:39	(498)	0:52:53	(523)	1:23:03	(583)	1:53:06	(542)	N	70
594	127	445	INGA HEINSOO		1:59:36	0:54:07	0:27:40	(635)	0:56:06	(635)	1:24:57	(617)	1:53:34	(550)	N 40	25
595		417	KRISTO NOORHANI		1:59:37	0:54:09	0:29:09	(687)	0:56:33	(643)	1:24:37	(612)	1:53:32	(549)	M	266
596	128	337	HEIVI PAJULA		1:59:40	0:54:11	0:26:35	(562)	0:54:30	(583)	1:23:55	(597)	1:53:36	(551)	N 40	26
597	129	852	MARI-LIIS TAMM		1:59:44	0:54:15	0:28:11	(651)	0:56:43	(647)	1:25:00	(619)	1:53:20	(545)	N	71
598	130	800	KÄRT RADIK	TallinnStrong	1:59:48	0:54:19	0:25:27	(493)	0:53:47	(561)	1:24:05	(600)	1:53:37	(552)	N 40	27
599	131	612	KADRI KÖÖP		1:59:50	0:54:21	0:27:20	(618)	0:55:38	(622)	1:24:44	(615)	1:53:49	(554)	N	72
600	132	494	EVELIN KURIS		1:59:51	0:54:22	0:28:03	(641)	0:56:24	(641)	1:25:04	(622)	1:53:49	(555)	N	73
601	133	718	IRINA LIHHATSOVA		1:59:58	0:54:29	0:30:14	(712)	0:58:51	(684)	1:27:26	(657)	1:54:30	(562)	N	74
602	134	589	ÜLLE LIIV		2:00:01	0:54:32	0:26:16	(545)	0:53:35	(552)	1:23:07	(585)	1:53:28	(547)	N 40	28
603	135	696	DAGMAR MIIL		2:00:09	0:54:40	0:27:00	(595)	0:54:44	(596)	1:24:07	(602)	1:54:03	(557)	N	75
604	136	678	KAIRE KLAUS	TÜ Akadeemiline Spordiklubi	2:00:10	0:54:41	0:26:15	(544)	0:53:50	(566)	1:23:35	(594)	1:53:47	(553)	N	76
605	137	686	KAIRIT KAASIK		2:00:13	0:54:45	0:27:11	(608)	0:55:26	(616)	1:25:18	(627)	1:54:15	(560)	N 45	13
606		658	AIVAR OJA		2:00:16	0:54:48	0:26:51	(578)	0:53:16	(543)	1:21:56	(548)	1:53:27	(546)	M 40	71
607		388	ARE VEST		2:00:19	0:54:50	0:26:50	(576)	0:54:43	(593)	1:24:19	(607)	1:54:14	(559)	M 45	47
608		471	ALEKSANDR KORNEJEV	Tartu Ülikooli Narva Kolledž	2:00:25	0:54:57	0:24:38	(439)	0:51:56	(501)	1:21:14	(536)	1:53:31	(548)	M	267
609	138	293	ELIZABETH TRUU		2:00:31	0:55:03	0:26:03	(522)	0:53:48	(563)	1:25:24	(628)	1:54:26	(561)	N	77
610	139	468	KÜLLI KORI	Crossfit Tartu	2:00:34	0:55:06	0:27:20	(619)	0:55:30	(620)	1:25:16	(626)	1:54:45	(567)	N	78
611	140	748	ALLA IVANOVA		2:00:38	0:55:10	0:26:20	(547)	0:53:41	(557)	1:23:17	(590)	1:53:59	(556)	N	79
612		495	MARGUS PULVER	Chill Out Sport	2:00:40	0:55:11	0:27:32	(626)	0:55:25	(614)	1:25:51	(632)	1:54:45	(564)	M 45	48
613		793	JÜRI SAKKEUS	Sk Jooksupartner	2:00:51	0:55:22	0:23:12	(305)	0:47:38	(338)	1:24:14	(604)	1:54:45	(565)	M 60	8
614	141	621	ANNE PIRN		2:00:51	0:55:22	0:28:24	(663)	0:56:54	(649)	1:25:49	(631)	1:54:45	(566)	N 40	29
615		607	JÜRI MARCINKEVICZ	Sparta Spordiselts	2:00:53	0:55:24	0:26:56	(585)	0:54:44	(595)	1:24:06	(601)	1:54:13	(558)	M 45	49
616	142	801	LIUBOV BOGDANOVA	silvia	2:01:09	0:55:40	0:27:05	(601)	0:55:10	(609)	1:24:58	(618)	1:54:43	(563)	N 55	5
617	143	847	RITA ALAS-JÄRV		2:01:19	0:55:51	0:29:06	(686)	0:58:00	(671)	1:27:19	(656)	1:55:22	(576)	N	80
618	144	565	KRISTEL TUKK		2:01:23	0:55:54	0:26:56	(588)	0:54:56	(604)	1:25:09	(624)	1:55:08	(572)	N	81
619		351	VAIMAR SURSU		2:01:24	0:55:56	0:27:17	(613)	0:55:01	(606)	1:24:32	(610)	1:55:07	(571)	M	268
620		702	ALEKSANDR BELJAJEV		2:01:36	0:56:07	0:28:08	(645)	0:56:34	(645)	1:25:39	(629)	1:55:10	(573)	M 45	50
621		310	IVO TIKERPE		2:01:37	0:56:08	0:25:59	(516)	0:53:04	(536)	1:24:42	(614)	1:55:22	(575)	M 40	72
622	145	786	NATALIA NIZOVTCEVA		2:01:42	0:56:13	0:27:05	(600)	0:54:55	(603)	1:24:26	(608)	1:55:04	(570)	N 50	4
623	146	491	DIANA UUSTALU	NORDEA SPORDIKLUBI	2:01:48	0:56:20	0:27:08	(606)	0:54:19	(579)	1:24:00	(598)	1:55:01	(568)	N	82
624		824	ANDRES HEINLA	Expert Tehnikakauplused	2:01:53	0:56:25	0:29:23	(693)	0:57:48	(666)	1:27:17	(652)	1:55:46	(579)	M	269
625		625	VLADIMIR MALINOV	JK Optimist Narva	2:01:57	0:56:28	0:26:15	(543)	0:53:40	(556)	1:23:31	(592)	1:55:02	(569)	M 75	1
626		594	IGOR ALEKSEJEV	Monolit	2:02:08	0:56:40	0:29:02	(682)	0:57:30	(661)	1:26:26	(639)	1:55:32	(577)	M	270
627		595	INDREK PÄRI		2:02:12	0:56:43	0:26:08	(525)	0:53:24	(546)	1:22:44	(575)	1:55:20	(574)	M	271
628	147	756	TRIIN KALLAS		2:02:12	0:56:43	0:31:04	(717)	1:00:29	(703)	1:29:06	(674)	1:56:45	(587)	N	83
629		536	AIVAR JAESKI		2:02:24	0:56:55	0:25:50	(505)	0:53:13	(540)	1:24:11	(603)	1:55:35	(578)	M 45	51
630		440	HEIGO-ELMAR VAHESAAR	GIBBON	2:02:33	0:57:04		()	1:12:46	(740)	1:35:18	(719)	1:57:43	(595)	MJ	12
631		776	HEINI VIILUP		2:02:36	0:57:07	0:27:38	(634)	0:55:26	(619)	1:25:00	(620)	1:55:53	(580)	M 60	9
632		561	SERGEI ISTSENKO	Jk Start	2:02:36	0:57:07	0:27:51	(639)	0:56:48	(648)	1:27:03	(650)	1:56:30	(585)	M 50	26
633	148	617	KRISTI VAINURA		2:02:37	0:57:08	0:26:49	(574)	0:55:26	(617)	1:26:14	(635)	1:56:23	(583)	N	84
634		856	ANDO ASTOR		2:02:53	0:57:24	0:26:11	(532)	0:53:48	(564)	1:24:18	(606)	1:55:54	(581)	M 40	73
635		547	MARGUS LAI		2:02:57	0:57:28	0:28:06	(643)	0:56:35	(646)	1:26:04	(633)	1:56:48	(588)	M 40	74
636	149	398	MARGIT MERIMAA		2:03:03	0:57:34	0:27:14	(609)	0:56:06	(634)	1:26:15	(636)	1:56:27	(584)	N	85
637	150	849	JAANA JÕGISUU		2:03:31	0:58:02	0:28:21	(657)	0:57:00	(653)	1:26:48	(646)	1:57:15	(591)	N	86
638		274	KRISTO VALTIN		2:03:33	0:58:04		()	1:12:46	(741)	1:35:18	(720)	1:58:45	(607)	MJ	13
639		258	VELLO VOOLAID		2:03:38	0:58:09	0:26:22	(553)	0:53:49	(565)	1:24:18	(605)	1:55:59	(582)	M 50	27
640		825	ARDO KÜNGAS	Expert Tehnikakauplused	2:03:45	0:58:16	0:29:23	(694)	0:57:48	(665)	1:27:28	(658)	1:56:41	(586)	M	272
641		432	EDGAR PAAVO		2:03:54	0:58:26	0:32:00	(722)	1:02:59	(714)	1:30:12	(690)	1:58:01	(596)	M	273
642	151	700	KAI-RIIN SALUSTE		2:03:54	0:58:26	0:29:21	(689)	0:58:17	(674)	1:27:36	(659)	1:57:32	(594)	N	87
643	152	635	GERLY VAHE	FB jooksmine	2:03:57	0:58:29	0:28:22	(659)	0:57:20	(657)	1:27:46	(660)	1:57:30	(593)	N	88
644		712	KALMER TIKERPE		2:04:09	0:58:40	0:30:08	(709)	0:59:34	(691)	1:29:15	(676)	1:58:16	(598)	M 40	75
645	153	828	GALINA DEMIDOVA	Meresuu	2:04:15	0:58:47	0:27:07	(605)	0:56:03	(632)	1:25:46	(630)	1:57:03	(589)	N	89
646		464	ANDREI ZAITSEV		2:04:17	0:58:48	0:25:17	(482)	0:51:38	(493)	1:25:12	(625)	1:57:19	(592)	M	274
647	154	829	MAIE ALAOTS		2:04:18	0:58:49	0:28:26	(666)	0:58:00	(670)	1:28:26	(667)	1:58:18	(599)	N 45	14
648		425	MARVIN REBMANN		2:04:24	0:58:55	0:28:18	(655)	0:56:13	(638)	1:27:08	(651)	1:58:18	(600)	M	275
649	155	359	KRISTI VÕHMAR		2:04:24	0:58:55	0:27:02	(598)	0:55:45	(626)	1:26:21	(637)	1:58:01	(597)	N	90
650		379	ANDREI TŠEREDNIK		2:04:27	0:58:58	0:23:51	(372)	0:51:01	(476)	1:22:35	(565)	1:57:10	(590)	M	276
651	156	611	PILLE NURMIS	Elioni SK	2:04:51	0:59:22	0:29:24	(695)	0:58:43	(680)	1:29:23	(678)	1:58:35	(603)	N 50	5
652	157	737	KATRE VALLNER	Sparta	2:04:56	0:59:27	0:27:29	(621)	0:56:16	(640)	1:27:53	(662)	1:58:39	(605)	N	91
653	158	583	KATRIN MIKENBERG		2:04:56	0:59:27	0:27:29	(622)	0:56:16	(639)	1:27:53	(661)	1:58:38	(604)	N	92
654		372	REIN TRAUS		2:05:15	0:59:46	0:30:04	(707)	0:59:48	(695)	1:30:06	(687)	1:59:24	(613)	M 65	5
655		833	SERGEY YUNIAZOV		2:05:17	0:59:48	0:33:20	(736)	1:03:56	(722)	1:33:29	(709)	1:59:44	(615)	M 45	52
656		651	SIIM SAIDLA		2:05:20	0:59:51	0:28:11	(650)	0:56:33	(644)	1:26:27	(640)	1:58:21	(601)	M	277
657		599	UNO ÕUNAPUU	Õunapuu	2:05:22	0:59:53	0:28:22	(661)	0:57:21	(659)	1:28:02	(663)	1:59:07	(611)	M 60	10
658		482	ALO PAABUSK	Eesti Energia spordiklubi	2:05:24	0:59:56	0:27:37	(632)	0:56:58	(652)	1:28:14	(665)	1:59:01	(610)	M 40	76
659		609	ERKKI METSA		2:05:25	0:59:56	0:28:17	(654)	0:56:58	(651)	1:27:18	(654)	1:58:40	(606)	M	278
660		622	EINARI HIPELI		2:05:41	1:00:12	0:27:03	(599)	0:56:29	(642)	1:28:12	(664)	1:58:52	(608)	M 70	2
661		404	KAIDU VASAR		2:05:44	1:00:15	0:27:19	(616)	0:55:57	(631)	1:26:25	(638)	1:58:30	(602)	M 40	77
662	159	493	SIGRID PÕDRA		2:05:53	1:00:25	0:29:38	(697)	0:58:50	(683)	1:29:26	(682)	1:59:28	(614)	N	93
663		450	RAUL OMEL		2:06:03	1:00:35	0:30:09	(711)	0:59:49	(696)	1:30:07	(688)	1:59:55	(620)	M 40	78
664	160	579	SIRLI JASKA		2:06:05	1:00:36	0:27:06	(602)	0:54:18	(577)	1:28:36	(669)	1:59:54	(618)	N	94
665	161	695	EVELIINE ERM		2:06:11	1:00:42	0:26:56	(587)	0:55:13	(611)	1:27:00	(648)	1:58:59	(609)	N 40	30
666	162	807	ESTER MARJAPUU	Türitri	2:06:18	1:00:49	0:28:25	(664)	0:58:03	(672)	1:28:58	(670)	1:59:46	(616)	N 45	15
667	163	614	SASKIA UNDUSK		2:06:24	1:00:55	0:29:22	(692)	0:58:08	(673)	1:28:17	(666)	1:59:23	(612)	N	95
668	164	770	TIINA SÄÄLIK		2:06:26	1:00:58	0:26:28	(558)	0:55:00	(605)	1:27:18	(653)	1:59:55	(619)	N 45	16
669	165	771	HELI EERIK		2:06:37	1:01:09	0:28:42	(673)	0:57:59	(669)	1:28:28	(668)	1:59:56	(621)	N 40	31
670		744	ALAR KALJAKIN	JK Tallinna Kalev	2:06:38	1:01:09	0:33:23	(737)	1:04:49	(725)	1:33:09	(707)	2:01:21	(635)	M	279
671	166	623	KATRIN KALA		2:06:43	1:01:14	0:29:20	(688)	0:59:29	(688)	1:30:33	(693)	2:00:22	(624)	N	96
672	167	573	MARGE PARBO	Sparta	2:07:11	1:01:42	0:28:11	(649)	0:57:49	(667)	1:29:01	(671)	2:00:41	(628)	N 40	32
673		75	VILLU VEEL		2:07:13	1:01:45	0:27:36	(629)	0:57:46	(664)	1:29:25	(681)	2:00:05	(622)	M 40	79
674		782	JAN LIISTER	Õhutõrjepataljon	2:07:17	1:01:49	0:28:44	(675)	0:58:21	(675)	1:29:18	(677)	2:00:30	(626)	M 40	80
675		596	REINO OAGO		2:07:18	1:01:50	0:28:16	(653)	0:56:55	(650)	1:27:18	(655)	2:00:14	(623)	M	280
676	168	701	KETRIN SIBRITS		2:07:21	1:01:52	0:28:34	(671)	0:57:22	(660)	1:29:15	(675)	2:01:01	(632)	N	97
677	169	297	MARGIT KELDO		2:07:22	1:01:54	0:27:37	(631)	0:59:34	(690)	1:30:13	(691)	2:00:22	(625)	N 40	33
678		835	ANATOLII EFIMOV		2:07:23	1:01:55	0:30:08	(710)	1:00:10	(699)	1:30:56	(694)	2:00:50	(630)	M 65	6
679	170	602	ANNE-LIIS TAMM		2:07:31	1:02:02	0:26:20	(548)	0:55:25	(613)	1:27:01	(649)	2:00:32	(627)	N	98
680	171	469	KLEIRI VEST		2:07:34	1:02:05	0:28:25	(665)	0:58:30	(678)	1:30:08	(689)	2:01:02	(633)	N	99
681		358	OLEG PRETSKAILO		2:07:37	1:02:08	0:31:10	(718)	1:02:53	(713)	1:34:05	(712)	2:01:25	(637)	M	281
682		842	OLEG TIHHONOV	KJK Kalev Sillamäe	2:07:42	1:02:13	0:27:32	(625)	0:55:37	(621)	1:26:33	(642)	1:59:52	(617)	M 75	2
683	172	759	TRIIN HÜNNINEN		2:07:56	1:02:27	0:28:08	(646)	0:57:54	(668)	1:29:50	(686)	2:01:24	(636)	N	100
684	173	729	TRIIN PÄRNA	Türi Sukeldujad	2:08:03	1:02:34	0:28:47	(677)	0:58:29	(677)	1:29:24	(680)	2:00:50	(631)	N	101
685		730	IVO MÖLDER	Türi Rattaklubi	2:08:03	1:02:34	0:28:47	(678)	0:58:29	(676)	1:29:24	(679)	2:00:50	(629)	M 45	53
686	174	714	TINA HÜFTLE		2:08:04	1:02:35	0:31:38	(720)	1:01:17	(708)	1:31:39	(697)	2:01:40	(639)	N	102
687		768	JURI SOKOLOV		2:08:16	1:02:47	0:32:18	(729)	1:05:18	(727)	1:32:04	(698)	2:02:14	(644)	MJ	14
688	175	553	SATU ANNIKA AALTO		2:08:17	1:02:48	0:30:07	(708)	1:00:05	(698)	1:30:58	(695)	2:01:40	(640)	N 40	34
689		604	MARTIN-LEO KISAND	Eesti Energia Spordiklubi	2:08:37	1:03:08	0:29:35	(696)	0:58:47	(682)	1:29:33	(685)	2:01:30	(638)	M	282
690	176	446	REELIKA ROHUSTE		2:08:55	1:03:26	0:28:10	(647)	0:57:36	(663)	1:29:29	(684)	2:02:08	(642)	N	103
691	177	734	MAI LAURIMAA		2:08:55	1:03:26	0:28:10	(648)	0:57:35	(662)	1:29:29	(683)	2:02:08	(643)	N	104
692		851	OLAV MÕTTUS		2:08:55	1:03:27	0:27:14	(610)	0:55:22	(612)	1:26:52	(647)	2:01:16	(634)	M	283
693	178	685	GALINA GLADÕŠEVA	Mitš	2:08:59	1:03:30	0:25:18	(484)	0:54:07	(571)	1:26:33	(641)	2:01:47	(641)	N 50	6
694		592	KAIDAR VIIKMAN	Täppsportlased	2:09:50	1:04:21	0:28:29	(667)	0:57:20	(658)	1:29:03	(673)	2:02:22	(645)	M	284
695	179	758	EVELY LÄÄNE		2:10:04	1:04:35	0:29:21	(690)	0:59:30	(689)	1:31:06	(696)	2:03:08	(646)	N	105
696		347	VALDUR KÜNG		2:10:13	1:04:44	0:29:56	(704)	1:00:32	(704)	1:32:36	(701)	2:03:56	(650)	M 50	28
697	180	508	MARGIT PARTEI	TÜ	2:10:14	1:04:45	0:29:04	(684)	0:58:58	(685)	1:30:30	(692)	2:03:16	(647)	NN	9
698	181	512	SOILE SILD		2:10:49	1:05:20	0:30:15	(713)	1:00:56	(706)	1:33:06	(706)	2:04:24	(651)	N 40	35
699	182	719	REENA SÄÄSTLA	Eesti Energia Spordiklubi	2:10:53	1:05:24	0:29:51	(702)	1:01:00	(707)	1:32:54	(705)	2:04:34	(653)	N	106
700		207	ALAR AASALEHT		2:10:57	1:05:28	0:28:22	(662)	0:56:05	(633)	1:29:03	(672)	2:03:48	(649)	M 50	29
701	183	516	HELLE PERSITSKI		2:11:20	1:05:51	0:28:29	(668)	0:59:19	(687)	1:32:21	(700)	2:04:27	(652)	N 45	17
702	184	721	LOLA BELOUS		2:12:07	1:06:38	0:29:53	(703)	0:59:38	(693)	1:32:39	(702)	2:05:06	(654)	N 45	18
703	185	749	PIRET EESMAA		2:12:17	1:06:49	0:32:08	(725)	1:03:12	(716)	1:34:46	(715)	2:05:53	(659)	N	107
704		745	HECTOR OTERO		2:12:17	1:06:49	0:32:09	(726)	1:03:12	(715)	1:34:47	(716)	2:05:53	(660)	M	285
705		560	VLADIMIR KOTSENKOV	Jk Start	2:12:28	1:06:59	0:29:04	(685)	0:59:35	(692)	1:32:17	(699)	2:05:20	(655)	M 60	11
706		823	JAAN NAABER	Expert Tehnikakauplused	2:12:33	1:07:04	0:27:16	(612)	0:54:39	(590)	1:26:39	(645)	2:03:32	(648)	M	286
707		371	WILMER HENAO	NYRR	2:12:49	1:07:20	0:32:47	(732)	1:03:52	(720)	1:35:52	(723)	2:06:18	(662)	M 40	81
708		710	ALEKSANDR PAVLOV		2:12:54	1:07:25	0:26:10	(527)	0:53:01	(528)	1:26:37	(643)	2:05:39	(657)	MN	14
709		709	ARTUR KLINK		2:12:54	1:07:25	0:26:10	(528)	0:53:02	(530)	1:26:37	(644)	2:05:38	(656)	MJ	15
710	186	790	DEEVI OTS	Kirde krk	2:12:56	1:07:27	0:29:04	(683)	0:59:14	(686)	1:32:39	(703)	2:05:49	(658)	N 40	36
711	187	523	KRISTINA KOSSINKOVA	TÜ ASK	2:13:12	1:07:43	0:29:48	(701)	1:00:12	(700)	1:32:41	(704)	2:05:57	(661)	N	108
712	188	373	KADRI KALAMEES	Hansa SK	2:14:21	1:08:52	0:30:53	(716)	1:01:27	(709)	1:34:22	(714)	2:07:24	(663)	N	109
713		441	JAN PETRATŠKOV	GIBBON	2:14:47	1:09:18		()	1:15:15	(745)	1:41:52	(738)	2:08:53	(667)	M	287
714	189	198	JANE SALUORG		2:14:47	1:09:18		()	1:15:15	(744)	1:41:52	(737)	2:08:53	(666)	NN	10
715	190	577	KRISTIINA KURG		2:15:20	1:09:51	0:30:00	(705)	1:00:15	(701)	1:33:38	(710)	2:08:07	(664)	N	110
716	191	527	INGE MERILA		2:16:00	1:10:31	0:28:33	(670)	1:00:29	(702)	1:35:04	(717)	2:08:38	(665)	N	111
717		429	ILLAR SILDMA		2:16:11	1:10:43	0:32:00	(723)	1:03:20	(717)	1:35:49	(722)	2:09:08	(668)	M 40	82
718	192	48	MARIKA PETERSON	VAK Staier	2:16:22	1:10:53	0:28:48	(679)	0:59:40	(694)	1:33:44	(711)	2:09:27	(670)	NJ	5
719	193	431	PIRET ALTOSAAR		2:16:24	1:10:55	0:31:15	(719)	1:01:51	(711)	1:34:21	(713)	2:09:20	(669)	N	112
720	194	618	MARI-LY RAHUOJA	Eesti Posti Spordiklubi	2:17:03	1:11:34	0:32:02	(724)	1:04:05	(724)	1:37:14	(728)	2:10:17	(673)	N 45	19
721		653	MIHHAIL KONOVALKIN		2:17:13	1:11:44	0:27:31	(624)	0:58:30	(679)	1:35:07	(718)	2:11:02	(676)	MJ	16
722	195	699	SVETLANA POZNAHIRKO		2:17:13	1:11:44	0:30:43	(715)	1:03:53	(721)	1:36:36	(725)	2:09:43	(671)	N 45	20
723	196	615	HELEN AINELO		2:17:13	1:11:45	0:32:18	(728)	1:04:05	(723)	1:36:38	(726)	2:09:44	(672)	N	113
724	197	454	KERSTI TOODU		2:17:38	1:12:10	0:33:16	(735)	1:04:50	(726)	1:37:28	(729)	2:10:23	(674)	N 55	6
725	198	675	LIINA MALVA	TÜ Akadeemiline Spordiklubi	2:17:54	1:12:25	0:32:51	(734)	1:05:36	(730)	1:39:15	(734)	2:11:21	(677)	N	114
726	199	669	KRISTIINA KÕIV	TÜ Akadeemiline Spordiklubi	2:17:54	1:12:25	0:32:50	(733)	1:05:36	(731)	1:39:15	(733)	2:11:21	(678)	NN	11
727	200	452	LEA AVANGO		2:18:12	1:12:43	0:33:48	(740)	1:05:31	(728)	1:39:05	(732)	2:11:33	(679)	N 50	7
728	201	256	HELLE VIITAK		2:18:56	1:13:28	0:27:20	(620)	0:58:43	(681)	1:33:24	(708)	2:10:48	(675)	N 40	37
729	202	301	MOONIKA MERIVÄLJA		2:19:17	1:13:49	0:29:22	(691)	0:59:51	(697)	1:35:42	(721)	2:11:43	(680)	N	115
730	203	750	KRISTIINA ŠTÕKOVA	TTÜ Tantsutüdrukud	2:19:31	1:14:03	0:34:18	(742)	1:08:30	(736)	1:42:05	(739)	2:13:10	(684)	N	116
731		738	SERGEI GAVRILOV		2:19:35	1:14:06	0:29:46	(700)	1:03:21	(718)	1:39:42	(735)	2:12:43	(682)	M 40	83
732	204	381	SIGNE LEPPIK		2:20:09	1:14:40	0:30:31	(714)	1:03:32	(719)	1:38:03	(730)	2:12:43	(683)	N	117
733	205	535	SILJE SANDER		2:20:09	1:14:40	0:29:42	(699)	1:01:31	(710)	1:36:09	(724)	2:12:27	(681)	N	118
734		662	MEHIS MERISTE		2:21:51	1:16:23	0:29:41	(698)	1:01:58	(712)	1:38:11	(731)	2:14:31	(685)	M 50	30
735	206	688	KAROLYN KRILLO	TÜ Akadeemiline Spordiklubi	2:22:49	1:17:20	0:30:00	(706)	1:00:44	(705)	1:36:54	(727)	2:14:47	(686)	N	119
736	207	319	KÄTLIN VODJA		2:23:16	1:17:47	0:32:10	(727)	1:05:31	(729)	1:40:22	(736)	2:15:37	(687)	NN	12
737	208	555	EVE TOBIAS	Trismile	2:27:39	1:22:10	0:33:57	(741)	1:08:28	(735)	1:44:32	(740)	2:19:38	(688)	N 45	21
738	209	683	LEILI TEEVÄLI	KEVEK	2:30:39	1:25:11	0:33:36	(739)	1:09:13	(737)	1:46:08	(743)	2:22:40	(689)	N 65	2
739	210	387	HELEN PUKK		2:37:42	1:32:13	0:32:39	(731)	1:08:10	(734)	1:46:08	(742)	2:27:47	(690)	N	120
740	211	531	VERA MOROZOVA	MTÜ NADEZDA	2:38:34	1:33:05	0:34:18	(743)	1:09:57	(738)	1:49:20	(744)	2:29:10	(691)	N 70	1
741		591	EINO TOLGA	EKVA	2:39:44	1:34:15	0:35:26	(744)	1:12:01	(739)	1:51:40	(745)	2:30:59	(692)	M 75	3
742	212	424	JEKATERINA SKOPTSOVA	Eesti enegria	2:42:59	1:37:30	0:31:55	(721)	1:06:45	(732)	1:45:15	(741)	2:33:13	(693)	NN	13
743	213	514	LEILA LAHTVEE		2:44:49	1:39:20	0:37:23	(745)	1:14:41	(743)	1:53:38	(746)	2:36:28	(694)	N	121
744	214	587	KADRI KÕIV		2:51:15	1:45:46	0:40:10	(749)	1:20:24	(747)	2:01:51	(749)	2:42:40	(696)	N	122
745	215	585	MARILIIS RANDMER		2:51:15	1:45:46	0:40:10	(748)	1:20:24	(746)	2:01:50	(748)	2:42:40	(695)	N	123
746	216	775	KAIE KARNIOL		3:03:41	1:58:12	0:39:23	(746)	1:20:35	(748)	2:06:17	(750)	2:53:28	(697)	N 40	38
747	217	707	SEVTLANA BOGDANOVA		3:09:36	2:04:08	0:40:06	(747)	1:22:41	(749)	2:10:33	(751)	2:58:49	(698)	N	124
748		262	DENIS VASILYEV	Saucony/Dinamo			0:15:44	(4)	0:31:55	(4)	0:49:24	(6)		()	M	
749		27	RAUNO REINART	KJK Järvala			0:16:27	(19)	0:34:18	(21)	0:53:04	(25)		()	MN	
750		180	JAAK VÄÄRSI	SK Metsasõbrad			0:19:46	(92)	0:40:11	(95)	1:03:48	(140)		()	M 50	
751		743	MARI-LIIS SEPP				0:33:23	(738)	1:14:33	(742)	2:00:30	(747)		()	NJ	
752		316	RAUL LOBANOV				0:28:04	(642)	0:50:34	(462)		()		()	M	
753		858	MAKSIM ZAKATOV				0:28:43	(674)	1:06:59	(733)		()		()	M	
754		37	GRETE TÕNNE	EMÜ SK			0:19:11	(70)		()		()		()	N	
755		767	KRISTIINA PJATNITSKAJA				0:32:19	(730)		()		()		()	TA	
756		22	ANDO ÕITSPUU	Sparta SS				()		()		()		()	M	
757		41	EILA PAKKANEN	Rakvere KJK ViKe				()		()		()		()	N	
758		62	TOOMAS TOOM	Stamina SK				()		()		()		()	M 50	
759		71	ANDRES EHALA	VAK Staier				()		()		()		()	MN	
760		83	ARNOLD LAASU	SK Saarde				()		()		()		()	M 50	
761		96	ANDREAS VEERET					()		()		()		()	M	
762		98	KASPAR KUKK	SK Keremeister				()		()		()		()	M	
763		99	JANEK VALLIMÄE	Alutaguse Suusaklubi				()		()		()		()	M	
764		118	PJOTR HRUSHOV					()		()		()		()	M 65	
765		123	DMITRI ARISTOV	Stamina				()		()		()		()	MN	
766		140	TAAVI SINIJÄRV					()		()		()		()	M	
767		155	KADRI TREFFNER	Kõlleste Spordiklubi				()		()		()		()	N	
768		161	RENNO NURMELA	Tarvastu				()		()		()		()	M 45	
769		186	SIGRID VALDRE					()		()		()		()	N 40	
770		188	ERKKI KOPPEL	Sparta				()		()		()		()	M	
771		203	MADIS METSMÄGI					()		()		()		()	M	
772		209	MARKO PACHEL	Eesti Energia Spordiklubi				()		()		()		()	M 40	
773		219	KRISTO KOKK	SK Metsasõbrad				()		()		()		()	M 40	
774		233	ANTON UIK	Ergo White Nights				()		()		()		()	M	
775		234	AHTO AHVEN					()		()		()		()	MN	
776		235	URMAS TELLING	Lahden Ahkera				()		()		()		()	M 50	
777		241	OLEG SHABLIN	Sylvia				()		()		()		()	M	
778		245	GUNNAR VIRK	Eesti Energia Spordiklubi				()		()		()		()	M	
779		254	EIRIK NESTAS MATHISEN					()		()		()		()	M	
780		272	HELEN JÜRJO	Saaremaajooks.ee				()		()		()		()	N	
781		302	JAAN NIITSOO	Eesti Energia Spordiklubi				()		()		()		()	M	
782		312	KATRIN OOLMETS					()		()		()		()	N	
783		340	KULLA RÜÜTEL	Elujooks				()		()		()		()	N 50	
784		354	MARJO SINIJÄRV					()		()		()		()	N	
785		355	MARE MÄNDLA					()		()		()		()	N 45	
786		382	KARL-KRISTJAN SUIK	Kolm Paksu				()		()		()		()	MJ	
787		396	HELEN TINKUS					()		()		()		()	N	
788		400	ROMMI KÄLLO					()		()		()		()	M	
789		401	RIINU VASSILJEV	Eratreening.ee				()		()		()		()	N	
790		414	VIKTOR SPINJOV					()		()		()		()	M	
791		443	IRJA BERNARD	body shape Club				()		()		()		()	N 55	
792		447	EERO LIIVRAND					()		()		()		()	M 45	
793		449	TAIVO LINNAMÄGI					()		()		()		()	M	
794		457	RUNE HOLMGAARD ANDERSEN					()		()		()		()	M	
795		474	ROGER ERIKSSON					()		()		()		()	M 45	
796		490	KAIRE KIMSEN					()		()		()		()	N	
797		501	VLADIMIR TETKIN					()		()		()		()	M 60	
798		502	TAAVI LIBE					()		()		()		()	M	
799		507	ANTO KASAK					()		()		()		()	M	
800		509	MARIE ABEL					()		()		()		()	N	
801		518	TARVO JÜRIMÄE					()		()		()		()	M	
802		520	IMRE TOODU					()		()		()		()	M	
803		528	MARILIN PIKARO					()		()		()		()	N	
804		530	MAARJA LAOS					()		()		()		()	N	
805		534	LAURA NÕMMSALU					()		()		()		()	N	
806		537	ANNE MÄÄRMANN					()		()		()		()	N	
807		541	KATRIN JUHANSON					()		()		()		()	N	
808		542	LIIRI OJA					()		()		()		()	N	
809		544	MARGIT SALMU					()		()		()		()	NJ	
810		550	MAANUS JÕEVEE	Kullamaa SK				()		()		()		()	M 40	
811		551	MARTEN JÕEVEE	Kullamaa SK				()		()		()		()	MJ	
812		552	INDREK ALLIKSAAR	Sparta				()		()		()		()	M 40	
813		562	AILEN VESSMANN					()		()		()		()	N	
814		563	KRISTEL SELGEVEER					()		()		()		()	N	
815		572	JÜRI MITRAHOVITS	midra				()		()		()		()	M 55	
816		576	LIISI EGLIT					()		()		()		()	N	
817		584	MARTIN MEHINE					()		()		()		()	M	
818		603	ANNI JATSA	Eesti Energia Spordiklubi				()		()		()		()	N	
819		610	KAIDO KÄGU					()		()		()		()	M 45	
820		616	URMAS LEHTOJA					()		()		()		()	M 45	
821		619	KRISTI KREITSBERG					()		()		()		()	N	
822		626	TOOMAS ELLERVEE	OK ILVES				()		()		()		()	M 50	
823		637	KERLI VALGE	SK JOOKSUPARTNER				()		()		()		()	N	
824		643	LIISI KURVET					()		()		()		()	N	
825		647	RAIT REBANE	Eesti Energia Spordiklubi				()		()		()		()	M	
826		648	JANELY PUURMAA					()		()		()		()	NN	
827		649	GREDI ROHTLA					()		()		()		()	N	
828		655	LAURA NULK					()		()		()		()	N	
829		656	MARTIN SERG					()		()		()		()	M	
830		661	BIRGIT SILM					()		()		()		()	N	
831		668	MARIA ASPERK	FB Jooksmine				()		()		()		()	N	
832		671	ELIZABETH TRUVE					()		()		()		()	TA	
833		677	MARIE-MÄDLI KIVIMÄE	Altius				()		()		()		()	NJ	
834		679	RONALD ROHDE					()		()		()		()	M	
835		681	RAUL REINSALU					()		()		()		()	M	
836		690	KRISTIN MÄNNIK	TÜ Akadeemiline Spordiklubi				()		()		()		()	N	
837		713	KARIN TÄÄR					()		()		()		()	N	
838		732	LIIS LILLE	Harju KEK Rahvaspordiklubi				()		()		()		()	N 65	
839		733	HEIKI ELMET					()		()		()		()	M 45	
840		736	ANDRUS LAURIMAA					()		()		()		()	M 40	
841		741	KRISTI VAINURA					()		()		()		()	N	
842		742	MERLE SIIBAK					()		()		()		()	N	
843		769	MARTIN HEINVEE	TTÜ				()		()		()		()	M	
844		777	URMAS TEEORG					()		()		()		()	M 50	
845		778	KASSANDRA KÜTT					()		()		()		()	N	
846		780	KAAREL KARU					()		()		()		()	M	
847		784	VILJAR NIINEPUU	Viru JVP				()		()		()		()	M	
848		785	KARL ÕUNAPUU	hutõrjepataljon				()		()		()		()	M	
849		787	GERMO SAAR	viru JVP				()		()		()		()	MN	
850		797	VERONIKA MEDVEDEVA					()		()		()		()	N	
851		799	ARTO SAAREND					()		()		()		()	M	
852		816	CAITLYN KIM					()		()		()		()	N 40	
853		817	MARTIN BANKS					()		()		()		()	M	
854		818	MATTHEW HOLLAND					()		()		()		()	M	
855		820	AVE PISA					()		()		()		()	N 40	